Epoch: 1/15 - Batch: 100/7933 - Learning rate: 0.001 - Loss: 1.8854848
Epoch: 1/15 - Batch: 200/7933 - Learning rate: 0.001 - Loss: 2.721628
Epoch: 1/15 - Batch: 300/7933 - Learning rate: 0.001 - Loss: 1.5185099
Epoch: 1/15 - Batch: 400/7933 - Learning rate: 0.001 - Loss: 2.746977
Epoch: 1/15 - Batch: 500/7933 - Learning rate: 0.001 - Loss: 2.1770964
Epoch: 1/15 - Batch: 600/7933 - Learning rate: 0.001 - Loss: 0.8821808
Epoch: 1/15 - Batch: 700/7933 - Learning rate: 0.001 - Loss: 1.8827153
Epoch: 1/15 - Batch: 800/7933 - Learning rate: 0.001 - Loss: 1.5758271
Epoch: 1/15 - Batch: 900/7933 - Learning rate: 0.001 - Loss: 1.0633476
Epoch: 1/15 - Batch: 1000/7933 - Learning rate: 0.001 - Loss: 1.8329928 - Dev BLEU: 0.0
Epoch: 1/15 - Batch: 1100/7933 - Learning rate: 0.001 - Loss: 1.4752461
Epoch: 1/15 - Batch: 1200/7933 - Learning rate: 0.001 - Loss: 1.9810716
Epoch: 1/15 - Batch: 1300/7933 - Learning rate: 0.001 - Loss: 1.8453348
Epoch: 1/15 - Batch: 1400/7933 - Learning rate: 0.001 - Loss: 1.975515
Epoch: 1/15 - Batch: 1500/7933 - Learning rate: 0.001 - Loss: 1.3853933
Epoch: 1/15 - Batch: 1600/7933 - Learning rate: 0.001 - Loss: 2.4207432
Epoch: 1/15 - Batch: 1700/7933 - Learning rate: 0.001 - Loss: 1.842881
Epoch: 1/15 - Batch: 1800/7933 - Learning rate: 0.001 - Loss: 1.2460674
Epoch: 1/15 - Batch: 1900/7933 - Learning rate: 0.001 - Loss: 1.4692155
Epoch: 1/15 - Batch: 2000/7933 - Learning rate: 0.001 - Loss: 1.6148249 - Dev BLEU: 0.0036439539708885303
Epoch: 1/15 - Batch: 2100/7933 - Learning rate: 0.001 - Loss: 1.3398896
Epoch: 1/15 - Batch: 2200/7933 - Learning rate: 0.001 - Loss: 1.5581937
Epoch: 1/15 - Batch: 2300/7933 - Learning rate: 0.001 - Loss: 1.7260709
Epoch: 1/15 - Batch: 2400/7933 - Learning rate: 0.001 - Loss: 1.414505
Epoch: 1/15 - Batch: 2500/7933 - Learning rate: 0.001 - Loss: 1.64815
Epoch: 1/15 - Batch: 2600/7933 - Learning rate: 0.001 - Loss: 1.140012
Epoch: 1/15 - Batch: 2700/7933 - Learning rate: 0.001 - Loss: 0.6881124
Epoch: 1/15 - Batch: 2800/7933 - Learning rate: 0.001 - Loss: 1.7287419
Epoch: 1/15 - Batch: 2900/7933 - Learning rate: 0.001 - Loss: 1.7033691
Epoch: 1/15 - Batch: 3000/7933 - Learning rate: 0.001 - Loss: 1.612056 - Dev BLEU: 0.01720746391698485
Epoch: 1/15 - Batch: 3100/7933 - Learning rate: 0.001 - Loss: 1.3864821
Epoch: 1/15 - Batch: 3200/7933 - Learning rate: 0.001 - Loss: 1.4730334
Epoch: 1/15 - Batch: 3300/7933 - Learning rate: 0.001 - Loss: 1.3033606
Epoch: 1/15 - Batch: 3400/7933 - Learning rate: 0.001 - Loss: 1.220538
Epoch: 1/15 - Batch: 3500/7933 - Learning rate: 0.001 - Loss: 1.703279
Epoch: 1/15 - Batch: 3600/7933 - Learning rate: 0.001 - Loss: 1.4785184
Epoch: 1/15 - Batch: 3700/7933 - Learning rate: 0.001 - Loss: 1.6054964
Epoch: 1/15 - Batch: 3800/7933 - Learning rate: 0.001 - Loss: 1.5214509
Epoch: 1/15 - Batch: 3900/7933 - Learning rate: 0.001 - Loss: 1.6721915
Epoch: 1/15 - Batch: 4000/7933 - Learning rate: 0.001 - Loss: 0.9324296 - Dev BLEU: 0.031091453799881808
Epoch: 1/15 - Batch: 4100/7933 - Learning rate: 0.001 - Loss: 1.2147228
Epoch: 1/15 - Batch: 4200/7933 - Learning rate: 0.001 - Loss: 1.1299896
Epoch: 1/15 - Batch: 4300/7933 - Learning rate: 0.001 - Loss: 1.2268254
Epoch: 1/15 - Batch: 4400/7933 - Learning rate: 0.001 - Loss: 1.1926236
Epoch: 1/15 - Batch: 4500/7933 - Learning rate: 0.001 - Loss: 1.3084636
Epoch: 1/15 - Batch: 4600/7933 - Learning rate: 0.001 - Loss: 2.44103
Epoch: 1/15 - Batch: 4700/7933 - Learning rate: 0.001 - Loss: 1.8404102
Epoch: 1/15 - Batch: 4800/7933 - Learning rate: 0.001 - Loss: 1.8478254
Epoch: 1/15 - Batch: 4900/7933 - Learning rate: 0.001 - Loss: 2.0522015
Epoch: 1/15 - Batch: 5000/7933 - Learning rate: 0.001 - Loss: 1.8969455 - Dev BLEU: 0.06635601515157685
Epoch: 1/15 - Batch: 5100/7933 - Learning rate: 0.001 - Loss: 1.8783469
Epoch: 1/15 - Batch: 5200/7933 - Learning rate: 0.001 - Loss: 1.8398348
Epoch: 1/15 - Batch: 5300/7933 - Learning rate: 0.001 - Loss: 1.8115083
Epoch: 1/15 - Batch: 5400/7933 - Learning rate: 0.001 - Loss: 1.8540257
Epoch: 1/15 - Batch: 5500/7933 - Learning rate: 0.001 - Loss: 1.86777
Epoch: 1/15 - Batch: 5600/7933 - Learning rate: 0.001 - Loss: 1.4918324
Epoch: 1/15 - Batch: 5700/7933 - Learning rate: 0.001 - Loss: 1.8420155
Epoch: 1/15 - Batch: 5800/7933 - Learning rate: 0.001 - Loss: 1.7494334
Epoch: 1/15 - Batch: 5900/7933 - Learning rate: 0.001 - Loss: 1.3402606
Epoch: 1/15 - Batch: 6000/7933 - Learning rate: 0.001 - Loss: 1.7512294 - Dev BLEU: 0.0790925058114275
Epoch: 1/15 - Batch: 6100/7933 - Learning rate: 0.001 - Loss: 1.9012287
Epoch: 1/15 - Batch: 6200/7933 - Learning rate: 0.001 - Loss: 1.4428561
Epoch: 1/15 - Batch: 6300/7933 - Learning rate: 0.001 - Loss: 1.487554
Epoch: 1/15 - Batch: 6400/7933 - Learning rate: 0.001 - Loss: 1.2360668
Epoch: 1/15 - Batch: 6500/7933 - Learning rate: 0.001 - Loss: 1.3505843
Epoch: 1/15 - Batch: 6600/7933 - Learning rate: 0.001 - Loss: 1.4567615
Epoch: 1/15 - Batch: 6700/7933 - Learning rate: 0.001 - Loss: 1.211976
Epoch: 1/15 - Batch: 6800/7933 - Learning rate: 0.001 - Loss: 1.170442
Epoch: 1/15 - Batch: 6900/7933 - Learning rate: 0.001 - Loss: 0.9173977
Epoch: 1/15 - Batch: 7000/7933 - Learning rate: 0.001 - Loss: 1.7597996 - Dev BLEU: 0.13259890437090743
Epoch: 1/15 - Batch: 7100/7933 - Learning rate: 0.001 - Loss: 1.3531406
Epoch: 1/15 - Batch: 7200/7933 - Learning rate: 0.001 - Loss: 1.0691262
Epoch: 1/15 - Batch: 7300/7933 - Learning rate: 0.001 - Loss: 1.2984401
Epoch: 1/15 - Batch: 7400/7933 - Learning rate: 0.001 - Loss: 1.3625329
Epoch: 1/15 - Batch: 7500/7933 - Learning rate: 0.001 - Loss: 0.9699291
Epoch: 1/15 - Batch: 7600/7933 - Learning rate: 0.001 - Loss: 1.7062628
Epoch: 1/15 - Batch: 7700/7933 - Learning rate: 0.001 - Loss: 1.9301009
Epoch: 1/15 - Batch: 7800/7933 - Learning rate: 0.001 - Loss: 1.7409321
Epoch: 1/15 - Batch: 7900/7933 - Learning rate: 0.001 - Loss: 1.3625792
Epoch: 1/15 - Batch: 7933/7933 - Learning rate: 0.001 - Loss: 1.9067923 - Dev BLEU: 0.125761447445314
Epoch: 2/15 - Batch: 100/7933 - Learning rate: 0.001 - Loss: 1.0437527
Epoch: 2/15 - Batch: 200/7933 - Learning rate: 0.001 - Loss: 1.2126223
Epoch: 2/15 - Batch: 300/7933 - Learning rate: 0.001 - Loss: 0.747343
Epoch: 2/15 - Batch: 400/7933 - Learning rate: 0.001 - Loss: 1.2923644
Epoch: 2/15 - Batch: 500/7933 - Learning rate: 0.001 - Loss: 1.0851185
Epoch: 2/15 - Batch: 600/7933 - Learning rate: 0.001 - Loss: 0.5208957
Epoch: 2/15 - Batch: 700/7933 - Learning rate: 0.001 - Loss: 0.97818136
Epoch: 2/15 - Batch: 800/7933 - Learning rate: 0.001 - Loss: 0.9243189
Epoch: 2/15 - Batch: 900/7933 - Learning rate: 0.001 - Loss: 0.5838309
Epoch: 2/15 - Batch: 1000/7933 - Learning rate: 0.001 - Loss: 0.99410135 - Dev BLEU: 0.11189226315057081
Epoch: 2/15 - Batch: 1100/7933 - Learning rate: 0.001 - Loss: 0.8729759
Epoch: 2/15 - Batch: 1200/7933 - Learning rate: 0.001 - Loss: 1.2255309
Epoch: 2/15 - Batch: 1300/7933 - Learning rate: 0.001 - Loss: 1.0962757
Epoch: 2/15 - Batch: 1400/7933 - Learning rate: 0.001 - Loss: 1.1178558
Epoch: 2/15 - Batch: 1500/7933 - Learning rate: 0.001 - Loss: 0.8017295
Epoch: 2/15 - Batch: 1600/7933 - Learning rate: 0.001 - Loss: 1.5267328
Epoch: 2/15 - Batch: 1700/7933 - Learning rate: 0.001 - Loss: 1.1292413
Epoch: 2/15 - Batch: 1800/7933 - Learning rate: 0.001 - Loss: 0.6434921
Epoch: 2/15 - Batch: 1900/7933 - Learning rate: 0.001 - Loss: 0.9125926
Epoch: 2/15 - Batch: 2000/7933 - Learning rate: 0.001 - Loss: 0.96087116 - Dev BLEU: 0.10529226638491287
Epoch: 2/15 - Batch: 2100/7933 - Learning rate: 0.001 - Loss: 0.811025
Epoch: 2/15 - Batch: 2200/7933 - Learning rate: 0.001 - Loss: 0.85606116
Epoch: 2/15 - Batch: 2300/7933 - Learning rate: 0.001 - Loss: 1.0277648
Epoch: 2/15 - Batch: 2400/7933 - Learning rate: 0.001 - Loss: 0.86402
Epoch: 2/15 - Batch: 2500/7933 - Learning rate: 0.001 - Loss: 0.8736469
Epoch: 2/15 - Batch: 2600/7933 - Learning rate: 0.001 - Loss: 0.66192764
Epoch: 2/15 - Batch: 2700/7933 - Learning rate: 0.001 - Loss: 0.36990127
Epoch: 2/15 - Batch: 2800/7933 - Learning rate: 0.001 - Loss: 1.0708144
Epoch: 2/15 - Batch: 2900/7933 - Learning rate: 0.001 - Loss: 1.1637051
Epoch: 2/15 - Batch: 3000/7933 - Learning rate: 0.001 - Loss: 1.0947044 - Dev BLEU: 0.11301167756026893
Epoch: 2/15 - Batch: 3100/7933 - Learning rate: 0.001 - Loss: 1.0556215
Epoch: 2/15 - Batch: 3200/7933 - Learning rate: 0.001 - Loss: 0.9647809
Epoch: 2/15 - Batch: 3300/7933 - Learning rate: 0.001 - Loss: 0.8078386
Epoch: 2/15 - Batch: 3400/7933 - Learning rate: 0.001 - Loss: 0.7988517
Epoch: 2/15 - Batch: 3500/7933 - Learning rate: 0.001 - Loss: 1.0859123
Epoch: 2/15 - Batch: 3600/7933 - Learning rate: 0.001 - Loss: 1.0472434
Epoch: 2/15 - Batch: 3700/7933 - Learning rate: 0.001 - Loss: 1.037861
Epoch: 2/15 - Batch: 3800/7933 - Learning rate: 0.001 - Loss: 0.9696251
Epoch: 2/15 - Batch: 3900/7933 - Learning rate: 0.001 - Loss: 1.145312
Epoch: 2/15 - Batch: 4000/7933 - Learning rate: 0.001 - Loss: 0.64000416 - Dev BLEU: 0.11868343068484935
Epoch: 2/15 - Batch: 4100/7933 - Learning rate: 0.001 - Loss: 0.8255089
Epoch: 2/15 - Batch: 4200/7933 - Learning rate: 0.001 - Loss: 0.7600829
Epoch: 2/15 - Batch: 4300/7933 - Learning rate: 0.001 - Loss: 0.8696485
Epoch: 2/15 - Batch: 4400/7933 - Learning rate: 0.001 - Loss: 0.84013176
Epoch: 2/15 - Batch: 4500/7933 - Learning rate: 0.001 - Loss: 0.93396014
Epoch: 2/15 - Batch: 4600/7933 - Learning rate: 0.001 - Loss: 1.7823576
Epoch: 2/15 - Batch: 4700/7933 - Learning rate: 0.001 - Loss: 1.2608501
Epoch: 2/15 - Batch: 4800/7933 - Learning rate: 0.001 - Loss: 1.2304665
Epoch: 2/15 - Batch: 4900/7933 - Learning rate: 0.001 - Loss: 1.3791759
Epoch: 2/15 - Batch: 5000/7933 - Learning rate: 0.001 - Loss: 1.3492473 - Dev BLEU: 0.15103691379669007
Epoch: 2/15 - Batch: 5100/7933 - Learning rate: 0.001 - Loss: 1.4210153
Epoch: 2/15 - Batch: 5200/7933 - Learning rate: 0.001 - Loss: 1.3455902
Epoch: 2/15 - Batch: 5300/7933 - Learning rate: 0.001 - Loss: 1.3190666
Epoch: 2/15 - Batch: 5400/7933 - Learning rate: 0.001 - Loss: 1.3236023
Epoch: 2/15 - Batch: 5500/7933 - Learning rate: 0.001 - Loss: 1.2808683
Epoch: 2/15 - Batch: 5600/7933 - Learning rate: 0.001 - Loss: 1.0373718
Epoch: 2/15 - Batch: 5700/7933 - Learning rate: 0.001 - Loss: 1.3073598
Epoch: 2/15 - Batch: 5800/7933 - Learning rate: 0.001 - Loss: 1.2333137
Epoch: 2/15 - Batch: 5900/7933 - Learning rate: 0.001 - Loss: 0.88551396
Epoch: 2/15 - Batch: 6000/7933 - Learning rate: 0.001 - Loss: 1.2741638 - Dev BLEU: 0.1467325190733124
Epoch: 2/15 - Batch: 6100/7933 - Learning rate: 0.001 - Loss: 1.2981379
Epoch: 2/15 - Batch: 6200/7933 - Learning rate: 0.001 - Loss: 1.0728222
Epoch: 2/15 - Batch: 6300/7933 - Learning rate: 0.001 - Loss: 1.0766268
Epoch: 2/15 - Batch: 6400/7933 - Learning rate: 0.001 - Loss: 0.89358133
Epoch: 2/15 - Batch: 6500/7933 - Learning rate: 0.001 - Loss: 1.0215989
Epoch: 2/15 - Batch: 6600/7933 - Learning rate: 0.001 - Loss: 1.0496762
Epoch: 2/15 - Batch: 6700/7933 - Learning rate: 0.001 - Loss: 0.946664
Epoch: 2/15 - Batch: 6800/7933 - Learning rate: 0.001 - Loss: 0.91047376
Epoch: 2/15 - Batch: 6900/7933 - Learning rate: 0.001 - Loss: 0.66975546
Epoch: 2/15 - Batch: 7000/7933 - Learning rate: 0.001 - Loss: 1.377479 - Dev BLEU: 0.1904178531802833
Epoch: 2/15 - Batch: 7100/7933 - Learning rate: 0.001 - Loss: 1.0527264
Epoch: 2/15 - Batch: 7200/7933 - Learning rate: 0.001 - Loss: 0.81883234
Epoch: 2/15 - Batch: 7300/7933 - Learning rate: 0.001 - Loss: 1.024387
Epoch: 2/15 - Batch: 7400/7933 - Learning rate: 0.001 - Loss: 1.0699488
Epoch: 2/15 - Batch: 7500/7933 - Learning rate: 0.001 - Loss: 0.7697394
Epoch: 2/15 - Batch: 7600/7933 - Learning rate: 0.001 - Loss: 1.418341
Epoch: 2/15 - Batch: 7700/7933 - Learning rate: 0.001 - Loss: 1.5534282
Epoch: 2/15 - Batch: 7800/7933 - Learning rate: 0.001 - Loss: 1.4782324
Epoch: 2/15 - Batch: 7900/7933 - Learning rate: 0.001 - Loss: 1.0565486
Epoch: 2/15 - Batch: 7933/7933 - Learning rate: 0.001 - Loss: 1.5495404 - Dev BLEU: 0.17408477770526332
Epoch: 3/15 - Batch: 100/7933 - Learning rate: 0.001 - Loss: 0.9073522
Epoch: 3/15 - Batch: 200/7933 - Learning rate: 0.001 - Loss: 0.9141974
Epoch: 3/15 - Batch: 300/7933 - Learning rate: 0.001 - Loss: 0.6309624
Epoch: 3/15 - Batch: 400/7933 - Learning rate: 0.001 - Loss: 1.0894495
Epoch: 3/15 - Batch: 500/7933 - Learning rate: 0.001 - Loss: 0.82774067
Epoch: 3/15 - Batch: 600/7933 - Learning rate: 0.001 - Loss: 0.45616734
Epoch: 3/15 - Batch: 700/7933 - Learning rate: 0.001 - Loss: 0.7997806
Epoch: 3/15 - Batch: 800/7933 - Learning rate: 0.001 - Loss: 0.77829313
Epoch: 3/15 - Batch: 900/7933 - Learning rate: 0.001 - Loss: 0.48813608
Epoch: 3/15 - Batch: 1000/7933 - Learning rate: 0.001 - Loss: 0.8416355 - Dev BLEU: 0.15698358526486184
Epoch: 3/15 - Batch: 1100/7933 - Learning rate: 0.001 - Loss: 0.71989954
Epoch: 3/15 - Batch: 1200/7933 - Learning rate: 0.001 - Loss: 1.0221375
Epoch: 3/15 - Batch: 1300/7933 - Learning rate: 0.001 - Loss: 0.8937969
Epoch: 3/15 - Batch: 1400/7933 - Learning rate: 0.001 - Loss: 0.94805926
Epoch: 3/15 - Batch: 1500/7933 - Learning rate: 0.001 - Loss: 0.6733545
Epoch: 3/15 - Batch: 1600/7933 - Learning rate: 0.001 - Loss: 1.2937583
Epoch: 3/15 - Batch: 1700/7933 - Learning rate: 0.001 - Loss: 0.9383794
Epoch: 3/15 - Batch: 1800/7933 - Learning rate: 0.001 - Loss: 0.52222544
Epoch: 3/15 - Batch: 1900/7933 - Learning rate: 0.001 - Loss: 0.78489745
Epoch: 3/15 - Batch: 2000/7933 - Learning rate: 0.001 - Loss: 0.8240271 - Dev BLEU: 0.141126103679335
Epoch: 3/15 - Batch: 2100/7933 - Learning rate: 0.001 - Loss: 0.71142936
Epoch: 3/15 - Batch: 2200/7933 - Learning rate: 0.001 - Loss: 0.71957934
Epoch: 3/15 - Batch: 2300/7933 - Learning rate: 0.001 - Loss: 0.87707
Epoch: 3/15 - Batch: 2400/7933 - Learning rate: 0.001 - Loss: 0.72308505
Epoch: 3/15 - Batch: 2500/7933 - Learning rate: 0.001 - Loss: 0.717229
Epoch: 3/15 - Batch: 2600/7933 - Learning rate: 0.001 - Loss: 0.5590407
Epoch: 3/15 - Batch: 2700/7933 - Learning rate: 0.001 - Loss: 0.31544727
Epoch: 3/15 - Batch: 2800/7933 - Learning rate: 0.001 - Loss: 0.9204686
Epoch: 3/15 - Batch: 2900/7933 - Learning rate: 0.001 - Loss: 1.0146983
Epoch: 3/15 - Batch: 3000/7933 - Learning rate: 0.001 - Loss: 0.94181085 - Dev BLEU: 0.14065428722485834
Epoch: 3/15 - Batch: 3100/7933 - Learning rate: 0.001 - Loss: 0.94217515
Epoch: 3/15 - Batch: 3200/7933 - Learning rate: 0.001 - Loss: 0.8595951
Epoch: 3/15 - Batch: 3300/7933 - Learning rate: 0.001 - Loss: 0.72048146
Epoch: 3/15 - Batch: 3400/7933 - Learning rate: 0.001 - Loss: 0.71557444
Epoch: 3/15 - Batch: 3500/7933 - Learning rate: 0.001 - Loss: 0.94086045
Epoch: 3/15 - Batch: 3600/7933 - Learning rate: 0.001 - Loss: 0.92800033
Epoch: 3/15 - Batch: 3700/7933 - Learning rate: 0.001 - Loss: 0.90113467
Epoch: 3/15 - Batch: 3800/7933 - Learning rate: 0.001 - Loss: 0.85263073
Epoch: 3/15 - Batch: 3900/7933 - Learning rate: 0.001 - Loss: 0.99257296
Epoch: 3/15 - Batch: 4000/7933 - Learning rate: 0.001 - Loss: 0.5499372 - Dev BLEU: 0.15267062167719406
Epoch: 3/15 - Batch: 4100/7933 - Learning rate: 0.001 - Loss: 0.71258354
Epoch: 3/15 - Batch: 4200/7933 - Learning rate: 0.001 - Loss: 0.6815725
Epoch: 3/15 - Batch: 4300/7933 - Learning rate: 0.001 - Loss: 0.77132034
Epoch: 3/15 - Batch: 4400/7933 - Learning rate: 0.001 - Loss: 0.7258138
Epoch: 3/15 - Batch: 4500/7933 - Learning rate: 0.001 - Loss: 0.8511301
Epoch: 3/15 - Batch: 4600/7933 - Learning rate: 0.001 - Loss: 1.5555767
Epoch: 3/15 - Batch: 4700/7933 - Learning rate: 0.001 - Loss: 1.0919331
Epoch: 3/15 - Batch: 4800/7933 - Learning rate: 0.001 - Loss: 1.0368131
Epoch: 3/15 - Batch: 4900/7933 - Learning rate: 0.001 - Loss: 1.1731191
Epoch: 3/15 - Batch: 5000/7933 - Learning rate: 0.001 - Loss: 1.208547 - Dev BLEU: 0.1852763655007039
Epoch: 3/15 - Batch: 5100/7933 - Learning rate: 0.001 - Loss: 1.2571715
Epoch: 3/15 - Batch: 5200/7933 - Learning rate: 0.001 - Loss: 1.188513
Epoch: 3/15 - Batch: 5300/7933 - Learning rate: 0.001 - Loss: 1.162027
Epoch: 3/15 - Batch: 5400/7933 - Learning rate: 0.001 - Loss: 1.1522485
Epoch: 3/15 - Batch: 5500/7933 - Learning rate: 0.001 - Loss: 1.0988029
Epoch: 3/15 - Batch: 5600/7933 - Learning rate: 0.001 - Loss: 0.8848567
Epoch: 3/15 - Batch: 5700/7933 - Learning rate: 0.001 - Loss: 1.128372
Epoch: 3/15 - Batch: 5800/7933 - Learning rate: 0.001 - Loss: 1.0892502
Epoch: 3/15 - Batch: 5900/7933 - Learning rate: 0.001 - Loss: 0.76035535
Epoch: 3/15 - Batch: 6000/7933 - Learning rate: 0.001 - Loss: 1.1320814 - Dev BLEU: 0.17232344362111557
Epoch: 3/15 - Batch: 6100/7933 - Learning rate: 0.001 - Loss: 1.0785197
Epoch: 3/15 - Batch: 6200/7933 - Learning rate: 0.001 - Loss: 0.94608825
Epoch: 3/15 - Batch: 6300/7933 - Learning rate: 0.001 - Loss: 0.9292261
Epoch: 3/15 - Batch: 6400/7933 - Learning rate: 0.001 - Loss: 0.79389286
Epoch: 3/15 - Batch: 6500/7933 - Learning rate: 0.001 - Loss: 0.91052234
Epoch: 3/15 - Batch: 6600/7933 - Learning rate: 0.001 - Loss: 0.9177585
Epoch: 3/15 - Batch: 6700/7933 - Learning rate: 0.001 - Loss: 0.8477498
Epoch: 3/15 - Batch: 6800/7933 - Learning rate: 0.001 - Loss: 0.8248711
Epoch: 3/15 - Batch: 6900/7933 - Learning rate: 0.001 - Loss: 0.5972008
Epoch: 3/15 - Batch: 7000/7933 - Learning rate: 0.001 - Loss: 1.242266 - Dev BLEU: 0.21428607587499848
Epoch: 3/15 - Batch: 7100/7933 - Learning rate: 0.001 - Loss: 0.9428598
Epoch: 3/15 - Batch: 7200/7933 - Learning rate: 0.001 - Loss: 0.74453425
Epoch: 3/15 - Batch: 7300/7933 - Learning rate: 0.001 - Loss: 0.9368913
Epoch: 3/15 - Batch: 7400/7933 - Learning rate: 0.001 - Loss: 0.9725119
Epoch: 3/15 - Batch: 7500/7933 - Learning rate: 0.001 - Loss: 0.70147276
Epoch: 3/15 - Batch: 7600/7933 - Learning rate: 0.001 - Loss: 1.2717048
Epoch: 3/15 - Batch: 7700/7933 - Learning rate: 0.001 - Loss: 1.4142524
Epoch: 3/15 - Batch: 7800/7933 - Learning rate: 0.001 - Loss: 1.3366671
Epoch: 3/15 - Batch: 7900/7933 - Learning rate: 0.001 - Loss: 0.93987936
Epoch: 3/15 - Batch: 7933/7933 - Learning rate: 0.001 - Loss: 1.3362578 - Dev BLEU: 0.19054636072971567
Epoch: 4/15 - Batch: 100/7933 - Learning rate: 0.001 - Loss: 0.84668446
Epoch: 4/15 - Batch: 200/7933 - Learning rate: 0.001 - Loss: 0.79583156
Epoch: 4/15 - Batch: 300/7933 - Learning rate: 0.001 - Loss: 0.57709557
Epoch: 4/15 - Batch: 400/7933 - Learning rate: 0.001 - Loss: 0.97696245
Epoch: 4/15 - Batch: 500/7933 - Learning rate: 0.001 - Loss: 0.7071087
Epoch: 4/15 - Batch: 600/7933 - Learning rate: 0.001 - Loss: 0.4341949
Epoch: 4/15 - Batch: 700/7933 - Learning rate: 0.001 - Loss: 0.7016943
Epoch: 4/15 - Batch: 800/7933 - Learning rate: 0.001 - Loss: 0.69615656
Epoch: 4/15 - Batch: 900/7933 - Learning rate: 0.001 - Loss: 0.44734725
Epoch: 4/15 - Batch: 1000/7933 - Learning rate: 0.001 - Loss: 0.77057725 - Dev BLEU: 0.1726077648547275
Epoch: 4/15 - Batch: 1100/7933 - Learning rate: 0.001 - Loss: 0.65934986
Epoch: 4/15 - Batch: 1200/7933 - Learning rate: 0.001 - Loss: 0.9455778
Epoch: 4/15 - Batch: 1300/7933 - Learning rate: 0.001 - Loss: 0.81437534
Epoch: 4/15 - Batch: 1400/7933 - Learning rate: 0.001 - Loss: 0.8851543
Epoch: 4/15 - Batch: 1500/7933 - Learning rate: 0.001 - Loss: 0.62771636
Epoch: 4/15 - Batch: 1600/7933 - Learning rate: 0.001 - Loss: 1.1843894
Epoch: 4/15 - Batch: 1700/7933 - Learning rate: 0.001 - Loss: 0.86582875
Epoch: 4/15 - Batch: 1800/7933 - Learning rate: 0.001 - Loss: 0.47460333
Epoch: 4/15 - Batch: 1900/7933 - Learning rate: 0.001 - Loss: 0.7096854
Epoch: 4/15 - Batch: 2000/7933 - Learning rate: 0.001 - Loss: 0.7452237 - Dev BLEU: 0.15550155295349063
Epoch: 4/15 - Batch: 2100/7933 - Learning rate: 0.001 - Loss: 0.64334637
Epoch: 4/15 - Batch: 2200/7933 - Learning rate: 0.001 - Loss: 0.654276
Epoch: 4/15 - Batch: 2300/7933 - Learning rate: 0.001 - Loss: 0.79639673
Epoch: 4/15 - Batch: 2400/7933 - Learning rate: 0.001 - Loss: 0.6458681
Epoch: 4/15 - Batch: 2500/7933 - Learning rate: 0.001 - Loss: 0.6495383
Epoch: 4/15 - Batch: 2600/7933 - Learning rate: 0.001 - Loss: 0.50343007
Epoch: 4/15 - Batch: 2700/7933 - Learning rate: 0.001 - Loss: 0.2888139
Epoch: 4/15 - Batch: 2800/7933 - Learning rate: 0.001 - Loss: 0.85412043
Epoch: 4/15 - Batch: 2900/7933 - Learning rate: 0.001 - Loss: 0.9526635
Epoch: 4/15 - Batch: 3000/7933 - Learning rate: 0.001 - Loss: 0.8564806 - Dev BLEU: 0.15466028634762333
Epoch: 4/15 - Batch: 3100/7933 - Learning rate: 0.001 - Loss: 0.87864983
Epoch: 4/15 - Batch: 3200/7933 - Learning rate: 0.001 - Loss: 0.79833496
Epoch: 4/15 - Batch: 3300/7933 - Learning rate: 0.001 - Loss: 0.6789845
Epoch: 4/15 - Batch: 3400/7933 - Learning rate: 0.001 - Loss: 0.6611541
Epoch: 4/15 - Batch: 3500/7933 - Learning rate: 0.001 - Loss: 0.8517023
Epoch: 4/15 - Batch: 3600/7933 - Learning rate: 0.001 - Loss: 0.8609724
Epoch: 4/15 - Batch: 3700/7933 - Learning rate: 0.001 - Loss: 0.8347367
Epoch: 4/15 - Batch: 3800/7933 - Learning rate: 0.001 - Loss: 0.78359944
Epoch: 4/15 - Batch: 3900/7933 - Learning rate: 0.001 - Loss: 0.90992576
Epoch: 4/15 - Batch: 4000/7933 - Learning rate: 0.001 - Loss: 0.50182587 - Dev BLEU: 0.16860374156199678
Epoch: 4/15 - Batch: 4100/7933 - Learning rate: 0.001 - Loss: 0.6444165
Epoch: 4/15 - Batch: 4200/7933 - Learning rate: 0.001 - Loss: 0.6396243
Epoch: 4/15 - Batch: 4300/7933 - Learning rate: 0.001 - Loss: 0.72363806
Epoch: 4/15 - Batch: 4400/7933 - Learning rate: 0.001 - Loss: 0.68030643
Epoch: 4/15 - Batch: 4500/7933 - Learning rate: 0.001 - Loss: 0.7864799
Epoch: 4/15 - Batch: 4600/7933 - Learning rate: 0.001 - Loss: 1.3773564
Epoch: 4/15 - Batch: 4700/7933 - Learning rate: 0.001 - Loss: 0.98428804
Epoch: 4/15 - Batch: 4800/7933 - Learning rate: 0.001 - Loss: 0.94421715
Epoch: 4/15 - Batch: 4900/7933 - Learning rate: 0.001 - Loss: 1.0807661
Epoch: 4/15 - Batch: 5000/7933 - Learning rate: 0.001 - Loss: 1.0950556 - Dev BLEU: 0.19940674417224996
Epoch: 4/15 - Batch: 5100/7933 - Learning rate: 0.001 - Loss: 1.175102
Epoch: 4/15 - Batch: 5200/7933 - Learning rate: 0.001 - Loss: 1.0992206
Epoch: 4/15 - Batch: 5300/7933 - Learning rate: 0.001 - Loss: 1.0655392
Epoch: 4/15 - Batch: 5400/7933 - Learning rate: 0.001 - Loss: 1.039984
Epoch: 4/15 - Batch: 5500/7933 - Learning rate: 0.001 - Loss: 0.99990046
Epoch: 4/15 - Batch: 5600/7933 - Learning rate: 0.001 - Loss: 0.81452626
Epoch: 4/15 - Batch: 5700/7933 - Learning rate: 0.001 - Loss: 1.0536315
Epoch: 4/15 - Batch: 5800/7933 - Learning rate: 0.001 - Loss: 0.995559
Epoch: 4/15 - Batch: 5900/7933 - Learning rate: 0.001 - Loss: 0.6998991
Epoch: 4/15 - Batch: 6000/7933 - Learning rate: 0.001 - Loss: 1.0237354 - Dev BLEU: 0.18688536919104634
Epoch: 4/15 - Batch: 6100/7933 - Learning rate: 0.001 - Loss: 0.9941567
Epoch: 4/15 - Batch: 6200/7933 - Learning rate: 0.001 - Loss: 0.8855957
Epoch: 4/15 - Batch: 6300/7933 - Learning rate: 0.001 - Loss: 0.8846941
Epoch: 4/15 - Batch: 6400/7933 - Learning rate: 0.001 - Loss: 0.7459634
Epoch: 4/15 - Batch: 6500/7933 - Learning rate: 0.001 - Loss: 0.85352147
Epoch: 4/15 - Batch: 6600/7933 - Learning rate: 0.001 - Loss: 0.84491473
Epoch: 4/15 - Batch: 6700/7933 - Learning rate: 0.001 - Loss: 0.8019637
Epoch: 4/15 - Batch: 6800/7933 - Learning rate: 0.001 - Loss: 0.7887394
Epoch: 4/15 - Batch: 6900/7933 - Learning rate: 0.001 - Loss: 0.5578318
Epoch: 4/15 - Batch: 7000/7933 - Learning rate: 0.001 - Loss: 1.1738975 - Dev BLEU: 0.2231575418024925
Epoch: 4/15 - Batch: 7100/7933 - Learning rate: 0.001 - Loss: 0.88028586
Epoch: 4/15 - Batch: 7200/7933 - Learning rate: 0.001 - Loss: 0.68974656
Epoch: 4/15 - Batch: 7300/7933 - Learning rate: 0.001 - Loss: 0.8712225
Epoch: 4/15 - Batch: 7400/7933 - Learning rate: 0.001 - Loss: 0.91580844
Epoch: 4/15 - Batch: 7500/7933 - Learning rate: 0.001 - Loss: 0.6667427
Epoch: 4/15 - Batch: 7600/7933 - Learning rate: 0.001 - Loss: 1.2038473
Epoch: 4/15 - Batch: 7700/7933 - Learning rate: 0.001 - Loss: 1.3282815
Epoch: 4/15 - Batch: 7800/7933 - Learning rate: 0.001 - Loss: 1.2671081
Epoch: 4/15 - Batch: 7900/7933 - Learning rate: 0.001 - Loss: 0.88796943
Epoch: 4/15 - Batch: 7933/7933 - Learning rate: 0.001 - Loss: 1.2235163 - Dev BLEU: 0.20230176022459428
Epoch: 5/15 - Batch: 100/7933 - Learning rate: 0.001 - Loss: 0.8156938
Epoch: 5/15 - Batch: 200/7933 - Learning rate: 0.001 - Loss: 0.7551599
Epoch: 5/15 - Batch: 300/7933 - Learning rate: 0.001 - Loss: 0.5508445
Epoch: 5/15 - Batch: 400/7933 - Learning rate: 0.001 - Loss: 0.92403585
Epoch: 5/15 - Batch: 500/7933 - Learning rate: 0.001 - Loss: 0.64936316
Epoch: 5/15 - Batch: 600/7933 - Learning rate: 0.001 - Loss: 0.42252484
Epoch: 5/15 - Batch: 700/7933 - Learning rate: 0.001 - Loss: 0.6705122
Epoch: 5/15 - Batch: 800/7933 - Learning rate: 0.001 - Loss: 0.6763685
Epoch: 5/15 - Batch: 900/7933 - Learning rate: 0.001 - Loss: 0.4285918
Epoch: 5/15 - Batch: 1000/7933 - Learning rate: 0.001 - Loss: 0.7251602 - Dev BLEU: 0.1826491564924872
Epoch: 5/15 - Batch: 1100/7933 - Learning rate: 0.001 - Loss: 0.6249532
Epoch: 5/15 - Batch: 1200/7933 - Learning rate: 0.001 - Loss: 0.8927095
Epoch: 5/15 - Batch: 1300/7933 - Learning rate: 0.001 - Loss: 0.75595856
Epoch: 5/15 - Batch: 1400/7933 - Learning rate: 0.001 - Loss: 0.84202904
Epoch: 5/15 - Batch: 1500/7933 - Learning rate: 0.001 - Loss: 0.58239204
Epoch: 5/15 - Batch: 1600/7933 - Learning rate: 0.001 - Loss: 1.1083543
Epoch: 5/15 - Batch: 1700/7933 - Learning rate: 0.001 - Loss: 0.8203416
Epoch: 5/15 - Batch: 1800/7933 - Learning rate: 0.001 - Loss: 0.44822142
Epoch: 5/15 - Batch: 1900/7933 - Learning rate: 0.001 - Loss: 0.6791668
Epoch: 5/15 - Batch: 2000/7933 - Learning rate: 0.001 - Loss: 0.70679796 - Dev BLEU: 0.16340638838734373
Epoch: 5/15 - Batch: 2100/7933 - Learning rate: 0.001 - Loss: 0.6155736
Epoch: 5/15 - Batch: 2200/7933 - Learning rate: 0.001 - Loss: 0.6141558
Epoch: 5/15 - Batch: 2300/7933 - Learning rate: 0.001 - Loss: 0.74343145
Epoch: 5/15 - Batch: 2400/7933 - Learning rate: 0.001 - Loss: 0.60018265
Epoch: 5/15 - Batch: 2500/7933 - Learning rate: 0.001 - Loss: 0.59772825
Epoch: 5/15 - Batch: 2600/7933 - Learning rate: 0.001 - Loss: 0.4677142
Epoch: 5/15 - Batch: 2700/7933 - Learning rate: 0.001 - Loss: 0.27166542
Epoch: 5/15 - Batch: 2800/7933 - Learning rate: 0.001 - Loss: 0.7890436
Epoch: 5/15 - Batch: 2900/7933 - Learning rate: 0.001 - Loss: 0.8977389
Epoch: 5/15 - Batch: 3000/7933 - Learning rate: 0.001 - Loss: 0.8206979 - Dev BLEU: 0.1642313780418104
Epoch: 5/15 - Batch: 3100/7933 - Learning rate: 0.001 - Loss: 0.8296208
Epoch: 5/15 - Batch: 3200/7933 - Learning rate: 0.001 - Loss: 0.76993316
Epoch: 5/15 - Batch: 3300/7933 - Learning rate: 0.001 - Loss: 0.6376956
Epoch: 5/15 - Batch: 3400/7933 - Learning rate: 0.001 - Loss: 0.6361639
Epoch: 5/15 - Batch: 3500/7933 - Learning rate: 0.001 - Loss: 0.8174265
Epoch: 5/15 - Batch: 3600/7933 - Learning rate: 0.001 - Loss: 0.81046295
Epoch: 5/15 - Batch: 3700/7933 - Learning rate: 0.001 - Loss: 0.7913928
Epoch: 5/15 - Batch: 3800/7933 - Learning rate: 0.001 - Loss: 0.74367803
Epoch: 5/15 - Batch: 3900/7933 - Learning rate: 0.001 - Loss: 0.85854566
Epoch: 5/15 - Batch: 4000/7933 - Learning rate: 0.001 - Loss: 0.48291597 - Dev BLEU: 0.1794785391694104
Epoch: 5/15 - Batch: 4100/7933 - Learning rate: 0.001 - Loss: 0.61468
Epoch: 5/15 - Batch: 4200/7933 - Learning rate: 0.001 - Loss: 0.607823
Epoch: 5/15 - Batch: 4300/7933 - Learning rate: 0.001 - Loss: 0.6840555
Epoch: 5/15 - Batch: 4400/7933 - Learning rate: 0.001 - Loss: 0.64578676
Epoch: 5/15 - Batch: 4500/7933 - Learning rate: 0.001 - Loss: 0.74574614
Epoch: 5/15 - Batch: 4600/7933 - Learning rate: 0.001 - Loss: 1.2855595
Epoch: 5/15 - Batch: 4700/7933 - Learning rate: 0.001 - Loss: 0.9311695
Epoch: 5/15 - Batch: 4800/7933 - Learning rate: 0.001 - Loss: 0.87397355
Epoch: 5/15 - Batch: 4900/7933 - Learning rate: 0.001 - Loss: 1.0429698
Epoch: 5/15 - Batch: 5000/7933 - Learning rate: 0.001 - Loss: 1.0415577 - Dev BLEU: 0.21205323434731083
Epoch: 5/15 - Batch: 5100/7933 - Learning rate: 0.001 - Loss: 1.1095302
Epoch: 5/15 - Batch: 5200/7933 - Learning rate: 0.001 - Loss: 1.0424607
Epoch: 5/15 - Batch: 5300/7933 - Learning rate: 0.001 - Loss: 1.0138948
Epoch: 5/15 - Batch: 5400/7933 - Learning rate: 0.001 - Loss: 0.9715816
Epoch: 5/15 - Batch: 5500/7933 - Learning rate: 0.001 - Loss: 0.9486169
Epoch: 5/15 - Batch: 5600/7933 - Learning rate: 0.001 - Loss: 0.77234274
Epoch: 5/15 - Batch: 5700/7933 - Learning rate: 0.001 - Loss: 1.0041842
Epoch: 5/15 - Batch: 5800/7933 - Learning rate: 0.001 - Loss: 0.9639988
Epoch: 5/15 - Batch: 5900/7933 - Learning rate: 0.001 - Loss: 0.6459256
Epoch: 5/15 - Batch: 6000/7933 - Learning rate: 0.001 - Loss: 0.977771 - Dev BLEU: 0.2000579587187983
Epoch: 5/15 - Batch: 6100/7933 - Learning rate: 0.001 - Loss: 0.9542432
Epoch: 5/15 - Batch: 6200/7933 - Learning rate: 0.001 - Loss: 0.8727138
Epoch: 5/15 - Batch: 6300/7933 - Learning rate: 0.001 - Loss: 0.81645906
Epoch: 5/15 - Batch: 6400/7933 - Learning rate: 0.001 - Loss: 0.71983624
Epoch: 5/15 - Batch: 6500/7933 - Learning rate: 0.001 - Loss: 0.8142522
Epoch: 5/15 - Batch: 6600/7933 - Learning rate: 0.001 - Loss: 0.7957306
Epoch: 5/15 - Batch: 6700/7933 - Learning rate: 0.001 - Loss: 0.76098144
Epoch: 5/15 - Batch: 6800/7933 - Learning rate: 0.001 - Loss: 0.75888497
Epoch: 5/15 - Batch: 6900/7933 - Learning rate: 0.001 - Loss: 0.5382183
Epoch: 5/15 - Batch: 7000/7933 - Learning rate: 0.001 - Loss: 1.1124185 - Dev BLEU: 0.23475077990161305
Epoch: 5/15 - Batch: 7100/7933 - Learning rate: 0.001 - Loss: 0.8481498
Epoch: 5/15 - Batch: 7200/7933 - Learning rate: 0.001 - Loss: 0.6651307
Epoch: 5/15 - Batch: 7300/7933 - Learning rate: 0.001 - Loss: 0.8328318
Epoch: 5/15 - Batch: 7400/7933 - Learning rate: 0.001 - Loss: 0.86427855
Epoch: 5/15 - Batch: 7500/7933 - Learning rate: 0.001 - Loss: 0.6441163
Epoch: 5/15 - Batch: 7600/7933 - Learning rate: 0.001 - Loss: 1.1358817
Epoch: 5/15 - Batch: 7700/7933 - Learning rate: 0.001 - Loss: 1.275369
Epoch: 5/15 - Batch: 7800/7933 - Learning rate: 0.001 - Loss: 1.2073506
Epoch: 5/15 - Batch: 7900/7933 - Learning rate: 0.001 - Loss: 0.83678114
Epoch: 5/15 - Batch: 7933/7933 - Learning rate: 0.001 - Loss: 1.1418298 - Dev BLEU: 0.20930562341319794
Epoch: 6/15 - Batch: 100/7933 - Learning rate: 0.001 - Loss: 0.7970428
Epoch: 6/15 - Batch: 200/7933 - Learning rate: 0.001 - Loss: 0.68975574
Epoch: 6/15 - Batch: 300/7933 - Learning rate: 0.001 - Loss: 0.53342503
Epoch: 6/15 - Batch: 400/7933 - Learning rate: 0.001 - Loss: 0.8683391
Epoch: 6/15 - Batch: 500/7933 - Learning rate: 0.001 - Loss: 0.6262062
Epoch: 6/15 - Batch: 600/7933 - Learning rate: 0.001 - Loss: 0.40930346
Epoch: 6/15 - Batch: 700/7933 - Learning rate: 0.001 - Loss: 0.64581126
Epoch: 6/15 - Batch: 800/7933 - Learning rate: 0.001 - Loss: 0.6321447
Epoch: 6/15 - Batch: 900/7933 - Learning rate: 0.001 - Loss: 0.41882724
Epoch: 6/15 - Batch: 1000/7933 - Learning rate: 0.001 - Loss: 0.68513453 - Dev BLEU: 0.19054046963883403
Epoch: 6/15 - Batch: 1100/7933 - Learning rate: 0.001 - Loss: 0.6174217
Epoch: 6/15 - Batch: 1200/7933 - Learning rate: 0.001 - Loss: 0.84627736
Epoch: 6/15 - Batch: 1300/7933 - Learning rate: 0.001 - Loss: 0.7181597
Epoch: 6/15 - Batch: 1400/7933 - Learning rate: 0.001 - Loss: 0.79818904
Epoch: 6/15 - Batch: 1500/7933 - Learning rate: 0.001 - Loss: 0.5599135
Epoch: 6/15 - Batch: 1600/7933 - Learning rate: 0.001 - Loss: 1.0596666
Epoch: 6/15 - Batch: 1700/7933 - Learning rate: 0.001 - Loss: 0.7883581
Epoch: 6/15 - Batch: 1800/7933 - Learning rate: 0.001 - Loss: 0.41743436
Epoch: 6/15 - Batch: 1900/7933 - Learning rate: 0.001 - Loss: 0.64814144
Epoch: 6/15 - Batch: 2000/7933 - Learning rate: 0.001 - Loss: 0.6517575 - Dev BLEU: 0.17291322019366223
Epoch: 6/15 - Batch: 2100/7933 - Learning rate: 0.001 - Loss: 0.57602406
Epoch: 6/15 - Batch: 2200/7933 - Learning rate: 0.001 - Loss: 0.5771907
Epoch: 6/15 - Batch: 2300/7933 - Learning rate: 0.001 - Loss: 0.7290928
Epoch: 6/15 - Batch: 2400/7933 - Learning rate: 0.001 - Loss: 0.58172417
Epoch: 6/15 - Batch: 2500/7933 - Learning rate: 0.001 - Loss: 0.57838637
Epoch: 6/15 - Batch: 2600/7933 - Learning rate: 0.001 - Loss: 0.44842312
Epoch: 6/15 - Batch: 2700/7933 - Learning rate: 0.001 - Loss: 0.26480493
Epoch: 6/15 - Batch: 2800/7933 - Learning rate: 0.001 - Loss: 0.750491
Epoch: 6/15 - Batch: 2900/7933 - Learning rate: 0.001 - Loss: 0.8661597
Epoch: 6/15 - Batch: 3000/7933 - Learning rate: 0.001 - Loss: 0.7715543 - Dev BLEU: 0.1664699114334237
Epoch: 6/15 - Batch: 3100/7933 - Learning rate: 0.001 - Loss: 0.7949613
Epoch: 6/15 - Batch: 3200/7933 - Learning rate: 0.001 - Loss: 0.7395859
Epoch: 6/15 - Batch: 3300/7933 - Learning rate: 0.001 - Loss: 0.6177931
Epoch: 6/15 - Batch: 3400/7933 - Learning rate: 0.001 - Loss: 0.608813
Epoch: 6/15 - Batch: 3500/7933 - Learning rate: 0.001 - Loss: 0.79722047
Epoch: 6/15 - Batch: 3600/7933 - Learning rate: 0.001 - Loss: 0.7876826
Epoch: 6/15 - Batch: 3700/7933 - Learning rate: 0.001 - Loss: 0.7545399
Epoch: 6/15 - Batch: 3800/7933 - Learning rate: 0.001 - Loss: 0.6968686
Epoch: 6/15 - Batch: 3900/7933 - Learning rate: 0.001 - Loss: 0.81254834
Epoch: 6/15 - Batch: 4000/7933 - Learning rate: 0.001 - Loss: 0.46894038 - Dev BLEU: 0.18455761311789243
Epoch: 6/15 - Batch: 4100/7933 - Learning rate: 0.001 - Loss: 0.6044641
Epoch: 6/15 - Batch: 4200/7933 - Learning rate: 0.001 - Loss: 0.59220755
Epoch: 6/15 - Batch: 4300/7933 - Learning rate: 0.001 - Loss: 0.6644155
Epoch: 6/15 - Batch: 4400/7933 - Learning rate: 0.001 - Loss: 0.623198
Epoch: 6/15 - Batch: 4500/7933 - Learning rate: 0.001 - Loss: 0.72030675
Epoch: 6/15 - Batch: 4600/7933 - Learning rate: 0.001 - Loss: 1.1800374
Epoch: 6/15 - Batch: 4700/7933 - Learning rate: 0.001 - Loss: 0.8371042
Epoch: 6/15 - Batch: 4800/7933 - Learning rate: 0.001 - Loss: 0.8338261
Epoch: 6/15 - Batch: 4900/7933 - Learning rate: 0.001 - Loss: 0.97572905
Epoch: 6/15 - Batch: 5000/7933 - Learning rate: 0.001 - Loss: 1.0090811 - Dev BLEU: 0.22082116956014075
Epoch: 6/15 - Batch: 5100/7933 - Learning rate: 0.001 - Loss: 1.0509113
Epoch: 6/15 - Batch: 5200/7933 - Learning rate: 0.001 - Loss: 0.99368304
Epoch: 6/15 - Batch: 5300/7933 - Learning rate: 0.001 - Loss: 0.98245054
Epoch: 6/15 - Batch: 5400/7933 - Learning rate: 0.001 - Loss: 0.9262103
Epoch: 6/15 - Batch: 5500/7933 - Learning rate: 0.001 - Loss: 0.9083783
Epoch: 6/15 - Batch: 5600/7933 - Learning rate: 0.001 - Loss: 0.71623975
Epoch: 6/15 - Batch: 5700/7933 - Learning rate: 0.001 - Loss: 0.94230855
Epoch: 6/15 - Batch: 5800/7933 - Learning rate: 0.001 - Loss: 0.91088665
Epoch: 6/15 - Batch: 5900/7933 - Learning rate: 0.001 - Loss: 0.6122447
Epoch: 6/15 - Batch: 6000/7933 - Learning rate: 0.001 - Loss: 0.9422122 - Dev BLEU: 0.20903191429120715
Epoch: 6/15 - Batch: 6100/7933 - Learning rate: 0.001 - Loss: 0.8986093
Epoch: 6/15 - Batch: 6200/7933 - Learning rate: 0.001 - Loss: 0.8458498
Epoch: 6/15 - Batch: 6300/7933 - Learning rate: 0.001 - Loss: 0.7909858
Epoch: 6/15 - Batch: 6400/7933 - Learning rate: 0.001 - Loss: 0.6947673
Epoch: 6/15 - Batch: 6500/7933 - Learning rate: 0.001 - Loss: 0.7941504
Epoch: 6/15 - Batch: 6600/7933 - Learning rate: 0.001 - Loss: 0.76842487
Epoch: 6/15 - Batch: 6700/7933 - Learning rate: 0.001 - Loss: 0.75052536
Epoch: 6/15 - Batch: 6800/7933 - Learning rate: 0.001 - Loss: 0.74533784
Epoch: 6/15 - Batch: 6900/7933 - Learning rate: 0.001 - Loss: 0.5163357
Epoch: 6/15 - Batch: 7000/7933 - Learning rate: 0.001 - Loss: 1.0744748 - Dev BLEU: 0.23678551604780482
Epoch: 6/15 - Batch: 7100/7933 - Learning rate: 0.001 - Loss: 0.815774
Epoch: 6/15 - Batch: 7200/7933 - Learning rate: 0.001 - Loss: 0.63953114
Epoch: 6/15 - Batch: 7300/7933 - Learning rate: 0.001 - Loss: 0.80766964
Epoch: 6/15 - Batch: 7400/7933 - Learning rate: 0.001 - Loss: 0.8448415
Epoch: 6/15 - Batch: 7500/7933 - Learning rate: 0.001 - Loss: 0.6267038
Epoch: 6/15 - Batch: 7600/7933 - Learning rate: 0.001 - Loss: 1.1091808
Epoch: 6/15 - Batch: 7700/7933 - Learning rate: 0.001 - Loss: 1.2512374
Epoch: 6/15 - Batch: 7800/7933 - Learning rate: 0.001 - Loss: 1.1570126
Epoch: 6/15 - Batch: 7900/7933 - Learning rate: 0.001 - Loss: 0.81351626
Epoch: 6/15 - Batch: 7933/7933 - Learning rate: 0.001 - Loss: 1.0781567 - Dev BLEU: 0.2131599173543087
Epoch: 7/15 - Batch: 100/7933 - Learning rate: 0.001 - Loss: 0.76904094
Epoch: 7/15 - Batch: 200/7933 - Learning rate: 0.001 - Loss: 0.682236
Epoch: 7/15 - Batch: 300/7933 - Learning rate: 0.001 - Loss: 0.52461106
Epoch: 7/15 - Batch: 400/7933 - Learning rate: 0.001 - Loss: 0.81663555
Epoch: 7/15 - Batch: 500/7933 - Learning rate: 0.001 - Loss: 0.58378685
Epoch: 7/15 - Batch: 600/7933 - Learning rate: 0.001 - Loss: 0.3943583
Epoch: 7/15 - Batch: 700/7933 - Learning rate: 0.001 - Loss: 0.62276673
Epoch: 7/15 - Batch: 800/7933 - Learning rate: 0.001 - Loss: 0.61611855
Epoch: 7/15 - Batch: 900/7933 - Learning rate: 0.001 - Loss: 0.40521306
Epoch: 7/15 - Batch: 1000/7933 - Learning rate: 0.001 - Loss: 0.67693263 - Dev BLEU: 0.1948395139024841
Epoch: 7/15 - Batch: 1100/7933 - Learning rate: 0.001 - Loss: 0.6089191
Epoch: 7/15 - Batch: 1200/7933 - Learning rate: 0.001 - Loss: 0.83404183
Epoch: 7/15 - Batch: 1300/7933 - Learning rate: 0.001 - Loss: 0.70940346
Epoch: 7/15 - Batch: 1400/7933 - Learning rate: 0.001 - Loss: 0.7800161
Epoch: 7/15 - Batch: 1500/7933 - Learning rate: 0.001 - Loss: 0.5471909
Epoch: 7/15 - Batch: 1600/7933 - Learning rate: 0.001 - Loss: 1.030361
Epoch: 7/15 - Batch: 1700/7933 - Learning rate: 0.001 - Loss: 0.7661229
Epoch: 7/15 - Batch: 1800/7933 - Learning rate: 0.001 - Loss: 0.4070552
Epoch: 7/15 - Batch: 1900/7933 - Learning rate: 0.001 - Loss: 0.62348914
Epoch: 7/15 - Batch: 2000/7933 - Learning rate: 0.001 - Loss: 0.6328279 - Dev BLEU: 0.17720803480422476
Epoch: 7/15 - Batch: 2100/7933 - Learning rate: 0.001 - Loss: 0.55688477
Epoch: 7/15 - Batch: 2200/7933 - Learning rate: 0.001 - Loss: 0.5599397
Epoch: 7/15 - Batch: 2300/7933 - Learning rate: 0.001 - Loss: 0.70196074
Epoch: 7/15 - Batch: 2400/7933 - Learning rate: 0.001 - Loss: 0.55585873
Epoch: 7/15 - Batch: 2500/7933 - Learning rate: 0.001 - Loss: 0.554116
Epoch: 7/15 - Batch: 2600/7933 - Learning rate: 0.001 - Loss: 0.42746392
Epoch: 7/15 - Batch: 2700/7933 - Learning rate: 0.001 - Loss: 0.2600978
Epoch: 7/15 - Batch: 2800/7933 - Learning rate: 0.001 - Loss: 0.7323902
Epoch: 7/15 - Batch: 2900/7933 - Learning rate: 0.001 - Loss: 0.8463316
Epoch: 7/15 - Batch: 3000/7933 - Learning rate: 0.001 - Loss: 0.7399496 - Dev BLEU: 0.16728807143233823
Epoch: 7/15 - Batch: 3100/7933 - Learning rate: 0.001 - Loss: 0.7632104
Epoch: 7/15 - Batch: 3200/7933 - Learning rate: 0.001 - Loss: 0.72390556
Epoch: 7/15 - Batch: 3300/7933 - Learning rate: 0.001 - Loss: 0.5997024
Epoch: 7/15 - Batch: 3400/7933 - Learning rate: 0.001 - Loss: 0.6014457
Epoch: 7/15 - Batch: 3500/7933 - Learning rate: 0.001 - Loss: 0.7544833
Epoch: 7/15 - Batch: 3600/7933 - Learning rate: 0.001 - Loss: 0.755126
Epoch: 7/15 - Batch: 3700/7933 - Learning rate: 0.001 - Loss: 0.72216785
Epoch: 7/15 - Batch: 3800/7933 - Learning rate: 0.001 - Loss: 0.69924915
Epoch: 7/15 - Batch: 3900/7933 - Learning rate: 0.001 - Loss: 0.7891985
Epoch: 7/15 - Batch: 4000/7933 - Learning rate: 0.001 - Loss: 0.44388238 - Dev BLEU: 0.18911171534454124
Epoch: 7/15 - Batch: 4100/7933 - Learning rate: 0.001 - Loss: 0.5776751
Epoch: 7/15 - Batch: 4200/7933 - Learning rate: 0.001 - Loss: 0.57314414
Epoch: 7/15 - Batch: 4300/7933 - Learning rate: 0.001 - Loss: 0.64308983
Epoch: 7/15 - Batch: 4400/7933 - Learning rate: 0.001 - Loss: 0.5889352
Epoch: 7/15 - Batch: 4500/7933 - Learning rate: 0.001 - Loss: 0.69892156
Epoch: 7/15 - Batch: 4600/7933 - Learning rate: 0.001 - Loss: 1.1589909
Epoch: 7/15 - Batch: 4700/7933 - Learning rate: 0.001 - Loss: 0.82670933
Epoch: 7/15 - Batch: 4800/7933 - Learning rate: 0.001 - Loss: 0.7818989
Epoch: 7/15 - Batch: 4900/7933 - Learning rate: 0.001 - Loss: 0.91225225
Epoch: 7/15 - Batch: 5000/7933 - Learning rate: 0.001 - Loss: 0.94854647 - Dev BLEU: 0.22403367867479934
Epoch: 7/15 - Batch: 5100/7933 - Learning rate: 0.001 - Loss: 1.0074632
Epoch: 7/15 - Batch: 5200/7933 - Learning rate: 0.001 - Loss: 0.96857196
Epoch: 7/15 - Batch: 5300/7933 - Learning rate: 0.001 - Loss: 0.9433633
Epoch: 7/15 - Batch: 5400/7933 - Learning rate: 0.001 - Loss: 0.9095643
Epoch: 7/15 - Batch: 5500/7933 - Learning rate: 0.001 - Loss: 0.8597585
Epoch: 7/15 - Batch: 5600/7933 - Learning rate: 0.001 - Loss: 0.70971066
Epoch: 7/15 - Batch: 5700/7933 - Learning rate: 0.001 - Loss: 0.9152239
Epoch: 7/15 - Batch: 5800/7933 - Learning rate: 0.001 - Loss: 0.87911123
Epoch: 7/15 - Batch: 5900/7933 - Learning rate: 0.001 - Loss: 0.6007748
Epoch: 7/15 - Batch: 6000/7933 - Learning rate: 0.001 - Loss: 0.9023066 - Dev BLEU: 0.2177290475628724
Epoch: 7/15 - Batch: 6100/7933 - Learning rate: 0.001 - Loss: 0.87131786
Epoch: 7/15 - Batch: 6200/7933 - Learning rate: 0.001 - Loss: 0.8185024
Epoch: 7/15 - Batch: 6300/7933 - Learning rate: 0.001 - Loss: 0.7572693
Epoch: 7/15 - Batch: 6400/7933 - Learning rate: 0.001 - Loss: 0.66824985
Epoch: 7/15 - Batch: 6500/7933 - Learning rate: 0.001 - Loss: 0.7811663
Epoch: 7/15 - Batch: 6600/7933 - Learning rate: 0.001 - Loss: 0.7459689
Epoch: 7/15 - Batch: 6700/7933 - Learning rate: 0.001 - Loss: 0.7185277
Epoch: 7/15 - Batch: 6800/7933 - Learning rate: 0.001 - Loss: 0.7324779
Epoch: 7/15 - Batch: 6900/7933 - Learning rate: 0.001 - Loss: 0.5024787
Epoch: 7/15 - Batch: 7000/7933 - Learning rate: 0.001 - Loss: 1.0531056 - Dev BLEU: 0.2413371025294694
Epoch: 7/15 - Batch: 7100/7933 - Learning rate: 0.001 - Loss: 0.79068047
Epoch: 7/15 - Batch: 7200/7933 - Learning rate: 0.001 - Loss: 0.6312941
Epoch: 7/15 - Batch: 7300/7933 - Learning rate: 0.001 - Loss: 0.78582597
Epoch: 7/15 - Batch: 7400/7933 - Learning rate: 0.001 - Loss: 0.82437915
Epoch: 7/15 - Batch: 7500/7933 - Learning rate: 0.001 - Loss: 0.6115739
Epoch: 7/15 - Batch: 7600/7933 - Learning rate: 0.001 - Loss: 1.0675813
Epoch: 7/15 - Batch: 7700/7933 - Learning rate: 0.001 - Loss: 1.2218869
Epoch: 7/15 - Batch: 7800/7933 - Learning rate: 0.001 - Loss: 1.1384578
Epoch: 7/15 - Batch: 7900/7933 - Learning rate: 0.001 - Loss: 0.7855618
Epoch: 7/15 - Batch: 7933/7933 - Learning rate: 0.001 - Loss: 1.023973 - Dev BLEU: 0.22189292876053707
Epoch: 8/15 - Batch: 100/7933 - Learning rate: 0.0005 - Loss: 0.75743306
Epoch: 8/15 - Batch: 200/7933 - Learning rate: 0.0005 - Loss: 0.64166516
Epoch: 8/15 - Batch: 300/7933 - Learning rate: 0.0005 - Loss: 0.5149325
Epoch: 8/15 - Batch: 400/7933 - Learning rate: 0.0005 - Loss: 0.7958006
Epoch: 8/15 - Batch: 500/7933 - Learning rate: 0.0005 - Loss: 0.54799986
Epoch: 8/15 - Batch: 600/7933 - Learning rate: 0.0005 - Loss: 0.38254896
Epoch: 8/15 - Batch: 700/7933 - Learning rate: 0.0005 - Loss: 0.59301174
Epoch: 8/15 - Batch: 800/7933 - Learning rate: 0.0005 - Loss: 0.5802895
Epoch: 8/15 - Batch: 900/7933 - Learning rate: 0.0005 - Loss: 0.3779336
Epoch: 8/15 - Batch: 1000/7933 - Learning rate: 0.0005 - Loss: 0.63759124 - Dev BLEU: 0.2044895083874436
Epoch: 8/15 - Batch: 1100/7933 - Learning rate: 0.0005 - Loss: 0.57572913
Epoch: 8/15 - Batch: 1200/7933 - Learning rate: 0.0005 - Loss: 0.76846296
Epoch: 8/15 - Batch: 1300/7933 - Learning rate: 0.0005 - Loss: 0.6470244
Epoch: 8/15 - Batch: 1400/7933 - Learning rate: 0.0005 - Loss: 0.73869735
Epoch: 8/15 - Batch: 1500/7933 - Learning rate: 0.0005 - Loss: 0.53041524
Epoch: 8/15 - Batch: 1600/7933 - Learning rate: 0.0005 - Loss: 0.9717303
Epoch: 8/15 - Batch: 1700/7933 - Learning rate: 0.0005 - Loss: 0.72628045
Epoch: 8/15 - Batch: 1800/7933 - Learning rate: 0.0005 - Loss: 0.38892594
Epoch: 8/15 - Batch: 1900/7933 - Learning rate: 0.0005 - Loss: 0.59865505
Epoch: 8/15 - Batch: 2000/7933 - Learning rate: 0.0005 - Loss: 0.608139 - Dev BLEU: 0.19299702234451122
Epoch: 8/15 - Batch: 2100/7933 - Learning rate: 0.0005 - Loss: 0.51565063
Epoch: 8/15 - Batch: 2200/7933 - Learning rate: 0.0005 - Loss: 0.5202253
Epoch: 8/15 - Batch: 2300/7933 - Learning rate: 0.0005 - Loss: 0.6404394
Epoch: 8/15 - Batch: 2400/7933 - Learning rate: 0.0005 - Loss: 0.51770157
Epoch: 8/15 - Batch: 2500/7933 - Learning rate: 0.0005 - Loss: 0.5192523
Epoch: 8/15 - Batch: 2600/7933 - Learning rate: 0.0005 - Loss: 0.40023705
Epoch: 8/15 - Batch: 2700/7933 - Learning rate: 0.0005 - Loss: 0.24421932
Epoch: 8/15 - Batch: 2800/7933 - Learning rate: 0.0005 - Loss: 0.6596443
Epoch: 8/15 - Batch: 2900/7933 - Learning rate: 0.0005 - Loss: 0.79674315
Epoch: 8/15 - Batch: 3000/7933 - Learning rate: 0.0005 - Loss: 0.68461275 - Dev BLEU: 0.17090132991065693
Epoch: 8/15 - Batch: 3100/7933 - Learning rate: 0.0005 - Loss: 0.7211334
Epoch: 8/15 - Batch: 3200/7933 - Learning rate: 0.0005 - Loss: 0.68512654
Epoch: 8/15 - Batch: 3300/7933 - Learning rate: 0.0005 - Loss: 0.57082415
Epoch: 8/15 - Batch: 3400/7933 - Learning rate: 0.0005 - Loss: 0.56621104
Epoch: 8/15 - Batch: 3500/7933 - Learning rate: 0.0005 - Loss: 0.7096117
Epoch: 8/15 - Batch: 3600/7933 - Learning rate: 0.0005 - Loss: 0.7242628
Epoch: 8/15 - Batch: 3700/7933 - Learning rate: 0.0005 - Loss: 0.68689024
Epoch: 8/15 - Batch: 3800/7933 - Learning rate: 0.0005 - Loss: 0.65701544
Epoch: 8/15 - Batch: 3900/7933 - Learning rate: 0.0005 - Loss: 0.7430094
Epoch: 8/15 - Batch: 4000/7933 - Learning rate: 0.0005 - Loss: 0.42297804 - Dev BLEU: 0.2075581206939023
Epoch: 8/15 - Batch: 4100/7933 - Learning rate: 0.0005 - Loss: 0.5353193
Epoch: 8/15 - Batch: 4200/7933 - Learning rate: 0.0005 - Loss: 0.5440237
Epoch: 8/15 - Batch: 4300/7933 - Learning rate: 0.0005 - Loss: 0.6146645
Epoch: 8/15 - Batch: 4400/7933 - Learning rate: 0.0005 - Loss: 0.56972444
Epoch: 8/15 - Batch: 4500/7933 - Learning rate: 0.0005 - Loss: 0.640964
Epoch: 8/15 - Batch: 4600/7933 - Learning rate: 0.0005 - Loss: 1.0068556
Epoch: 8/15 - Batch: 4700/7933 - Learning rate: 0.0005 - Loss: 0.74751717
Epoch: 8/15 - Batch: 4800/7933 - Learning rate: 0.0005 - Loss: 0.6696878
Epoch: 8/15 - Batch: 4900/7933 - Learning rate: 0.0005 - Loss: 0.83829266
Epoch: 8/15 - Batch: 5000/7933 - Learning rate: 0.0005 - Loss: 0.8769657 - Dev BLEU: 0.23626325984142446
Epoch: 8/15 - Batch: 5100/7933 - Learning rate: 0.0005 - Loss: 0.92495996
Epoch: 8/15 - Batch: 5200/7933 - Learning rate: 0.0005 - Loss: 0.86829877
Epoch: 8/15 - Batch: 5300/7933 - Learning rate: 0.0005 - Loss: 0.8655833
Epoch: 8/15 - Batch: 5400/7933 - Learning rate: 0.0005 - Loss: 0.824731
Epoch: 8/15 - Batch: 5500/7933 - Learning rate: 0.0005 - Loss: 0.80043924
Epoch: 8/15 - Batch: 5600/7933 - Learning rate: 0.0005 - Loss: 0.6384006
Epoch: 8/15 - Batch: 5700/7933 - Learning rate: 0.0005 - Loss: 0.8193815
Epoch: 8/15 - Batch: 5800/7933 - Learning rate: 0.0005 - Loss: 0.7966357
Epoch: 8/15 - Batch: 5900/7933 - Learning rate: 0.0005 - Loss: 0.53313917
Epoch: 8/15 - Batch: 6000/7933 - Learning rate: 0.0005 - Loss: 0.8182625 - Dev BLEU: 0.23198212672001475
Epoch: 8/15 - Batch: 6100/7933 - Learning rate: 0.0005 - Loss: 0.75967395
Epoch: 8/15 - Batch: 6200/7933 - Learning rate: 0.0005 - Loss: 0.7433204
Epoch: 8/15 - Batch: 6300/7933 - Learning rate: 0.0005 - Loss: 0.6848043
Epoch: 8/15 - Batch: 6400/7933 - Learning rate: 0.0005 - Loss: 0.61920565
Epoch: 8/15 - Batch: 6500/7933 - Learning rate: 0.0005 - Loss: 0.7347076
Epoch: 8/15 - Batch: 6600/7933 - Learning rate: 0.0005 - Loss: 0.68816954
Epoch: 8/15 - Batch: 6700/7933 - Learning rate: 0.0005 - Loss: 0.7003664
Epoch: 8/15 - Batch: 6800/7933 - Learning rate: 0.0005 - Loss: 0.71062285
Epoch: 8/15 - Batch: 6900/7933 - Learning rate: 0.0005 - Loss: 0.48289308
Epoch: 8/15 - Batch: 7000/7933 - Learning rate: 0.0005 - Loss: 0.9892052 - Dev BLEU: 0.25222216354002475
Epoch: 8/15 - Batch: 7100/7933 - Learning rate: 0.0005 - Loss: 0.7503962
Epoch: 8/15 - Batch: 7200/7933 - Learning rate: 0.0005 - Loss: 0.60272026
Epoch: 8/15 - Batch: 7300/7933 - Learning rate: 0.0005 - Loss: 0.7432041
Epoch: 8/15 - Batch: 7400/7933 - Learning rate: 0.0005 - Loss: 0.78142846
Epoch: 8/15 - Batch: 7500/7933 - Learning rate: 0.0005 - Loss: 0.5870056
Epoch: 8/15 - Batch: 7600/7933 - Learning rate: 0.0005 - Loss: 1.0113611
Epoch: 8/15 - Batch: 7700/7933 - Learning rate: 0.0005 - Loss: 1.1574045
Epoch: 8/15 - Batch: 7800/7933 - Learning rate: 0.0005 - Loss: 1.0418127
Epoch: 8/15 - Batch: 7900/7933 - Learning rate: 0.0005 - Loss: 0.74003524
Epoch: 8/15 - Batch: 7933/7933 - Learning rate: 0.0005 - Loss: 0.96972495 - Dev BLEU: 0.23351275081735043
Epoch: 9/15 - Batch: 100/7933 - Learning rate: 0.00025 - Loss: 0.73482615
Epoch: 9/15 - Batch: 200/7933 - Learning rate: 0.00025 - Loss: 0.605499
Epoch: 9/15 - Batch: 300/7933 - Learning rate: 0.00025 - Loss: 0.50244904
Epoch: 9/15 - Batch: 400/7933 - Learning rate: 0.00025 - Loss: 0.7735759
Epoch: 9/15 - Batch: 500/7933 - Learning rate: 0.00025 - Loss: 0.50736254
Epoch: 9/15 - Batch: 600/7933 - Learning rate: 0.00025 - Loss: 0.37592286
Epoch: 9/15 - Batch: 700/7933 - Learning rate: 0.00025 - Loss: 0.56321454
Epoch: 9/15 - Batch: 800/7933 - Learning rate: 0.00025 - Loss: 0.56460863
Epoch: 9/15 - Batch: 900/7933 - Learning rate: 0.00025 - Loss: 0.3663093
Epoch: 9/15 - Batch: 1000/7933 - Learning rate: 0.00025 - Loss: 0.611959 - Dev BLEU: 0.21774579284636428
Epoch: 9/15 - Batch: 1100/7933 - Learning rate: 0.00025 - Loss: 0.56561524
Epoch: 9/15 - Batch: 1200/7933 - Learning rate: 0.00025 - Loss: 0.7325809
Epoch: 9/15 - Batch: 1300/7933 - Learning rate: 0.00025 - Loss: 0.6131382
Epoch: 9/15 - Batch: 1400/7933 - Learning rate: 0.00025 - Loss: 0.6993261
Epoch: 9/15 - Batch: 1500/7933 - Learning rate: 0.00025 - Loss: 0.5063022
Epoch: 9/15 - Batch: 1600/7933 - Learning rate: 0.00025 - Loss: 0.9483485
Epoch: 9/15 - Batch: 1700/7933 - Learning rate: 0.00025 - Loss: 0.7010353
Epoch: 9/15 - Batch: 1800/7933 - Learning rate: 0.00025 - Loss: 0.3776857
Epoch: 9/15 - Batch: 1900/7933 - Learning rate: 0.00025 - Loss: 0.5738942
Epoch: 9/15 - Batch: 2000/7933 - Learning rate: 0.00025 - Loss: 0.56879014 - Dev BLEU: 0.2084308071581611
Epoch: 9/15 - Batch: 2100/7933 - Learning rate: 0.00025 - Loss: 0.49894363
Epoch: 9/15 - Batch: 2200/7933 - Learning rate: 0.00025 - Loss: 0.49014765
Epoch: 9/15 - Batch: 2300/7933 - Learning rate: 0.00025 - Loss: 0.62105775
Epoch: 9/15 - Batch: 2400/7933 - Learning rate: 0.00025 - Loss: 0.49506196
Epoch: 9/15 - Batch: 2500/7933 - Learning rate: 0.00025 - Loss: 0.5053279
Epoch: 9/15 - Batch: 2600/7933 - Learning rate: 0.00025 - Loss: 0.38573498
Epoch: 9/15 - Batch: 2700/7933 - Learning rate: 0.00025 - Loss: 0.23574615
Epoch: 9/15 - Batch: 2800/7933 - Learning rate: 0.00025 - Loss: 0.6554763
Epoch: 9/15 - Batch: 2900/7933 - Learning rate: 0.00025 - Loss: 0.76666266
Epoch: 9/15 - Batch: 3000/7933 - Learning rate: 0.00025 - Loss: 0.6673201 - Dev BLEU: 0.21217020813513174
Epoch: 9/15 - Batch: 3100/7933 - Learning rate: 0.00025 - Loss: 0.6847403
Epoch: 9/15 - Batch: 3200/7933 - Learning rate: 0.00025 - Loss: 0.65068823
Epoch: 9/15 - Batch: 3300/7933 - Learning rate: 0.00025 - Loss: 0.54817885
Epoch: 9/15 - Batch: 3400/7933 - Learning rate: 0.00025 - Loss: 0.54401946
Epoch: 9/15 - Batch: 3500/7933 - Learning rate: 0.00025 - Loss: 0.67022246
Epoch: 9/15 - Batch: 3600/7933 - Learning rate: 0.00025 - Loss: 0.6829337
Epoch: 9/15 - Batch: 3700/7933 - Learning rate: 0.00025 - Loss: 0.65640944
Epoch: 9/15 - Batch: 3800/7933 - Learning rate: 0.00025 - Loss: 0.61940956
Epoch: 9/15 - Batch: 3900/7933 - Learning rate: 0.00025 - Loss: 0.6903939
Epoch: 9/15 - Batch: 4000/7933 - Learning rate: 0.00025 - Loss: 0.4045179 - Dev BLEU: 0.22127144253190123
Epoch: 9/15 - Batch: 4100/7933 - Learning rate: 0.00025 - Loss: 0.52056557
Epoch: 9/15 - Batch: 4200/7933 - Learning rate: 0.00025 - Loss: 0.51271975
Epoch: 9/15 - Batch: 4300/7933 - Learning rate: 0.00025 - Loss: 0.60098004
Epoch: 9/15 - Batch: 4400/7933 - Learning rate: 0.00025 - Loss: 0.5490741
Epoch: 9/15 - Batch: 4500/7933 - Learning rate: 0.00025 - Loss: 0.62350976
Epoch: 9/15 - Batch: 4600/7933 - Learning rate: 0.00025 - Loss: 0.91052395
Epoch: 9/15 - Batch: 4700/7933 - Learning rate: 0.00025 - Loss: 0.6672211
Epoch: 9/15 - Batch: 4800/7933 - Learning rate: 0.00025 - Loss: 0.63229144
Epoch: 9/15 - Batch: 4900/7933 - Learning rate: 0.00025 - Loss: 0.766343
Epoch: 9/15 - Batch: 5000/7933 - Learning rate: 0.00025 - Loss: 0.8287739 - Dev BLEU: 0.24415324775249184
Epoch: 9/15 - Batch: 5100/7933 - Learning rate: 0.00025 - Loss: 0.8556196
Epoch: 9/15 - Batch: 5200/7933 - Learning rate: 0.00025 - Loss: 0.82538134
Epoch: 9/15 - Batch: 5300/7933 - Learning rate: 0.00025 - Loss: 0.8238033
Epoch: 9/15 - Batch: 5400/7933 - Learning rate: 0.00025 - Loss: 0.7714359
Epoch: 9/15 - Batch: 5500/7933 - Learning rate: 0.00025 - Loss: 0.74135506
Epoch: 9/15 - Batch: 5600/7933 - Learning rate: 0.00025 - Loss: 0.587283
Epoch: 9/15 - Batch: 5700/7933 - Learning rate: 0.00025 - Loss: 0.7766155
Epoch: 9/15 - Batch: 5800/7933 - Learning rate: 0.00025 - Loss: 0.7324463
Epoch: 9/15 - Batch: 5900/7933 - Learning rate: 0.00025 - Loss: 0.49533144
Epoch: 9/15 - Batch: 6000/7933 - Learning rate: 0.00025 - Loss: 0.77871734 - Dev BLEU: 0.243291581995867
Epoch: 9/15 - Batch: 6100/7933 - Learning rate: 0.00025 - Loss: 0.70823836
Epoch: 9/15 - Batch: 6200/7933 - Learning rate: 0.00025 - Loss: 0.68256503
Epoch: 9/15 - Batch: 6300/7933 - Learning rate: 0.00025 - Loss: 0.6564385
Epoch: 9/15 - Batch: 6400/7933 - Learning rate: 0.00025 - Loss: 0.5973838
Epoch: 9/15 - Batch: 6500/7933 - Learning rate: 0.00025 - Loss: 1.6601069
Epoch: 9/15 - Batch: 6600/7933 - Learning rate: 0.00025 - Loss: 0.74289685
Epoch: 9/15 - Batch: 6700/7933 - Learning rate: 0.00025 - Loss: 0.71090907
Epoch: 9/15 - Batch: 6800/7933 - Learning rate: 0.00025 - Loss: 0.72156084
Epoch: 9/15 - Batch: 6900/7933 - Learning rate: 0.00025 - Loss: 0.4998548
Epoch: 9/15 - Batch: 7000/7933 - Learning rate: 0.00025 - Loss: 1.0100253 - Dev BLEU: 0.24658935631355358
Epoch: 9/15 - Batch: 7100/7933 - Learning rate: 0.00025 - Loss: 0.76500165
Epoch: 9/15 - Batch: 7200/7933 - Learning rate: 0.00025 - Loss: 0.6239074
Epoch: 9/15 - Batch: 7300/7933 - Learning rate: 0.00025 - Loss: 0.7491656
Epoch: 9/15 - Batch: 7400/7933 - Learning rate: 0.00025 - Loss: 0.79530704
Epoch: 9/15 - Batch: 7500/7933 - Learning rate: 0.00025 - Loss: 0.6056488
Epoch: 9/15 - Batch: 7600/7933 - Learning rate: 0.00025 - Loss: 1.045546
Epoch: 9/15 - Batch: 7700/7933 - Learning rate: 0.00025 - Loss: 1.1858157
Epoch: 9/15 - Batch: 7800/7933 - Learning rate: 0.00025 - Loss: 1.0845354
Epoch: 9/15 - Batch: 7900/7933 - Learning rate: 0.00025 - Loss: 0.7840859
Epoch: 9/15 - Batch: 7933/7933 - Learning rate: 0.00025 - Loss: 1.0347328 - Dev BLEU: 0.23594698023118377
Epoch: 10/15 - Batch: 100/7933 - Learning rate: 0.000125 - Loss: 0.75784296
Epoch: 10/15 - Batch: 200/7933 - Learning rate: 0.000125 - Loss: 0.65438986
Epoch: 10/15 - Batch: 300/7933 - Learning rate: 0.000125 - Loss: 0.51107484
Epoch: 10/15 - Batch: 400/7933 - Learning rate: 0.000125 - Loss: 0.79052424
Epoch: 10/15 - Batch: 500/7933 - Learning rate: 0.000125 - Loss: 0.5339064
Epoch: 10/15 - Batch: 600/7933 - Learning rate: 0.000125 - Loss: 0.3841115
Epoch: 10/15 - Batch: 700/7933 - Learning rate: 0.000125 - Loss: 0.5839471
Epoch: 10/15 - Batch: 800/7933 - Learning rate: 0.000125 - Loss: 0.57572246
Epoch: 10/15 - Batch: 900/7933 - Learning rate: 0.000125 - Loss: 0.37197214
Epoch: 10/15 - Batch: 1000/7933 - Learning rate: 0.000125 - Loss: 0.6309517 - Dev BLEU: 0.2247709296106741
Epoch: 10/15 - Batch: 1100/7933 - Learning rate: 0.000125 - Loss: 0.57772326
Epoch: 10/15 - Batch: 1200/7933 - Learning rate: 0.000125 - Loss: 0.7400567
Epoch: 10/15 - Batch: 1300/7933 - Learning rate: 0.000125 - Loss: 0.63819546
Epoch: 10/15 - Batch: 1400/7933 - Learning rate: 0.000125 - Loss: 0.72468466
Epoch: 10/15 - Batch: 1500/7933 - Learning rate: 0.000125 - Loss: 0.5361056
Epoch: 10/15 - Batch: 1600/7933 - Learning rate: 0.000125 - Loss: 0.9769187
Epoch: 10/15 - Batch: 1700/7933 - Learning rate: 0.000125 - Loss: 0.71382815
Epoch: 10/15 - Batch: 1800/7933 - Learning rate: 0.000125 - Loss: 0.37891752
Epoch: 10/15 - Batch: 1900/7933 - Learning rate: 0.000125 - Loss: 0.60036474
Epoch: 10/15 - Batch: 2000/7933 - Learning rate: 0.000125 - Loss: 0.61575186 - Dev BLEU: 0.21825995422626515
Epoch: 10/15 - Batch: 2100/7933 - Learning rate: 0.000125 - Loss: 0.4839819
Epoch: 10/15 - Batch: 2200/7933 - Learning rate: 0.000125 - Loss: 0.52556765
Epoch: 10/15 - Batch: 2300/7933 - Learning rate: 0.000125 - Loss: 0.63525766
Epoch: 10/15 - Batch: 2400/7933 - Learning rate: 0.000125 - Loss: 0.509362
Epoch: 10/15 - Batch: 2500/7933 - Learning rate: 0.000125 - Loss: 0.5071573
Epoch: 10/15 - Batch: 2600/7933 - Learning rate: 0.000125 - Loss: 0.42283016
Epoch: 10/15 - Batch: 2700/7933 - Learning rate: 0.000125 - Loss: 0.24955094
Epoch: 10/15 - Batch: 2800/7933 - Learning rate: 0.000125 - Loss: 0.6720255
Epoch: 10/15 - Batch: 2900/7933 - Learning rate: 0.000125 - Loss: 0.77905804
Epoch: 10/15 - Batch: 3000/7933 - Learning rate: 0.000125 - Loss: 0.67285234 - Dev BLEU: 0.21387938477872415
Epoch: 10/15 - Batch: 3100/7933 - Learning rate: 0.000125 - Loss: 0.6875357
Epoch: 10/15 - Batch: 3200/7933 - Learning rate: 0.000125 - Loss: 0.6540223
Epoch: 10/15 - Batch: 3300/7933 - Learning rate: 0.000125 - Loss: 0.55128896
Epoch: 10/15 - Batch: 3400/7933 - Learning rate: 0.000125 - Loss: 0.5588712
Epoch: 10/15 - Batch: 3500/7933 - Learning rate: 0.000125 - Loss: 0.6855571
Epoch: 10/15 - Batch: 3600/7933 - Learning rate: 0.000125 - Loss: 0.70254177
Epoch: 10/15 - Batch: 3700/7933 - Learning rate: 0.000125 - Loss: 0.6673811
Epoch: 10/15 - Batch: 3800/7933 - Learning rate: 0.000125 - Loss: 0.63124764
Epoch: 10/15 - Batch: 3900/7933 - Learning rate: 0.000125 - Loss: 0.7318447
Epoch: 10/15 - Batch: 4000/7933 - Learning rate: 0.000125 - Loss: 0.41250768 - Dev BLEU: 0.21690528850208965
Epoch: 10/15 - Batch: 4100/7933 - Learning rate: 0.000125 - Loss: 0.531015
Epoch: 10/15 - Batch: 4200/7933 - Learning rate: 0.000125 - Loss: 0.521933
Epoch: 10/15 - Batch: 4300/7933 - Learning rate: 0.000125 - Loss: 0.5877652
Epoch: 10/15 - Batch: 4400/7933 - Learning rate: 0.000125 - Loss: 0.54503113
Epoch: 10/15 - Batch: 4500/7933 - Learning rate: 0.000125 - Loss: 0.6109939
Epoch: 10/15 - Batch: 4600/7933 - Learning rate: 0.000125 - Loss: 0.89707255
Epoch: 10/15 - Batch: 4700/7933 - Learning rate: 0.000125 - Loss: 0.66936827
Epoch: 10/15 - Batch: 4800/7933 - Learning rate: 0.000125 - Loss: 0.60615265
Epoch: 10/15 - Batch: 4900/7933 - Learning rate: 0.000125 - Loss: 0.77018857
Epoch: 10/15 - Batch: 5000/7933 - Learning rate: 0.000125 - Loss: 0.8190033 - Dev BLEU: 0.23719656893057547
Epoch: 10/15 - Batch: 5100/7933 - Learning rate: 0.000125 - Loss: 0.8343838
Epoch: 10/15 - Batch: 5200/7933 - Learning rate: 0.000125 - Loss: 0.8323284
Epoch: 10/15 - Batch: 5300/7933 - Learning rate: 0.000125 - Loss: 0.7935676
Epoch: 10/15 - Batch: 5400/7933 - Learning rate: 0.000125 - Loss: 0.73369837
Epoch: 10/15 - Batch: 5500/7933 - Learning rate: 0.000125 - Loss: 0.7253454
Epoch: 10/15 - Batch: 5600/7933 - Learning rate: 0.000125 - Loss: 0.5881659
Epoch: 10/15 - Batch: 5700/7933 - Learning rate: 0.000125 - Loss: 0.75914395
Epoch: 10/15 - Batch: 5800/7933 - Learning rate: 0.000125 - Loss: 0.6940069
Epoch: 10/15 - Batch: 5900/7933 - Learning rate: 0.000125 - Loss: 0.47700882
Epoch: 10/15 - Batch: 6000/7933 - Learning rate: 0.000125 - Loss: 0.7561873 - Dev BLEU: 0.24351357075826216
Epoch: 10/15 - Batch: 6100/7933 - Learning rate: 0.000125 - Loss: 0.68257076
Epoch: 10/15 - Batch: 6200/7933 - Learning rate: 0.000125 - Loss: 0.6820264
Epoch: 10/15 - Batch: 6300/7933 - Learning rate: 0.000125 - Loss: 0.6400606
Epoch: 10/15 - Batch: 6400/7933 - Learning rate: 0.000125 - Loss: 0.5929054
Epoch: 10/15 - Batch: 6500/7933 - Learning rate: 0.000125 - Loss: 0.71580625
Epoch: 10/15 - Batch: 6600/7933 - Learning rate: 0.000125 - Loss: 0.69166607
Epoch: 10/15 - Batch: 6700/7933 - Learning rate: 0.000125 - Loss: 0.69744956
Epoch: 10/15 - Batch: 6800/7933 - Learning rate: 0.000125 - Loss: 0.7060271
Epoch: 10/15 - Batch: 6900/7933 - Learning rate: 0.000125 - Loss: 0.4822181
Epoch: 10/15 - Batch: 7000/7933 - Learning rate: 0.000125 - Loss: 0.9876323 - Dev BLEU: 0.2512801126357171
Epoch: 10/15 - Batch: 7100/7933 - Learning rate: 0.000125 - Loss: 0.7410081
Epoch: 10/15 - Batch: 7200/7933 - Learning rate: 0.000125 - Loss: 0.6146148
Epoch: 10/15 - Batch: 7300/7933 - Learning rate: 0.000125 - Loss: 0.7350109
Epoch: 10/15 - Batch: 7400/7933 - Learning rate: 0.000125 - Loss: 0.7805385
Epoch: 10/15 - Batch: 7500/7933 - Learning rate: 0.000125 - Loss: 0.5883992
Epoch: 10/15 - Batch: 7600/7933 - Learning rate: 0.000125 - Loss: 1.003627
Epoch: 10/15 - Batch: 7700/7933 - Learning rate: 0.000125 - Loss: 1.1512295
Epoch: 10/15 - Batch: 7800/7933 - Learning rate: 0.000125 - Loss: 1.054268
Epoch: 10/15 - Batch: 7900/7933 - Learning rate: 0.000125 - Loss: 0.7587429
Epoch: 10/15 - Batch: 7933/7933 - Learning rate: 0.000125 - Loss: 0.9683438 - Dev BLEU: 0.24457111111544821
Epoch: 11/15 - Batch: 100/7933 - Learning rate: 6.25e-05 - Loss: 0.7405975
Epoch: 11/15 - Batch: 200/7933 - Learning rate: 6.25e-05 - Loss: 0.61594254
Epoch: 11/15 - Batch: 300/7933 - Learning rate: 6.25e-05 - Loss: 0.4959805
Epoch: 11/15 - Batch: 400/7933 - Learning rate: 6.25e-05 - Loss: 0.7621417
Epoch: 11/15 - Batch: 500/7933 - Learning rate: 6.25e-05 - Loss: 0.5047824
Epoch: 11/15 - Batch: 600/7933 - Learning rate: 6.25e-05 - Loss: 0.36614645
Epoch: 11/15 - Batch: 700/7933 - Learning rate: 6.25e-05 - Loss: 0.56233406
Epoch: 11/15 - Batch: 800/7933 - Learning rate: 6.25e-05 - Loss: 0.5572083
Epoch: 11/15 - Batch: 900/7933 - Learning rate: 6.25e-05 - Loss: 0.36885574
Epoch: 11/15 - Batch: 1000/7933 - Learning rate: 6.25e-05 - Loss: 0.617503 - Dev BLEU: 0.22819643023721647
Epoch: 11/15 - Batch: 1100/7933 - Learning rate: 6.25e-05 - Loss: 0.5712439
Epoch: 11/15 - Batch: 1200/7933 - Learning rate: 6.25e-05 - Loss: 0.7152554
Epoch: 11/15 - Batch: 1300/7933 - Learning rate: 6.25e-05 - Loss: 0.60040873
Epoch: 11/15 - Batch: 1400/7933 - Learning rate: 6.25e-05 - Loss: 0.70443887
Epoch: 11/15 - Batch: 1500/7933 - Learning rate: 6.25e-05 - Loss: 0.52901846
Epoch: 11/15 - Batch: 1600/7933 - Learning rate: 6.25e-05 - Loss: 0.9410973
Epoch: 11/15 - Batch: 1700/7933 - Learning rate: 6.25e-05 - Loss: 0.69013894
Epoch: 11/15 - Batch: 1800/7933 - Learning rate: 6.25e-05 - Loss: 0.36905086
Epoch: 11/15 - Batch: 1900/7933 - Learning rate: 6.25e-05 - Loss: 0.57598734
Epoch: 11/15 - Batch: 2000/7933 - Learning rate: 6.25e-05 - Loss: 0.58797777 - Dev BLEU: 0.22418705808532743
Epoch: 11/15 - Batch: 2100/7933 - Learning rate: 6.25e-05 - Loss: 0.4731524
Epoch: 11/15 - Batch: 2200/7933 - Learning rate: 6.25e-05 - Loss: 0.49878624
Epoch: 11/15 - Batch: 2300/7933 - Learning rate: 6.25e-05 - Loss: 0.6197493
Epoch: 11/15 - Batch: 2400/7933 - Learning rate: 6.25e-05 - Loss: 0.49692282
Epoch: 11/15 - Batch: 2500/7933 - Learning rate: 6.25e-05 - Loss: 0.4860627
Epoch: 11/15 - Batch: 2600/7933 - Learning rate: 6.25e-05 - Loss: 0.40392917
Epoch: 11/15 - Batch: 2700/7933 - Learning rate: 6.25e-05 - Loss: 0.24112925
Epoch: 11/15 - Batch: 2800/7933 - Learning rate: 6.25e-05 - Loss: 0.64973325
Epoch: 11/15 - Batch: 2900/7933 - Learning rate: 6.25e-05 - Loss: 0.7577672
Epoch: 11/15 - Batch: 3000/7933 - Learning rate: 6.25e-05 - Loss: 0.6632648 - Dev BLEU: 0.22056710227087992
Epoch: 11/15 - Batch: 3100/7933 - Learning rate: 6.25e-05 - Loss: 0.6798207
Epoch: 11/15 - Batch: 3200/7933 - Learning rate: 6.25e-05 - Loss: 0.64487445
Epoch: 11/15 - Batch: 3300/7933 - Learning rate: 6.25e-05 - Loss: 0.5409503
Epoch: 11/15 - Batch: 3400/7933 - Learning rate: 6.25e-05 - Loss: 0.5368703
Epoch: 11/15 - Batch: 3500/7933 - Learning rate: 6.25e-05 - Loss: 0.66307825
Epoch: 11/15 - Batch: 3600/7933 - Learning rate: 6.25e-05 - Loss: 0.68556607
Epoch: 11/15 - Batch: 3700/7933 - Learning rate: 6.25e-05 - Loss: 0.65023357
Epoch: 11/15 - Batch: 3800/7933 - Learning rate: 6.25e-05 - Loss: 0.6152911
Epoch: 11/15 - Batch: 3900/7933 - Learning rate: 6.25e-05 - Loss: 0.7021358
Epoch: 11/15 - Batch: 4000/7933 - Learning rate: 6.25e-05 - Loss: 0.41141167 - Dev BLEU: 0.22438169775800143
Epoch: 11/15 - Batch: 4100/7933 - Learning rate: 6.25e-05 - Loss: 0.5263582
Epoch: 11/15 - Batch: 4200/7933 - Learning rate: 6.25e-05 - Loss: 0.50495005
Epoch: 11/15 - Batch: 4300/7933 - Learning rate: 6.25e-05 - Loss: 0.58556306
Epoch: 11/15 - Batch: 4400/7933 - Learning rate: 6.25e-05 - Loss: 0.5382984
Epoch: 11/15 - Batch: 4500/7933 - Learning rate: 6.25e-05 - Loss: 0.613385
Epoch: 11/15 - Batch: 4600/7933 - Learning rate: 6.25e-05 - Loss: 0.8504599
Epoch: 11/15 - Batch: 4700/7933 - Learning rate: 6.25e-05 - Loss: 0.62756795
Epoch: 11/15 - Batch: 4800/7933 - Learning rate: 6.25e-05 - Loss: 0.59456414
Epoch: 11/15 - Batch: 4900/7933 - Learning rate: 6.25e-05 - Loss: 0.72578025
Epoch: 11/15 - Batch: 5000/7933 - Learning rate: 6.25e-05 - Loss: 0.7919958 - Dev BLEU: 0.24637199954174732
Epoch: 11/15 - Batch: 5100/7933 - Learning rate: 6.25e-05 - Loss: 0.8361549
Epoch: 11/15 - Batch: 5200/7933 - Learning rate: 6.25e-05 - Loss: 0.8070823
Epoch: 11/15 - Batch: 5300/7933 - Learning rate: 6.25e-05 - Loss: 0.78598815
Epoch: 11/15 - Batch: 5400/7933 - Learning rate: 6.25e-05 - Loss: 0.73677367
Epoch: 11/15 - Batch: 5500/7933 - Learning rate: 6.25e-05 - Loss: 0.7053503
Epoch: 11/15 - Batch: 5600/7933 - Learning rate: 6.25e-05 - Loss: 0.58595717
Epoch: 11/15 - Batch: 5700/7933 - Learning rate: 6.25e-05 - Loss: 0.7228212
Epoch: 11/15 - Batch: 5800/7933 - Learning rate: 6.25e-05 - Loss: 0.7016112
Epoch: 11/15 - Batch: 5900/7933 - Learning rate: 6.25e-05 - Loss: 0.4813519
Epoch: 11/15 - Batch: 6000/7933 - Learning rate: 6.25e-05 - Loss: 0.7493182 - Dev BLEU: 0.24941086261688722
Epoch: 11/15 - Batch: 6100/7933 - Learning rate: 6.25e-05 - Loss: 0.66810155
Epoch: 11/15 - Batch: 6200/7933 - Learning rate: 6.25e-05 - Loss: 0.66539484
Epoch: 11/15 - Batch: 6300/7933 - Learning rate: 6.25e-05 - Loss: 0.6213479
Epoch: 11/15 - Batch: 6400/7933 - Learning rate: 6.25e-05 - Loss: 0.57864517
Epoch: 11/15 - Batch: 6500/7933 - Learning rate: 6.25e-05 - Loss: 0.7087703
Epoch: 11/15 - Batch: 6600/7933 - Learning rate: 6.25e-05 - Loss: 0.6880237
Epoch: 11/15 - Batch: 6700/7933 - Learning rate: 6.25e-05 - Loss: 0.6867082
Epoch: 11/15 - Batch: 6800/7933 - Learning rate: 6.25e-05 - Loss: 0.70091724
Epoch: 11/15 - Batch: 6900/7933 - Learning rate: 6.25e-05 - Loss: 0.47934753
Epoch: 11/15 - Batch: 7000/7933 - Learning rate: 6.25e-05 - Loss: 0.97128993 - Dev BLEU: 0.25477177589479105
Epoch: 11/15 - Batch: 7100/7933 - Learning rate: 6.25e-05 - Loss: 0.7275709
Epoch: 11/15 - Batch: 7200/7933 - Learning rate: 6.25e-05 - Loss: 0.596261
Epoch: 11/15 - Batch: 7300/7933 - Learning rate: 6.25e-05 - Loss: 0.7299165
Epoch: 11/15 - Batch: 7400/7933 - Learning rate: 6.25e-05 - Loss: 0.76196355
Epoch: 11/15 - Batch: 7500/7933 - Learning rate: 6.25e-05 - Loss: 0.58425486
Epoch: 11/15 - Batch: 7600/7933 - Learning rate: 6.25e-05 - Loss: 0.97992915
Epoch: 11/15 - Batch: 7700/7933 - Learning rate: 6.25e-05 - Loss: 1.1347069
Epoch: 11/15 - Batch: 7800/7933 - Learning rate: 6.25e-05 - Loss: 1.0254624
Epoch: 11/15 - Batch: 7900/7933 - Learning rate: 6.25e-05 - Loss: 0.7475121
Epoch: 11/15 - Batch: 7933/7933 - Learning rate: 6.25e-05 - Loss: 0.94130147 - Dev BLEU: 0.24753708882602446
Epoch: 12/15 - Batch: 100/7933 - Learning rate: 3.125e-05 - Loss: 0.716582
Epoch: 12/15 - Batch: 200/7933 - Learning rate: 3.125e-05 - Loss: 0.6007017
Epoch: 12/15 - Batch: 300/7933 - Learning rate: 3.125e-05 - Loss: 0.481195
Epoch: 12/15 - Batch: 400/7933 - Learning rate: 3.125e-05 - Loss: 0.7371925
Epoch: 12/15 - Batch: 500/7933 - Learning rate: 3.125e-05 - Loss: 0.49763712
Epoch: 12/15 - Batch: 600/7933 - Learning rate: 3.125e-05 - Loss: 0.3617503
Epoch: 12/15 - Batch: 700/7933 - Learning rate: 3.125e-05 - Loss: 0.5648542
Epoch: 12/15 - Batch: 800/7933 - Learning rate: 3.125e-05 - Loss: 0.5424336
Epoch: 12/15 - Batch: 900/7933 - Learning rate: 3.125e-05 - Loss: 0.35757986
Epoch: 12/15 - Batch: 1000/7933 - Learning rate: 3.125e-05 - Loss: 0.5933235 - Dev BLEU: 0.2312638252158644
Epoch: 12/15 - Batch: 1100/7933 - Learning rate: 3.125e-05 - Loss: 0.55952495
Epoch: 12/15 - Batch: 1200/7933 - Learning rate: 3.125e-05 - Loss: 0.70878905
Epoch: 12/15 - Batch: 1300/7933 - Learning rate: 3.125e-05 - Loss: 0.6003388
Epoch: 12/15 - Batch: 1400/7933 - Learning rate: 3.125e-05 - Loss: 0.6873754
Epoch: 12/15 - Batch: 1500/7933 - Learning rate: 3.125e-05 - Loss: 0.51281375
Epoch: 12/15 - Batch: 1600/7933 - Learning rate: 3.125e-05 - Loss: 0.9241994
Epoch: 12/15 - Batch: 1700/7933 - Learning rate: 3.125e-05 - Loss: 0.6743877
Epoch: 12/15 - Batch: 1800/7933 - Learning rate: 3.125e-05 - Loss: 0.36364043
Epoch: 12/15 - Batch: 1900/7933 - Learning rate: 3.125e-05 - Loss: 0.5705005
Epoch: 12/15 - Batch: 2000/7933 - Learning rate: 3.125e-05 - Loss: 0.58027345 - Dev BLEU: 0.2278071666257921
Epoch: 12/15 - Batch: 2100/7933 - Learning rate: 3.125e-05 - Loss: 0.4695555
Epoch: 12/15 - Batch: 2200/7933 - Learning rate: 3.125e-05 - Loss: 0.4792015
Epoch: 12/15 - Batch: 2300/7933 - Learning rate: 3.125e-05 - Loss: 0.6240576
Epoch: 12/15 - Batch: 2400/7933 - Learning rate: 3.125e-05 - Loss: 0.48793334
Epoch: 12/15 - Batch: 2500/7933 - Learning rate: 3.125e-05 - Loss: 0.48820874
Epoch: 12/15 - Batch: 2600/7933 - Learning rate: 3.125e-05 - Loss: 0.39460638
Epoch: 12/15 - Batch: 2700/7933 - Learning rate: 3.125e-05 - Loss: 0.23313391
Epoch: 12/15 - Batch: 2800/7933 - Learning rate: 3.125e-05 - Loss: 0.6351355
Epoch: 12/15 - Batch: 2900/7933 - Learning rate: 3.125e-05 - Loss: 0.7518647
Epoch: 12/15 - Batch: 3000/7933 - Learning rate: 3.125e-05 - Loss: 0.66225135 - Dev BLEU: 0.22414138343404275
Epoch: 12/15 - Batch: 3100/7933 - Learning rate: 3.125e-05 - Loss: 0.6669757
Epoch: 12/15 - Batch: 3200/7933 - Learning rate: 3.125e-05 - Loss: 0.6441959
Epoch: 12/15 - Batch: 3300/7933 - Learning rate: 3.125e-05 - Loss: 0.5414835
Epoch: 12/15 - Batch: 3400/7933 - Learning rate: 3.125e-05 - Loss: 0.5386739
Epoch: 12/15 - Batch: 3500/7933 - Learning rate: 3.125e-05 - Loss: 0.65421885
Epoch: 12/15 - Batch: 3600/7933 - Learning rate: 3.125e-05 - Loss: 0.68396866
Epoch: 12/15 - Batch: 3700/7933 - Learning rate: 3.125e-05 - Loss: 0.6599433
Epoch: 12/15 - Batch: 3800/7933 - Learning rate: 3.125e-05 - Loss: 0.6068691
Epoch: 12/15 - Batch: 3900/7933 - Learning rate: 3.125e-05 - Loss: 0.69564384
Epoch: 12/15 - Batch: 4000/7933 - Learning rate: 3.125e-05 - Loss: 0.4058871 - Dev BLEU: 0.22537384311296219
Epoch: 12/15 - Batch: 4100/7933 - Learning rate: 3.125e-05 - Loss: 0.5175794
Epoch: 12/15 - Batch: 4200/7933 - Learning rate: 3.125e-05 - Loss: 0.50104964
Epoch: 12/15 - Batch: 4300/7933 - Learning rate: 3.125e-05 - Loss: 0.5853577
Epoch: 12/15 - Batch: 4400/7933 - Learning rate: 3.125e-05 - Loss: 0.5283739
Epoch: 12/15 - Batch: 4500/7933 - Learning rate: 3.125e-05 - Loss: 0.59887004
Epoch: 12/15 - Batch: 4600/7933 - Learning rate: 3.125e-05 - Loss: 0.87301564
Epoch: 12/15 - Batch: 4700/7933 - Learning rate: 3.125e-05 - Loss: 0.6191503
Epoch: 12/15 - Batch: 4800/7933 - Learning rate: 3.125e-05 - Loss: 0.58805263
Epoch: 12/15 - Batch: 4900/7933 - Learning rate: 3.125e-05 - Loss: 0.7390908
Epoch: 12/15 - Batch: 5000/7933 - Learning rate: 3.125e-05 - Loss: 0.77087456 - Dev BLEU: 0.24816422713724426
Epoch: 12/15 - Batch: 5100/7933 - Learning rate: 3.125e-05 - Loss: 0.8155676
Epoch: 12/15 - Batch: 5200/7933 - Learning rate: 3.125e-05 - Loss: 0.81639934
Epoch: 12/15 - Batch: 5300/7933 - Learning rate: 3.125e-05 - Loss: 0.77701765
Epoch: 12/15 - Batch: 5400/7933 - Learning rate: 3.125e-05 - Loss: 0.72677773
Epoch: 12/15 - Batch: 5500/7933 - Learning rate: 3.125e-05 - Loss: 0.7179368
Epoch: 12/15 - Batch: 5600/7933 - Learning rate: 3.125e-05 - Loss: 0.58293325
Epoch: 12/15 - Batch: 5700/7933 - Learning rate: 3.125e-05 - Loss: 0.73194414
Epoch: 12/15 - Batch: 5800/7933 - Learning rate: 3.125e-05 - Loss: 0.70640564
Epoch: 12/15 - Batch: 5900/7933 - Learning rate: 3.125e-05 - Loss: 0.46933472
Epoch: 12/15 - Batch: 6000/7933 - Learning rate: 3.125e-05 - Loss: 0.75908244 - Dev BLEU: 0.2506159922704691
Epoch: 12/15 - Batch: 6100/7933 - Learning rate: 3.125e-05 - Loss: 0.6713148
Epoch: 12/15 - Batch: 6200/7933 - Learning rate: 3.125e-05 - Loss: 0.6567605
Epoch: 12/15 - Batch: 6300/7933 - Learning rate: 3.125e-05 - Loss: 0.61420214
Epoch: 12/15 - Batch: 6400/7933 - Learning rate: 3.125e-05 - Loss: 0.588965
Epoch: 12/15 - Batch: 6500/7933 - Learning rate: 3.125e-05 - Loss: 0.7010696
Epoch: 12/15 - Batch: 6600/7933 - Learning rate: 3.125e-05 - Loss: 0.68353605
Epoch: 12/15 - Batch: 6700/7933 - Learning rate: 3.125e-05 - Loss: 0.69078
Epoch: 12/15 - Batch: 6800/7933 - Learning rate: 3.125e-05 - Loss: 0.6962444
Epoch: 12/15 - Batch: 6900/7933 - Learning rate: 3.125e-05 - Loss: 0.46664402
Epoch: 12/15 - Batch: 7000/7933 - Learning rate: 3.125e-05 - Loss: 0.96973264 - Dev BLEU: 0.25421385396605806
Epoch: 12/15 - Batch: 7100/7933 - Learning rate: 3.125e-05 - Loss: 0.71575016
Epoch: 12/15 - Batch: 7200/7933 - Learning rate: 3.125e-05 - Loss: 0.5943844
Epoch: 12/15 - Batch: 7300/7933 - Learning rate: 3.125e-05 - Loss: 0.71909195
Epoch: 12/15 - Batch: 7400/7933 - Learning rate: 3.125e-05 - Loss: 0.7572049
Epoch: 12/15 - Batch: 7500/7933 - Learning rate: 3.125e-05 - Loss: 0.5744747
Epoch: 12/15 - Batch: 7600/7933 - Learning rate: 3.125e-05 - Loss: 0.97423434
Epoch: 12/15 - Batch: 7700/7933 - Learning rate: 3.125e-05 - Loss: 1.1240999
Epoch: 12/15 - Batch: 7800/7933 - Learning rate: 3.125e-05 - Loss: 1.010141
Epoch: 12/15 - Batch: 7900/7933 - Learning rate: 3.125e-05 - Loss: 0.7329784
Epoch: 12/15 - Batch: 7933/7933 - Learning rate: 3.125e-05 - Loss: 0.9465071 - Dev BLEU: 0.2502307719077382
Epoch: 13/15 - Batch: 100/7933 - Learning rate: 1.5625e-05 - Loss: 0.7249957
Epoch: 13/15 - Batch: 200/7933 - Learning rate: 1.5625e-05 - Loss: 0.5888585
Epoch: 13/15 - Batch: 300/7933 - Learning rate: 1.5625e-05 - Loss: 0.47432667
Epoch: 13/15 - Batch: 400/7933 - Learning rate: 1.5625e-05 - Loss: 0.7457276
Epoch: 13/15 - Batch: 500/7933 - Learning rate: 1.5625e-05 - Loss: 0.50030464
Epoch: 13/15 - Batch: 600/7933 - Learning rate: 1.5625e-05 - Loss: 0.36363453
Epoch: 13/15 - Batch: 700/7933 - Learning rate: 1.5625e-05 - Loss: 0.5557414
Epoch: 13/15 - Batch: 800/7933 - Learning rate: 1.5625e-05 - Loss: 0.546066
Epoch: 13/15 - Batch: 900/7933 - Learning rate: 1.5625e-05 - Loss: 0.3618701
Epoch: 13/15 - Batch: 1000/7933 - Learning rate: 1.5625e-05 - Loss: 0.59967846 - Dev BLEU: 0.23534118794128814
Epoch: 13/15 - Batch: 1100/7933 - Learning rate: 1.5625e-05 - Loss: 0.55718
Epoch: 13/15 - Batch: 1200/7933 - Learning rate: 1.5625e-05 - Loss: 0.7075342
Epoch: 13/15 - Batch: 1300/7933 - Learning rate: 1.5625e-05 - Loss: 0.5943783
Epoch: 13/15 - Batch: 1400/7933 - Learning rate: 1.5625e-05 - Loss: 0.68539405
Epoch: 13/15 - Batch: 1500/7933 - Learning rate: 1.5625e-05 - Loss: 0.5117281
Epoch: 13/15 - Batch: 1600/7933 - Learning rate: 1.5625e-05 - Loss: 0.9263597
Epoch: 13/15 - Batch: 1700/7933 - Learning rate: 1.5625e-05 - Loss: 0.6828368
Epoch: 13/15 - Batch: 1800/7933 - Learning rate: 1.5625e-05 - Loss: 0.36242092
Epoch: 13/15 - Batch: 1900/7933 - Learning rate: 1.5625e-05 - Loss: 0.5663229
Epoch: 13/15 - Batch: 2000/7933 - Learning rate: 1.5625e-05 - Loss: 0.56570315 - Dev BLEU: 0.23404680894977975
Epoch: 13/15 - Batch: 2100/7933 - Learning rate: 1.5625e-05 - Loss: 0.4636327
Epoch: 13/15 - Batch: 2200/7933 - Learning rate: 1.5625e-05 - Loss: 0.49343476
Epoch: 13/15 - Batch: 2300/7933 - Learning rate: 1.5625e-05 - Loss: 0.6235775
Epoch: 13/15 - Batch: 2400/7933 - Learning rate: 1.5625e-05 - Loss: 0.49950334
Epoch: 13/15 - Batch: 2500/7933 - Learning rate: 1.5625e-05 - Loss: 0.4917671
Epoch: 13/15 - Batch: 2600/7933 - Learning rate: 1.5625e-05 - Loss: 0.40301886
Epoch: 13/15 - Batch: 2700/7933 - Learning rate: 1.5625e-05 - Loss: 0.24317108
Epoch: 13/15 - Batch: 2800/7933 - Learning rate: 1.5625e-05 - Loss: 0.6348231
Epoch: 13/15 - Batch: 2900/7933 - Learning rate: 1.5625e-05 - Loss: 0.7316862
Epoch: 13/15 - Batch: 3000/7933 - Learning rate: 1.5625e-05 - Loss: 0.6493392 - Dev BLEU: 0.2296295683395565
Epoch: 13/15 - Batch: 3100/7933 - Learning rate: 1.5625e-05 - Loss: 0.6625629
Epoch: 13/15 - Batch: 3200/7933 - Learning rate: 1.5625e-05 - Loss: 0.6419803
Epoch: 13/15 - Batch: 3300/7933 - Learning rate: 1.5625e-05 - Loss: 0.5384019
Epoch: 13/15 - Batch: 3400/7933 - Learning rate: 1.5625e-05 - Loss: 0.5349686
Epoch: 13/15 - Batch: 3500/7933 - Learning rate: 1.5625e-05 - Loss: 0.63631046
Epoch: 13/15 - Batch: 3600/7933 - Learning rate: 1.5625e-05 - Loss: 0.67595905
Epoch: 13/15 - Batch: 3700/7933 - Learning rate: 1.5625e-05 - Loss: 0.6465168
Epoch: 13/15 - Batch: 3800/7933 - Learning rate: 1.5625e-05 - Loss: 0.61435604
Epoch: 13/15 - Batch: 3900/7933 - Learning rate: 1.5625e-05 - Loss: 0.6854466
Epoch: 13/15 - Batch: 4000/7933 - Learning rate: 1.5625e-05 - Loss: 0.39448193 - Dev BLEU: 0.2306412709776068
Epoch: 13/15 - Batch: 4100/7933 - Learning rate: 1.5625e-05 - Loss: 0.5128863
Epoch: 13/15 - Batch: 4200/7933 - Learning rate: 1.5625e-05 - Loss: 0.505756
Epoch: 13/15 - Batch: 4300/7933 - Learning rate: 1.5625e-05 - Loss: 0.58046615
Epoch: 13/15 - Batch: 4400/7933 - Learning rate: 1.5625e-05 - Loss: 0.5265029
Epoch: 13/15 - Batch: 4500/7933 - Learning rate: 1.5625e-05 - Loss: 0.60616
Epoch: 13/15 - Batch: 4600/7933 - Learning rate: 1.5625e-05 - Loss: 0.8615837
Epoch: 13/15 - Batch: 4700/7933 - Learning rate: 1.5625e-05 - Loss: 0.6187728
Epoch: 13/15 - Batch: 4800/7933 - Learning rate: 1.5625e-05 - Loss: 0.57942444
Epoch: 13/15 - Batch: 4900/7933 - Learning rate: 1.5625e-05 - Loss: 0.7540291
Epoch: 13/15 - Batch: 5000/7933 - Learning rate: 1.5625e-05 - Loss: 0.78113395 - Dev BLEU: 0.24645764306818507
Epoch: 13/15 - Batch: 5100/7933 - Learning rate: 1.5625e-05 - Loss: 0.8156267
Epoch: 13/15 - Batch: 5200/7933 - Learning rate: 1.5625e-05 - Loss: 0.8114862
Epoch: 13/15 - Batch: 5300/7933 - Learning rate: 1.5625e-05 - Loss: 0.77125037
Epoch: 13/15 - Batch: 5400/7933 - Learning rate: 1.5625e-05 - Loss: 0.72489625
Epoch: 13/15 - Batch: 5500/7933 - Learning rate: 1.5625e-05 - Loss: 0.7245278
Epoch: 13/15 - Batch: 5600/7933 - Learning rate: 1.5625e-05 - Loss: 0.5782596
Epoch: 13/15 - Batch: 5700/7933 - Learning rate: 1.5625e-05 - Loss: 0.72348946
Epoch: 13/15 - Batch: 5800/7933 - Learning rate: 1.5625e-05 - Loss: 0.6916303
Epoch: 13/15 - Batch: 5900/7933 - Learning rate: 1.5625e-05 - Loss: 0.47110364
Epoch: 13/15 - Batch: 6000/7933 - Learning rate: 1.5625e-05 - Loss: 0.7510198 - Dev BLEU: 0.2514424052493269
Epoch: 13/15 - Batch: 6100/7933 - Learning rate: 1.5625e-05 - Loss: 0.6468427
Epoch: 13/15 - Batch: 6200/7933 - Learning rate: 1.5625e-05 - Loss: 0.6636954
Epoch: 13/15 - Batch: 6300/7933 - Learning rate: 1.5625e-05 - Loss: 0.6293723
Epoch: 13/15 - Batch: 6400/7933 - Learning rate: 1.5625e-05 - Loss: 0.581554
Epoch: 13/15 - Batch: 6500/7933 - Learning rate: 1.5625e-05 - Loss: 0.6973435
Epoch: 13/15 - Batch: 6600/7933 - Learning rate: 1.5625e-05 - Loss: 0.67818826
Epoch: 13/15 - Batch: 6700/7933 - Learning rate: 1.5625e-05 - Loss: 0.67980343
Epoch: 13/15 - Batch: 6800/7933 - Learning rate: 1.5625e-05 - Loss: 0.6889561
Epoch: 13/15 - Batch: 6900/7933 - Learning rate: 1.5625e-05 - Loss: 0.4672469
Epoch: 13/15 - Batch: 7000/7933 - Learning rate: 1.5625e-05 - Loss: 0.9705207 - Dev BLEU: 0.25356591331945993
Epoch: 13/15 - Batch: 7100/7933 - Learning rate: 1.5625e-05 - Loss: 0.71833795
Epoch: 13/15 - Batch: 7200/7933 - Learning rate: 1.5625e-05 - Loss: 0.5951942
Epoch: 13/15 - Batch: 7300/7933 - Learning rate: 1.5625e-05 - Loss: 0.728341
Epoch: 13/15 - Batch: 7400/7933 - Learning rate: 1.5625e-05 - Loss: 0.74530923
Epoch: 13/15 - Batch: 7500/7933 - Learning rate: 1.5625e-05 - Loss: 0.58422214
Epoch: 13/15 - Batch: 7600/7933 - Learning rate: 1.5625e-05 - Loss: 0.96363086
Epoch: 13/15 - Batch: 7700/7933 - Learning rate: 1.5625e-05 - Loss: 1.1218048
Epoch: 13/15 - Batch: 7800/7933 - Learning rate: 1.5625e-05 - Loss: 1.0034829
Epoch: 13/15 - Batch: 7900/7933 - Learning rate: 1.5625e-05 - Loss: 0.7348364
Epoch: 13/15 - Batch: 7933/7933 - Learning rate: 1.5625e-05 - Loss: 0.9366784 - Dev BLEU: 0.25020347019810996
Epoch: 14/15 - Batch: 100/7933 - Learning rate: 7.8125e-06 - Loss: 0.71669984
Epoch: 14/15 - Batch: 200/7933 - Learning rate: 7.8125e-06 - Loss: 0.5860031
Epoch: 14/15 - Batch: 300/7933 - Learning rate: 7.8125e-06 - Loss: 0.47521845
Epoch: 14/15 - Batch: 400/7933 - Learning rate: 7.8125e-06 - Loss: 0.74510545
Epoch: 14/15 - Batch: 500/7933 - Learning rate: 7.8125e-06 - Loss: 0.49325654
Epoch: 14/15 - Batch: 600/7933 - Learning rate: 7.8125e-06 - Loss: 0.36307254
Epoch: 14/15 - Batch: 700/7933 - Learning rate: 7.8125e-06 - Loss: 0.54653525
Epoch: 14/15 - Batch: 800/7933 - Learning rate: 7.8125e-06 - Loss: 0.5485966
Epoch: 14/15 - Batch: 900/7933 - Learning rate: 7.8125e-06 - Loss: 0.3514171
Epoch: 14/15 - Batch: 1000/7933 - Learning rate: 7.8125e-06 - Loss: 0.59297264 - Dev BLEU: 0.24110473306995117
Epoch: 14/15 - Batch: 1100/7933 - Learning rate: 7.8125e-06 - Loss: 0.5536998
Epoch: 14/15 - Batch: 1200/7933 - Learning rate: 7.8125e-06 - Loss: 0.70606977
Epoch: 14/15 - Batch: 1300/7933 - Learning rate: 7.8125e-06 - Loss: 0.5885891
Epoch: 14/15 - Batch: 1400/7933 - Learning rate: 7.8125e-06 - Loss: 0.69058716
Epoch: 14/15 - Batch: 1500/7933 - Learning rate: 7.8125e-06 - Loss: 0.51184636
Epoch: 14/15 - Batch: 1600/7933 - Learning rate: 7.8125e-06 - Loss: 0.9275319
Epoch: 14/15 - Batch: 1700/7933 - Learning rate: 7.8125e-06 - Loss: 0.67673975
Epoch: 14/15 - Batch: 1800/7933 - Learning rate: 7.8125e-06 - Loss: 0.36602715
Epoch: 14/15 - Batch: 1900/7933 - Learning rate: 7.8125e-06 - Loss: 0.56295437
Epoch: 14/15 - Batch: 2000/7933 - Learning rate: 7.8125e-06 - Loss: 0.572644 - Dev BLEU: 0.2385880565578754
Epoch: 14/15 - Batch: 2100/7933 - Learning rate: 7.8125e-06 - Loss: 0.4625066
Epoch: 14/15 - Batch: 2200/7933 - Learning rate: 7.8125e-06 - Loss: 0.500545
Epoch: 14/15 - Batch: 2300/7933 - Learning rate: 7.8125e-06 - Loss: 0.62050784
Epoch: 14/15 - Batch: 2400/7933 - Learning rate: 7.8125e-06 - Loss: 0.49199376
Epoch: 14/15 - Batch: 2500/7933 - Learning rate: 7.8125e-06 - Loss: 0.4979256
Epoch: 14/15 - Batch: 2600/7933 - Learning rate: 7.8125e-06 - Loss: 0.40046415
Epoch: 14/15 - Batch: 2700/7933 - Learning rate: 7.8125e-06 - Loss: 0.24262269
Epoch: 14/15 - Batch: 2800/7933 - Learning rate: 7.8125e-06 - Loss: 0.63242537
Epoch: 14/15 - Batch: 2900/7933 - Learning rate: 7.8125e-06 - Loss: 0.7370826
Epoch: 14/15 - Batch: 3000/7933 - Learning rate: 7.8125e-06 - Loss: 0.6404612 - Dev BLEU: 0.23540515235881251
Epoch: 14/15 - Batch: 3100/7933 - Learning rate: 7.8125e-06 - Loss: 0.65982157
Epoch: 14/15 - Batch: 3200/7933 - Learning rate: 7.8125e-06 - Loss: 0.64010984
Epoch: 14/15 - Batch: 3300/7933 - Learning rate: 7.8125e-06 - Loss: 0.53609836
Epoch: 14/15 - Batch: 3400/7933 - Learning rate: 7.8125e-06 - Loss: 0.5413678
Epoch: 14/15 - Batch: 3500/7933 - Learning rate: 7.8125e-06 - Loss: 0.6472733
Epoch: 14/15 - Batch: 3600/7933 - Learning rate: 7.8125e-06 - Loss: 0.6647765
Epoch: 14/15 - Batch: 3700/7933 - Learning rate: 7.8125e-06 - Loss: 0.63496083
Epoch: 14/15 - Batch: 3800/7933 - Learning rate: 7.8125e-06 - Loss: 0.59651846
Epoch: 14/15 - Batch: 3900/7933 - Learning rate: 7.8125e-06 - Loss: 0.6814382
Epoch: 14/15 - Batch: 4000/7933 - Learning rate: 7.8125e-06 - Loss: 0.40123543 - Dev BLEU: 0.23561447595328344
Epoch: 14/15 - Batch: 4100/7933 - Learning rate: 7.8125e-06 - Loss: 0.5053711
Epoch: 14/15 - Batch: 4200/7933 - Learning rate: 7.8125e-06 - Loss: 0.4973207
Epoch: 14/15 - Batch: 4300/7933 - Learning rate: 7.8125e-06 - Loss: 0.58173186
Epoch: 14/15 - Batch: 4400/7933 - Learning rate: 7.8125e-06 - Loss: 0.52202815
Epoch: 14/15 - Batch: 4500/7933 - Learning rate: 7.8125e-06 - Loss: 0.6044886
Epoch: 14/15 - Batch: 4600/7933 - Learning rate: 7.8125e-06 - Loss: 0.85218513
Epoch: 14/15 - Batch: 4700/7933 - Learning rate: 7.8125e-06 - Loss: 0.6288348
Epoch: 14/15 - Batch: 4800/7933 - Learning rate: 7.8125e-06 - Loss: 0.5680648
Epoch: 14/15 - Batch: 4900/7933 - Learning rate: 7.8125e-06 - Loss: 0.74736613
Epoch: 14/15 - Batch: 5000/7933 - Learning rate: 7.8125e-06 - Loss: 0.77210766 - Dev BLEU: 0.24407147282056152
Epoch: 14/15 - Batch: 5100/7933 - Learning rate: 7.8125e-06 - Loss: 0.8047547
Epoch: 14/15 - Batch: 5200/7933 - Learning rate: 7.8125e-06 - Loss: 0.81186795
Epoch: 14/15 - Batch: 5300/7933 - Learning rate: 7.8125e-06 - Loss: 0.77757275
Epoch: 14/15 - Batch: 5400/7933 - Learning rate: 7.8125e-06 - Loss: 0.7352444
Epoch: 14/15 - Batch: 5500/7933 - Learning rate: 7.8125e-06 - Loss: 0.7159834
Epoch: 14/15 - Batch: 5600/7933 - Learning rate: 7.8125e-06 - Loss: 0.5715371
Epoch: 14/15 - Batch: 5700/7933 - Learning rate: 7.8125e-06 - Loss: 0.7205048
Epoch: 14/15 - Batch: 5800/7933 - Learning rate: 7.8125e-06 - Loss: 0.685925
Epoch: 14/15 - Batch: 5900/7933 - Learning rate: 7.8125e-06 - Loss: 0.47563866
Epoch: 14/15 - Batch: 6000/7933 - Learning rate: 7.8125e-06 - Loss: 0.74833083 - Dev BLEU: 0.24938920585690258
Epoch: 14/15 - Batch: 6100/7933 - Learning rate: 7.8125e-06 - Loss: 0.662255
Epoch: 14/15 - Batch: 6200/7933 - Learning rate: 7.8125e-06 - Loss: 0.65594053
Epoch: 14/15 - Batch: 6300/7933 - Learning rate: 7.8125e-06 - Loss: 0.60717356
Epoch: 14/15 - Batch: 6400/7933 - Learning rate: 7.8125e-06 - Loss: 0.58400744
Epoch: 14/15 - Batch: 6500/7933 - Learning rate: 7.8125e-06 - Loss: 0.6987755
Epoch: 14/15 - Batch: 6600/7933 - Learning rate: 7.8125e-06 - Loss: 0.6898251
Epoch: 14/15 - Batch: 6700/7933 - Learning rate: 7.8125e-06 - Loss: 0.6888288
Epoch: 14/15 - Batch: 6800/7933 - Learning rate: 7.8125e-06 - Loss: 0.69199854
Epoch: 14/15 - Batch: 6900/7933 - Learning rate: 7.8125e-06 - Loss: 0.47031432
Epoch: 14/15 - Batch: 7000/7933 - Learning rate: 7.8125e-06 - Loss: 0.97310185 - Dev BLEU: 0.25326914910637294
Epoch: 14/15 - Batch: 7100/7933 - Learning rate: 7.8125e-06 - Loss: 0.7234104
Epoch: 14/15 - Batch: 7200/7933 - Learning rate: 7.8125e-06 - Loss: 0.5941485
Epoch: 14/15 - Batch: 7300/7933 - Learning rate: 7.8125e-06 - Loss: 0.7213561
Epoch: 14/15 - Batch: 7400/7933 - Learning rate: 7.8125e-06 - Loss: 0.75775445
Epoch: 14/15 - Batch: 7500/7933 - Learning rate: 7.8125e-06 - Loss: 0.57934624
Epoch: 14/15 - Batch: 7600/7933 - Learning rate: 7.8125e-06 - Loss: 0.968355
Epoch: 14/15 - Batch: 7700/7933 - Learning rate: 7.8125e-06 - Loss: 1.1177379
Epoch: 14/15 - Batch: 7800/7933 - Learning rate: 7.8125e-06 - Loss: 1.0080523
Epoch: 14/15 - Batch: 7900/7933 - Learning rate: 7.8125e-06 - Loss: 0.7389471
Epoch: 14/15 - Batch: 7933/7933 - Learning rate: 7.8125e-06 - Loss: 0.94332874 - Dev BLEU: 0.2527237286160258
Epoch: 15/15 - Batch: 100/7933 - Learning rate: 3.90625e-06 - Loss: 0.726731
Epoch: 15/15 - Batch: 200/7933 - Learning rate: 3.90625e-06 - Loss: 0.57651675
Epoch: 15/15 - Batch: 300/7933 - Learning rate: 3.90625e-06 - Loss: 0.477379
Epoch: 15/15 - Batch: 400/7933 - Learning rate: 3.90625e-06 - Loss: 0.7559818
Epoch: 15/15 - Batch: 500/7933 - Learning rate: 3.90625e-06 - Loss: 0.49819812
Epoch: 15/15 - Batch: 600/7933 - Learning rate: 3.90625e-06 - Loss: 0.36570826
Epoch: 15/15 - Batch: 700/7933 - Learning rate: 3.90625e-06 - Loss: 0.5655844
Epoch: 15/15 - Batch: 800/7933 - Learning rate: 3.90625e-06 - Loss: 0.55089563
Epoch: 15/15 - Batch: 900/7933 - Learning rate: 3.90625e-06 - Loss: 0.3543764
Epoch: 15/15 - Batch: 1000/7933 - Learning rate: 3.90625e-06 - Loss: 0.5863994 - Dev BLEU: 0.24642894491845513
Epoch: 15/15 - Batch: 1100/7933 - Learning rate: 3.90625e-06 - Loss: 0.5541084
Epoch: 15/15 - Batch: 1200/7933 - Learning rate: 3.90625e-06 - Loss: 0.70548975
Epoch: 15/15 - Batch: 1300/7933 - Learning rate: 3.90625e-06 - Loss: 0.58007807
Epoch: 15/15 - Batch: 1400/7933 - Learning rate: 3.90625e-06 - Loss: 0.7003303
Epoch: 15/15 - Batch: 1500/7933 - Learning rate: 3.90625e-06 - Loss: 0.5079192
Epoch: 15/15 - Batch: 1600/7933 - Learning rate: 3.90625e-06 - Loss: 0.9361124
Epoch: 15/15 - Batch: 1700/7933 - Learning rate: 3.90625e-06 - Loss: 0.67818654
Epoch: 15/15 - Batch: 1800/7933 - Learning rate: 3.90625e-06 - Loss: 0.36516038
Epoch: 15/15 - Batch: 1900/7933 - Learning rate: 3.90625e-06 - Loss: 0.5640925
Epoch: 15/15 - Batch: 2000/7933 - Learning rate: 3.90625e-06 - Loss: 0.5700435 - Dev BLEU: 0.24185180739197548
Epoch: 15/15 - Batch: 2100/7933 - Learning rate: 3.90625e-06 - Loss: 0.4592763
Epoch: 15/15 - Batch: 2200/7933 - Learning rate: 3.90625e-06 - Loss: 0.48513672
Epoch: 15/15 - Batch: 2300/7933 - Learning rate: 3.90625e-06 - Loss: 0.62783885
Epoch: 15/15 - Batch: 2400/7933 - Learning rate: 3.90625e-06 - Loss: 0.4975897
Epoch: 15/15 - Batch: 2500/7933 - Learning rate: 3.90625e-06 - Loss: 0.49776024
Epoch: 15/15 - Batch: 2600/7933 - Learning rate: 3.90625e-06 - Loss: 0.40424466
Epoch: 15/15 - Batch: 2700/7933 - Learning rate: 3.90625e-06 - Loss: 0.2433069
Epoch: 15/15 - Batch: 2800/7933 - Learning rate: 3.90625e-06 - Loss: 0.64883834
Epoch: 15/15 - Batch: 2900/7933 - Learning rate: 3.90625e-06 - Loss: 0.74498874
Epoch: 15/15 - Batch: 3000/7933 - Learning rate: 3.90625e-06 - Loss: 0.63866854 - Dev BLEU: 0.24029714414283856
Epoch: 15/15 - Batch: 3100/7933 - Learning rate: 3.90625e-06 - Loss: 0.6502664
Epoch: 15/15 - Batch: 3200/7933 - Learning rate: 3.90625e-06 - Loss: 0.64555734
Epoch: 15/15 - Batch: 3300/7933 - Learning rate: 3.90625e-06 - Loss: 0.5327672
Epoch: 15/15 - Batch: 3400/7933 - Learning rate: 3.90625e-06 - Loss: 0.5334212
Epoch: 15/15 - Batch: 3500/7933 - Learning rate: 3.90625e-06 - Loss: 0.63748455
Epoch: 15/15 - Batch: 3600/7933 - Learning rate: 3.90625e-06 - Loss: 0.67840385
Epoch: 15/15 - Batch: 3700/7933 - Learning rate: 3.90625e-06 - Loss: 0.63967955
Epoch: 15/15 - Batch: 3800/7933 - Learning rate: 3.90625e-06 - Loss: 0.6041549
Epoch: 15/15 - Batch: 3900/7933 - Learning rate: 3.90625e-06 - Loss: 0.6852635
Epoch: 15/15 - Batch: 4000/7933 - Learning rate: 3.90625e-06 - Loss: 0.39290473 - Dev BLEU: 0.23963495365002094
Epoch: 15/15 - Batch: 4100/7933 - Learning rate: 3.90625e-06 - Loss: 0.5118305
Epoch: 15/15 - Batch: 4200/7933 - Learning rate: 3.90625e-06 - Loss: 0.4957548
Epoch: 15/15 - Batch: 4300/7933 - Learning rate: 3.90625e-06 - Loss: 0.5778778
Epoch: 15/15 - Batch: 4400/7933 - Learning rate: 3.90625e-06 - Loss: 0.52288145
Epoch: 15/15 - Batch: 4500/7933 - Learning rate: 3.90625e-06 - Loss: 0.60622
Epoch: 15/15 - Batch: 4600/7933 - Learning rate: 3.90625e-06 - Loss: 0.8298735
Epoch: 15/15 - Batch: 4700/7933 - Learning rate: 3.90625e-06 - Loss: 0.6195289
Epoch: 15/15 - Batch: 4800/7933 - Learning rate: 3.90625e-06 - Loss: 0.580105
Epoch: 15/15 - Batch: 4900/7933 - Learning rate: 3.90625e-06 - Loss: 0.7475645
Epoch: 15/15 - Batch: 5000/7933 - Learning rate: 3.90625e-06 - Loss: 0.78197145 - Dev BLEU: 0.243654064303151
Epoch: 15/15 - Batch: 5100/7933 - Learning rate: 3.90625e-06 - Loss: 0.82731855
Epoch: 15/15 - Batch: 5200/7933 - Learning rate: 3.90625e-06 - Loss: 0.813771
Epoch: 15/15 - Batch: 5300/7933 - Learning rate: 3.90625e-06 - Loss: 0.762389
Epoch: 15/15 - Batch: 5400/7933 - Learning rate: 3.90625e-06 - Loss: 0.73065835
Epoch: 15/15 - Batch: 5500/7933 - Learning rate: 3.90625e-06 - Loss: 0.7234824
Epoch: 15/15 - Batch: 5600/7933 - Learning rate: 3.90625e-06 - Loss: 0.5875575
Epoch: 15/15 - Batch: 5700/7933 - Learning rate: 3.90625e-06 - Loss: 0.7174831
Epoch: 15/15 - Batch: 5800/7933 - Learning rate: 3.90625e-06 - Loss: 0.70174104
Epoch: 15/15 - Batch: 5900/7933 - Learning rate: 3.90625e-06 - Loss: 0.46588898
Epoch: 15/15 - Batch: 6000/7933 - Learning rate: 3.90625e-06 - Loss: 0.7394939 - Dev BLEU: 0.24880335503456094
Epoch: 15/15 - Batch: 6100/7933 - Learning rate: 3.90625e-06 - Loss: 0.66462964
Epoch: 15/15 - Batch: 6200/7933 - Learning rate: 3.90625e-06 - Loss: 0.67524815
Epoch: 15/15 - Batch: 6300/7933 - Learning rate: 3.90625e-06 - Loss: 0.62904966
Epoch: 15/15 - Batch: 6400/7933 - Learning rate: 3.90625e-06 - Loss: 0.57820594
Epoch: 15/15 - Batch: 6500/7933 - Learning rate: 3.90625e-06 - Loss: 0.6989908
Epoch: 15/15 - Batch: 6600/7933 - Learning rate: 3.90625e-06 - Loss: 0.68975896
Epoch: 15/15 - Batch: 6700/7933 - Learning rate: 3.90625e-06 - Loss: 0.6766852
Epoch: 15/15 - Batch: 6800/7933 - Learning rate: 3.90625e-06 - Loss: 0.7049064
Epoch: 15/15 - Batch: 6900/7933 - Learning rate: 3.90625e-06 - Loss: 0.47104758
Epoch: 15/15 - Batch: 7000/7933 - Learning rate: 3.90625e-06 - Loss: 0.96889496 - Dev BLEU: 0.25187305568689805
Epoch: 15/15 - Batch: 7100/7933 - Learning rate: 3.90625e-06 - Loss: 0.7242861
Epoch: 15/15 - Batch: 7200/7933 - Learning rate: 3.90625e-06 - Loss: 0.59453744
Epoch: 15/15 - Batch: 7300/7933 - Learning rate: 3.90625e-06 - Loss: 0.7192665
Epoch: 15/15 - Batch: 7400/7933 - Learning rate: 3.90625e-06 - Loss: 0.74950665
Epoch: 15/15 - Batch: 7500/7933 - Learning rate: 3.90625e-06 - Loss: 0.58441395
Epoch: 15/15 - Batch: 7600/7933 - Learning rate: 3.90625e-06 - Loss: 0.95304555
Epoch: 15/15 - Batch: 7700/7933 - Learning rate: 3.90625e-06 - Loss: 1.129645
Epoch: 15/15 - Batch: 7800/7933 - Learning rate: 3.90625e-06 - Loss: 1.0125409
Epoch: 15/15 - Batch: 7900/7933 - Learning rate: 3.90625e-06 - Loss: 0.7368537
Epoch: 15/15 - Batch: 7933/7933 - Learning rate: 3.90625e-06 - Loss: 0.9438397 - Dev BLEU: 0.25256381992558247 - Test BLEU: 0.28333423994920154
