Epoch: 1/15 - Batch: 100/7933 - Learning rate: 0.001 - Loss: 1.8870434
Epoch: 1/15 - Batch: 200/7933 - Learning rate: 0.001 - Loss: 2.7210023
Epoch: 1/15 - Batch: 300/7933 - Learning rate: 0.001 - Loss: 1.5213951
Epoch: 1/15 - Batch: 400/7933 - Learning rate: 0.001 - Loss: 2.8046036
Epoch: 1/15 - Batch: 500/7933 - Learning rate: 0.001 - Loss: 2.5196843
Epoch: 1/15 - Batch: 600/7933 - Learning rate: 0.001 - Loss: 0.90906566
Epoch: 1/15 - Batch: 700/7933 - Learning rate: 0.001 - Loss: 1.9423965
Epoch: 1/15 - Batch: 800/7933 - Learning rate: 0.001 - Loss: 1.6186255
Epoch: 1/15 - Batch: 900/7933 - Learning rate: 0.001 - Loss: 1.094948
Epoch: 1/15 - Batch: 1000/7933 - Learning rate: 0.001 - Loss: 1.9068182 - Dev BLEU: 0.0
Epoch: 1/15 - Batch: 1100/7933 - Learning rate: 0.001 - Loss: 1.4951832
Epoch: 1/15 - Batch: 1200/7933 - Learning rate: 0.001 - Loss: 2.0260143
Epoch: 1/15 - Batch: 1300/7933 - Learning rate: 0.001 - Loss: 1.9088365
Epoch: 1/15 - Batch: 1400/7933 - Learning rate: 0.001 - Loss: 2.0321453
Epoch: 1/15 - Batch: 1500/7933 - Learning rate: 0.001 - Loss: 1.4490665
Epoch: 1/15 - Batch: 1600/7933 - Learning rate: 0.001 - Loss: 2.5316517
Epoch: 1/15 - Batch: 1700/7933 - Learning rate: 0.001 - Loss: 1.94491
Epoch: 1/15 - Batch: 1800/7933 - Learning rate: 0.001 - Loss: 1.3455995
Epoch: 1/15 - Batch: 1900/7933 - Learning rate: 0.001 - Loss: 1.5301619
Epoch: 1/15 - Batch: 2000/7933 - Learning rate: 0.001 - Loss: 1.7408708 - Dev BLEU: 0.000977369924353143
Epoch: 1/15 - Batch: 2100/7933 - Learning rate: 0.001 - Loss: 1.4230047
Epoch: 1/15 - Batch: 2200/7933 - Learning rate: 0.001 - Loss: 1.7214506
Epoch: 1/15 - Batch: 2300/7933 - Learning rate: 0.001 - Loss: 1.9039229
Epoch: 1/15 - Batch: 2400/7933 - Learning rate: 0.001 - Loss: 1.5708
Epoch: 1/15 - Batch: 2500/7933 - Learning rate: 0.001 - Loss: 1.8336005
Epoch: 1/15 - Batch: 2600/7933 - Learning rate: 0.001 - Loss: 1.2703279
Epoch: 1/15 - Batch: 2700/7933 - Learning rate: 0.001 - Loss: 0.7911774
Epoch: 1/15 - Batch: 2800/7933 - Learning rate: 0.001 - Loss: 1.9488463
Epoch: 1/15 - Batch: 2900/7933 - Learning rate: 0.001 - Loss: 1.8380164
Epoch: 1/15 - Batch: 3000/7933 - Learning rate: 0.001 - Loss: 1.7428373 - Dev BLEU: 0.0042141428890639454
Epoch: 1/15 - Batch: 3100/7933 - Learning rate: 0.001 - Loss: 1.4690723
Epoch: 1/15 - Batch: 3200/7933 - Learning rate: 0.001 - Loss: 1.6208365
Epoch: 1/15 - Batch: 3300/7933 - Learning rate: 0.001 - Loss: 1.481185
Epoch: 1/15 - Batch: 3400/7933 - Learning rate: 0.001 - Loss: 1.3841472
Epoch: 1/15 - Batch: 3500/7933 - Learning rate: 0.001 - Loss: 1.9474183
Epoch: 1/15 - Batch: 3600/7933 - Learning rate: 0.001 - Loss: 1.6081234
Epoch: 1/15 - Batch: 3700/7933 - Learning rate: 0.001 - Loss: 1.8250451
Epoch: 1/15 - Batch: 3800/7933 - Learning rate: 0.001 - Loss: 1.7105409
Epoch: 1/15 - Batch: 3900/7933 - Learning rate: 0.001 - Loss: 1.8311138
Epoch: 1/15 - Batch: 4000/7933 - Learning rate: 0.001 - Loss: 1.0719692 - Dev BLEU: 0.009962426419669478
Epoch: 1/15 - Batch: 4100/7933 - Learning rate: 0.001 - Loss: 1.3774116
Epoch: 1/15 - Batch: 4200/7933 - Learning rate: 0.001 - Loss: 1.3325071
Epoch: 1/15 - Batch: 4300/7933 - Learning rate: 0.001 - Loss: 1.4181153
Epoch: 1/15 - Batch: 4400/7933 - Learning rate: 0.001 - Loss: 1.4415599
Epoch: 1/15 - Batch: 4500/7933 - Learning rate: 0.001 - Loss: 1.5521744
Epoch: 1/15 - Batch: 4600/7933 - Learning rate: 0.001 - Loss: 2.7489374
Epoch: 1/15 - Batch: 4700/7933 - Learning rate: 0.001 - Loss: 2.1762278
Epoch: 1/15 - Batch: 4800/7933 - Learning rate: 0.001 - Loss: 2.1957994
Epoch: 1/15 - Batch: 4900/7933 - Learning rate: 0.001 - Loss: 2.4411879
Epoch: 1/15 - Batch: 5000/7933 - Learning rate: 0.001 - Loss: 2.1779828 - Dev BLEU: 0.020930031291556687
Epoch: 1/15 - Batch: 5100/7933 - Learning rate: 0.001 - Loss: 2.0834222
Epoch: 1/15 - Batch: 5200/7933 - Learning rate: 0.001 - Loss: 2.235468
Epoch: 1/15 - Batch: 5300/7933 - Learning rate: 0.001 - Loss: 2.0802095
Epoch: 1/15 - Batch: 5400/7933 - Learning rate: 0.001 - Loss: 2.0948958
Epoch: 1/15 - Batch: 5500/7933 - Learning rate: 0.001 - Loss: 2.1718342
Epoch: 1/15 - Batch: 5600/7933 - Learning rate: 0.001 - Loss: 1.7058948
Epoch: 1/15 - Batch: 5700/7933 - Learning rate: 0.001 - Loss: 2.1422977
Epoch: 1/15 - Batch: 5800/7933 - Learning rate: 0.001 - Loss: 2.0674052
Epoch: 1/15 - Batch: 5900/7933 - Learning rate: 0.001 - Loss: 1.6288589
Epoch: 1/15 - Batch: 6000/7933 - Learning rate: 0.001 - Loss: 2.0376909 - Dev BLEU: 0.032437241351396896
Epoch: 1/15 - Batch: 6100/7933 - Learning rate: 0.001 - Loss: 2.1572676
Epoch: 1/15 - Batch: 6200/7933 - Learning rate: 0.001 - Loss: 1.7465947
Epoch: 1/15 - Batch: 6300/7933 - Learning rate: 0.001 - Loss: 1.7559894
Epoch: 1/15 - Batch: 6400/7933 - Learning rate: 0.001 - Loss: 1.4193505
Epoch: 1/15 - Batch: 6500/7933 - Learning rate: 0.001 - Loss: 1.482375
Epoch: 1/15 - Batch: 6600/7933 - Learning rate: 0.001 - Loss: 1.6605073
Epoch: 1/15 - Batch: 6700/7933 - Learning rate: 0.001 - Loss: 1.3859777
Epoch: 1/15 - Batch: 6800/7933 - Learning rate: 0.001 - Loss: 1.2886564
Epoch: 1/15 - Batch: 6900/7933 - Learning rate: 0.001 - Loss: 1.0564923
Epoch: 1/15 - Batch: 7000/7933 - Learning rate: 0.001 - Loss: 1.9294461 - Dev BLEU: 0.07896162182454758
Epoch: 1/15 - Batch: 7100/7933 - Learning rate: 0.001 - Loss: 1.4900658
Epoch: 1/15 - Batch: 7200/7933 - Learning rate: 0.001 - Loss: 1.1838946
Epoch: 1/15 - Batch: 7300/7933 - Learning rate: 0.001 - Loss: 1.406368
Epoch: 1/15 - Batch: 7400/7933 - Learning rate: 0.001 - Loss: 1.4985244
Epoch: 1/15 - Batch: 7500/7933 - Learning rate: 0.001 - Loss: 1.0298722
Epoch: 1/15 - Batch: 7600/7933 - Learning rate: 0.001 - Loss: 1.8070736
Epoch: 1/15 - Batch: 7700/7933 - Learning rate: 0.001 - Loss: 2.030151
Epoch: 1/15 - Batch: 7800/7933 - Learning rate: 0.001 - Loss: 1.8383771
Epoch: 1/15 - Batch: 7900/7933 - Learning rate: 0.001 - Loss: 1.4668132
Epoch: 1/15 - Batch: 7933/7933 - Learning rate: 0.001 - Loss: 1.96839 - Dev BLEU: 0.08649541673616892
Epoch: 2/15 - Batch: 100/7933 - Learning rate: 0.001 - Loss: 1.1032412
Epoch: 2/15 - Batch: 200/7933 - Learning rate: 0.001 - Loss: 1.2954358
Epoch: 2/15 - Batch: 300/7933 - Learning rate: 0.001 - Loss: 0.76800865
Epoch: 2/15 - Batch: 400/7933 - Learning rate: 0.001 - Loss: 1.3724874
Epoch: 2/15 - Batch: 500/7933 - Learning rate: 0.001 - Loss: 1.2017622
Epoch: 2/15 - Batch: 600/7933 - Learning rate: 0.001 - Loss: 0.5575566
Epoch: 2/15 - Batch: 700/7933 - Learning rate: 0.001 - Loss: 1.0475441
Epoch: 2/15 - Batch: 800/7933 - Learning rate: 0.001 - Loss: 0.98999876
Epoch: 2/15 - Batch: 900/7933 - Learning rate: 0.001 - Loss: 0.6124469
Epoch: 2/15 - Batch: 1000/7933 - Learning rate: 0.001 - Loss: 1.0545272 - Dev BLEU: 0.07837220624707439
Epoch: 2/15 - Batch: 1100/7933 - Learning rate: 0.001 - Loss: 0.9186854
Epoch: 2/15 - Batch: 1200/7933 - Learning rate: 0.001 - Loss: 1.3076813
Epoch: 2/15 - Batch: 1300/7933 - Learning rate: 0.001 - Loss: 1.1541725
Epoch: 2/15 - Batch: 1400/7933 - Learning rate: 0.001 - Loss: 1.1819608
Epoch: 2/15 - Batch: 1500/7933 - Learning rate: 0.001 - Loss: 0.8261668
Epoch: 2/15 - Batch: 1600/7933 - Learning rate: 0.001 - Loss: 1.5738477
Epoch: 2/15 - Batch: 1700/7933 - Learning rate: 0.001 - Loss: 1.1724877
Epoch: 2/15 - Batch: 1800/7933 - Learning rate: 0.001 - Loss: 0.6972902
Epoch: 2/15 - Batch: 1900/7933 - Learning rate: 0.001 - Loss: 0.96291775
Epoch: 2/15 - Batch: 2000/7933 - Learning rate: 0.001 - Loss: 1.0163512 - Dev BLEU: 0.08486658111603232
Epoch: 2/15 - Batch: 2100/7933 - Learning rate: 0.001 - Loss: 0.8558319
Epoch: 2/15 - Batch: 2200/7933 - Learning rate: 0.001 - Loss: 0.9172528
Epoch: 2/15 - Batch: 2300/7933 - Learning rate: 0.001 - Loss: 1.1035749
Epoch: 2/15 - Batch: 2400/7933 - Learning rate: 0.001 - Loss: 0.9125148
Epoch: 2/15 - Batch: 2500/7933 - Learning rate: 0.001 - Loss: 0.94603294
Epoch: 2/15 - Batch: 2600/7933 - Learning rate: 0.001 - Loss: 0.70348305
Epoch: 2/15 - Batch: 2700/7933 - Learning rate: 0.001 - Loss: 0.40193635
Epoch: 2/15 - Batch: 2800/7933 - Learning rate: 0.001 - Loss: 1.1426196
Epoch: 2/15 - Batch: 2900/7933 - Learning rate: 0.001 - Loss: 1.2220318
Epoch: 2/15 - Batch: 3000/7933 - Learning rate: 0.001 - Loss: 1.1355498 - Dev BLEU: 0.09214424524280627
Epoch: 2/15 - Batch: 3100/7933 - Learning rate: 0.001 - Loss: 1.0656731
Epoch: 2/15 - Batch: 3200/7933 - Learning rate: 0.001 - Loss: 1.0056039
Epoch: 2/15 - Batch: 3300/7933 - Learning rate: 0.001 - Loss: 0.8306321
Epoch: 2/15 - Batch: 3400/7933 - Learning rate: 0.001 - Loss: 0.8404213
Epoch: 2/15 - Batch: 3500/7933 - Learning rate: 0.001 - Loss: 1.1198475
Epoch: 2/15 - Batch: 3600/7933 - Learning rate: 0.001 - Loss: 1.0761732
Epoch: 2/15 - Batch: 3700/7933 - Learning rate: 0.001 - Loss: 1.0883142
Epoch: 2/15 - Batch: 3800/7933 - Learning rate: 0.001 - Loss: 1.0131584
Epoch: 2/15 - Batch: 3900/7933 - Learning rate: 0.001 - Loss: 1.1946052
Epoch: 2/15 - Batch: 4000/7933 - Learning rate: 0.001 - Loss: 0.6674928 - Dev BLEU: 0.10099769411423103
Epoch: 2/15 - Batch: 4100/7933 - Learning rate: 0.001 - Loss: 0.8544269
Epoch: 2/15 - Batch: 4200/7933 - Learning rate: 0.001 - Loss: 0.80068684
Epoch: 2/15 - Batch: 4300/7933 - Learning rate: 0.001 - Loss: 0.88508654
Epoch: 2/15 - Batch: 4400/7933 - Learning rate: 0.001 - Loss: 0.865766
Epoch: 2/15 - Batch: 4500/7933 - Learning rate: 0.001 - Loss: 0.97336835
Epoch: 2/15 - Batch: 4600/7933 - Learning rate: 0.001 - Loss: 1.8359487
Epoch: 2/15 - Batch: 4700/7933 - Learning rate: 0.001 - Loss: 1.3334187
Epoch: 2/15 - Batch: 4800/7933 - Learning rate: 0.001 - Loss: 1.3019267
Epoch: 2/15 - Batch: 4900/7933 - Learning rate: 0.001 - Loss: 1.4490999
Epoch: 2/15 - Batch: 5000/7933 - Learning rate: 0.001 - Loss: 1.4361298 - Dev BLEU: 0.13858635917033682
Epoch: 2/15 - Batch: 5100/7933 - Learning rate: 0.001 - Loss: 1.4233158
Epoch: 2/15 - Batch: 5200/7933 - Learning rate: 0.001 - Loss: 1.3946505
Epoch: 2/15 - Batch: 5300/7933 - Learning rate: 0.001 - Loss: 1.3841326
Epoch: 2/15 - Batch: 5400/7933 - Learning rate: 0.001 - Loss: 1.3675742
Epoch: 2/15 - Batch: 5500/7933 - Learning rate: 0.001 - Loss: 1.3601955
Epoch: 2/15 - Batch: 5600/7933 - Learning rate: 0.001 - Loss: 1.0857241
Epoch: 2/15 - Batch: 5700/7933 - Learning rate: 0.001 - Loss: 1.3823923
Epoch: 2/15 - Batch: 5800/7933 - Learning rate: 0.001 - Loss: 1.3153269
Epoch: 2/15 - Batch: 5900/7933 - Learning rate: 0.001 - Loss: 0.9740298
Epoch: 2/15 - Batch: 6000/7933 - Learning rate: 0.001 - Loss: 1.3355007 - Dev BLEU: 0.1222210295956423
Epoch: 2/15 - Batch: 6100/7933 - Learning rate: 0.001 - Loss: 1.3783704
Epoch: 2/15 - Batch: 6200/7933 - Learning rate: 0.001 - Loss: 1.1223438
Epoch: 2/15 - Batch: 6300/7933 - Learning rate: 0.001 - Loss: 1.131678
Epoch: 2/15 - Batch: 6400/7933 - Learning rate: 0.001 - Loss: 0.9143348
Epoch: 2/15 - Batch: 6500/7933 - Learning rate: 0.001 - Loss: 1.0630276
Epoch: 2/15 - Batch: 6600/7933 - Learning rate: 0.001 - Loss: 1.0976868
Epoch: 2/15 - Batch: 6700/7933 - Learning rate: 0.001 - Loss: 0.9824486
Epoch: 2/15 - Batch: 6800/7933 - Learning rate: 0.001 - Loss: 0.9422838
Epoch: 2/15 - Batch: 6900/7933 - Learning rate: 0.001 - Loss: 0.72228754
Epoch: 2/15 - Batch: 7000/7933 - Learning rate: 0.001 - Loss: 1.423736 - Dev BLEU: 0.18909240174899683
Epoch: 2/15 - Batch: 7100/7933 - Learning rate: 0.001 - Loss: 1.0728996
Epoch: 2/15 - Batch: 7200/7933 - Learning rate: 0.001 - Loss: 0.85526043
Epoch: 2/15 - Batch: 7300/7933 - Learning rate: 0.001 - Loss: 1.042166
Epoch: 2/15 - Batch: 7400/7933 - Learning rate: 0.001 - Loss: 1.1008726
Epoch: 2/15 - Batch: 7500/7933 - Learning rate: 0.001 - Loss: 0.7880554
Epoch: 2/15 - Batch: 7600/7933 - Learning rate: 0.001 - Loss: 1.4632208
Epoch: 2/15 - Batch: 7700/7933 - Learning rate: 0.001 - Loss: 1.5772529
Epoch: 2/15 - Batch: 7800/7933 - Learning rate: 0.001 - Loss: 1.5017489
Epoch: 2/15 - Batch: 7900/7933 - Learning rate: 0.001 - Loss: 1.119073
Epoch: 2/15 - Batch: 7933/7933 - Learning rate: 0.001 - Loss: 1.5631838 - Dev BLEU: 0.1693607596710057
Epoch: 3/15 - Batch: 100/7933 - Learning rate: 0.001 - Loss: 0.9282092
Epoch: 3/15 - Batch: 200/7933 - Learning rate: 0.001 - Loss: 0.94854873
Epoch: 3/15 - Batch: 300/7933 - Learning rate: 0.001 - Loss: 0.63814086
Epoch: 3/15 - Batch: 400/7933 - Learning rate: 0.001 - Loss: 1.1009934
Epoch: 3/15 - Batch: 500/7933 - Learning rate: 0.001 - Loss: 0.87524956
Epoch: 3/15 - Batch: 600/7933 - Learning rate: 0.001 - Loss: 0.47069696
Epoch: 3/15 - Batch: 700/7933 - Learning rate: 0.001 - Loss: 0.82715
Epoch: 3/15 - Batch: 800/7933 - Learning rate: 0.001 - Loss: 0.7933769
Epoch: 3/15 - Batch: 900/7933 - Learning rate: 0.001 - Loss: 0.49959934
Epoch: 3/15 - Batch: 1000/7933 - Learning rate: 0.001 - Loss: 0.872499 - Dev BLEU: 0.14534924275194402
Epoch: 3/15 - Batch: 1100/7933 - Learning rate: 0.001 - Loss: 0.7527323
Epoch: 3/15 - Batch: 1200/7933 - Learning rate: 0.001 - Loss: 1.0582341
Epoch: 3/15 - Batch: 1300/7933 - Learning rate: 0.001 - Loss: 0.92361057
Epoch: 3/15 - Batch: 1400/7933 - Learning rate: 0.001 - Loss: 0.9594143
Epoch: 3/15 - Batch: 1500/7933 - Learning rate: 0.001 - Loss: 0.6877099
Epoch: 3/15 - Batch: 1600/7933 - Learning rate: 0.001 - Loss: 1.2962649
Epoch: 3/15 - Batch: 1700/7933 - Learning rate: 0.001 - Loss: 0.961359
Epoch: 3/15 - Batch: 1800/7933 - Learning rate: 0.001 - Loss: 0.54090494
Epoch: 3/15 - Batch: 1900/7933 - Learning rate: 0.001 - Loss: 0.80336285
Epoch: 3/15 - Batch: 2000/7933 - Learning rate: 0.001 - Loss: 0.83388805 - Dev BLEU: 0.1376085550487593
Epoch: 3/15 - Batch: 2100/7933 - Learning rate: 0.001 - Loss: 0.7193087
Epoch: 3/15 - Batch: 2200/7933 - Learning rate: 0.001 - Loss: 0.74995387
Epoch: 3/15 - Batch: 2300/7933 - Learning rate: 0.001 - Loss: 0.8868782
Epoch: 3/15 - Batch: 2400/7933 - Learning rate: 0.001 - Loss: 0.7389368
Epoch: 3/15 - Batch: 2500/7933 - Learning rate: 0.001 - Loss: 0.72402304
Epoch: 3/15 - Batch: 2600/7933 - Learning rate: 0.001 - Loss: 0.5617369
Epoch: 3/15 - Batch: 2700/7933 - Learning rate: 0.001 - Loss: 0.32735282
Epoch: 3/15 - Batch: 2800/7933 - Learning rate: 0.001 - Loss: 0.9173028
Epoch: 3/15 - Batch: 2900/7933 - Learning rate: 0.001 - Loss: 1.0626931
Epoch: 3/15 - Batch: 3000/7933 - Learning rate: 0.001 - Loss: 0.95689166 - Dev BLEU: 0.1416204950870457
Epoch: 3/15 - Batch: 3100/7933 - Learning rate: 0.001 - Loss: 0.9462794
Epoch: 3/15 - Batch: 3200/7933 - Learning rate: 0.001 - Loss: 0.87096334
Epoch: 3/15 - Batch: 3300/7933 - Learning rate: 0.001 - Loss: 0.7133736
Epoch: 3/15 - Batch: 3400/7933 - Learning rate: 0.001 - Loss: 0.7105346
Epoch: 3/15 - Batch: 3500/7933 - Learning rate: 0.001 - Loss: 0.97217274
Epoch: 3/15 - Batch: 3600/7933 - Learning rate: 0.001 - Loss: 0.94447595
Epoch: 3/15 - Batch: 3700/7933 - Learning rate: 0.001 - Loss: 0.9305816
Epoch: 3/15 - Batch: 3800/7933 - Learning rate: 0.001 - Loss: 0.87031573
Epoch: 3/15 - Batch: 3900/7933 - Learning rate: 0.001 - Loss: 1.0166317
Epoch: 3/15 - Batch: 4000/7933 - Learning rate: 0.001 - Loss: 0.57086056 - Dev BLEU: 0.14593763971946824
Epoch: 3/15 - Batch: 4100/7933 - Learning rate: 0.001 - Loss: 0.7279674
Epoch: 3/15 - Batch: 4200/7933 - Learning rate: 0.001 - Loss: 0.68452585
Epoch: 3/15 - Batch: 4300/7933 - Learning rate: 0.001 - Loss: 0.7867366
Epoch: 3/15 - Batch: 4400/7933 - Learning rate: 0.001 - Loss: 0.7332952
Epoch: 3/15 - Batch: 4500/7933 - Learning rate: 0.001 - Loss: 0.8385321
Epoch: 3/15 - Batch: 4600/7933 - Learning rate: 0.001 - Loss: 1.5684999
Epoch: 3/15 - Batch: 4700/7933 - Learning rate: 0.001 - Loss: 1.0979829
Epoch: 3/15 - Batch: 4800/7933 - Learning rate: 0.001 - Loss: 1.0795391
Epoch: 3/15 - Batch: 4900/7933 - Learning rate: 0.001 - Loss: 1.2107289
Epoch: 3/15 - Batch: 5000/7933 - Learning rate: 0.001 - Loss: 1.2411036 - Dev BLEU: 0.18004923925921962
Epoch: 3/15 - Batch: 5100/7933 - Learning rate: 0.001 - Loss: 1.2466948
Epoch: 3/15 - Batch: 5200/7933 - Learning rate: 0.001 - Loss: 1.2291985
Epoch: 3/15 - Batch: 5300/7933 - Learning rate: 0.001 - Loss: 1.1907784
Epoch: 3/15 - Batch: 5400/7933 - Learning rate: 0.001 - Loss: 1.1731734
Epoch: 3/15 - Batch: 5500/7933 - Learning rate: 0.001 - Loss: 1.1487702
Epoch: 3/15 - Batch: 5600/7933 - Learning rate: 0.001 - Loss: 0.90001523
Epoch: 3/15 - Batch: 5700/7933 - Learning rate: 0.001 - Loss: 1.190138
Epoch: 3/15 - Batch: 5800/7933 - Learning rate: 0.001 - Loss: 1.1120819
Epoch: 3/15 - Batch: 5900/7933 - Learning rate: 0.001 - Loss: 0.78782994
Epoch: 3/15 - Batch: 6000/7933 - Learning rate: 0.001 - Loss: 1.144607 - Dev BLEU: 0.15771556109271018
Epoch: 3/15 - Batch: 6100/7933 - Learning rate: 0.001 - Loss: 1.1430706
Epoch: 3/15 - Batch: 6200/7933 - Learning rate: 0.001 - Loss: 0.9790703
Epoch: 3/15 - Batch: 6300/7933 - Learning rate: 0.001 - Loss: 0.9450303
Epoch: 3/15 - Batch: 6400/7933 - Learning rate: 0.001 - Loss: 0.810698
Epoch: 3/15 - Batch: 6500/7933 - Learning rate: 0.001 - Loss: 0.9377653
Epoch: 3/15 - Batch: 6600/7933 - Learning rate: 0.001 - Loss: 0.93626213
Epoch: 3/15 - Batch: 6700/7933 - Learning rate: 0.001 - Loss: 0.864939
Epoch: 3/15 - Batch: 6800/7933 - Learning rate: 0.001 - Loss: 0.8444873
Epoch: 3/15 - Batch: 6900/7933 - Learning rate: 0.001 - Loss: 0.61173135
Epoch: 3/15 - Batch: 7000/7933 - Learning rate: 0.001 - Loss: 1.2784588 - Dev BLEU: 0.2176339120584721
Epoch: 3/15 - Batch: 7100/7933 - Learning rate: 0.001 - Loss: 0.9479997
Epoch: 3/15 - Batch: 7200/7933 - Learning rate: 0.001 - Loss: 0.7552413
Epoch: 3/15 - Batch: 7300/7933 - Learning rate: 0.001 - Loss: 0.9320153
Epoch: 3/15 - Batch: 7400/7933 - Learning rate: 0.001 - Loss: 0.987389
Epoch: 3/15 - Batch: 7500/7933 - Learning rate: 0.001 - Loss: 0.7129842
Epoch: 3/15 - Batch: 7600/7933 - Learning rate: 0.001 - Loss: 1.298547
Epoch: 3/15 - Batch: 7700/7933 - Learning rate: 0.001 - Loss: 1.4139881
Epoch: 3/15 - Batch: 7800/7933 - Learning rate: 0.001 - Loss: 1.3520082
Epoch: 3/15 - Batch: 7900/7933 - Learning rate: 0.001 - Loss: 0.9779667
Epoch: 3/15 - Batch: 7933/7933 - Learning rate: 0.001 - Loss: 1.3837894 - Dev BLEU: 0.19522680194230052
Epoch: 4/15 - Batch: 100/7933 - Learning rate: 0.001 - Loss: 0.8701314
Epoch: 4/15 - Batch: 200/7933 - Learning rate: 0.001 - Loss: 0.8264334
Epoch: 4/15 - Batch: 300/7933 - Learning rate: 0.001 - Loss: 0.59865564
Epoch: 4/15 - Batch: 400/7933 - Learning rate: 0.001 - Loss: 1.0071268
Epoch: 4/15 - Batch: 500/7933 - Learning rate: 0.001 - Loss: 0.75834894
Epoch: 4/15 - Batch: 600/7933 - Learning rate: 0.001 - Loss: 0.4359614
Epoch: 4/15 - Batch: 700/7933 - Learning rate: 0.001 - Loss: 0.72246367
Epoch: 4/15 - Batch: 800/7933 - Learning rate: 0.001 - Loss: 0.70796645
Epoch: 4/15 - Batch: 900/7933 - Learning rate: 0.001 - Loss: 0.46193564
Epoch: 4/15 - Batch: 1000/7933 - Learning rate: 0.001 - Loss: 0.77882004 - Dev BLEU: 0.1716281245026202
Epoch: 4/15 - Batch: 1100/7933 - Learning rate: 0.001 - Loss: 0.68006897
Epoch: 4/15 - Batch: 1200/7933 - Learning rate: 0.001 - Loss: 0.97467107
Epoch: 4/15 - Batch: 1300/7933 - Learning rate: 0.001 - Loss: 0.83713806
Epoch: 4/15 - Batch: 1400/7933 - Learning rate: 0.001 - Loss: 0.89110345
Epoch: 4/15 - Batch: 1500/7933 - Learning rate: 0.001 - Loss: 0.62789845
Epoch: 4/15 - Batch: 1600/7933 - Learning rate: 0.001 - Loss: 1.1688565
Epoch: 4/15 - Batch: 1700/7933 - Learning rate: 0.001 - Loss: 0.8782785
Epoch: 4/15 - Batch: 1800/7933 - Learning rate: 0.001 - Loss: 0.47830072
Epoch: 4/15 - Batch: 1900/7933 - Learning rate: 0.001 - Loss: 0.7297173
Epoch: 4/15 - Batch: 2000/7933 - Learning rate: 0.001 - Loss: 0.7533182 - Dev BLEU: 0.16057003772152045
Epoch: 4/15 - Batch: 2100/7933 - Learning rate: 0.001 - Loss: 0.65740854
Epoch: 4/15 - Batch: 2200/7933 - Learning rate: 0.001 - Loss: 0.6523516
Epoch: 4/15 - Batch: 2300/7933 - Learning rate: 0.001 - Loss: 0.8061309
Epoch: 4/15 - Batch: 2400/7933 - Learning rate: 0.001 - Loss: 0.6626083
Epoch: 4/15 - Batch: 2500/7933 - Learning rate: 0.001 - Loss: 0.64973664
Epoch: 4/15 - Batch: 2600/7933 - Learning rate: 0.001 - Loss: 0.509816
Epoch: 4/15 - Batch: 2700/7933 - Learning rate: 0.001 - Loss: 0.29076537
Epoch: 4/15 - Batch: 2800/7933 - Learning rate: 0.001 - Loss: 0.836918
Epoch: 4/15 - Batch: 2900/7933 - Learning rate: 0.001 - Loss: 0.9751673
Epoch: 4/15 - Batch: 3000/7933 - Learning rate: 0.001 - Loss: 0.86865044 - Dev BLEU: 0.1621322647603242
Epoch: 4/15 - Batch: 3100/7933 - Learning rate: 0.001 - Loss: 0.8875636
Epoch: 4/15 - Batch: 3200/7933 - Learning rate: 0.001 - Loss: 0.8257569
Epoch: 4/15 - Batch: 3300/7933 - Learning rate: 0.001 - Loss: 0.6678328
Epoch: 4/15 - Batch: 3400/7933 - Learning rate: 0.001 - Loss: 0.6547255
Epoch: 4/15 - Batch: 3500/7933 - Learning rate: 0.001 - Loss: 0.8776947
Epoch: 4/15 - Batch: 3600/7933 - Learning rate: 0.001 - Loss: 0.8715202
Epoch: 4/15 - Batch: 3700/7933 - Learning rate: 0.001 - Loss: 0.85723203
Epoch: 4/15 - Batch: 3800/7933 - Learning rate: 0.001 - Loss: 0.79535156
Epoch: 4/15 - Batch: 3900/7933 - Learning rate: 0.001 - Loss: 0.93140066
Epoch: 4/15 - Batch: 4000/7933 - Learning rate: 0.001 - Loss: 0.5108337 - Dev BLEU: 0.16798985424602092
Epoch: 4/15 - Batch: 4100/7933 - Learning rate: 0.001 - Loss: 0.6663401
Epoch: 4/15 - Batch: 4200/7933 - Learning rate: 0.001 - Loss: 0.63054657
Epoch: 4/15 - Batch: 4300/7933 - Learning rate: 0.001 - Loss: 0.89526796
Epoch: 4/15 - Batch: 4400/7933 - Learning rate: 0.001 - Loss: 0.70595366
Epoch: 4/15 - Batch: 4500/7933 - Learning rate: 0.001 - Loss: 0.80412674
Epoch: 4/15 - Batch: 4600/7933 - Learning rate: 0.001 - Loss: 1.3852373
Epoch: 4/15 - Batch: 4700/7933 - Learning rate: 0.001 - Loss: 1.0226213
Epoch: 4/15 - Batch: 4800/7933 - Learning rate: 0.001 - Loss: 0.9568687
Epoch: 4/15 - Batch: 4900/7933 - Learning rate: 0.001 - Loss: 1.0934945
Epoch: 4/15 - Batch: 5000/7933 - Learning rate: 0.001 - Loss: 1.1308511 - Dev BLEU: 0.1967249054208806
Epoch: 4/15 - Batch: 5100/7933 - Learning rate: 0.001 - Loss: 1.1446083
Epoch: 4/15 - Batch: 5200/7933 - Learning rate: 0.001 - Loss: 1.110406
Epoch: 4/15 - Batch: 5300/7933 - Learning rate: 0.001 - Loss: 1.1188796
Epoch: 4/15 - Batch: 5400/7933 - Learning rate: 0.001 - Loss: 1.0495529
Epoch: 4/15 - Batch: 5500/7933 - Learning rate: 0.001 - Loss: 1.0402715
Epoch: 4/15 - Batch: 5600/7933 - Learning rate: 0.001 - Loss: 0.84330934
Epoch: 4/15 - Batch: 5700/7933 - Learning rate: 0.001 - Loss: 1.0755763
Epoch: 4/15 - Batch: 5800/7933 - Learning rate: 0.001 - Loss: 1.0201728
Epoch: 4/15 - Batch: 5900/7933 - Learning rate: 0.001 - Loss: 0.7158273
Epoch: 4/15 - Batch: 6000/7933 - Learning rate: 0.001 - Loss: 1.0514276 - Dev BLEU: 0.18032568354086193
Epoch: 4/15 - Batch: 6100/7933 - Learning rate: 0.001 - Loss: 1.0447435
Epoch: 4/15 - Batch: 6200/7933 - Learning rate: 0.001 - Loss: 0.91393614
Epoch: 4/15 - Batch: 6300/7933 - Learning rate: 0.001 - Loss: 0.86189455
Epoch: 4/15 - Batch: 6400/7933 - Learning rate: 0.001 - Loss: 0.7464008
Epoch: 4/15 - Batch: 6500/7933 - Learning rate: 0.001 - Loss: 0.86898786
Epoch: 4/15 - Batch: 6600/7933 - Learning rate: 0.001 - Loss: 1.5617174
Epoch: 4/15 - Batch: 6700/7933 - Learning rate: 0.001 - Loss: 1.1402957
Epoch: 4/15 - Batch: 6800/7933 - Learning rate: 0.001 - Loss: 1.0058577
Epoch: 4/15 - Batch: 6900/7933 - Learning rate: 0.001 - Loss: 0.7215152
Epoch: 4/15 - Batch: 7000/7933 - Learning rate: 0.001 - Loss: 1.4333324 - Dev BLEU: 0.18161167089851368
Epoch: 4/15 - Batch: 7100/7933 - Learning rate: 0.001 - Loss: 1.0563504
Epoch: 4/15 - Batch: 7200/7933 - Learning rate: 0.001 - Loss: 0.843652
Epoch: 4/15 - Batch: 7300/7933 - Learning rate: 0.001 - Loss: 1.0226588
Epoch: 4/15 - Batch: 7400/7933 - Learning rate: 0.001 - Loss: 1.0409211
Epoch: 4/15 - Batch: 7500/7933 - Learning rate: 0.001 - Loss: 0.74381
Epoch: 4/15 - Batch: 7600/7933 - Learning rate: 0.001 - Loss: 1.3633693
Epoch: 4/15 - Batch: 7700/7933 - Learning rate: 0.001 - Loss: 1.4799821
Epoch: 4/15 - Batch: 7800/7933 - Learning rate: 0.001 - Loss: 1.4052262
Epoch: 4/15 - Batch: 7900/7933 - Learning rate: 0.001 - Loss: 1.0770376
Epoch: 4/15 - Batch: 7933/7933 - Learning rate: 0.001 - Loss: 1.5058473 - Dev BLEU: 0.19296676709591698
Epoch: 5/15 - Batch: 100/7933 - Learning rate: 0.001 - Loss: 0.87085557
Epoch: 5/15 - Batch: 200/7933 - Learning rate: 0.001 - Loss: 0.8410951
Epoch: 5/15 - Batch: 300/7933 - Learning rate: 0.001 - Loss: 0.57709813
Epoch: 5/15 - Batch: 400/7933 - Learning rate: 0.001 - Loss: 0.9812815
Epoch: 5/15 - Batch: 500/7933 - Learning rate: 0.001 - Loss: 0.73741347
Epoch: 5/15 - Batch: 600/7933 - Learning rate: 0.001 - Loss: 0.43685898
Epoch: 5/15 - Batch: 700/7933 - Learning rate: 0.001 - Loss: 0.720863
Epoch: 5/15 - Batch: 800/7933 - Learning rate: 0.001 - Loss: 0.6952192
Epoch: 5/15 - Batch: 900/7933 - Learning rate: 0.001 - Loss: 0.45219067
Epoch: 5/15 - Batch: 1000/7933 - Learning rate: 0.001 - Loss: 0.7822978 - Dev BLEU: 0.18294033866460452
Epoch: 5/15 - Batch: 1100/7933 - Learning rate: 0.001 - Loss: 0.6806736
Epoch: 5/15 - Batch: 1200/7933 - Learning rate: 0.001 - Loss: 0.94280356
Epoch: 5/15 - Batch: 1300/7933 - Learning rate: 0.001 - Loss: 0.81133956
Epoch: 5/15 - Batch: 1400/7933 - Learning rate: 0.001 - Loss: 0.8695678
Epoch: 5/15 - Batch: 1500/7933 - Learning rate: 0.001 - Loss: 0.6117464
Epoch: 5/15 - Batch: 1600/7933 - Learning rate: 0.001 - Loss: 1.1734017
Epoch: 5/15 - Batch: 1700/7933 - Learning rate: 0.001 - Loss: 0.8424531
Epoch: 5/15 - Batch: 1800/7933 - Learning rate: 0.001 - Loss: 0.46303117
Epoch: 5/15 - Batch: 1900/7933 - Learning rate: 0.001 - Loss: 0.7219251
Epoch: 5/15 - Batch: 2000/7933 - Learning rate: 0.001 - Loss: 0.72141653 - Dev BLEU: 0.17295433662188506
Epoch: 5/15 - Batch: 2100/7933 - Learning rate: 0.001 - Loss: 0.61585414
Epoch: 5/15 - Batch: 2200/7933 - Learning rate: 0.001 - Loss: 0.6446916
Epoch: 5/15 - Batch: 2300/7933 - Learning rate: 0.001 - Loss: 0.7888617
Epoch: 5/15 - Batch: 2400/7933 - Learning rate: 0.001 - Loss: 0.65189075
Epoch: 5/15 - Batch: 2500/7933 - Learning rate: 0.001 - Loss: 0.6375423
Epoch: 5/15 - Batch: 2600/7933 - Learning rate: 0.001 - Loss: 0.50829875
Epoch: 5/15 - Batch: 2700/7933 - Learning rate: 0.001 - Loss: 0.29039985
Epoch: 5/15 - Batch: 2800/7933 - Learning rate: 0.001 - Loss: 0.82041454
Epoch: 5/15 - Batch: 2900/7933 - Learning rate: 0.001 - Loss: 0.9317274
Epoch: 5/15 - Batch: 3000/7933 - Learning rate: 0.001 - Loss: 0.8317374 - Dev BLEU: 0.17720651224167577
Epoch: 5/15 - Batch: 3100/7933 - Learning rate: 0.001 - Loss: 0.8392895
Epoch: 5/15 - Batch: 3200/7933 - Learning rate: 0.001 - Loss: 0.7787774
Epoch: 5/15 - Batch: 3300/7933 - Learning rate: 0.001 - Loss: 0.64240915
Epoch: 5/15 - Batch: 3400/7933 - Learning rate: 0.001 - Loss: 0.651774
Epoch: 5/15 - Batch: 3500/7933 - Learning rate: 0.001 - Loss: 0.84642136
Epoch: 5/15 - Batch: 3600/7933 - Learning rate: 0.001 - Loss: 0.84034497
Epoch: 5/15 - Batch: 3700/7933 - Learning rate: 0.001 - Loss: 0.8192067
Epoch: 5/15 - Batch: 3800/7933 - Learning rate: 0.001 - Loss: 0.7459023
Epoch: 5/15 - Batch: 3900/7933 - Learning rate: 0.001 - Loss: 0.8755766
Epoch: 5/15 - Batch: 4000/7933 - Learning rate: 0.001 - Loss: 0.49196157 - Dev BLEU: 0.18719953973717424
Epoch: 5/15 - Batch: 4100/7933 - Learning rate: 0.001 - Loss: 0.6418895
Epoch: 5/15 - Batch: 4200/7933 - Learning rate: 0.001 - Loss: 0.60599715
Epoch: 5/15 - Batch: 4300/7933 - Learning rate: 0.001 - Loss: 0.7128728
Epoch: 5/15 - Batch: 4400/7933 - Learning rate: 0.001 - Loss: 0.67332816
Epoch: 5/15 - Batch: 4500/7933 - Learning rate: 0.001 - Loss: 0.7765602
Epoch: 5/15 - Batch: 4600/7933 - Learning rate: 0.001 - Loss: 1.2595162
Epoch: 5/15 - Batch: 4700/7933 - Learning rate: 0.001 - Loss: 0.92868817
Epoch: 5/15 - Batch: 4800/7933 - Learning rate: 0.001 - Loss: 0.89724565
Epoch: 5/15 - Batch: 4900/7933 - Learning rate: 0.001 - Loss: 1.0147963
Epoch: 5/15 - Batch: 5000/7933 - Learning rate: 0.001 - Loss: 1.0537984 - Dev BLEU: 0.21399681977968166
Epoch: 5/15 - Batch: 5100/7933 - Learning rate: 0.001 - Loss: 1.0619265
Epoch: 5/15 - Batch: 5200/7933 - Learning rate: 0.001 - Loss: 1.0561662
Epoch: 5/15 - Batch: 5300/7933 - Learning rate: 0.001 - Loss: 1.0061163
Epoch: 5/15 - Batch: 5400/7933 - Learning rate: 0.001 - Loss: 0.9715276
Epoch: 5/15 - Batch: 5500/7933 - Learning rate: 0.001 - Loss: 0.9850938
Epoch: 5/15 - Batch: 5600/7933 - Learning rate: 0.001 - Loss: 0.7832043
Epoch: 5/15 - Batch: 5700/7933 - Learning rate: 0.001 - Loss: 0.9982923
Epoch: 5/15 - Batch: 5800/7933 - Learning rate: 0.001 - Loss: 0.9583246
Epoch: 5/15 - Batch: 5900/7933 - Learning rate: 0.001 - Loss: 0.6710102
Epoch: 5/15 - Batch: 6000/7933 - Learning rate: 0.001 - Loss: 0.9914483 - Dev BLEU: 0.20318344430820254
Epoch: 5/15 - Batch: 6100/7933 - Learning rate: 0.001 - Loss: 0.94771904
Epoch: 5/15 - Batch: 6200/7933 - Learning rate: 0.001 - Loss: 0.8603955
Epoch: 5/15 - Batch: 6300/7933 - Learning rate: 0.001 - Loss: 0.8208658
Epoch: 5/15 - Batch: 6400/7933 - Learning rate: 0.001 - Loss: 0.7130487
Epoch: 5/15 - Batch: 6500/7933 - Learning rate: 0.001 - Loss: 0.84383523
Epoch: 5/15 - Batch: 6600/7933 - Learning rate: 0.001 - Loss: 0.84275377
Epoch: 5/15 - Batch: 6700/7933 - Learning rate: 0.001 - Loss: 0.8049673
Epoch: 5/15 - Batch: 6800/7933 - Learning rate: 0.001 - Loss: 0.79435235
Epoch: 5/15 - Batch: 6900/7933 - Learning rate: 0.001 - Loss: 0.56446594
Epoch: 5/15 - Batch: 7000/7933 - Learning rate: 0.001 - Loss: 1.1980743 - Dev BLEU: 0.23232816357097963
Epoch: 5/15 - Batch: 7100/7933 - Learning rate: 0.001 - Loss: 0.8774643
Epoch: 5/15 - Batch: 7200/7933 - Learning rate: 0.001 - Loss: 0.7138856
Epoch: 5/15 - Batch: 7300/7933 - Learning rate: 0.001 - Loss: 0.87822324
Epoch: 5/15 - Batch: 7400/7933 - Learning rate: 0.001 - Loss: 0.9299455
Epoch: 5/15 - Batch: 7500/7933 - Learning rate: 0.001 - Loss: 0.66791385
Epoch: 5/15 - Batch: 7600/7933 - Learning rate: 0.001 - Loss: 1.2165183
Epoch: 5/15 - Batch: 7700/7933 - Learning rate: 0.001 - Loss: 1.3444245
Epoch: 5/15 - Batch: 7800/7933 - Learning rate: 0.001 - Loss: 1.2663838
Epoch: 5/15 - Batch: 7900/7933 - Learning rate: 0.001 - Loss: 0.9221793
Epoch: 5/15 - Batch: 7933/7933 - Learning rate: 0.001 - Loss: 1.2865734 - Dev BLEU: 0.2163548247441139
Epoch: 6/15 - Batch: 100/7933 - Learning rate: 0.001 - Loss: 0.8254229
Epoch: 6/15 - Batch: 200/7933 - Learning rate: 0.001 - Loss: 0.7271761
Epoch: 6/15 - Batch: 300/7933 - Learning rate: 0.001 - Loss: 0.5448099
Epoch: 6/15 - Batch: 400/7933 - Learning rate: 0.001 - Loss: 0.915019
Epoch: 6/15 - Batch: 500/7933 - Learning rate: 0.001 - Loss: 0.6540771
Epoch: 6/15 - Batch: 600/7933 - Learning rate: 0.001 - Loss: 0.41058764
Epoch: 6/15 - Batch: 700/7933 - Learning rate: 0.001 - Loss: 0.66542655
Epoch: 6/15 - Batch: 800/7933 - Learning rate: 0.001 - Loss: 0.65059274
Epoch: 6/15 - Batch: 900/7933 - Learning rate: 0.001 - Loss: 0.43034154
Epoch: 6/15 - Batch: 1000/7933 - Learning rate: 0.001 - Loss: 0.71948355 - Dev BLEU: 0.1917968303728601
Epoch: 6/15 - Batch: 1100/7933 - Learning rate: 0.001 - Loss: 0.63716
Epoch: 6/15 - Batch: 1200/7933 - Learning rate: 0.001 - Loss: 0.9025921
Epoch: 6/15 - Batch: 1300/7933 - Learning rate: 0.001 - Loss: 0.7544495
Epoch: 6/15 - Batch: 1400/7933 - Learning rate: 0.001 - Loss: 0.8337654
Epoch: 6/15 - Batch: 1500/7933 - Learning rate: 0.001 - Loss: 0.57137185
Epoch: 6/15 - Batch: 1600/7933 - Learning rate: 0.001 - Loss: 1.1008643
Epoch: 6/15 - Batch: 1700/7933 - Learning rate: 0.001 - Loss: 0.81924
Epoch: 6/15 - Batch: 1800/7933 - Learning rate: 0.001 - Loss: 0.44251832
Epoch: 6/15 - Batch: 1900/7933 - Learning rate: 0.001 - Loss: 0.68122816
Epoch: 6/15 - Batch: 2000/7933 - Learning rate: 0.001 - Loss: 0.6822428 - Dev BLEU: 0.17596925479062606
Epoch: 6/15 - Batch: 2100/7933 - Learning rate: 0.001 - Loss: 0.6028669
Epoch: 6/15 - Batch: 2200/7933 - Learning rate: 0.001 - Loss: 0.59582525
Epoch: 6/15 - Batch: 2300/7933 - Learning rate: 0.001 - Loss: 0.7323594
Epoch: 6/15 - Batch: 2400/7933 - Learning rate: 0.001 - Loss: 0.6079301
Epoch: 6/15 - Batch: 2500/7933 - Learning rate: 0.001 - Loss: 0.6009483
Epoch: 6/15 - Batch: 2600/7933 - Learning rate: 0.001 - Loss: 0.46396917
Epoch: 6/15 - Batch: 2700/7933 - Learning rate: 0.001 - Loss: 0.27450526
Epoch: 6/15 - Batch: 2800/7933 - Learning rate: 0.001 - Loss: 0.7819387
Epoch: 6/15 - Batch: 2900/7933 - Learning rate: 0.001 - Loss: 0.88973886
Epoch: 6/15 - Batch: 3000/7933 - Learning rate: 0.001 - Loss: 0.80257773 - Dev BLEU: 0.17594401406157498
Epoch: 6/15 - Batch: 3100/7933 - Learning rate: 0.001 - Loss: 0.82117516
Epoch: 6/15 - Batch: 3200/7933 - Learning rate: 0.001 - Loss: 0.7887939
Epoch: 6/15 - Batch: 3300/7933 - Learning rate: 0.001 - Loss: 0.6369914
Epoch: 6/15 - Batch: 3400/7933 - Learning rate: 0.001 - Loss: 0.6168529
Epoch: 6/15 - Batch: 3500/7933 - Learning rate: 0.001 - Loss: 0.81003565
Epoch: 6/15 - Batch: 3600/7933 - Learning rate: 0.001 - Loss: 0.8104863
Epoch: 6/15 - Batch: 3700/7933 - Learning rate: 0.001 - Loss: 0.7934717
Epoch: 6/15 - Batch: 3800/7933 - Learning rate: 0.001 - Loss: 0.74088115
Epoch: 6/15 - Batch: 3900/7933 - Learning rate: 0.001 - Loss: 0.86263466
Epoch: 6/15 - Batch: 4000/7933 - Learning rate: 0.001 - Loss: 0.48728588 - Dev BLEU: 0.1823686599461893
Epoch: 6/15 - Batch: 4100/7933 - Learning rate: 0.001 - Loss: 0.61953557
Epoch: 6/15 - Batch: 4200/7933 - Learning rate: 0.001 - Loss: 0.59308255
Epoch: 6/15 - Batch: 4300/7933 - Learning rate: 0.001 - Loss: 0.69632196
Epoch: 6/15 - Batch: 4400/7933 - Learning rate: 0.001 - Loss: 0.6591786
Epoch: 6/15 - Batch: 4500/7933 - Learning rate: 0.001 - Loss: 0.75635743
Epoch: 6/15 - Batch: 4600/7933 - Learning rate: 0.001 - Loss: 1.2663152
Epoch: 6/15 - Batch: 4700/7933 - Learning rate: 0.001 - Loss: 0.92657185
Epoch: 6/15 - Batch: 4800/7933 - Learning rate: 0.001 - Loss: 0.88807446
Epoch: 6/15 - Batch: 4900/7933 - Learning rate: 0.001 - Loss: 0.9969297
Epoch: 6/15 - Batch: 5000/7933 - Learning rate: 0.001 - Loss: 1.0433245 - Dev BLEU: 0.20912400050053848
Epoch: 6/15 - Batch: 5100/7933 - Learning rate: 0.001 - Loss: 1.0707033
Epoch: 6/15 - Batch: 5200/7933 - Learning rate: 0.001 - Loss: 1.0615458
Epoch: 6/15 - Batch: 5300/7933 - Learning rate: 0.001 - Loss: 1.0316714
Epoch: 6/15 - Batch: 5400/7933 - Learning rate: 0.001 - Loss: 0.96309024
Epoch: 6/15 - Batch: 5500/7933 - Learning rate: 0.001 - Loss: 0.9875786
Epoch: 6/15 - Batch: 5600/7933 - Learning rate: 0.001 - Loss: 0.76371956
Epoch: 6/15 - Batch: 5700/7933 - Learning rate: 0.001 - Loss: 0.956803
Epoch: 6/15 - Batch: 5800/7933 - Learning rate: 0.001 - Loss: 0.97440124
Epoch: 6/15 - Batch: 5900/7933 - Learning rate: 0.001 - Loss: 0.67417413
Epoch: 6/15 - Batch: 6000/7933 - Learning rate: 0.001 - Loss: 1.0052058 - Dev BLEU: 0.19294199035896706
Epoch: 6/15 - Batch: 6100/7933 - Learning rate: 0.001 - Loss: 0.9546582
Epoch: 6/15 - Batch: 6200/7933 - Learning rate: 0.001 - Loss: 0.8807672
Epoch: 6/15 - Batch: 6300/7933 - Learning rate: 0.001 - Loss: 0.7950143
Epoch: 6/15 - Batch: 6400/7933 - Learning rate: 0.001 - Loss: 0.716084
Epoch: 6/15 - Batch: 6500/7933 - Learning rate: 0.001 - Loss: 0.8235096
Epoch: 6/15 - Batch: 6600/7933 - Learning rate: 0.001 - Loss: 0.81000227
Epoch: 6/15 - Batch: 6700/7933 - Learning rate: 0.001 - Loss: 0.787269
Epoch: 6/15 - Batch: 6800/7933 - Learning rate: 0.001 - Loss: 0.77411175
Epoch: 6/15 - Batch: 6900/7933 - Learning rate: 0.001 - Loss: 0.54909956
Epoch: 6/15 - Batch: 7000/7933 - Learning rate: 0.001 - Loss: 1.1563778 - Dev BLEU: 0.23659984783859997
Epoch: 6/15 - Batch: 7100/7933 - Learning rate: 0.001 - Loss: 0.8530971
Epoch: 6/15 - Batch: 7200/7933 - Learning rate: 0.001 - Loss: 0.6905744
Epoch: 6/15 - Batch: 7300/7933 - Learning rate: 0.001 - Loss: 0.85419047
Epoch: 6/15 - Batch: 7400/7933 - Learning rate: 0.001 - Loss: 0.8915763
Epoch: 6/15 - Batch: 7500/7933 - Learning rate: 0.001 - Loss: 0.6422315
Epoch: 6/15 - Batch: 7600/7933 - Learning rate: 0.001 - Loss: 1.1745664
Epoch: 6/15 - Batch: 7700/7933 - Learning rate: 0.001 - Loss: 1.3059105
Epoch: 6/15 - Batch: 7800/7933 - Learning rate: 0.001 - Loss: 1.222904
Epoch: 6/15 - Batch: 7900/7933 - Learning rate: 0.001 - Loss: 0.86579573
Epoch: 6/15 - Batch: 7933/7933 - Learning rate: 0.001 - Loss: 1.1832479 - Dev BLEU: 0.2172177132288012
Epoch: 7/15 - Batch: 100/7933 - Learning rate: 0.001 - Loss: 0.8110326
Epoch: 7/15 - Batch: 200/7933 - Learning rate: 0.001 - Loss: 0.7027517
Epoch: 7/15 - Batch: 300/7933 - Learning rate: 0.001 - Loss: 0.53778297
Epoch: 7/15 - Batch: 400/7933 - Learning rate: 0.001 - Loss: 0.8840561
Epoch: 7/15 - Batch: 500/7933 - Learning rate: 0.001 - Loss: 0.6379311
Epoch: 7/15 - Batch: 600/7933 - Learning rate: 0.001 - Loss: 0.407674
Epoch: 7/15 - Batch: 700/7933 - Learning rate: 0.001 - Loss: 0.65795875
Epoch: 7/15 - Batch: 800/7933 - Learning rate: 0.001 - Loss: 0.65158266
Epoch: 7/15 - Batch: 900/7933 - Learning rate: 0.001 - Loss: 0.41175696
Epoch: 7/15 - Batch: 1000/7933 - Learning rate: 0.001 - Loss: 0.69714063 - Dev BLEU: 0.19601293669511824
Epoch: 7/15 - Batch: 1100/7933 - Learning rate: 0.001 - Loss: 0.62012565
Epoch: 7/15 - Batch: 1200/7933 - Learning rate: 0.001 - Loss: 0.88200486
Epoch: 7/15 - Batch: 1300/7933 - Learning rate: 0.001 - Loss: 0.72340757
Epoch: 7/15 - Batch: 1400/7933 - Learning rate: 0.001 - Loss: 0.8007552
Epoch: 7/15 - Batch: 1500/7933 - Learning rate: 0.001 - Loss: 0.56525815
Epoch: 7/15 - Batch: 1600/7933 - Learning rate: 0.001 - Loss: 1.058863
Epoch: 7/15 - Batch: 1700/7933 - Learning rate: 0.001 - Loss: 0.8013052
Epoch: 7/15 - Batch: 1800/7933 - Learning rate: 0.001 - Loss: 0.43151066
Epoch: 7/15 - Batch: 1900/7933 - Learning rate: 0.001 - Loss: 0.65227073
Epoch: 7/15 - Batch: 2000/7933 - Learning rate: 0.001 - Loss: 0.6733193 - Dev BLEU: 0.1779024657784897
Epoch: 7/15 - Batch: 2100/7933 - Learning rate: 0.001 - Loss: 0.5860031
Epoch: 7/15 - Batch: 2200/7933 - Learning rate: 0.001 - Loss: 0.5766297
Epoch: 7/15 - Batch: 2300/7933 - Learning rate: 0.001 - Loss: 0.7288487
Epoch: 7/15 - Batch: 2400/7933 - Learning rate: 0.001 - Loss: 0.58322066
Epoch: 7/15 - Batch: 2500/7933 - Learning rate: 0.001 - Loss: 0.5623796
Epoch: 7/15 - Batch: 2600/7933 - Learning rate: 0.001 - Loss: 0.4546912
Epoch: 7/15 - Batch: 2700/7933 - Learning rate: 0.001 - Loss: 0.26654443
Epoch: 7/15 - Batch: 2800/7933 - Learning rate: 0.001 - Loss: 0.74746084
Epoch: 7/15 - Batch: 2900/7933 - Learning rate: 0.001 - Loss: 0.88467526
Epoch: 7/15 - Batch: 3000/7933 - Learning rate: 0.001 - Loss: 0.77353925 - Dev BLEU: 0.18059728778212986
Epoch: 7/15 - Batch: 3100/7933 - Learning rate: 0.001 - Loss: 0.8139792
Epoch: 7/15 - Batch: 3200/7933 - Learning rate: 0.001 - Loss: 0.75928694
Epoch: 7/15 - Batch: 3300/7933 - Learning rate: 0.001 - Loss: 0.60953707
Epoch: 7/15 - Batch: 3400/7933 - Learning rate: 0.001 - Loss: 0.6046741
Epoch: 7/15 - Batch: 3500/7933 - Learning rate: 0.001 - Loss: 0.78448015
Epoch: 7/15 - Batch: 3600/7933 - Learning rate: 0.001 - Loss: 0.78005433
Epoch: 7/15 - Batch: 3700/7933 - Learning rate: 0.001 - Loss: 0.76478714
Epoch: 7/15 - Batch: 3800/7933 - Learning rate: 0.001 - Loss: 0.71436286
Epoch: 7/15 - Batch: 3900/7933 - Learning rate: 0.001 - Loss: 0.82307494
Epoch: 7/15 - Batch: 4000/7933 - Learning rate: 0.001 - Loss: 0.4726234 - Dev BLEU: 0.18772110090237562
Epoch: 7/15 - Batch: 4100/7933 - Learning rate: 0.001 - Loss: 0.5952431
Epoch: 7/15 - Batch: 4200/7933 - Learning rate: 0.001 - Loss: 0.5805239
Epoch: 7/15 - Batch: 4300/7933 - Learning rate: 0.001 - Loss: 0.6721899
Epoch: 7/15 - Batch: 4400/7933 - Learning rate: 0.001 - Loss: 0.6287668
Epoch: 7/15 - Batch: 4500/7933 - Learning rate: 0.001 - Loss: 0.7403953
Epoch: 7/15 - Batch: 4600/7933 - Learning rate: 0.001 - Loss: 1.1894292
Epoch: 7/15 - Batch: 4700/7933 - Learning rate: 0.001 - Loss: 0.8797682
Epoch: 7/15 - Batch: 4800/7933 - Learning rate: 0.001 - Loss: 0.8523487
Epoch: 7/15 - Batch: 4900/7933 - Learning rate: 0.001 - Loss: 0.976384
Epoch: 7/15 - Batch: 5000/7933 - Learning rate: 0.001 - Loss: 1.017814 - Dev BLEU: 0.21930462093730385
Epoch: 7/15 - Batch: 5100/7933 - Learning rate: 0.001 - Loss: 1.0556107
Epoch: 7/15 - Batch: 5200/7933 - Learning rate: 0.001 - Loss: 1.0025269
Epoch: 7/15 - Batch: 5300/7933 - Learning rate: 0.001 - Loss: 0.97211105
Epoch: 7/15 - Batch: 5400/7933 - Learning rate: 0.001 - Loss: 0.95443267
Epoch: 7/15 - Batch: 5500/7933 - Learning rate: 0.001 - Loss: 0.94187826
Epoch: 7/15 - Batch: 5600/7933 - Learning rate: 0.001 - Loss: 0.75610405
Epoch: 7/15 - Batch: 5700/7933 - Learning rate: 0.001 - Loss: 0.9399505
Epoch: 7/15 - Batch: 5800/7933 - Learning rate: 0.001 - Loss: 0.9152262
Epoch: 7/15 - Batch: 5900/7933 - Learning rate: 0.001 - Loss: 0.6236977
Epoch: 7/15 - Batch: 6000/7933 - Learning rate: 0.001 - Loss: 0.9545471 - Dev BLEU: 0.20171696688652554
Epoch: 7/15 - Batch: 6100/7933 - Learning rate: 0.001 - Loss: 0.8970532
Epoch: 7/15 - Batch: 6200/7933 - Learning rate: 0.001 - Loss: 0.817664
Epoch: 7/15 - Batch: 6300/7933 - Learning rate: 0.001 - Loss: 0.77682394
Epoch: 7/15 - Batch: 6400/7933 - Learning rate: 0.001 - Loss: 0.6851116
Epoch: 7/15 - Batch: 6500/7933 - Learning rate: 0.001 - Loss: 0.8010888
Epoch: 7/15 - Batch: 6600/7933 - Learning rate: 0.001 - Loss: 0.7849467
Epoch: 7/15 - Batch: 6700/7933 - Learning rate: 0.001 - Loss: 0.75341994
Epoch: 7/15 - Batch: 6800/7933 - Learning rate: 0.001 - Loss: 0.75292677
Epoch: 7/15 - Batch: 6900/7933 - Learning rate: 0.001 - Loss: 0.52977103
Epoch: 7/15 - Batch: 7000/7933 - Learning rate: 0.001 - Loss: 1.111109 - Dev BLEU: 0.24423921671647097
Epoch: 7/15 - Batch: 7100/7933 - Learning rate: 0.001 - Loss: 0.81714815
Epoch: 7/15 - Batch: 7200/7933 - Learning rate: 0.001 - Loss: 0.66233057
Epoch: 7/15 - Batch: 7300/7933 - Learning rate: 0.001 - Loss: 0.82765377
Epoch: 7/15 - Batch: 7400/7933 - Learning rate: 0.001 - Loss: 0.86745614
Epoch: 7/15 - Batch: 7500/7933 - Learning rate: 0.001 - Loss: 0.62405676
Epoch: 7/15 - Batch: 7600/7933 - Learning rate: 0.001 - Loss: 1.1186941
Epoch: 7/15 - Batch: 7700/7933 - Learning rate: 0.001 - Loss: 1.2655983
Epoch: 7/15 - Batch: 7800/7933 - Learning rate: 0.001 - Loss: 1.1642647
Epoch: 7/15 - Batch: 7900/7933 - Learning rate: 0.001 - Loss: 0.84334695
Epoch: 7/15 - Batch: 7933/7933 - Learning rate: 0.001 - Loss: 1.1085843 - Dev BLEU: 0.22044640342542077
Epoch: 8/15 - Batch: 100/7933 - Learning rate: 0.0005 - Loss: 0.7902741
Epoch: 8/15 - Batch: 200/7933 - Learning rate: 0.0005 - Loss: 0.6878016
Epoch: 8/15 - Batch: 300/7933 - Learning rate: 0.0005 - Loss: 0.52440554
Epoch: 8/15 - Batch: 400/7933 - Learning rate: 0.0005 - Loss: 0.8412245
Epoch: 8/15 - Batch: 500/7933 - Learning rate: 0.0005 - Loss: 0.59312755
Epoch: 8/15 - Batch: 600/7933 - Learning rate: 0.0005 - Loss: 0.3890704
Epoch: 8/15 - Batch: 700/7933 - Learning rate: 0.0005 - Loss: 0.6198509
Epoch: 8/15 - Batch: 800/7933 - Learning rate: 0.0005 - Loss: 0.6083487
Epoch: 8/15 - Batch: 900/7933 - Learning rate: 0.0005 - Loss: 0.4019741
Epoch: 8/15 - Batch: 1000/7933 - Learning rate: 0.0005 - Loss: 0.67015994 - Dev BLEU: 0.2081075676141715
Epoch: 8/15 - Batch: 1100/7933 - Learning rate: 0.0005 - Loss: 0.5852496
Epoch: 8/15 - Batch: 1200/7933 - Learning rate: 0.0005 - Loss: 0.8101598
Epoch: 8/15 - Batch: 1300/7933 - Learning rate: 0.0005 - Loss: 0.68821895
Epoch: 8/15 - Batch: 1400/7933 - Learning rate: 0.0005 - Loss: 0.7574882
Epoch: 8/15 - Batch: 1500/7933 - Learning rate: 0.0005 - Loss: 0.5384645
Epoch: 8/15 - Batch: 1600/7933 - Learning rate: 0.0005 - Loss: 1.0095569
Epoch: 8/15 - Batch: 1700/7933 - Learning rate: 0.0005 - Loss: 0.7455271
Epoch: 8/15 - Batch: 1800/7933 - Learning rate: 0.0005 - Loss: 0.409891
Epoch: 8/15 - Batch: 1900/7933 - Learning rate: 0.0005 - Loss: 0.6323043
Epoch: 8/15 - Batch: 2000/7933 - Learning rate: 0.0005 - Loss: 0.6286755 - Dev BLEU: 0.2001124701058365
Epoch: 8/15 - Batch: 2100/7933 - Learning rate: 0.0005 - Loss: 0.54025567
Epoch: 8/15 - Batch: 2200/7933 - Learning rate: 0.0005 - Loss: 0.52999425
Epoch: 8/15 - Batch: 2300/7933 - Learning rate: 0.0005 - Loss: 0.6731413
Epoch: 8/15 - Batch: 2400/7933 - Learning rate: 0.0005 - Loss: 0.54446155
Epoch: 8/15 - Batch: 2500/7933 - Learning rate: 0.0005 - Loss: 0.5392566
Epoch: 8/15 - Batch: 2600/7933 - Learning rate: 0.0005 - Loss: 0.426672
Epoch: 8/15 - Batch: 2700/7933 - Learning rate: 0.0005 - Loss: 0.25187272
Epoch: 8/15 - Batch: 2800/7933 - Learning rate: 0.0005 - Loss: 0.6994137
Epoch: 8/15 - Batch: 2900/7933 - Learning rate: 0.0005 - Loss: 0.8321055
Epoch: 8/15 - Batch: 3000/7933 - Learning rate: 0.0005 - Loss: 0.7222914 - Dev BLEU: 0.18771050918727689
Epoch: 8/15 - Batch: 3100/7933 - Learning rate: 0.0005 - Loss: 0.73466176
Epoch: 8/15 - Batch: 3200/7933 - Learning rate: 0.0005 - Loss: 0.72443545
Epoch: 8/15 - Batch: 3300/7933 - Learning rate: 0.0005 - Loss: 0.5838664
Epoch: 8/15 - Batch: 3400/7933 - Learning rate: 0.0005 - Loss: 0.57523984
Epoch: 8/15 - Batch: 3500/7933 - Learning rate: 0.0005 - Loss: 0.74440706
Epoch: 8/15 - Batch: 3600/7933 - Learning rate: 0.0005 - Loss: 0.75484645
Epoch: 8/15 - Batch: 3700/7933 - Learning rate: 0.0005 - Loss: 0.72907126
Epoch: 8/15 - Batch: 3800/7933 - Learning rate: 0.0005 - Loss: 0.6761352
Epoch: 8/15 - Batch: 3900/7933 - Learning rate: 0.0005 - Loss: 0.76429284
Epoch: 8/15 - Batch: 4000/7933 - Learning rate: 0.0005 - Loss: 0.44014198 - Dev BLEU: 0.21226955401672762
Epoch: 8/15 - Batch: 4100/7933 - Learning rate: 0.0005 - Loss: 0.5642335
Epoch: 8/15 - Batch: 4200/7933 - Learning rate: 0.0005 - Loss: 0.5400979
Epoch: 8/15 - Batch: 4300/7933 - Learning rate: 0.0005 - Loss: 0.6319329
Epoch: 8/15 - Batch: 4400/7933 - Learning rate: 0.0005 - Loss: 0.58280605
Epoch: 8/15 - Batch: 4500/7933 - Learning rate: 0.0005 - Loss: 0.673886
Epoch: 8/15 - Batch: 4600/7933 - Learning rate: 0.0005 - Loss: 1.0515162
Epoch: 8/15 - Batch: 4700/7933 - Learning rate: 0.0005 - Loss: 0.8083645
Epoch: 8/15 - Batch: 4800/7933 - Learning rate: 0.0005 - Loss: 0.71231806
Epoch: 8/15 - Batch: 4900/7933 - Learning rate: 0.0005 - Loss: 0.86808336
Epoch: 8/15 - Batch: 5000/7933 - Learning rate: 0.0005 - Loss: 0.89549685 - Dev BLEU: 0.23608369631522128
Epoch: 8/15 - Batch: 5100/7933 - Learning rate: 0.0005 - Loss: 0.9495037
Epoch: 8/15 - Batch: 5200/7933 - Learning rate: 0.0005 - Loss: 0.9292758
Epoch: 8/15 - Batch: 5300/7933 - Learning rate: 0.0005 - Loss: 0.89611584
Epoch: 8/15 - Batch: 5400/7933 - Learning rate: 0.0005 - Loss: 0.8473485
Epoch: 8/15 - Batch: 5500/7933 - Learning rate: 0.0005 - Loss: 0.8653165
Epoch: 8/15 - Batch: 5600/7933 - Learning rate: 0.0005 - Loss: 0.66501
Epoch: 8/15 - Batch: 5700/7933 - Learning rate: 0.0005 - Loss: 0.8387287
Epoch: 8/15 - Batch: 5800/7933 - Learning rate: 0.0005 - Loss: 0.797775
Epoch: 8/15 - Batch: 5900/7933 - Learning rate: 0.0005 - Loss: 0.57181966
Epoch: 8/15 - Batch: 6000/7933 - Learning rate: 0.0005 - Loss: 0.8657582 - Dev BLEU: 0.22760591972412925
Epoch: 8/15 - Batch: 6100/7933 - Learning rate: 0.0005 - Loss: 0.8062728
Epoch: 8/15 - Batch: 6200/7933 - Learning rate: 0.0005 - Loss: 0.75728345
Epoch: 8/15 - Batch: 6300/7933 - Learning rate: 0.0005 - Loss: 0.70852995
Epoch: 8/15 - Batch: 6400/7933 - Learning rate: 0.0005 - Loss: 0.6414569
Epoch: 8/15 - Batch: 6500/7933 - Learning rate: 0.0005 - Loss: 0.7485831
Epoch: 8/15 - Batch: 6600/7933 - Learning rate: 0.0005 - Loss: 0.731847
Epoch: 8/15 - Batch: 6700/7933 - Learning rate: 0.0005 - Loss: 0.7158982
Epoch: 8/15 - Batch: 6800/7933 - Learning rate: 0.0005 - Loss: 0.730669
Epoch: 8/15 - Batch: 6900/7933 - Learning rate: 0.0005 - Loss: 0.4999423
Epoch: 8/15 - Batch: 7000/7933 - Learning rate: 0.0005 - Loss: 1.0429697 - Dev BLEU: 0.25305213661513176
Epoch: 8/15 - Batch: 7100/7933 - Learning rate: 0.0005 - Loss: 0.77842504
Epoch: 8/15 - Batch: 7200/7933 - Learning rate: 0.0005 - Loss: 0.63124037
Epoch: 8/15 - Batch: 7300/7933 - Learning rate: 0.0005 - Loss: 0.78447366
Epoch: 8/15 - Batch: 7400/7933 - Learning rate: 0.0005 - Loss: 0.8329167
Epoch: 8/15 - Batch: 7500/7933 - Learning rate: 0.0005 - Loss: 0.59738964
Epoch: 8/15 - Batch: 7600/7933 - Learning rate: 0.0005 - Loss: 1.048418
Epoch: 8/15 - Batch: 7700/7933 - Learning rate: 0.0005 - Loss: 1.1926512
Epoch: 8/15 - Batch: 7800/7933 - Learning rate: 0.0005 - Loss: 1.0677288
Epoch: 8/15 - Batch: 7900/7933 - Learning rate: 0.0005 - Loss: 0.79940116
Epoch: 8/15 - Batch: 7933/7933 - Learning rate: 0.0005 - Loss: 1.025971 - Dev BLEU: 0.23793494385617237
Epoch: 9/15 - Batch: 100/7933 - Learning rate: 0.00025 - Loss: 0.7660991
Epoch: 9/15 - Batch: 200/7933 - Learning rate: 0.00025 - Loss: 0.63993883
Epoch: 9/15 - Batch: 300/7933 - Learning rate: 0.00025 - Loss: 0.5106904
Epoch: 9/15 - Batch: 400/7933 - Learning rate: 0.00025 - Loss: 0.8124229
Epoch: 9/15 - Batch: 500/7933 - Learning rate: 0.00025 - Loss: 0.54555523
Epoch: 9/15 - Batch: 600/7933 - Learning rate: 0.00025 - Loss: 0.38194636
Epoch: 9/15 - Batch: 700/7933 - Learning rate: 0.00025 - Loss: 0.5885227
Epoch: 9/15 - Batch: 800/7933 - Learning rate: 0.00025 - Loss: 0.57760346
Epoch: 9/15 - Batch: 900/7933 - Learning rate: 0.00025 - Loss: 0.38356394
Epoch: 9/15 - Batch: 1000/7933 - Learning rate: 0.00025 - Loss: 0.63599485 - Dev BLEU: 0.2221350979580696
Epoch: 9/15 - Batch: 1100/7933 - Learning rate: 0.00025 - Loss: 0.5666898
Epoch: 9/15 - Batch: 1200/7933 - Learning rate: 0.00025 - Loss: 0.76783913
Epoch: 9/15 - Batch: 1300/7933 - Learning rate: 0.00025 - Loss: 0.64859533
Epoch: 9/15 - Batch: 1400/7933 - Learning rate: 0.00025 - Loss: 0.7270755
Epoch: 9/15 - Batch: 1500/7933 - Learning rate: 0.00025 - Loss: 0.51781124
Epoch: 9/15 - Batch: 1600/7933 - Learning rate: 0.00025 - Loss: 0.9834254
Epoch: 9/15 - Batch: 1700/7933 - Learning rate: 0.00025 - Loss: 0.73671407
Epoch: 9/15 - Batch: 1800/7933 - Learning rate: 0.00025 - Loss: 0.38331774
Epoch: 9/15 - Batch: 1900/7933 - Learning rate: 0.00025 - Loss: 0.61230266
Epoch: 9/15 - Batch: 2000/7933 - Learning rate: 0.00025 - Loss: 0.6038219 - Dev BLEU: 0.2156782411226462
Epoch: 9/15 - Batch: 2100/7933 - Learning rate: 0.00025 - Loss: 0.5073942
Epoch: 9/15 - Batch: 2200/7933 - Learning rate: 0.00025 - Loss: 0.5150702
Epoch: 9/15 - Batch: 2300/7933 - Learning rate: 0.00025 - Loss: 0.6344666
Epoch: 9/15 - Batch: 2400/7933 - Learning rate: 0.00025 - Loss: 0.5157888
Epoch: 9/15 - Batch: 2500/7933 - Learning rate: 0.00025 - Loss: 0.5188957
Epoch: 9/15 - Batch: 2600/7933 - Learning rate: 0.00025 - Loss: 0.40925503
Epoch: 9/15 - Batch: 2700/7933 - Learning rate: 0.00025 - Loss: 0.23881814
Epoch: 9/15 - Batch: 2800/7933 - Learning rate: 0.00025 - Loss: 0.67865425
Epoch: 9/15 - Batch: 2900/7933 - Learning rate: 0.00025 - Loss: 0.7848331
Epoch: 9/15 - Batch: 3000/7933 - Learning rate: 0.00025 - Loss: 0.6955935 - Dev BLEU: 0.21793170089140473
Epoch: 9/15 - Batch: 3100/7933 - Learning rate: 0.00025 - Loss: 0.7085678
Epoch: 9/15 - Batch: 3200/7933 - Learning rate: 0.00025 - Loss: 0.6909813
Epoch: 9/15 - Batch: 3300/7933 - Learning rate: 0.00025 - Loss: 0.5569163
Epoch: 9/15 - Batch: 3400/7933 - Learning rate: 0.00025 - Loss: 0.5500362
Epoch: 9/15 - Batch: 3500/7933 - Learning rate: 0.00025 - Loss: 0.69223714
Epoch: 9/15 - Batch: 3600/7933 - Learning rate: 0.00025 - Loss: 0.7193213
Epoch: 9/15 - Batch: 3700/7933 - Learning rate: 0.00025 - Loss: 0.6994706
Epoch: 9/15 - Batch: 3800/7933 - Learning rate: 0.00025 - Loss: 0.64664525
Epoch: 9/15 - Batch: 3900/7933 - Learning rate: 0.00025 - Loss: 0.7244369
Epoch: 9/15 - Batch: 4000/7933 - Learning rate: 0.00025 - Loss: 0.42685407 - Dev BLEU: 0.22780543983072377
Epoch: 9/15 - Batch: 4100/7933 - Learning rate: 0.00025 - Loss: 0.53712076
Epoch: 9/15 - Batch: 4200/7933 - Learning rate: 0.00025 - Loss: 0.5150515
Epoch: 9/15 - Batch: 4300/7933 - Learning rate: 0.00025 - Loss: 0.6113062
Epoch: 9/15 - Batch: 4400/7933 - Learning rate: 0.00025 - Loss: 0.57223594
Epoch: 9/15 - Batch: 4500/7933 - Learning rate: 0.00025 - Loss: 0.65144056
Epoch: 9/15 - Batch: 4600/7933 - Learning rate: 0.00025 - Loss: 0.97703534
Epoch: 9/15 - Batch: 4700/7933 - Learning rate: 0.00025 - Loss: 0.71347094
Epoch: 9/15 - Batch: 4800/7933 - Learning rate: 0.00025 - Loss: 0.68348104
Epoch: 9/15 - Batch: 4900/7933 - Learning rate: 0.00025 - Loss: 0.82103866
Epoch: 9/15 - Batch: 5000/7933 - Learning rate: 0.00025 - Loss: 0.85222405 - Dev BLEU: 0.23781816116046026
Epoch: 9/15 - Batch: 5100/7933 - Learning rate: 0.00025 - Loss: 0.88384455
Epoch: 9/15 - Batch: 5200/7933 - Learning rate: 0.00025 - Loss: 0.8720351
Epoch: 9/15 - Batch: 5300/7933 - Learning rate: 0.00025 - Loss: 0.834012
Epoch: 9/15 - Batch: 5400/7933 - Learning rate: 0.00025 - Loss: 0.7897759
Epoch: 9/15 - Batch: 5500/7933 - Learning rate: 0.00025 - Loss: 0.8150226
Epoch: 9/15 - Batch: 5600/7933 - Learning rate: 0.00025 - Loss: 0.62874514
Epoch: 9/15 - Batch: 5700/7933 - Learning rate: 0.00025 - Loss: 0.7955065
Epoch: 9/15 - Batch: 5800/7933 - Learning rate: 0.00025 - Loss: 0.7580828
Epoch: 9/15 - Batch: 5900/7933 - Learning rate: 0.00025 - Loss: 0.523253
Epoch: 9/15 - Batch: 6000/7933 - Learning rate: 0.00025 - Loss: 0.79903585 - Dev BLEU: 0.23995870084096818
Epoch: 9/15 - Batch: 6100/7933 - Learning rate: 0.00025 - Loss: 0.7481636
Epoch: 9/15 - Batch: 6200/7933 - Learning rate: 0.00025 - Loss: 0.7119356
Epoch: 9/15 - Batch: 6300/7933 - Learning rate: 0.00025 - Loss: 0.6487522
Epoch: 9/15 - Batch: 6400/7933 - Learning rate: 0.00025 - Loss: 0.6074831
Epoch: 9/15 - Batch: 6500/7933 - Learning rate: 0.00025 - Loss: 0.71817166
Epoch: 9/15 - Batch: 6600/7933 - Learning rate: 0.00025 - Loss: 0.71208817
Epoch: 9/15 - Batch: 6700/7933 - Learning rate: 0.00025 - Loss: 0.70408756
Epoch: 9/15 - Batch: 6800/7933 - Learning rate: 0.00025 - Loss: 0.7096884
Epoch: 9/15 - Batch: 6900/7933 - Learning rate: 0.00025 - Loss: 0.48363188
Epoch: 9/15 - Batch: 7000/7933 - Learning rate: 0.00025 - Loss: 1.0131645 - Dev BLEU: 0.2587467467019052
Epoch: 9/15 - Batch: 7100/7933 - Learning rate: 0.00025 - Loss: 0.7464821
Epoch: 9/15 - Batch: 7200/7933 - Learning rate: 0.00025 - Loss: 0.61567014
Epoch: 9/15 - Batch: 7300/7933 - Learning rate: 0.00025 - Loss: 0.7570107
Epoch: 9/15 - Batch: 7400/7933 - Learning rate: 0.00025 - Loss: 0.80301744
Epoch: 9/15 - Batch: 7500/7933 - Learning rate: 0.00025 - Loss: 0.58360106
Epoch: 9/15 - Batch: 7600/7933 - Learning rate: 0.00025 - Loss: 1.0131094
Epoch: 9/15 - Batch: 7700/7933 - Learning rate: 0.00025 - Loss: 1.1489995
Epoch: 9/15 - Batch: 7800/7933 - Learning rate: 0.00025 - Loss: 1.0503291
Epoch: 9/15 - Batch: 7900/7933 - Learning rate: 0.00025 - Loss: 0.77253836
Epoch: 9/15 - Batch: 7933/7933 - Learning rate: 0.00025 - Loss: 1.0126333 - Dev BLEU: 0.24165329993127577
Epoch: 10/15 - Batch: 100/7933 - Learning rate: 0.000125 - Loss: 0.7496046
Epoch: 10/15 - Batch: 200/7933 - Learning rate: 0.000125 - Loss: 0.63743246
Epoch: 10/15 - Batch: 300/7933 - Learning rate: 0.000125 - Loss: 0.49804127
Epoch: 10/15 - Batch: 400/7933 - Learning rate: 0.000125 - Loss: 0.792224
Epoch: 10/15 - Batch: 500/7933 - Learning rate: 0.000125 - Loss: 0.52451026
Epoch: 10/15 - Batch: 600/7933 - Learning rate: 0.000125 - Loss: 0.371521
Epoch: 10/15 - Batch: 700/7933 - Learning rate: 0.000125 - Loss: 0.5719703
Epoch: 10/15 - Batch: 800/7933 - Learning rate: 0.000125 - Loss: 0.5604791
Epoch: 10/15 - Batch: 900/7933 - Learning rate: 0.000125 - Loss: 0.3757959
Epoch: 10/15 - Batch: 1000/7933 - Learning rate: 0.000125 - Loss: 0.62712985 - Dev BLEU: 0.22968197436246865
Epoch: 10/15 - Batch: 1100/7933 - Learning rate: 0.000125 - Loss: 0.558124
Epoch: 10/15 - Batch: 1200/7933 - Learning rate: 0.000125 - Loss: 0.7553553
Epoch: 10/15 - Batch: 1300/7933 - Learning rate: 0.000125 - Loss: 0.63221514
Epoch: 10/15 - Batch: 1400/7933 - Learning rate: 0.000125 - Loss: 0.7180862
Epoch: 10/15 - Batch: 1500/7933 - Learning rate: 0.000125 - Loss: 0.50396633
Epoch: 10/15 - Batch: 1600/7933 - Learning rate: 0.000125 - Loss: 0.95240265
Epoch: 10/15 - Batch: 1700/7933 - Learning rate: 0.000125 - Loss: 0.70623595
Epoch: 10/15 - Batch: 1800/7933 - Learning rate: 0.000125 - Loss: 0.3738902
Epoch: 10/15 - Batch: 1900/7933 - Learning rate: 0.000125 - Loss: 0.5956134
Epoch: 10/15 - Batch: 2000/7933 - Learning rate: 0.000125 - Loss: 0.58549786 - Dev BLEU: 0.22809954801051271
Epoch: 10/15 - Batch: 2100/7933 - Learning rate: 0.000125 - Loss: 0.49384058
Epoch: 10/15 - Batch: 2200/7933 - Learning rate: 0.000125 - Loss: 0.49415633
Epoch: 10/15 - Batch: 2300/7933 - Learning rate: 0.000125 - Loss: 0.6294341
Epoch: 10/15 - Batch: 2400/7933 - Learning rate: 0.000125 - Loss: 0.5023552
Epoch: 10/15 - Batch: 2500/7933 - Learning rate: 0.000125 - Loss: 0.49670485
Epoch: 10/15 - Batch: 2600/7933 - Learning rate: 0.000125 - Loss: 0.39966726
Epoch: 10/15 - Batch: 2700/7933 - Learning rate: 0.000125 - Loss: 0.24225684
Epoch: 10/15 - Batch: 2800/7933 - Learning rate: 0.000125 - Loss: 0.65268475
Epoch: 10/15 - Batch: 2900/7933 - Learning rate: 0.000125 - Loss: 0.77370375
Epoch: 10/15 - Batch: 3000/7933 - Learning rate: 0.000125 - Loss: 0.68418694 - Dev BLEU: 0.225710554990923
Epoch: 10/15 - Batch: 3100/7933 - Learning rate: 0.000125 - Loss: 0.6990478
Epoch: 10/15 - Batch: 3200/7933 - Learning rate: 0.000125 - Loss: 0.6661939
Epoch: 10/15 - Batch: 3300/7933 - Learning rate: 0.000125 - Loss: 0.5445728
Epoch: 10/15 - Batch: 3400/7933 - Learning rate: 0.000125 - Loss: 0.5485928
Epoch: 10/15 - Batch: 3500/7933 - Learning rate: 0.000125 - Loss: 0.6692106
Epoch: 10/15 - Batch: 3600/7933 - Learning rate: 0.000125 - Loss: 0.7116139
Epoch: 10/15 - Batch: 3700/7933 - Learning rate: 0.000125 - Loss: 0.68039006
Epoch: 10/15 - Batch: 3800/7933 - Learning rate: 0.000125 - Loss: 0.62865317
Epoch: 10/15 - Batch: 3900/7933 - Learning rate: 0.000125 - Loss: 0.70954025
Epoch: 10/15 - Batch: 4000/7933 - Learning rate: 0.000125 - Loss: 0.41740653 - Dev BLEU: 0.23141439809656908
Epoch: 10/15 - Batch: 4100/7933 - Learning rate: 0.000125 - Loss: 0.53667134
Epoch: 10/15 - Batch: 4200/7933 - Learning rate: 0.000125 - Loss: 0.5035971
Epoch: 10/15 - Batch: 4300/7933 - Learning rate: 0.000125 - Loss: 0.60779285
Epoch: 10/15 - Batch: 4400/7933 - Learning rate: 0.000125 - Loss: 0.55769414
Epoch: 10/15 - Batch: 4500/7933 - Learning rate: 0.000125 - Loss: 0.6308516
Epoch: 10/15 - Batch: 4600/7933 - Learning rate: 0.000125 - Loss: 0.9242437
Epoch: 10/15 - Batch: 4700/7933 - Learning rate: 0.000125 - Loss: 0.6859116
Epoch: 10/15 - Batch: 4800/7933 - Learning rate: 0.000125 - Loss: 0.61543095
Epoch: 10/15 - Batch: 4900/7933 - Learning rate: 0.000125 - Loss: 0.7737426
Epoch: 10/15 - Batch: 5000/7933 - Learning rate: 0.000125 - Loss: 0.8249183 - Dev BLEU: 0.2467645510564534
Epoch: 10/15 - Batch: 5100/7933 - Learning rate: 0.000125 - Loss: 0.8365029
Epoch: 10/15 - Batch: 5200/7933 - Learning rate: 0.000125 - Loss: 0.83684975
Epoch: 10/15 - Batch: 5300/7933 - Learning rate: 0.000125 - Loss: 0.80665004
Epoch: 10/15 - Batch: 5400/7933 - Learning rate: 0.000125 - Loss: 0.7676166
Epoch: 10/15 - Batch: 5500/7933 - Learning rate: 0.000125 - Loss: 0.7770674
Epoch: 10/15 - Batch: 5600/7933 - Learning rate: 0.000125 - Loss: 0.6029339
Epoch: 10/15 - Batch: 5700/7933 - Learning rate: 0.000125 - Loss: 0.76296186
Epoch: 10/15 - Batch: 5800/7933 - Learning rate: 0.000125 - Loss: 0.7354286
Epoch: 10/15 - Batch: 5900/7933 - Learning rate: 0.000125 - Loss: 0.5081844
Epoch: 10/15 - Batch: 6000/7933 - Learning rate: 0.000125 - Loss: 0.77774876 - Dev BLEU: 0.24893776760481343
Epoch: 10/15 - Batch: 6100/7933 - Learning rate: 0.000125 - Loss: 0.7107414
Epoch: 10/15 - Batch: 6200/7933 - Learning rate: 0.000125 - Loss: 0.7071954
Epoch: 10/15 - Batch: 6300/7933 - Learning rate: 0.000125 - Loss: 0.64507824
Epoch: 10/15 - Batch: 6400/7933 - Learning rate: 0.000125 - Loss: 0.59687215
Epoch: 10/15 - Batch: 6500/7933 - Learning rate: 0.000125 - Loss: 0.72291815
Epoch: 10/15 - Batch: 6600/7933 - Learning rate: 0.000125 - Loss: 0.70565605
Epoch: 10/15 - Batch: 6700/7933 - Learning rate: 0.000125 - Loss: 0.6938196
Epoch: 10/15 - Batch: 6800/7933 - Learning rate: 0.000125 - Loss: 0.6996895
Epoch: 10/15 - Batch: 6900/7933 - Learning rate: 0.000125 - Loss: 0.47255257
Epoch: 10/15 - Batch: 7000/7933 - Learning rate: 0.000125 - Loss: 0.99668986 - Dev BLEU: 0.2591089343070409
Epoch: 10/15 - Batch: 7100/7933 - Learning rate: 0.000125 - Loss: 0.7492496
Epoch: 10/15 - Batch: 7200/7933 - Learning rate: 0.000125 - Loss: 0.6059768
Epoch: 10/15 - Batch: 7300/7933 - Learning rate: 0.000125 - Loss: 0.74616873
Epoch: 10/15 - Batch: 7400/7933 - Learning rate: 0.000125 - Loss: 0.79707545
Epoch: 10/15 - Batch: 7500/7933 - Learning rate: 0.000125 - Loss: 0.58021486
Epoch: 10/15 - Batch: 7600/7933 - Learning rate: 0.000125 - Loss: 0.99435663
Epoch: 10/15 - Batch: 7700/7933 - Learning rate: 0.000125 - Loss: 1.1357241
Epoch: 10/15 - Batch: 7800/7933 - Learning rate: 0.000125 - Loss: 1.0139354
Epoch: 10/15 - Batch: 7900/7933 - Learning rate: 0.000125 - Loss: 0.7693642
Epoch: 10/15 - Batch: 7933/7933 - Learning rate: 0.000125 - Loss: 0.97657883 - Dev BLEU: 0.2482125986932653
Epoch: 11/15 - Batch: 100/7933 - Learning rate: 6.25e-05 - Loss: 0.74227595
Epoch: 11/15 - Batch: 200/7933 - Learning rate: 6.25e-05 - Loss: 0.6065762
Epoch: 11/15 - Batch: 300/7933 - Learning rate: 6.25e-05 - Loss: 0.4934468
Epoch: 11/15 - Batch: 400/7933 - Learning rate: 6.25e-05 - Loss: 0.7736036
Epoch: 11/15 - Batch: 500/7933 - Learning rate: 6.25e-05 - Loss: 0.51317513
Epoch: 11/15 - Batch: 600/7933 - Learning rate: 6.25e-05 - Loss: 0.37361792
Epoch: 11/15 - Batch: 700/7933 - Learning rate: 6.25e-05 - Loss: 0.56788856
Epoch: 11/15 - Batch: 800/7933 - Learning rate: 6.25e-05 - Loss: 0.56665826
Epoch: 11/15 - Batch: 900/7933 - Learning rate: 6.25e-05 - Loss: 0.37205973
Epoch: 11/15 - Batch: 1000/7933 - Learning rate: 6.25e-05 - Loss: 0.61236507 - Dev BLEU: 0.23710416935187054
Epoch: 11/15 - Batch: 1100/7933 - Learning rate: 6.25e-05 - Loss: 0.5634312
Epoch: 11/15 - Batch: 1200/7933 - Learning rate: 6.25e-05 - Loss: 0.7359075
Epoch: 11/15 - Batch: 1300/7933 - Learning rate: 6.25e-05 - Loss: 0.6182561
Epoch: 11/15 - Batch: 1400/7933 - Learning rate: 6.25e-05 - Loss: 0.7162309
Epoch: 11/15 - Batch: 1500/7933 - Learning rate: 6.25e-05 - Loss: 0.50950265
Epoch: 11/15 - Batch: 1600/7933 - Learning rate: 6.25e-05 - Loss: 0.9450283
Epoch: 11/15 - Batch: 1700/7933 - Learning rate: 6.25e-05 - Loss: 0.6996629
Epoch: 11/15 - Batch: 1800/7933 - Learning rate: 6.25e-05 - Loss: 0.36732018
Epoch: 11/15 - Batch: 1900/7933 - Learning rate: 6.25e-05 - Loss: 0.59690243
Epoch: 11/15 - Batch: 2000/7933 - Learning rate: 6.25e-05 - Loss: 0.5855318 - Dev BLEU: 0.2336204332616614
Epoch: 11/15 - Batch: 2100/7933 - Learning rate: 6.25e-05 - Loss: 0.48003966
Epoch: 11/15 - Batch: 2200/7933 - Learning rate: 6.25e-05 - Loss: 0.49514404
Epoch: 11/15 - Batch: 2300/7933 - Learning rate: 6.25e-05 - Loss: 0.6401087
Epoch: 11/15 - Batch: 2400/7933 - Learning rate: 6.25e-05 - Loss: 0.5006553
Epoch: 11/15 - Batch: 2500/7933 - Learning rate: 6.25e-05 - Loss: 0.49777165
Epoch: 11/15 - Batch: 2600/7933 - Learning rate: 6.25e-05 - Loss: 0.40538162
Epoch: 11/15 - Batch: 2700/7933 - Learning rate: 6.25e-05 - Loss: 0.23930618
Epoch: 11/15 - Batch: 2800/7933 - Learning rate: 6.25e-05 - Loss: 0.6365255
Epoch: 11/15 - Batch: 2900/7933 - Learning rate: 6.25e-05 - Loss: 0.77637416
Epoch: 11/15 - Batch: 3000/7933 - Learning rate: 6.25e-05 - Loss: 0.6742449 - Dev BLEU: 0.23076285659213835
Epoch: 11/15 - Batch: 3100/7933 - Learning rate: 6.25e-05 - Loss: 0.68716156
Epoch: 11/15 - Batch: 3200/7933 - Learning rate: 6.25e-05 - Loss: 0.6640205
Epoch: 11/15 - Batch: 3300/7933 - Learning rate: 6.25e-05 - Loss: 0.5410506
Epoch: 11/15 - Batch: 3400/7933 - Learning rate: 6.25e-05 - Loss: 0.5449989
Epoch: 11/15 - Batch: 3500/7933 - Learning rate: 6.25e-05 - Loss: 0.66878045
Epoch: 11/15 - Batch: 3600/7933 - Learning rate: 6.25e-05 - Loss: 0.700368
Epoch: 11/15 - Batch: 3700/7933 - Learning rate: 6.25e-05 - Loss: 0.6706537
Epoch: 11/15 - Batch: 3800/7933 - Learning rate: 6.25e-05 - Loss: 0.62873274
Epoch: 11/15 - Batch: 3900/7933 - Learning rate: 6.25e-05 - Loss: 0.69926995
Epoch: 11/15 - Batch: 4000/7933 - Learning rate: 6.25e-05 - Loss: 0.40887815 - Dev BLEU: 0.2358242175737433
Epoch: 11/15 - Batch: 4100/7933 - Learning rate: 6.25e-05 - Loss: 0.5388198
Epoch: 11/15 - Batch: 4200/7933 - Learning rate: 6.25e-05 - Loss: 0.49764055
Epoch: 11/15 - Batch: 4300/7933 - Learning rate: 6.25e-05 - Loss: 0.5963962
Epoch: 11/15 - Batch: 4400/7933 - Learning rate: 6.25e-05 - Loss: 0.5445635
Epoch: 11/15 - Batch: 4500/7933 - Learning rate: 6.25e-05 - Loss: 0.6200345
Epoch: 11/15 - Batch: 4600/7933 - Learning rate: 6.25e-05 - Loss: 0.94099426
Epoch: 11/15 - Batch: 4700/7933 - Learning rate: 6.25e-05 - Loss: 0.66316223
Epoch: 11/15 - Batch: 4800/7933 - Learning rate: 6.25e-05 - Loss: 0.6334522
Epoch: 11/15 - Batch: 4900/7933 - Learning rate: 6.25e-05 - Loss: 0.77766335
Epoch: 11/15 - Batch: 5000/7933 - Learning rate: 6.25e-05 - Loss: 0.81952775 - Dev BLEU: 0.24744092480484603
Epoch: 11/15 - Batch: 5100/7933 - Learning rate: 6.25e-05 - Loss: 0.82397556
Epoch: 11/15 - Batch: 5200/7933 - Learning rate: 6.25e-05 - Loss: 0.83324444
Epoch: 11/15 - Batch: 5300/7933 - Learning rate: 6.25e-05 - Loss: 0.8022689
Epoch: 11/15 - Batch: 5400/7933 - Learning rate: 6.25e-05 - Loss: 0.7676537
Epoch: 11/15 - Batch: 5500/7933 - Learning rate: 6.25e-05 - Loss: 0.7679066
Epoch: 11/15 - Batch: 5600/7933 - Learning rate: 6.25e-05 - Loss: 0.5930159
Epoch: 11/15 - Batch: 5700/7933 - Learning rate: 6.25e-05 - Loss: 0.72957915
Epoch: 11/15 - Batch: 5800/7933 - Learning rate: 6.25e-05 - Loss: 0.7244598
Epoch: 11/15 - Batch: 5900/7933 - Learning rate: 6.25e-05 - Loss: 0.50322706
Epoch: 11/15 - Batch: 6000/7933 - Learning rate: 6.25e-05 - Loss: 0.7800692 - Dev BLEU: 0.2492004453344333
Epoch: 11/15 - Batch: 6100/7933 - Learning rate: 6.25e-05 - Loss: 0.7000477
Epoch: 11/15 - Batch: 6200/7933 - Learning rate: 6.25e-05 - Loss: 0.68768674
Epoch: 11/15 - Batch: 6300/7933 - Learning rate: 6.25e-05 - Loss: 0.6296504
Epoch: 11/15 - Batch: 6400/7933 - Learning rate: 6.25e-05 - Loss: 0.6100428
Epoch: 11/15 - Batch: 6500/7933 - Learning rate: 6.25e-05 - Loss: 0.7085595
Epoch: 11/15 - Batch: 6600/7933 - Learning rate: 6.25e-05 - Loss: 0.7100867
Epoch: 11/15 - Batch: 6700/7933 - Learning rate: 6.25e-05 - Loss: 0.69535017
Epoch: 11/15 - Batch: 6800/7933 - Learning rate: 6.25e-05 - Loss: 0.6931438
Epoch: 11/15 - Batch: 6900/7933 - Learning rate: 6.25e-05 - Loss: 0.47950575
Epoch: 11/15 - Batch: 7000/7933 - Learning rate: 6.25e-05 - Loss: 0.9910365 - Dev BLEU: 0.26118720379639765
Epoch: 11/15 - Batch: 7100/7933 - Learning rate: 6.25e-05 - Loss: 0.7354824
Epoch: 11/15 - Batch: 7200/7933 - Learning rate: 6.25e-05 - Loss: 0.6055576
Epoch: 11/15 - Batch: 7300/7933 - Learning rate: 6.25e-05 - Loss: 0.73188287
Epoch: 11/15 - Batch: 7400/7933 - Learning rate: 6.25e-05 - Loss: 0.7812473
Epoch: 11/15 - Batch: 7500/7933 - Learning rate: 6.25e-05 - Loss: 0.58053595
Epoch: 11/15 - Batch: 7600/7933 - Learning rate: 6.25e-05 - Loss: 0.98336697
Epoch: 11/15 - Batch: 7700/7933 - Learning rate: 6.25e-05 - Loss: 1.1299666
Epoch: 11/15 - Batch: 7800/7933 - Learning rate: 6.25e-05 - Loss: 1.009951
Epoch: 11/15 - Batch: 7900/7933 - Learning rate: 6.25e-05 - Loss: 0.76386964
Epoch: 11/15 - Batch: 7933/7933 - Learning rate: 6.25e-05 - Loss: 0.96435577 - Dev BLEU: 0.2517174712001415
Epoch: 12/15 - Batch: 100/7933 - Learning rate: 3.125e-05 - Loss: 0.7350809
Epoch: 12/15 - Batch: 200/7933 - Learning rate: 3.125e-05 - Loss: 0.60680497
Epoch: 12/15 - Batch: 300/7933 - Learning rate: 3.125e-05 - Loss: 0.48540887
Epoch: 12/15 - Batch: 400/7933 - Learning rate: 3.125e-05 - Loss: 0.7742231
Epoch: 12/15 - Batch: 500/7933 - Learning rate: 3.125e-05 - Loss: 0.51890916
Epoch: 12/15 - Batch: 600/7933 - Learning rate: 3.125e-05 - Loss: 0.36426038
Epoch: 12/15 - Batch: 700/7933 - Learning rate: 3.125e-05 - Loss: 0.563522
Epoch: 12/15 - Batch: 800/7933 - Learning rate: 3.125e-05 - Loss: 0.5496847
Epoch: 12/15 - Batch: 900/7933 - Learning rate: 3.125e-05 - Loss: 0.362229
Epoch: 12/15 - Batch: 1000/7933 - Learning rate: 3.125e-05 - Loss: 0.6141138 - Dev BLEU: 0.23825683318737517
Epoch: 12/15 - Batch: 1100/7933 - Learning rate: 3.125e-05 - Loss: 0.5617422
Epoch: 12/15 - Batch: 1200/7933 - Learning rate: 3.125e-05 - Loss: 0.7266077
Epoch: 12/15 - Batch: 1300/7933 - Learning rate: 3.125e-05 - Loss: 0.6051723
Epoch: 12/15 - Batch: 1400/7933 - Learning rate: 3.125e-05 - Loss: 0.7085471
Epoch: 12/15 - Batch: 1500/7933 - Learning rate: 3.125e-05 - Loss: 0.5087686
Epoch: 12/15 - Batch: 1600/7933 - Learning rate: 3.125e-05 - Loss: 0.9488024
Epoch: 12/15 - Batch: 1700/7933 - Learning rate: 3.125e-05 - Loss: 0.693292
Epoch: 12/15 - Batch: 1800/7933 - Learning rate: 3.125e-05 - Loss: 0.37204868
Epoch: 12/15 - Batch: 1900/7933 - Learning rate: 3.125e-05 - Loss: 0.6013272
Epoch: 12/15 - Batch: 2000/7933 - Learning rate: 3.125e-05 - Loss: 0.57653654 - Dev BLEU: 0.23880483703316718
Epoch: 12/15 - Batch: 2100/7933 - Learning rate: 3.125e-05 - Loss: 0.47027773
Epoch: 12/15 - Batch: 2200/7933 - Learning rate: 3.125e-05 - Loss: 0.48632613
Epoch: 12/15 - Batch: 2300/7933 - Learning rate: 3.125e-05 - Loss: 0.6359025
Epoch: 12/15 - Batch: 2400/7933 - Learning rate: 3.125e-05 - Loss: 0.50627166
Epoch: 12/15 - Batch: 2500/7933 - Learning rate: 3.125e-05 - Loss: 0.5015296
Epoch: 12/15 - Batch: 2600/7933 - Learning rate: 3.125e-05 - Loss: 0.40798798
Epoch: 12/15 - Batch: 2700/7933 - Learning rate: 3.125e-05 - Loss: 0.24357215
Epoch: 12/15 - Batch: 2800/7933 - Learning rate: 3.125e-05 - Loss: 0.63673145
Epoch: 12/15 - Batch: 2900/7933 - Learning rate: 3.125e-05 - Loss: 0.755707
Epoch: 12/15 - Batch: 3000/7933 - Learning rate: 3.125e-05 - Loss: 0.6603587 - Dev BLEU: 0.23539930170439452
Epoch: 12/15 - Batch: 3100/7933 - Learning rate: 3.125e-05 - Loss: 0.68440086
Epoch: 12/15 - Batch: 3200/7933 - Learning rate: 3.125e-05 - Loss: 0.6721357
Epoch: 12/15 - Batch: 3300/7933 - Learning rate: 3.125e-05 - Loss: 0.53498363
Epoch: 12/15 - Batch: 3400/7933 - Learning rate: 3.125e-05 - Loss: 0.5378949
Epoch: 12/15 - Batch: 3500/7933 - Learning rate: 3.125e-05 - Loss: 0.6697368
Epoch: 12/15 - Batch: 3600/7933 - Learning rate: 3.125e-05 - Loss: 0.6951781
Epoch: 12/15 - Batch: 3700/7933 - Learning rate: 3.125e-05 - Loss: 0.68503886
Epoch: 12/15 - Batch: 3800/7933 - Learning rate: 3.125e-05 - Loss: 0.63951564
Epoch: 12/15 - Batch: 3900/7933 - Learning rate: 3.125e-05 - Loss: 0.6993582
Epoch: 12/15 - Batch: 4000/7933 - Learning rate: 3.125e-05 - Loss: 0.40628722 - Dev BLEU: 0.2381459959103161
Epoch: 12/15 - Batch: 4100/7933 - Learning rate: 3.125e-05 - Loss: 0.5308529
Epoch: 12/15 - Batch: 4200/7933 - Learning rate: 3.125e-05 - Loss: 0.4856733
Epoch: 12/15 - Batch: 4300/7933 - Learning rate: 3.125e-05 - Loss: 0.5925373
Epoch: 12/15 - Batch: 4400/7933 - Learning rate: 3.125e-05 - Loss: 0.546708
Epoch: 12/15 - Batch: 4500/7933 - Learning rate: 3.125e-05 - Loss: 0.6309062
Epoch: 12/15 - Batch: 4600/7933 - Learning rate: 3.125e-05 - Loss: 0.90939826
Epoch: 12/15 - Batch: 4700/7933 - Learning rate: 3.125e-05 - Loss: 0.666824
Epoch: 12/15 - Batch: 4800/7933 - Learning rate: 3.125e-05 - Loss: 0.62290186
Epoch: 12/15 - Batch: 4900/7933 - Learning rate: 3.125e-05 - Loss: 0.7748893
Epoch: 12/15 - Batch: 5000/7933 - Learning rate: 3.125e-05 - Loss: 0.8058143 - Dev BLEU: 0.2523899442962348
Epoch: 12/15 - Batch: 5100/7933 - Learning rate: 3.125e-05 - Loss: 0.8325007
Epoch: 12/15 - Batch: 5200/7933 - Learning rate: 3.125e-05 - Loss: 0.8268246
Epoch: 12/15 - Batch: 5300/7933 - Learning rate: 3.125e-05 - Loss: 0.8036535
Epoch: 12/15 - Batch: 5400/7933 - Learning rate: 3.125e-05 - Loss: 0.755243
Epoch: 12/15 - Batch: 5500/7933 - Learning rate: 3.125e-05 - Loss: 0.7708185
Epoch: 12/15 - Batch: 5600/7933 - Learning rate: 3.125e-05 - Loss: 0.5905434
Epoch: 12/15 - Batch: 5700/7933 - Learning rate: 3.125e-05 - Loss: 0.7329459
Epoch: 12/15 - Batch: 5800/7933 - Learning rate: 3.125e-05 - Loss: 0.7312085
Epoch: 12/15 - Batch: 5900/7933 - Learning rate: 3.125e-05 - Loss: 0.4930106
Epoch: 12/15 - Batch: 6000/7933 - Learning rate: 3.125e-05 - Loss: 0.757211 - Dev BLEU: 0.2536034782451071
Epoch: 12/15 - Batch: 6100/7933 - Learning rate: 3.125e-05 - Loss: 0.69937533
Epoch: 12/15 - Batch: 6200/7933 - Learning rate: 3.125e-05 - Loss: 0.6787801
Epoch: 12/15 - Batch: 6300/7933 - Learning rate: 3.125e-05 - Loss: 0.6183606
Epoch: 12/15 - Batch: 6400/7933 - Learning rate: 3.125e-05 - Loss: 0.5933343
Epoch: 12/15 - Batch: 6500/7933 - Learning rate: 3.125e-05 - Loss: 0.70536
Epoch: 12/15 - Batch: 6600/7933 - Learning rate: 3.125e-05 - Loss: 0.70778567
Epoch: 12/15 - Batch: 6700/7933 - Learning rate: 3.125e-05 - Loss: 0.69064975
Epoch: 12/15 - Batch: 6800/7933 - Learning rate: 3.125e-05 - Loss: 0.69530797
Epoch: 12/15 - Batch: 6900/7933 - Learning rate: 3.125e-05 - Loss: 0.47190034
Epoch: 12/15 - Batch: 7000/7933 - Learning rate: 3.125e-05 - Loss: 0.9974263 - Dev BLEU: 0.25943267455515745
Epoch: 12/15 - Batch: 7100/7933 - Learning rate: 3.125e-05 - Loss: 0.73688936
Epoch: 12/15 - Batch: 7200/7933 - Learning rate: 3.125e-05 - Loss: 0.6028123
Epoch: 12/15 - Batch: 7300/7933 - Learning rate: 3.125e-05 - Loss: 0.74111277
Epoch: 12/15 - Batch: 7400/7933 - Learning rate: 3.125e-05 - Loss: 0.7739791
Epoch: 12/15 - Batch: 7500/7933 - Learning rate: 3.125e-05 - Loss: 0.57866293
Epoch: 12/15 - Batch: 7600/7933 - Learning rate: 3.125e-05 - Loss: 0.9902794
Epoch: 12/15 - Batch: 7700/7933 - Learning rate: 3.125e-05 - Loss: 1.1313603
Epoch: 12/15 - Batch: 7800/7933 - Learning rate: 3.125e-05 - Loss: 1.0062276
Epoch: 12/15 - Batch: 7900/7933 - Learning rate: 3.125e-05 - Loss: 0.75902253
Epoch: 12/15 - Batch: 7933/7933 - Learning rate: 3.125e-05 - Loss: 0.9799101 - Dev BLEU: 0.25427629307252664
Epoch: 13/15 - Batch: 100/7933 - Learning rate: 1.5625e-05 - Loss: 0.7321955
Epoch: 13/15 - Batch: 200/7933 - Learning rate: 1.5625e-05 - Loss: 0.59996605
Epoch: 13/15 - Batch: 300/7933 - Learning rate: 1.5625e-05 - Loss: 0.48768127
Epoch: 13/15 - Batch: 400/7933 - Learning rate: 1.5625e-05 - Loss: 0.776504
Epoch: 13/15 - Batch: 500/7933 - Learning rate: 1.5625e-05 - Loss: 0.5102902
Epoch: 13/15 - Batch: 600/7933 - Learning rate: 1.5625e-05 - Loss: 0.37025687
Epoch: 13/15 - Batch: 700/7933 - Learning rate: 1.5625e-05 - Loss: 0.5621959
Epoch: 13/15 - Batch: 800/7933 - Learning rate: 1.5625e-05 - Loss: 0.5548907
Epoch: 13/15 - Batch: 900/7933 - Learning rate: 1.5625e-05 - Loss: 0.362851
Epoch: 13/15 - Batch: 1000/7933 - Learning rate: 1.5625e-05 - Loss: 0.613339 - Dev BLEU: 0.244670071566197
Epoch: 13/15 - Batch: 1100/7933 - Learning rate: 1.5625e-05 - Loss: 0.560451
Epoch: 13/15 - Batch: 1200/7933 - Learning rate: 1.5625e-05 - Loss: 0.7283289
Epoch: 13/15 - Batch: 1300/7933 - Learning rate: 1.5625e-05 - Loss: 0.6072854
Epoch: 13/15 - Batch: 1400/7933 - Learning rate: 1.5625e-05 - Loss: 0.70940155
Epoch: 13/15 - Batch: 1500/7933 - Learning rate: 1.5625e-05 - Loss: 0.5016039
Epoch: 13/15 - Batch: 1600/7933 - Learning rate: 1.5625e-05 - Loss: 0.94391936
Epoch: 13/15 - Batch: 1700/7933 - Learning rate: 1.5625e-05 - Loss: 0.6909351
Epoch: 13/15 - Batch: 1800/7933 - Learning rate: 1.5625e-05 - Loss: 0.36446673
Epoch: 13/15 - Batch: 1900/7933 - Learning rate: 1.5625e-05 - Loss: 0.5895941
Epoch: 13/15 - Batch: 2000/7933 - Learning rate: 1.5625e-05 - Loss: 0.57814175 - Dev BLEU: 0.2417282925154626
Epoch: 13/15 - Batch: 2100/7933 - Learning rate: 1.5625e-05 - Loss: 0.46457416
Epoch: 13/15 - Batch: 2200/7933 - Learning rate: 1.5625e-05 - Loss: 0.49216488
Epoch: 13/15 - Batch: 2300/7933 - Learning rate: 1.5625e-05 - Loss: 0.63893294
Epoch: 13/15 - Batch: 2400/7933 - Learning rate: 1.5625e-05 - Loss: 0.50827724
Epoch: 13/15 - Batch: 2500/7933 - Learning rate: 1.5625e-05 - Loss: 0.4816911
Epoch: 13/15 - Batch: 2600/7933 - Learning rate: 1.5625e-05 - Loss: 0.41470525
Epoch: 13/15 - Batch: 2700/7933 - Learning rate: 1.5625e-05 - Loss: 0.24463949
Epoch: 13/15 - Batch: 2800/7933 - Learning rate: 1.5625e-05 - Loss: 0.6523784
Epoch: 13/15 - Batch: 2900/7933 - Learning rate: 1.5625e-05 - Loss: 0.76171595
Epoch: 13/15 - Batch: 3000/7933 - Learning rate: 1.5625e-05 - Loss: 0.6632877 - Dev BLEU: 0.23865787963651172
Epoch: 13/15 - Batch: 3100/7933 - Learning rate: 1.5625e-05 - Loss: 0.68521976
Epoch: 13/15 - Batch: 3200/7933 - Learning rate: 1.5625e-05 - Loss: 0.6665727
Epoch: 13/15 - Batch: 3300/7933 - Learning rate: 1.5625e-05 - Loss: 0.5435376
Epoch: 13/15 - Batch: 3400/7933 - Learning rate: 1.5625e-05 - Loss: 0.538626
Epoch: 13/15 - Batch: 3500/7933 - Learning rate: 1.5625e-05 - Loss: 0.65862787
Epoch: 13/15 - Batch: 3600/7933 - Learning rate: 1.5625e-05 - Loss: 0.7029733
Epoch: 13/15 - Batch: 3700/7933 - Learning rate: 1.5625e-05 - Loss: 0.6742366
Epoch: 13/15 - Batch: 3800/7933 - Learning rate: 1.5625e-05 - Loss: 0.6139595
Epoch: 13/15 - Batch: 3900/7933 - Learning rate: 1.5625e-05 - Loss: 0.6971165
Epoch: 13/15 - Batch: 4000/7933 - Learning rate: 1.5625e-05 - Loss: 0.4046999 - Dev BLEU: 0.241203600997968
Epoch: 13/15 - Batch: 4100/7933 - Learning rate: 1.5625e-05 - Loss: 0.53378975
Epoch: 13/15 - Batch: 4200/7933 - Learning rate: 1.5625e-05 - Loss: 0.48797983
Epoch: 13/15 - Batch: 4300/7933 - Learning rate: 1.5625e-05 - Loss: 0.59368664
Epoch: 13/15 - Batch: 4400/7933 - Learning rate: 1.5625e-05 - Loss: 0.55269444
Epoch: 13/15 - Batch: 4500/7933 - Learning rate: 1.5625e-05 - Loss: 0.6388036
Epoch: 13/15 - Batch: 4600/7933 - Learning rate: 1.5625e-05 - Loss: 0.9129904
Epoch: 13/15 - Batch: 4700/7933 - Learning rate: 1.5625e-05 - Loss: 0.66387033
Epoch: 13/15 - Batch: 4800/7933 - Learning rate: 1.5625e-05 - Loss: 0.6181265
Epoch: 13/15 - Batch: 4900/7933 - Learning rate: 1.5625e-05 - Loss: 0.77416646
Epoch: 13/15 - Batch: 5000/7933 - Learning rate: 1.5625e-05 - Loss: 0.80624634 - Dev BLEU: 0.2531826318450844
Epoch: 13/15 - Batch: 5100/7933 - Learning rate: 1.5625e-05 - Loss: 0.8122361
Epoch: 13/15 - Batch: 5200/7933 - Learning rate: 1.5625e-05 - Loss: 0.81694925
Epoch: 13/15 - Batch: 5300/7933 - Learning rate: 1.5625e-05 - Loss: 0.7840126
Epoch: 13/15 - Batch: 5400/7933 - Learning rate: 1.5625e-05 - Loss: 0.7594012
Epoch: 13/15 - Batch: 5500/7933 - Learning rate: 1.5625e-05 - Loss: 0.7495088
Epoch: 13/15 - Batch: 5600/7933 - Learning rate: 1.5625e-05 - Loss: 0.5860112
Epoch: 13/15 - Batch: 5700/7933 - Learning rate: 1.5625e-05 - Loss: 0.72358656
Epoch: 13/15 - Batch: 5800/7933 - Learning rate: 1.5625e-05 - Loss: 0.72358704
Epoch: 13/15 - Batch: 5900/7933 - Learning rate: 1.5625e-05 - Loss: 0.494687
Epoch: 13/15 - Batch: 6000/7933 - Learning rate: 1.5625e-05 - Loss: 0.7609187 - Dev BLEU: 0.2560267409030903
Epoch: 13/15 - Batch: 6100/7933 - Learning rate: 1.5625e-05 - Loss: 0.68945354
Epoch: 13/15 - Batch: 6200/7933 - Learning rate: 1.5625e-05 - Loss: 0.661924
Epoch: 13/15 - Batch: 6300/7933 - Learning rate: 1.5625e-05 - Loss: 0.61637986
Epoch: 13/15 - Batch: 6400/7933 - Learning rate: 1.5625e-05 - Loss: 0.59367037
Epoch: 13/15 - Batch: 6500/7933 - Learning rate: 1.5625e-05 - Loss: 0.69880164
Epoch: 13/15 - Batch: 6600/7933 - Learning rate: 1.5625e-05 - Loss: 0.7103789
Epoch: 13/15 - Batch: 6700/7933 - Learning rate: 1.5625e-05 - Loss: 0.70094436
Epoch: 13/15 - Batch: 6800/7933 - Learning rate: 1.5625e-05 - Loss: 0.697078
Epoch: 13/15 - Batch: 6900/7933 - Learning rate: 1.5625e-05 - Loss: 0.47633532
Epoch: 13/15 - Batch: 7000/7933 - Learning rate: 1.5625e-05 - Loss: 1.0023438 - Dev BLEU: 0.2595262782307748
Epoch: 13/15 - Batch: 7100/7933 - Learning rate: 1.5625e-05 - Loss: 0.73507285
Epoch: 13/15 - Batch: 7200/7933 - Learning rate: 1.5625e-05 - Loss: 0.60797125
Epoch: 13/15 - Batch: 7300/7933 - Learning rate: 1.5625e-05 - Loss: 0.73730385
Epoch: 13/15 - Batch: 7400/7933 - Learning rate: 1.5625e-05 - Loss: 0.7776792
Epoch: 13/15 - Batch: 7500/7933 - Learning rate: 1.5625e-05 - Loss: 0.5844
Epoch: 13/15 - Batch: 7600/7933 - Learning rate: 1.5625e-05 - Loss: 0.96845555
Epoch: 13/15 - Batch: 7700/7933 - Learning rate: 1.5625e-05 - Loss: 1.1202949
Epoch: 13/15 - Batch: 7800/7933 - Learning rate: 1.5625e-05 - Loss: 1.0104263
Epoch: 13/15 - Batch: 7900/7933 - Learning rate: 1.5625e-05 - Loss: 0.7657028
Epoch: 13/15 - Batch: 7933/7933 - Learning rate: 1.5625e-05 - Loss: 0.9943525 - Dev BLEU: 0.25960567217449926
Epoch: 14/15 - Batch: 100/7933 - Learning rate: 7.8125e-06 - Loss: 0.73912406
Epoch: 14/15 - Batch: 200/7933 - Learning rate: 7.8125e-06 - Loss: 0.59795976
Epoch: 14/15 - Batch: 300/7933 - Learning rate: 7.8125e-06 - Loss: 0.48206076
Epoch: 14/15 - Batch: 400/7933 - Learning rate: 7.8125e-06 - Loss: 0.75425446
Epoch: 14/15 - Batch: 500/7933 - Learning rate: 7.8125e-06 - Loss: 0.5116994
Epoch: 14/15 - Batch: 600/7933 - Learning rate: 7.8125e-06 - Loss: 0.36859986
Epoch: 14/15 - Batch: 700/7933 - Learning rate: 7.8125e-06 - Loss: 0.55085063
Epoch: 14/15 - Batch: 800/7933 - Learning rate: 7.8125e-06 - Loss: 0.54652095
Epoch: 14/15 - Batch: 900/7933 - Learning rate: 7.8125e-06 - Loss: 0.36463267
Epoch: 14/15 - Batch: 1000/7933 - Learning rate: 7.8125e-06 - Loss: 0.62939304 - Dev BLEU: 0.24730120304113337
Epoch: 14/15 - Batch: 1100/7933 - Learning rate: 7.8125e-06 - Loss: 0.5611654
Epoch: 14/15 - Batch: 1200/7933 - Learning rate: 7.8125e-06 - Loss: 0.72260576
Epoch: 14/15 - Batch: 1300/7933 - Learning rate: 7.8125e-06 - Loss: 0.6107336
Epoch: 14/15 - Batch: 1400/7933 - Learning rate: 7.8125e-06 - Loss: 0.6949639
Epoch: 14/15 - Batch: 1500/7933 - Learning rate: 7.8125e-06 - Loss: 0.5073475
Epoch: 14/15 - Batch: 1600/7933 - Learning rate: 7.8125e-06 - Loss: 0.94620574
Epoch: 14/15 - Batch: 1700/7933 - Learning rate: 7.8125e-06 - Loss: 0.68615735
Epoch: 14/15 - Batch: 1800/7933 - Learning rate: 7.8125e-06 - Loss: 0.37280828
Epoch: 14/15 - Batch: 1900/7933 - Learning rate: 7.8125e-06 - Loss: 0.58697057
Epoch: 14/15 - Batch: 2000/7933 - Learning rate: 7.8125e-06 - Loss: 0.5825182 - Dev BLEU: 0.2459442243273851
Epoch: 14/15 - Batch: 2100/7933 - Learning rate: 7.8125e-06 - Loss: 0.46680003
Epoch: 14/15 - Batch: 2200/7933 - Learning rate: 7.8125e-06 - Loss: 0.49105555
Epoch: 14/15 - Batch: 2300/7933 - Learning rate: 7.8125e-06 - Loss: 0.63415205
Epoch: 14/15 - Batch: 2400/7933 - Learning rate: 7.8125e-06 - Loss: 0.51001793
Epoch: 14/15 - Batch: 2500/7933 - Learning rate: 7.8125e-06 - Loss: 0.49603415
Epoch: 14/15 - Batch: 2600/7933 - Learning rate: 7.8125e-06 - Loss: 0.41897795
Epoch: 14/15 - Batch: 2700/7933 - Learning rate: 7.8125e-06 - Loss: 0.25081024
Epoch: 14/15 - Batch: 2800/7933 - Learning rate: 7.8125e-06 - Loss: 0.65138054
Epoch: 14/15 - Batch: 2900/7933 - Learning rate: 7.8125e-06 - Loss: 0.75784296
Epoch: 14/15 - Batch: 3000/7933 - Learning rate: 7.8125e-06 - Loss: 0.6676219 - Dev BLEU: 0.24530227314418723
Epoch: 14/15 - Batch: 3100/7933 - Learning rate: 7.8125e-06 - Loss: 0.6764388
Epoch: 14/15 - Batch: 3200/7933 - Learning rate: 7.8125e-06 - Loss: 0.6637574
Epoch: 14/15 - Batch: 3300/7933 - Learning rate: 7.8125e-06 - Loss: 0.5271181
Epoch: 14/15 - Batch: 3400/7933 - Learning rate: 7.8125e-06 - Loss: 0.545547
Epoch: 14/15 - Batch: 3500/7933 - Learning rate: 7.8125e-06 - Loss: 0.64753246
Epoch: 14/15 - Batch: 3600/7933 - Learning rate: 7.8125e-06 - Loss: 0.6949202
Epoch: 14/15 - Batch: 3700/7933 - Learning rate: 7.8125e-06 - Loss: 0.6751756
Epoch: 14/15 - Batch: 3800/7933 - Learning rate: 7.8125e-06 - Loss: 0.6072377
Epoch: 14/15 - Batch: 3900/7933 - Learning rate: 7.8125e-06 - Loss: 0.686584
Epoch: 14/15 - Batch: 4000/7933 - Learning rate: 7.8125e-06 - Loss: 0.4086575 - Dev BLEU: 0.24422166533287604
Epoch: 14/15 - Batch: 4100/7933 - Learning rate: 7.8125e-06 - Loss: 0.53573924
Epoch: 14/15 - Batch: 4200/7933 - Learning rate: 7.8125e-06 - Loss: 0.4878828
Epoch: 14/15 - Batch: 4300/7933 - Learning rate: 7.8125e-06 - Loss: 0.59475154
Epoch: 14/15 - Batch: 4400/7933 - Learning rate: 7.8125e-06 - Loss: 0.5487853
Epoch: 14/15 - Batch: 4500/7933 - Learning rate: 7.8125e-06 - Loss: 0.6222447
Epoch: 14/15 - Batch: 4600/7933 - Learning rate: 7.8125e-06 - Loss: 0.9105053
Epoch: 14/15 - Batch: 4700/7933 - Learning rate: 7.8125e-06 - Loss: 0.65010756
Epoch: 14/15 - Batch: 4800/7933 - Learning rate: 7.8125e-06 - Loss: 0.6019757
Epoch: 14/15 - Batch: 4900/7933 - Learning rate: 7.8125e-06 - Loss: 0.7763626
Epoch: 14/15 - Batch: 5000/7933 - Learning rate: 7.8125e-06 - Loss: 0.8029184 - Dev BLEU: 0.2530664943224329
Epoch: 14/15 - Batch: 5100/7933 - Learning rate: 7.8125e-06 - Loss: 0.8260865
Epoch: 14/15 - Batch: 5200/7933 - Learning rate: 7.8125e-06 - Loss: 0.8562085
Epoch: 14/15 - Batch: 5300/7933 - Learning rate: 7.8125e-06 - Loss: 0.7879012
Epoch: 14/15 - Batch: 5400/7933 - Learning rate: 7.8125e-06 - Loss: 0.75202394
Epoch: 14/15 - Batch: 5500/7933 - Learning rate: 7.8125e-06 - Loss: 0.75052226
Epoch: 14/15 - Batch: 5600/7933 - Learning rate: 7.8125e-06 - Loss: 0.58660173
Epoch: 14/15 - Batch: 5700/7933 - Learning rate: 7.8125e-06 - Loss: 0.73410636
Epoch: 14/15 - Batch: 5800/7933 - Learning rate: 7.8125e-06 - Loss: 0.7123028
Epoch: 14/15 - Batch: 5900/7933 - Learning rate: 7.8125e-06 - Loss: 0.50466454
Epoch: 14/15 - Batch: 6000/7933 - Learning rate: 7.8125e-06 - Loss: 0.7658864 - Dev BLEU: 0.2555661535008121
Epoch: 14/15 - Batch: 6100/7933 - Learning rate: 7.8125e-06 - Loss: 0.6912478
Epoch: 14/15 - Batch: 6200/7933 - Learning rate: 7.8125e-06 - Loss: 0.68615824
Epoch: 14/15 - Batch: 6300/7933 - Learning rate: 7.8125e-06 - Loss: 0.6086831
Epoch: 14/15 - Batch: 6400/7933 - Learning rate: 7.8125e-06 - Loss: 0.59148073
Epoch: 14/15 - Batch: 6500/7933 - Learning rate: 7.8125e-06 - Loss: 0.7039729
Epoch: 14/15 - Batch: 6600/7933 - Learning rate: 7.8125e-06 - Loss: 0.7088338
Epoch: 14/15 - Batch: 6700/7933 - Learning rate: 7.8125e-06 - Loss: 0.6960613
Epoch: 14/15 - Batch: 6800/7933 - Learning rate: 7.8125e-06 - Loss: 0.70163256
Epoch: 14/15 - Batch: 6900/7933 - Learning rate: 7.8125e-06 - Loss: 0.477674
Epoch: 14/15 - Batch: 7000/7933 - Learning rate: 7.8125e-06 - Loss: 0.9939162 - Dev BLEU: 0.2594234964238946
Epoch: 14/15 - Batch: 7100/7933 - Learning rate: 7.8125e-06 - Loss: 0.7398994
Epoch: 14/15 - Batch: 7200/7933 - Learning rate: 7.8125e-06 - Loss: 0.6095497
Epoch: 14/15 - Batch: 7300/7933 - Learning rate: 7.8125e-06 - Loss: 0.7390376
Epoch: 14/15 - Batch: 7400/7933 - Learning rate: 7.8125e-06 - Loss: 0.76835734
Epoch: 14/15 - Batch: 7500/7933 - Learning rate: 7.8125e-06 - Loss: 0.5801723
Epoch: 14/15 - Batch: 7600/7933 - Learning rate: 7.8125e-06 - Loss: 0.95643324
Epoch: 14/15 - Batch: 7700/7933 - Learning rate: 7.8125e-06 - Loss: 1.1295676
Epoch: 14/15 - Batch: 7800/7933 - Learning rate: 7.8125e-06 - Loss: 1.0000668
Epoch: 14/15 - Batch: 7900/7933 - Learning rate: 7.8125e-06 - Loss: 0.7555755
Epoch: 14/15 - Batch: 7933/7933 - Learning rate: 7.8125e-06 - Loss: 0.98079 - Dev BLEU: 0.25850082270536573
Epoch: 15/15 - Batch: 100/7933 - Learning rate: 3.90625e-06 - Loss: 0.7393683
Epoch: 15/15 - Batch: 200/7933 - Learning rate: 3.90625e-06 - Loss: 0.5885414
Epoch: 15/15 - Batch: 300/7933 - Learning rate: 3.90625e-06 - Loss: 0.48696378
Epoch: 15/15 - Batch: 400/7933 - Learning rate: 3.90625e-06 - Loss: 0.7616399
Epoch: 15/15 - Batch: 500/7933 - Learning rate: 3.90625e-06 - Loss: 0.52615935
Epoch: 15/15 - Batch: 600/7933 - Learning rate: 3.90625e-06 - Loss: 0.36200967
Epoch: 15/15 - Batch: 700/7933 - Learning rate: 3.90625e-06 - Loss: 0.56657517
Epoch: 15/15 - Batch: 800/7933 - Learning rate: 3.90625e-06 - Loss: 0.56197476
Epoch: 15/15 - Batch: 900/7933 - Learning rate: 3.90625e-06 - Loss: 0.36303473
Epoch: 15/15 - Batch: 1000/7933 - Learning rate: 3.90625e-06 - Loss: 0.60782313 - Dev BLEU: 0.24969439998299434
Epoch: 15/15 - Batch: 1100/7933 - Learning rate: 3.90625e-06 - Loss: 0.5533789
Epoch: 15/15 - Batch: 1200/7933 - Learning rate: 3.90625e-06 - Loss: 0.72260284
Epoch: 15/15 - Batch: 1300/7933 - Learning rate: 3.90625e-06 - Loss: 0.6029812
Epoch: 15/15 - Batch: 1400/7933 - Learning rate: 3.90625e-06 - Loss: 0.7009288
Epoch: 15/15 - Batch: 1500/7933 - Learning rate: 3.90625e-06 - Loss: 0.50722045
Epoch: 15/15 - Batch: 1600/7933 - Learning rate: 3.90625e-06 - Loss: 0.94778806
Epoch: 15/15 - Batch: 1700/7933 - Learning rate: 3.90625e-06 - Loss: 0.6904784
Epoch: 15/15 - Batch: 1800/7933 - Learning rate: 3.90625e-06 - Loss: 0.36607704
Epoch: 15/15 - Batch: 1900/7933 - Learning rate: 3.90625e-06 - Loss: 0.5918842
Epoch: 15/15 - Batch: 2000/7933 - Learning rate: 3.90625e-06 - Loss: 0.5808745 - Dev BLEU: 0.24712638040153054
Epoch: 15/15 - Batch: 2100/7933 - Learning rate: 3.90625e-06 - Loss: 0.4730866
Epoch: 15/15 - Batch: 2200/7933 - Learning rate: 3.90625e-06 - Loss: 0.5009825
Epoch: 15/15 - Batch: 2300/7933 - Learning rate: 3.90625e-06 - Loss: 0.63205945
Epoch: 15/15 - Batch: 2400/7933 - Learning rate: 3.90625e-06 - Loss: 0.50643516
Epoch: 15/15 - Batch: 2500/7933 - Learning rate: 3.90625e-06 - Loss: 0.5014995
Epoch: 15/15 - Batch: 2600/7933 - Learning rate: 3.90625e-06 - Loss: 0.4196899
Epoch: 15/15 - Batch: 2700/7933 - Learning rate: 3.90625e-06 - Loss: 0.24938585
Epoch: 15/15 - Batch: 2800/7933 - Learning rate: 3.90625e-06 - Loss: 0.6656749
Epoch: 15/15 - Batch: 2900/7933 - Learning rate: 3.90625e-06 - Loss: 0.7469826
Epoch: 15/15 - Batch: 3000/7933 - Learning rate: 3.90625e-06 - Loss: 0.66747713 - Dev BLEU: 0.2474337968841573
Epoch: 15/15 - Batch: 3100/7933 - Learning rate: 3.90625e-06 - Loss: 0.6695842
Epoch: 15/15 - Batch: 3200/7933 - Learning rate: 3.90625e-06 - Loss: 0.65486455
Epoch: 15/15 - Batch: 3300/7933 - Learning rate: 3.90625e-06 - Loss: 0.52269834
Epoch: 15/15 - Batch: 3400/7933 - Learning rate: 3.90625e-06 - Loss: 0.5456827
Epoch: 15/15 - Batch: 3500/7933 - Learning rate: 3.90625e-06 - Loss: 0.6516238
Epoch: 15/15 - Batch: 3600/7933 - Learning rate: 3.90625e-06 - Loss: 0.69424677
Epoch: 15/15 - Batch: 3700/7933 - Learning rate: 3.90625e-06 - Loss: 0.67117655
Epoch: 15/15 - Batch: 3800/7933 - Learning rate: 3.90625e-06 - Loss: 0.6221014
Epoch: 15/15 - Batch: 3900/7933 - Learning rate: 3.90625e-06 - Loss: 0.6877375
Epoch: 15/15 - Batch: 4000/7933 - Learning rate: 3.90625e-06 - Loss: 0.4099426 - Dev BLEU: 0.2453428366536133
Epoch: 15/15 - Batch: 4100/7933 - Learning rate: 3.90625e-06 - Loss: 0.5326943
Epoch: 15/15 - Batch: 4200/7933 - Learning rate: 3.90625e-06 - Loss: 0.4915008
Epoch: 15/15 - Batch: 4300/7933 - Learning rate: 3.90625e-06 - Loss: 0.5960355
Epoch: 15/15 - Batch: 4400/7933 - Learning rate: 3.90625e-06 - Loss: 0.55105
Epoch: 15/15 - Batch: 4500/7933 - Learning rate: 3.90625e-06 - Loss: 0.63246316
Epoch: 15/15 - Batch: 4600/7933 - Learning rate: 3.90625e-06 - Loss: 0.895316
Epoch: 15/15 - Batch: 4700/7933 - Learning rate: 3.90625e-06 - Loss: 0.64970565
Epoch: 15/15 - Batch: 4800/7933 - Learning rate: 3.90625e-06 - Loss: 0.60956067
Epoch: 15/15 - Batch: 4900/7933 - Learning rate: 3.90625e-06 - Loss: 0.78450626
Epoch: 15/15 - Batch: 5000/7933 - Learning rate: 3.90625e-06 - Loss: 0.8202093 - Dev BLEU: 0.2518969755638041
Epoch: 15/15 - Batch: 5100/7933 - Learning rate: 3.90625e-06 - Loss: 0.83350754
Epoch: 15/15 - Batch: 5200/7933 - Learning rate: 3.90625e-06 - Loss: 0.84810275
Epoch: 15/15 - Batch: 5300/7933 - Learning rate: 3.90625e-06 - Loss: 0.78352547
Epoch: 15/15 - Batch: 5400/7933 - Learning rate: 3.90625e-06 - Loss: 0.7552072
Epoch: 15/15 - Batch: 5500/7933 - Learning rate: 3.90625e-06 - Loss: 0.7642518
Epoch: 15/15 - Batch: 5600/7933 - Learning rate: 3.90625e-06 - Loss: 0.59141475
Epoch: 15/15 - Batch: 5700/7933 - Learning rate: 3.90625e-06 - Loss: 0.7315955
Epoch: 15/15 - Batch: 5800/7933 - Learning rate: 3.90625e-06 - Loss: 0.728109
Epoch: 15/15 - Batch: 5900/7933 - Learning rate: 3.90625e-06 - Loss: 0.49823126
Epoch: 15/15 - Batch: 6000/7933 - Learning rate: 3.90625e-06 - Loss: 0.76736444 - Dev BLEU: 0.25587165517629684
Epoch: 15/15 - Batch: 6100/7933 - Learning rate: 3.90625e-06 - Loss: 0.6989425
Epoch: 15/15 - Batch: 6200/7933 - Learning rate: 3.90625e-06 - Loss: 0.6809912
Epoch: 15/15 - Batch: 6300/7933 - Learning rate: 3.90625e-06 - Loss: 0.6134635
Epoch: 15/15 - Batch: 6400/7933 - Learning rate: 3.90625e-06 - Loss: 0.5967646
Epoch: 15/15 - Batch: 6500/7933 - Learning rate: 3.90625e-06 - Loss: 0.69961476
Epoch: 15/15 - Batch: 6600/7933 - Learning rate: 3.90625e-06 - Loss: 0.7035357
Epoch: 15/15 - Batch: 6700/7933 - Learning rate: 3.90625e-06 - Loss: 0.68558425
Epoch: 15/15 - Batch: 6800/7933 - Learning rate: 3.90625e-06 - Loss: 0.69414073
Epoch: 15/15 - Batch: 6900/7933 - Learning rate: 3.90625e-06 - Loss: 0.4733176
Epoch: 15/15 - Batch: 7000/7933 - Learning rate: 3.90625e-06 - Loss: 1.0075443 - Dev BLEU: 0.25911094978327065
Epoch: 15/15 - Batch: 7100/7933 - Learning rate: 3.90625e-06 - Loss: 0.74281514
Epoch: 15/15 - Batch: 7200/7933 - Learning rate: 3.90625e-06 - Loss: 0.6057884
Epoch: 15/15 - Batch: 7300/7933 - Learning rate: 3.90625e-06 - Loss: 0.7430429
Epoch: 15/15 - Batch: 7400/7933 - Learning rate: 3.90625e-06 - Loss: 0.7740188
Epoch: 15/15 - Batch: 7500/7933 - Learning rate: 3.90625e-06 - Loss: 0.583429
Epoch: 15/15 - Batch: 7600/7933 - Learning rate: 3.90625e-06 - Loss: 0.9654509
Epoch: 15/15 - Batch: 7700/7933 - Learning rate: 3.90625e-06 - Loss: 1.1350871
Epoch: 15/15 - Batch: 7800/7933 - Learning rate: 3.90625e-06 - Loss: 0.99905807
Epoch: 15/15 - Batch: 7900/7933 - Learning rate: 3.90625e-06 - Loss: 0.76543605
Epoch: 15/15 - Batch: 7933/7933 - Learning rate: 3.90625e-06 - Loss: 0.97069204 - Dev BLEU: 0.2591213884099693 - Test BLEU: 0.28635558444755477
