Epoch: 1/15 - Batch: 100/7933 - Learning rate: 0.001 - Loss: 1.8958586
Epoch: 1/15 - Batch: 200/7933 - Learning rate: 0.001 - Loss: 2.7238286
Epoch: 1/15 - Batch: 300/7933 - Learning rate: 0.001 - Loss: 1.3323858
Epoch: 1/15 - Batch: 400/7933 - Learning rate: 0.001 - Loss: 2.288429
Epoch: 1/15 - Batch: 500/7933 - Learning rate: 0.001 - Loss: 2.07209
Epoch: 1/15 - Batch: 600/7933 - Learning rate: 0.001 - Loss: 0.87614465
Epoch: 1/15 - Batch: 700/7933 - Learning rate: 0.001 - Loss: 1.866834
Epoch: 1/15 - Batch: 800/7933 - Learning rate: 0.001 - Loss: 1.5627998
Epoch: 1/15 - Batch: 900/7933 - Learning rate: 0.001 - Loss: 1.0439364
Epoch: 1/15 - Batch: 1000/7933 - Learning rate: 0.001 - Loss: 1.7947176 - Dev BLEU: 0.0
Epoch: 1/15 - Batch: 1100/7933 - Learning rate: 0.001 - Loss: 1.4388157
Epoch: 1/15 - Batch: 1200/7933 - Learning rate: 0.001 - Loss: 1.9660016
Epoch: 1/15 - Batch: 1300/7933 - Learning rate: 0.001 - Loss: 1.80006
Epoch: 1/15 - Batch: 1400/7933 - Learning rate: 0.001 - Loss: 1.9284056
Epoch: 1/15 - Batch: 1500/7933 - Learning rate: 0.001 - Loss: 1.3666391
Epoch: 1/15 - Batch: 1600/7933 - Learning rate: 0.001 - Loss: 2.386772
Epoch: 1/15 - Batch: 1700/7933 - Learning rate: 0.001 - Loss: 1.808633
Epoch: 1/15 - Batch: 1800/7933 - Learning rate: 0.001 - Loss: 1.2118291
Epoch: 1/15 - Batch: 1900/7933 - Learning rate: 0.001 - Loss: 1.4201825
Epoch: 1/15 - Batch: 2000/7933 - Learning rate: 0.001 - Loss: 1.5612398 - Dev BLEU: 0.004939288085743053
Epoch: 1/15 - Batch: 2100/7933 - Learning rate: 0.001 - Loss: 1.3068633
Epoch: 1/15 - Batch: 2200/7933 - Learning rate: 0.001 - Loss: 1.4814552
Epoch: 1/15 - Batch: 2300/7933 - Learning rate: 0.001 - Loss: 1.6810452
Epoch: 1/15 - Batch: 2400/7933 - Learning rate: 0.001 - Loss: 1.38791
Epoch: 1/15 - Batch: 2500/7933 - Learning rate: 0.001 - Loss: 1.5747498
Epoch: 1/15 - Batch: 2600/7933 - Learning rate: 0.001 - Loss: 1.0931034
Epoch: 1/15 - Batch: 2700/7933 - Learning rate: 0.001 - Loss: 0.67343783
Epoch: 1/15 - Batch: 2800/7933 - Learning rate: 0.001 - Loss: 1.6846567
Epoch: 1/15 - Batch: 2900/7933 - Learning rate: 0.001 - Loss: 1.6407908
Epoch: 1/15 - Batch: 3000/7933 - Learning rate: 0.001 - Loss: 1.5734749 - Dev BLEU: 0.018844932936127747
Epoch: 1/15 - Batch: 3100/7933 - Learning rate: 0.001 - Loss: 1.3495615
Epoch: 1/15 - Batch: 3200/7933 - Learning rate: 0.001 - Loss: 1.3997684
Epoch: 1/15 - Batch: 3300/7933 - Learning rate: 0.001 - Loss: 1.2569803
Epoch: 1/15 - Batch: 3400/7933 - Learning rate: 0.001 - Loss: 1.1689358
Epoch: 1/15 - Batch: 3500/7933 - Learning rate: 0.001 - Loss: 1.653916
Epoch: 1/15 - Batch: 3600/7933 - Learning rate: 0.001 - Loss: 1.4356943
Epoch: 1/15 - Batch: 3700/7933 - Learning rate: 0.001 - Loss: 1.5270314
Epoch: 1/15 - Batch: 3800/7933 - Learning rate: 0.001 - Loss: 1.4545327
Epoch: 1/15 - Batch: 3900/7933 - Learning rate: 0.001 - Loss: 1.6170269
Epoch: 1/15 - Batch: 4000/7933 - Learning rate: 0.001 - Loss: 0.9115507 - Dev BLEU: 0.033365848301697275
Epoch: 1/15 - Batch: 4100/7933 - Learning rate: 0.001 - Loss: 1.1506163
Epoch: 1/15 - Batch: 4200/7933 - Learning rate: 0.001 - Loss: 1.0840341
Epoch: 1/15 - Batch: 4300/7933 - Learning rate: 0.001 - Loss: 1.1849056
Epoch: 1/15 - Batch: 4400/7933 - Learning rate: 0.001 - Loss: 1.157331
Epoch: 1/15 - Batch: 4500/7933 - Learning rate: 0.001 - Loss: 1.2518411
Epoch: 1/15 - Batch: 4600/7933 - Learning rate: 0.001 - Loss: 2.378642
Epoch: 1/15 - Batch: 4700/7933 - Learning rate: 0.001 - Loss: 1.7885399
Epoch: 1/15 - Batch: 4800/7933 - Learning rate: 0.001 - Loss: 1.8232099
Epoch: 1/15 - Batch: 4900/7933 - Learning rate: 0.001 - Loss: 2.0017805
Epoch: 1/15 - Batch: 5000/7933 - Learning rate: 0.001 - Loss: 1.8167632 - Dev BLEU: 0.0639266141129293
Epoch: 1/15 - Batch: 5100/7933 - Learning rate: 0.001 - Loss: 1.7874407
Epoch: 1/15 - Batch: 5200/7933 - Learning rate: 0.001 - Loss: 1.7702173
Epoch: 1/15 - Batch: 5300/7933 - Learning rate: 0.001 - Loss: 1.717579
Epoch: 1/15 - Batch: 5400/7933 - Learning rate: 0.001 - Loss: 1.7385291
Epoch: 1/15 - Batch: 5500/7933 - Learning rate: 0.001 - Loss: 1.7566296
Epoch: 1/15 - Batch: 5600/7933 - Learning rate: 0.001 - Loss: 1.4080501
Epoch: 1/15 - Batch: 5700/7933 - Learning rate: 0.001 - Loss: 1.7505499
Epoch: 1/15 - Batch: 5800/7933 - Learning rate: 0.001 - Loss: 1.6623055
Epoch: 1/15 - Batch: 5900/7933 - Learning rate: 0.001 - Loss: 1.2835937
Epoch: 1/15 - Batch: 6000/7933 - Learning rate: 0.001 - Loss: 1.6704947 - Dev BLEU: 0.07591427716870991
Epoch: 1/15 - Batch: 6100/7933 - Learning rate: 0.001 - Loss: 1.7484534
Epoch: 1/15 - Batch: 6200/7933 - Learning rate: 0.001 - Loss: 1.4165428
Epoch: 1/15 - Batch: 6300/7933 - Learning rate: 0.001 - Loss: 1.4060028
Epoch: 1/15 - Batch: 6400/7933 - Learning rate: 0.001 - Loss: 1.1626103
Epoch: 1/15 - Batch: 6500/7933 - Learning rate: 0.001 - Loss: 1.2914261
Epoch: 1/15 - Batch: 6600/7933 - Learning rate: 0.001 - Loss: 1.3745501
Epoch: 1/15 - Batch: 6700/7933 - Learning rate: 0.001 - Loss: 1.1777203
Epoch: 1/15 - Batch: 6800/7933 - Learning rate: 0.001 - Loss: 1.1108242
Epoch: 1/15 - Batch: 6900/7933 - Learning rate: 0.001 - Loss: 0.8701937
Epoch: 1/15 - Batch: 7000/7933 - Learning rate: 0.001 - Loss: 1.6516578 - Dev BLEU: 0.13462906844839545
Epoch: 1/15 - Batch: 7100/7933 - Learning rate: 0.001 - Loss: 1.2847869
Epoch: 1/15 - Batch: 7200/7933 - Learning rate: 0.001 - Loss: 1.0038003
Epoch: 1/15 - Batch: 7300/7933 - Learning rate: 0.001 - Loss: 1.2341611
Epoch: 1/15 - Batch: 7400/7933 - Learning rate: 0.001 - Loss: 1.2902235
Epoch: 1/15 - Batch: 7500/7933 - Learning rate: 0.001 - Loss: 0.91030365
Epoch: 1/15 - Batch: 7600/7933 - Learning rate: 0.001 - Loss: 1.674755
Epoch: 1/15 - Batch: 7700/7933 - Learning rate: 0.001 - Loss: 1.8210746
Epoch: 1/15 - Batch: 7800/7933 - Learning rate: 0.001 - Loss: 1.670697
Epoch: 1/15 - Batch: 7900/7933 - Learning rate: 0.001 - Loss: 1.2854321
Epoch: 1/15 - Batch: 7933/7933 - Learning rate: 0.001 - Loss: 1.7886556 - Dev BLEU: 0.12422602862569712
Epoch: 2/15 - Batch: 100/7933 - Learning rate: 0.001 - Loss: 1.0338266
Epoch: 2/15 - Batch: 200/7933 - Learning rate: 0.001 - Loss: 1.1308085
Epoch: 2/15 - Batch: 300/7933 - Learning rate: 0.001 - Loss: 0.7210051
Epoch: 2/15 - Batch: 400/7933 - Learning rate: 0.001 - Loss: 1.2703751
Epoch: 2/15 - Batch: 500/7933 - Learning rate: 0.001 - Loss: 1.0486896
Epoch: 2/15 - Batch: 600/7933 - Learning rate: 0.001 - Loss: 0.51584166
Epoch: 2/15 - Batch: 700/7933 - Learning rate: 0.001 - Loss: 0.94521475
Epoch: 2/15 - Batch: 800/7933 - Learning rate: 0.001 - Loss: 0.8936522
Epoch: 2/15 - Batch: 900/7933 - Learning rate: 0.001 - Loss: 0.5685384
Epoch: 2/15 - Batch: 1000/7933 - Learning rate: 0.001 - Loss: 0.99412316 - Dev BLEU: 0.10503205192066489
Epoch: 2/15 - Batch: 1100/7933 - Learning rate: 0.001 - Loss: 0.8478754
Epoch: 2/15 - Batch: 1200/7933 - Learning rate: 0.001 - Loss: 1.1918343
Epoch: 2/15 - Batch: 1300/7933 - Learning rate: 0.001 - Loss: 1.0622255
Epoch: 2/15 - Batch: 1400/7933 - Learning rate: 0.001 - Loss: 1.1122285
Epoch: 2/15 - Batch: 1500/7933 - Learning rate: 0.001 - Loss: 0.76371384
Epoch: 2/15 - Batch: 1600/7933 - Learning rate: 0.001 - Loss: 1.4687425
Epoch: 2/15 - Batch: 1700/7933 - Learning rate: 0.001 - Loss: 1.0694802
Epoch: 2/15 - Batch: 1800/7933 - Learning rate: 0.001 - Loss: 0.6217064
Epoch: 2/15 - Batch: 1900/7933 - Learning rate: 0.001 - Loss: 0.88336694
Epoch: 2/15 - Batch: 2000/7933 - Learning rate: 0.001 - Loss: 0.9424127 - Dev BLEU: 0.10598393773874551
Epoch: 2/15 - Batch: 2100/7933 - Learning rate: 0.001 - Loss: 0.79063123
Epoch: 2/15 - Batch: 2200/7933 - Learning rate: 0.001 - Loss: 0.8332848
Epoch: 2/15 - Batch: 2300/7933 - Learning rate: 0.001 - Loss: 1.0076963
Epoch: 2/15 - Batch: 2400/7933 - Learning rate: 0.001 - Loss: 0.8341505
Epoch: 2/15 - Batch: 2500/7933 - Learning rate: 0.001 - Loss: 0.8552422
Epoch: 2/15 - Batch: 2600/7933 - Learning rate: 0.001 - Loss: 0.6436707
Epoch: 2/15 - Batch: 2700/7933 - Learning rate: 0.001 - Loss: 0.36652684
Epoch: 2/15 - Batch: 2800/7933 - Learning rate: 0.001 - Loss: 1.0312575
Epoch: 2/15 - Batch: 2900/7933 - Learning rate: 0.001 - Loss: 1.1230179
Epoch: 2/15 - Batch: 3000/7933 - Learning rate: 0.001 - Loss: 1.0500802 - Dev BLEU: 0.10788661418711804
Epoch: 2/15 - Batch: 3100/7933 - Learning rate: 0.001 - Loss: 1.0407132
Epoch: 2/15 - Batch: 3200/7933 - Learning rate: 0.001 - Loss: 0.9426804
Epoch: 2/15 - Batch: 3300/7933 - Learning rate: 0.001 - Loss: 0.7843661
Epoch: 2/15 - Batch: 3400/7933 - Learning rate: 0.001 - Loss: 0.776466
Epoch: 2/15 - Batch: 3500/7933 - Learning rate: 0.001 - Loss: 1.0558349
Epoch: 2/15 - Batch: 3600/7933 - Learning rate: 0.001 - Loss: 1.0104603
Epoch: 2/15 - Batch: 3700/7933 - Learning rate: 0.001 - Loss: 1.0284334
Epoch: 2/15 - Batch: 3800/7933 - Learning rate: 0.001 - Loss: 0.94201416
Epoch: 2/15 - Batch: 3900/7933 - Learning rate: 0.001 - Loss: 1.1213644
Epoch: 2/15 - Batch: 4000/7933 - Learning rate: 0.001 - Loss: 0.6235468 - Dev BLEU: 0.11424213613321176
Epoch: 2/15 - Batch: 4100/7933 - Learning rate: 0.001 - Loss: 0.7929201
Epoch: 2/15 - Batch: 4200/7933 - Learning rate: 0.001 - Loss: 0.7516912
Epoch: 2/15 - Batch: 4300/7933 - Learning rate: 0.001 - Loss: 0.82317847
Epoch: 2/15 - Batch: 4400/7933 - Learning rate: 0.001 - Loss: 0.7864617
Epoch: 2/15 - Batch: 4500/7933 - Learning rate: 0.001 - Loss: 0.9067513
Epoch: 2/15 - Batch: 4600/7933 - Learning rate: 0.001 - Loss: 1.7051159
Epoch: 2/15 - Batch: 4700/7933 - Learning rate: 0.001 - Loss: 1.2088295
Epoch: 2/15 - Batch: 4800/7933 - Learning rate: 0.001 - Loss: 1.204369
Epoch: 2/15 - Batch: 4900/7933 - Learning rate: 0.001 - Loss: 1.3059876
Epoch: 2/15 - Batch: 5000/7933 - Learning rate: 0.001 - Loss: 1.3304634 - Dev BLEU: 0.15156805536675372
Epoch: 2/15 - Batch: 5100/7933 - Learning rate: 0.001 - Loss: 1.3607935
Epoch: 2/15 - Batch: 5200/7933 - Learning rate: 0.001 - Loss: 1.3120551
Epoch: 2/15 - Batch: 5300/7933 - Learning rate: 0.001 - Loss: 1.289392
Epoch: 2/15 - Batch: 5400/7933 - Learning rate: 0.001 - Loss: 1.2567596
Epoch: 2/15 - Batch: 5500/7933 - Learning rate: 0.001 - Loss: 1.251516
Epoch: 2/15 - Batch: 5600/7933 - Learning rate: 0.001 - Loss: 0.9986213
Epoch: 2/15 - Batch: 5700/7933 - Learning rate: 0.001 - Loss: 1.2474959
Epoch: 2/15 - Batch: 5800/7933 - Learning rate: 0.001 - Loss: 1.2156832
Epoch: 2/15 - Batch: 5900/7933 - Learning rate: 0.001 - Loss: 0.8918611
Epoch: 2/15 - Batch: 6000/7933 - Learning rate: 0.001 - Loss: 1.2178735 - Dev BLEU: 0.13782664997455626
Epoch: 2/15 - Batch: 6100/7933 - Learning rate: 0.001 - Loss: 1.2560592
Epoch: 2/15 - Batch: 6200/7933 - Learning rate: 0.001 - Loss: 1.0436143
Epoch: 2/15 - Batch: 6300/7933 - Learning rate: 0.001 - Loss: 1.022266
Epoch: 2/15 - Batch: 6400/7933 - Learning rate: 0.001 - Loss: 0.8802949
Epoch: 2/15 - Batch: 6500/7933 - Learning rate: 0.001 - Loss: 0.9992778
Epoch: 2/15 - Batch: 6600/7933 - Learning rate: 0.001 - Loss: 1.0063087
Epoch: 2/15 - Batch: 6700/7933 - Learning rate: 0.001 - Loss: 0.9429269
Epoch: 2/15 - Batch: 6800/7933 - Learning rate: 0.001 - Loss: 0.8758248
Epoch: 2/15 - Batch: 6900/7933 - Learning rate: 0.001 - Loss: 0.65220374
Epoch: 2/15 - Batch: 7000/7933 - Learning rate: 0.001 - Loss: 1.337878 - Dev BLEU: 0.19572550234539246
Epoch: 2/15 - Batch: 7100/7933 - Learning rate: 0.001 - Loss: 1.0181166
Epoch: 2/15 - Batch: 7200/7933 - Learning rate: 0.001 - Loss: 0.8024732
Epoch: 2/15 - Batch: 7300/7933 - Learning rate: 0.001 - Loss: 0.9898848
Epoch: 2/15 - Batch: 7400/7933 - Learning rate: 0.001 - Loss: 1.0320587
Epoch: 2/15 - Batch: 7500/7933 - Learning rate: 0.001 - Loss: 0.7514979
Epoch: 2/15 - Batch: 7600/7933 - Learning rate: 0.001 - Loss: 1.3764447
Epoch: 2/15 - Batch: 7700/7933 - Learning rate: 0.001 - Loss: 1.5042498
Epoch: 2/15 - Batch: 7800/7933 - Learning rate: 0.001 - Loss: 1.4169972
Epoch: 2/15 - Batch: 7900/7933 - Learning rate: 0.001 - Loss: 1.0354885
Epoch: 2/15 - Batch: 7933/7933 - Learning rate: 0.001 - Loss: 1.4553622 - Dev BLEU: 0.1703662235894273
Epoch: 3/15 - Batch: 100/7933 - Learning rate: 0.001 - Loss: 0.89703906
Epoch: 3/15 - Batch: 200/7933 - Learning rate: 0.001 - Loss: 0.9152418
Epoch: 3/15 - Batch: 300/7933 - Learning rate: 0.001 - Loss: 0.61716914
Epoch: 3/15 - Batch: 400/7933 - Learning rate: 0.001 - Loss: 1.0663388
Epoch: 3/15 - Batch: 500/7933 - Learning rate: 0.001 - Loss: 0.8117218
Epoch: 3/15 - Batch: 600/7933 - Learning rate: 0.001 - Loss: 0.45840427
Epoch: 3/15 - Batch: 700/7933 - Learning rate: 0.001 - Loss: 0.77681977
Epoch: 3/15 - Batch: 800/7933 - Learning rate: 0.001 - Loss: 0.763265
Epoch: 3/15 - Batch: 900/7933 - Learning rate: 0.001 - Loss: 0.48115766
Epoch: 3/15 - Batch: 1000/7933 - Learning rate: 0.001 - Loss: 0.8403947 - Dev BLEU: 0.15024044083201524
Epoch: 3/15 - Batch: 1100/7933 - Learning rate: 0.001 - Loss: 0.69752944
Epoch: 3/15 - Batch: 1200/7933 - Learning rate: 0.001 - Loss: 1.0222474
Epoch: 3/15 - Batch: 1300/7933 - Learning rate: 0.001 - Loss: 0.87284064
Epoch: 3/15 - Batch: 1400/7933 - Learning rate: 0.001 - Loss: 0.9266671
Epoch: 3/15 - Batch: 1500/7933 - Learning rate: 0.001 - Loss: 0.65766096
Epoch: 3/15 - Batch: 1600/7933 - Learning rate: 0.001 - Loss: 1.2487627
Epoch: 3/15 - Batch: 1700/7933 - Learning rate: 0.001 - Loss: 0.9236553
Epoch: 3/15 - Batch: 1800/7933 - Learning rate: 0.001 - Loss: 0.50211656
Epoch: 3/15 - Batch: 1900/7933 - Learning rate: 0.001 - Loss: 0.76501113
Epoch: 3/15 - Batch: 2000/7933 - Learning rate: 0.001 - Loss: 0.82412666 - Dev BLEU: 0.13793159787898754
Epoch: 3/15 - Batch: 2100/7933 - Learning rate: 0.001 - Loss: 0.6877561
Epoch: 3/15 - Batch: 2200/7933 - Learning rate: 0.001 - Loss: 0.7175952
Epoch: 3/15 - Batch: 2300/7933 - Learning rate: 0.001 - Loss: 0.8571493
Epoch: 3/15 - Batch: 2400/7933 - Learning rate: 0.001 - Loss: 0.6961794
Epoch: 3/15 - Batch: 2500/7933 - Learning rate: 0.001 - Loss: 0.7052511
Epoch: 3/15 - Batch: 2600/7933 - Learning rate: 0.001 - Loss: 0.5549585
Epoch: 3/15 - Batch: 2700/7933 - Learning rate: 0.001 - Loss: 0.31188896
Epoch: 3/15 - Batch: 2800/7933 - Learning rate: 0.001 - Loss: 0.88751197
Epoch: 3/15 - Batch: 2900/7933 - Learning rate: 0.001 - Loss: 1.0121381
Epoch: 3/15 - Batch: 3000/7933 - Learning rate: 0.001 - Loss: 0.9332153 - Dev BLEU: 0.14399437056484135
Epoch: 3/15 - Batch: 3100/7933 - Learning rate: 0.001 - Loss: 0.9270089
Epoch: 3/15 - Batch: 3200/7933 - Learning rate: 0.001 - Loss: 0.8450164
Epoch: 3/15 - Batch: 3300/7933 - Learning rate: 0.001 - Loss: 0.6924254
Epoch: 3/15 - Batch: 3400/7933 - Learning rate: 0.001 - Loss: 0.69529974
Epoch: 3/15 - Batch: 3500/7933 - Learning rate: 0.001 - Loss: 0.93800676
Epoch: 3/15 - Batch: 3600/7933 - Learning rate: 0.001 - Loss: 0.8960604
Epoch: 3/15 - Batch: 3700/7933 - Learning rate: 0.001 - Loss: 0.8923996
Epoch: 3/15 - Batch: 3800/7933 - Learning rate: 0.001 - Loss: 0.8259092
Epoch: 3/15 - Batch: 3900/7933 - Learning rate: 0.001 - Loss: 0.96537226
Epoch: 3/15 - Batch: 4000/7933 - Learning rate: 0.001 - Loss: 0.5462896 - Dev BLEU: 0.14912703082061446
Epoch: 3/15 - Batch: 4100/7933 - Learning rate: 0.001 - Loss: 0.68805283
Epoch: 3/15 - Batch: 4200/7933 - Learning rate: 0.001 - Loss: 0.6661839
Epoch: 3/15 - Batch: 4300/7933 - Learning rate: 0.001 - Loss: 0.7404733
Epoch: 3/15 - Batch: 4400/7933 - Learning rate: 0.001 - Loss: 0.7030704
Epoch: 3/15 - Batch: 4500/7933 - Learning rate: 0.001 - Loss: 0.8116954
Epoch: 3/15 - Batch: 4600/7933 - Learning rate: 0.001 - Loss: 1.4870299
Epoch: 3/15 - Batch: 4700/7933 - Learning rate: 0.001 - Loss: 1.0390408
Epoch: 3/15 - Batch: 4800/7933 - Learning rate: 0.001 - Loss: 1.0328143
Epoch: 3/15 - Batch: 4900/7933 - Learning rate: 0.001 - Loss: 1.1229423
Epoch: 3/15 - Batch: 5000/7933 - Learning rate: 0.001 - Loss: 1.1788965 - Dev BLEU: 0.1795325642538787
Epoch: 3/15 - Batch: 5100/7933 - Learning rate: 0.001 - Loss: 1.2199466
Epoch: 3/15 - Batch: 5200/7933 - Learning rate: 0.001 - Loss: 1.1568323
Epoch: 3/15 - Batch: 5300/7933 - Learning rate: 0.001 - Loss: 1.162873
Epoch: 3/15 - Batch: 5400/7933 - Learning rate: 0.001 - Loss: 1.1056476
Epoch: 3/15 - Batch: 5500/7933 - Learning rate: 0.001 - Loss: 1.0976255
Epoch: 3/15 - Batch: 5600/7933 - Learning rate: 0.001 - Loss: 0.88480246
Epoch: 3/15 - Batch: 5700/7933 - Learning rate: 0.001 - Loss: 1.0892586
Epoch: 3/15 - Batch: 5800/7933 - Learning rate: 0.001 - Loss: 1.0970207
Epoch: 3/15 - Batch: 5900/7933 - Learning rate: 0.001 - Loss: 0.76639736
Epoch: 3/15 - Batch: 6000/7933 - Learning rate: 0.001 - Loss: 1.0877925 - Dev BLEU: 0.16476292809217252
Epoch: 3/15 - Batch: 6100/7933 - Learning rate: 0.001 - Loss: 1.080483
Epoch: 3/15 - Batch: 6200/7933 - Learning rate: 0.001 - Loss: 0.93029845
Epoch: 3/15 - Batch: 6300/7933 - Learning rate: 0.001 - Loss: 0.9115515
Epoch: 3/15 - Batch: 6400/7933 - Learning rate: 0.001 - Loss: 0.7912316
Epoch: 3/15 - Batch: 6500/7933 - Learning rate: 0.001 - Loss: 0.89635986
Epoch: 3/15 - Batch: 6600/7933 - Learning rate: 0.001 - Loss: 0.8998409
Epoch: 3/15 - Batch: 6700/7933 - Learning rate: 0.001 - Loss: 0.85428953
Epoch: 3/15 - Batch: 6800/7933 - Learning rate: 0.001 - Loss: 0.8135308
Epoch: 3/15 - Batch: 6900/7933 - Learning rate: 0.001 - Loss: 0.5941652
Epoch: 3/15 - Batch: 7000/7933 - Learning rate: 0.001 - Loss: 1.2289732 - Dev BLEU: 0.21534219288769418
Epoch: 3/15 - Batch: 7100/7933 - Learning rate: 0.001 - Loss: 0.920846
Epoch: 3/15 - Batch: 7200/7933 - Learning rate: 0.001 - Loss: 0.7319498
Epoch: 3/15 - Batch: 7300/7933 - Learning rate: 0.001 - Loss: 0.902523
Epoch: 3/15 - Batch: 7400/7933 - Learning rate: 0.001 - Loss: 0.9460582
Epoch: 3/15 - Batch: 7500/7933 - Learning rate: 0.001 - Loss: 0.6935337
Epoch: 3/15 - Batch: 7600/7933 - Learning rate: 0.001 - Loss: 1.2500476
Epoch: 3/15 - Batch: 7700/7933 - Learning rate: 0.001 - Loss: 1.3806262
Epoch: 3/15 - Batch: 7800/7933 - Learning rate: 0.001 - Loss: 1.2964683
Epoch: 3/15 - Batch: 7900/7933 - Learning rate: 0.001 - Loss: 0.93157744
Epoch: 3/15 - Batch: 7933/7933 - Learning rate: 0.001 - Loss: 1.2826778 - Dev BLEU: 0.19231262649975042
Epoch: 4/15 - Batch: 100/7933 - Learning rate: 0.001 - Loss: 0.84129846
Epoch: 4/15 - Batch: 200/7933 - Learning rate: 0.001 - Loss: 0.7786016
Epoch: 4/15 - Batch: 300/7933 - Learning rate: 0.001 - Loss: 0.57055944
Epoch: 4/15 - Batch: 400/7933 - Learning rate: 0.001 - Loss: 0.98481935
Epoch: 4/15 - Batch: 500/7933 - Learning rate: 0.001 - Loss: 0.6995236
Epoch: 4/15 - Batch: 600/7933 - Learning rate: 0.001 - Loss: 0.43335003
Epoch: 4/15 - Batch: 700/7933 - Learning rate: 0.001 - Loss: 0.697409
Epoch: 4/15 - Batch: 800/7933 - Learning rate: 0.001 - Loss: 0.69629306
Epoch: 4/15 - Batch: 900/7933 - Learning rate: 0.001 - Loss: 0.45376524
Epoch: 4/15 - Batch: 1000/7933 - Learning rate: 0.001 - Loss: 0.7651362 - Dev BLEU: 0.1720439394421465
Epoch: 4/15 - Batch: 1100/7933 - Learning rate: 0.001 - Loss: 0.6556961
Epoch: 4/15 - Batch: 1200/7933 - Learning rate: 0.001 - Loss: 0.94251245
Epoch: 4/15 - Batch: 1300/7933 - Learning rate: 0.001 - Loss: 0.8025512
Epoch: 4/15 - Batch: 1400/7933 - Learning rate: 0.001 - Loss: 0.86504996
Epoch: 4/15 - Batch: 1500/7933 - Learning rate: 0.001 - Loss: 0.6155085
Epoch: 4/15 - Batch: 1600/7933 - Learning rate: 0.001 - Loss: 1.1608472
Epoch: 4/15 - Batch: 1700/7933 - Learning rate: 0.001 - Loss: 0.84727156
Epoch: 4/15 - Batch: 1800/7933 - Learning rate: 0.001 - Loss: 0.45811337
Epoch: 4/15 - Batch: 1900/7933 - Learning rate: 0.001 - Loss: 0.69801897
Epoch: 4/15 - Batch: 2000/7933 - Learning rate: 0.001 - Loss: 0.7360829 - Dev BLEU: 0.15278084932187616
Epoch: 4/15 - Batch: 2100/7933 - Learning rate: 0.001 - Loss: 0.6293383
Epoch: 4/15 - Batch: 2200/7933 - Learning rate: 0.001 - Loss: 0.64901
Epoch: 4/15 - Batch: 2300/7933 - Learning rate: 0.001 - Loss: 0.797668
Epoch: 4/15 - Batch: 2400/7933 - Learning rate: 0.001 - Loss: 0.62429553
Epoch: 4/15 - Batch: 2500/7933 - Learning rate: 0.001 - Loss: 0.63440025
Epoch: 4/15 - Batch: 2600/7933 - Learning rate: 0.001 - Loss: 0.5077957
Epoch: 4/15 - Batch: 2700/7933 - Learning rate: 0.001 - Loss: 0.2930244
Epoch: 4/15 - Batch: 2800/7933 - Learning rate: 0.001 - Loss: 0.8225241
Epoch: 4/15 - Batch: 2900/7933 - Learning rate: 0.001 - Loss: 0.9423189
Epoch: 4/15 - Batch: 3000/7933 - Learning rate: 0.001 - Loss: 0.8438877 - Dev BLEU: 0.15423356569455388
Epoch: 4/15 - Batch: 3100/7933 - Learning rate: 0.001 - Loss: 0.8698451
Epoch: 4/15 - Batch: 3200/7933 - Learning rate: 0.001 - Loss: 0.8094744
Epoch: 4/15 - Batch: 3300/7933 - Learning rate: 0.001 - Loss: 0.64700437
Epoch: 4/15 - Batch: 3400/7933 - Learning rate: 0.001 - Loss: 0.6555946
Epoch: 4/15 - Batch: 3500/7933 - Learning rate: 0.001 - Loss: 0.8539493
Epoch: 4/15 - Batch: 3600/7933 - Learning rate: 0.001 - Loss: 0.83204854
Epoch: 4/15 - Batch: 3700/7933 - Learning rate: 0.001 - Loss: 0.8375793
Epoch: 4/15 - Batch: 3800/7933 - Learning rate: 0.001 - Loss: 0.75552046
Epoch: 4/15 - Batch: 3900/7933 - Learning rate: 0.001 - Loss: 0.890362
Epoch: 4/15 - Batch: 4000/7933 - Learning rate: 0.001 - Loss: 0.49911898 - Dev BLEU: 0.1659045988747996
Epoch: 4/15 - Batch: 4100/7933 - Learning rate: 0.001 - Loss: 0.63809794
Epoch: 4/15 - Batch: 4200/7933 - Learning rate: 0.001 - Loss: 0.6118143
Epoch: 4/15 - Batch: 4300/7933 - Learning rate: 0.001 - Loss: 0.69427353
Epoch: 4/15 - Batch: 4400/7933 - Learning rate: 0.001 - Loss: 0.65648615
Epoch: 4/15 - Batch: 4500/7933 - Learning rate: 0.001 - Loss: 0.7595282
Epoch: 4/15 - Batch: 4600/7933 - Learning rate: 0.001 - Loss: 1.3361546
Epoch: 4/15 - Batch: 4700/7933 - Learning rate: 0.001 - Loss: 0.9588478
Epoch: 4/15 - Batch: 4800/7933 - Learning rate: 0.001 - Loss: 0.932413
Epoch: 4/15 - Batch: 4900/7933 - Learning rate: 0.001 - Loss: 1.0455995
Epoch: 4/15 - Batch: 5000/7933 - Learning rate: 0.001 - Loss: 1.1034275 - Dev BLEU: 0.19009136714100833
Epoch: 4/15 - Batch: 5100/7933 - Learning rate: 0.001 - Loss: 1.1420381
Epoch: 4/15 - Batch: 5200/7933 - Learning rate: 0.001 - Loss: 1.0771798
Epoch: 4/15 - Batch: 5300/7933 - Learning rate: 0.001 - Loss: 1.069287
Epoch: 4/15 - Batch: 5400/7933 - Learning rate: 0.001 - Loss: 1.0261765
Epoch: 4/15 - Batch: 5500/7933 - Learning rate: 0.001 - Loss: 1.0384946
Epoch: 4/15 - Batch: 5600/7933 - Learning rate: 0.001 - Loss: 0.81917745
Epoch: 4/15 - Batch: 5700/7933 - Learning rate: 0.001 - Loss: 0.9981638
Epoch: 4/15 - Batch: 5800/7933 - Learning rate: 0.001 - Loss: 1.0069935
Epoch: 4/15 - Batch: 5900/7933 - Learning rate: 0.001 - Loss: 0.6893735
Epoch: 4/15 - Batch: 6000/7933 - Learning rate: 0.001 - Loss: 1.0029714 - Dev BLEU: 0.18277414198508973
Epoch: 4/15 - Batch: 6100/7933 - Learning rate: 0.001 - Loss: 0.9955498
Epoch: 4/15 - Batch: 6200/7933 - Learning rate: 0.001 - Loss: 0.8837547
Epoch: 4/15 - Batch: 6300/7933 - Learning rate: 0.001 - Loss: 0.8543636
Epoch: 4/15 - Batch: 6400/7933 - Learning rate: 0.001 - Loss: 0.7441862
Epoch: 4/15 - Batch: 6500/7933 - Learning rate: 0.001 - Loss: 0.8554498
Epoch: 4/15 - Batch: 6600/7933 - Learning rate: 0.001 - Loss: 0.84430337
Epoch: 4/15 - Batch: 6700/7933 - Learning rate: 0.001 - Loss: 0.80149716
Epoch: 4/15 - Batch: 6800/7933 - Learning rate: 0.001 - Loss: 0.7761449
Epoch: 4/15 - Batch: 6900/7933 - Learning rate: 0.001 - Loss: 0.5513752
Epoch: 4/15 - Batch: 7000/7933 - Learning rate: 0.001 - Loss: 1.1631612 - Dev BLEU: 0.22496147457566468
Epoch: 4/15 - Batch: 7100/7933 - Learning rate: 0.001 - Loss: 0.87788486
Epoch: 4/15 - Batch: 7200/7933 - Learning rate: 0.001 - Loss: 0.6974607
Epoch: 4/15 - Batch: 7300/7933 - Learning rate: 0.001 - Loss: 0.86201733
Epoch: 4/15 - Batch: 7400/7933 - Learning rate: 0.001 - Loss: 0.8978061
Epoch: 4/15 - Batch: 7500/7933 - Learning rate: 0.001 - Loss: 0.6527575
Epoch: 4/15 - Batch: 7600/7933 - Learning rate: 0.001 - Loss: 1.188264
Epoch: 4/15 - Batch: 7700/7933 - Learning rate: 0.001 - Loss: 1.3041328
Epoch: 4/15 - Batch: 7800/7933 - Learning rate: 0.001 - Loss: 1.2156318
Epoch: 4/15 - Batch: 7900/7933 - Learning rate: 0.001 - Loss: 0.88567674
Epoch: 4/15 - Batch: 7933/7933 - Learning rate: 0.001 - Loss: 1.1595396 - Dev BLEU: 0.1991125907492975
Epoch: 5/15 - Batch: 100/7933 - Learning rate: 0.001 - Loss: 0.8088956
Epoch: 5/15 - Batch: 200/7933 - Learning rate: 0.001 - Loss: 0.7467805
Epoch: 5/15 - Batch: 300/7933 - Learning rate: 0.001 - Loss: 0.5490703
Epoch: 5/15 - Batch: 400/7933 - Learning rate: 0.001 - Loss: 0.9445338
Epoch: 5/15 - Batch: 500/7933 - Learning rate: 0.001 - Loss: 0.63149524
Epoch: 5/15 - Batch: 600/7933 - Learning rate: 0.001 - Loss: 0.4160759
Epoch: 5/15 - Batch: 700/7933 - Learning rate: 0.001 - Loss: 0.65946436
Epoch: 5/15 - Batch: 800/7933 - Learning rate: 0.001 - Loss: 0.6571202
Epoch: 5/15 - Batch: 900/7933 - Learning rate: 0.001 - Loss: 0.4254603
Epoch: 5/15 - Batch: 1000/7933 - Learning rate: 0.001 - Loss: 0.72020954 - Dev BLEU: 0.18408597574427343
Epoch: 5/15 - Batch: 1100/7933 - Learning rate: 0.001 - Loss: 0.6265649
Epoch: 5/15 - Batch: 1200/7933 - Learning rate: 0.001 - Loss: 0.89869523
Epoch: 5/15 - Batch: 1300/7933 - Learning rate: 0.001 - Loss: 0.763129
Epoch: 5/15 - Batch: 1400/7933 - Learning rate: 0.001 - Loss: 0.8214964
Epoch: 5/15 - Batch: 1500/7933 - Learning rate: 0.001 - Loss: 0.5778916
Epoch: 5/15 - Batch: 1600/7933 - Learning rate: 0.001 - Loss: 1.0957153
Epoch: 5/15 - Batch: 1700/7933 - Learning rate: 0.001 - Loss: 0.81383777
Epoch: 5/15 - Batch: 1800/7933 - Learning rate: 0.001 - Loss: 0.43862706
Epoch: 5/15 - Batch: 1900/7933 - Learning rate: 0.001 - Loss: 0.66458243
Epoch: 5/15 - Batch: 2000/7933 - Learning rate: 0.001 - Loss: 0.6887412 - Dev BLEU: 0.16690436807600964
Epoch: 5/15 - Batch: 2100/7933 - Learning rate: 0.001 - Loss: 0.5942836
Epoch: 5/15 - Batch: 2200/7933 - Learning rate: 0.001 - Loss: 0.61846495
Epoch: 5/15 - Batch: 2300/7933 - Learning rate: 0.001 - Loss: 0.7543412
Epoch: 5/15 - Batch: 2400/7933 - Learning rate: 0.001 - Loss: 0.58721334
Epoch: 5/15 - Batch: 2500/7933 - Learning rate: 0.001 - Loss: 0.59403193
Epoch: 5/15 - Batch: 2600/7933 - Learning rate: 0.001 - Loss: 0.47375625
Epoch: 5/15 - Batch: 2700/7933 - Learning rate: 0.001 - Loss: 0.2724192
Epoch: 5/15 - Batch: 2800/7933 - Learning rate: 0.001 - Loss: 0.79080814
Epoch: 5/15 - Batch: 2900/7933 - Learning rate: 0.001 - Loss: 0.90392363
Epoch: 5/15 - Batch: 3000/7933 - Learning rate: 0.001 - Loss: 0.7860286 - Dev BLEU: 0.16351196880569274
Epoch: 5/15 - Batch: 3100/7933 - Learning rate: 0.001 - Loss: 0.8159366
Epoch: 5/15 - Batch: 3200/7933 - Learning rate: 0.001 - Loss: 0.78142554
Epoch: 5/15 - Batch: 3300/7933 - Learning rate: 0.001 - Loss: 0.6374319
Epoch: 5/15 - Batch: 3400/7933 - Learning rate: 0.001 - Loss: 0.62796754
Epoch: 5/15 - Batch: 3500/7933 - Learning rate: 0.001 - Loss: 0.80307704
Epoch: 5/15 - Batch: 3600/7933 - Learning rate: 0.001 - Loss: 0.7982319
Epoch: 5/15 - Batch: 3700/7933 - Learning rate: 0.001 - Loss: 0.79313904
Epoch: 5/15 - Batch: 3800/7933 - Learning rate: 0.001 - Loss: 0.7380082
Epoch: 5/15 - Batch: 3900/7933 - Learning rate: 0.001 - Loss: 0.84721684
Epoch: 5/15 - Batch: 4000/7933 - Learning rate: 0.001 - Loss: 0.47590706 - Dev BLEU: 0.17590921081794408
Epoch: 5/15 - Batch: 4100/7933 - Learning rate: 0.001 - Loss: 0.6072989
Epoch: 5/15 - Batch: 4200/7933 - Learning rate: 0.001 - Loss: 0.58691406
Epoch: 5/15 - Batch: 4300/7933 - Learning rate: 0.001 - Loss: 0.6816494
Epoch: 5/15 - Batch: 4400/7933 - Learning rate: 0.001 - Loss: 0.62271637
Epoch: 5/15 - Batch: 4500/7933 - Learning rate: 0.001 - Loss: 0.7281784
Epoch: 5/15 - Batch: 4600/7933 - Learning rate: 0.001 - Loss: 1.2650998
Epoch: 5/15 - Batch: 4700/7933 - Learning rate: 0.001 - Loss: 0.89696914
Epoch: 5/15 - Batch: 4800/7933 - Learning rate: 0.001 - Loss: 0.88848
Epoch: 5/15 - Batch: 4900/7933 - Learning rate: 0.001 - Loss: 1.0013013
Epoch: 5/15 - Batch: 5000/7933 - Learning rate: 0.001 - Loss: 1.0287273 - Dev BLEU: 0.20730691855016395
Epoch: 5/15 - Batch: 5100/7933 - Learning rate: 0.001 - Loss: 1.0780293
Epoch: 5/15 - Batch: 5200/7933 - Learning rate: 0.001 - Loss: 1.0648487
Epoch: 5/15 - Batch: 5300/7933 - Learning rate: 0.001 - Loss: 1.0367359
Epoch: 5/15 - Batch: 5400/7933 - Learning rate: 0.001 - Loss: 0.99335325
Epoch: 5/15 - Batch: 5500/7933 - Learning rate: 0.001 - Loss: 0.96711576
Epoch: 5/15 - Batch: 5600/7933 - Learning rate: 0.001 - Loss: 0.78635675
Epoch: 5/15 - Batch: 5700/7933 - Learning rate: 0.001 - Loss: 0.93681914
Epoch: 5/15 - Batch: 5800/7933 - Learning rate: 0.001 - Loss: 0.9591612
Epoch: 5/15 - Batch: 5900/7933 - Learning rate: 0.001 - Loss: 0.6568468
Epoch: 5/15 - Batch: 6000/7933 - Learning rate: 0.001 - Loss: 0.95286924 - Dev BLEU: 0.19261405021441447
Epoch: 5/15 - Batch: 6100/7933 - Learning rate: 0.001 - Loss: 0.93916816
Epoch: 5/15 - Batch: 6200/7933 - Learning rate: 0.001 - Loss: 0.8402335
Epoch: 5/15 - Batch: 6300/7933 - Learning rate: 0.001 - Loss: 0.8117804
Epoch: 5/15 - Batch: 6400/7933 - Learning rate: 0.001 - Loss: 0.72697806
Epoch: 5/15 - Batch: 6500/7933 - Learning rate: 0.001 - Loss: 0.8270826
Epoch: 5/15 - Batch: 6600/7933 - Learning rate: 0.001 - Loss: 0.8000332
Epoch: 5/15 - Batch: 6700/7933 - Learning rate: 0.001 - Loss: 0.77114284
Epoch: 5/15 - Batch: 6800/7933 - Learning rate: 0.001 - Loss: 0.75392926
Epoch: 5/15 - Batch: 6900/7933 - Learning rate: 0.001 - Loss: 0.52255654
Epoch: 5/15 - Batch: 7000/7933 - Learning rate: 0.001 - Loss: 1.1312557 - Dev BLEU: 0.23280474650178914
Epoch: 5/15 - Batch: 7100/7933 - Learning rate: 0.001 - Loss: 0.84202516
Epoch: 5/15 - Batch: 7200/7933 - Learning rate: 0.001 - Loss: 0.66902435
Epoch: 5/15 - Batch: 7300/7933 - Learning rate: 0.001 - Loss: 0.82597053
Epoch: 5/15 - Batch: 7400/7933 - Learning rate: 0.001 - Loss: 0.8786425
Epoch: 5/15 - Batch: 7500/7933 - Learning rate: 0.001 - Loss: 0.6304902
Epoch: 5/15 - Batch: 7600/7933 - Learning rate: 0.001 - Loss: 1.1338392
Epoch: 5/15 - Batch: 7700/7933 - Learning rate: 0.001 - Loss: 1.2630692
Epoch: 5/15 - Batch: 7800/7933 - Learning rate: 0.001 - Loss: 1.1520643
Epoch: 5/15 - Batch: 7900/7933 - Learning rate: 0.001 - Loss: 0.84561205
Epoch: 5/15 - Batch: 7933/7933 - Learning rate: 0.001 - Loss: 1.1158702 - Dev BLEU: 0.21013146288338613
Epoch: 6/15 - Batch: 100/7933 - Learning rate: 0.001 - Loss: 0.78965473
Epoch: 6/15 - Batch: 200/7933 - Learning rate: 0.001 - Loss: 0.7013274
Epoch: 6/15 - Batch: 300/7933 - Learning rate: 0.001 - Loss: 0.5189345
Epoch: 6/15 - Batch: 400/7933 - Learning rate: 0.001 - Loss: 0.89762825
Epoch: 6/15 - Batch: 500/7933 - Learning rate: 0.001 - Loss: 0.6000871
Epoch: 6/15 - Batch: 600/7933 - Learning rate: 0.001 - Loss: 0.40303883
Epoch: 6/15 - Batch: 700/7933 - Learning rate: 0.001 - Loss: 0.64091617
Epoch: 6/15 - Batch: 800/7933 - Learning rate: 0.001 - Loss: 0.629754
Epoch: 6/15 - Batch: 900/7933 - Learning rate: 0.001 - Loss: 0.41630667
Epoch: 6/15 - Batch: 1000/7933 - Learning rate: 0.001 - Loss: 0.688633 - Dev BLEU: 0.19281197148590912
Epoch: 6/15 - Batch: 1100/7933 - Learning rate: 0.001 - Loss: 0.60084635
Epoch: 6/15 - Batch: 1200/7933 - Learning rate: 0.001 - Loss: 0.8758645
Epoch: 6/15 - Batch: 1300/7933 - Learning rate: 0.001 - Loss: 0.73313254
Epoch: 6/15 - Batch: 1400/7933 - Learning rate: 0.001 - Loss: 0.8013509
Epoch: 6/15 - Batch: 1500/7933 - Learning rate: 0.001 - Loss: 0.5620238
Epoch: 6/15 - Batch: 1600/7933 - Learning rate: 0.001 - Loss: 1.0523646
Epoch: 6/15 - Batch: 1700/7933 - Learning rate: 0.001 - Loss: 0.78479046
Epoch: 6/15 - Batch: 1800/7933 - Learning rate: 0.001 - Loss: 0.41984656
Epoch: 6/15 - Batch: 1900/7933 - Learning rate: 0.001 - Loss: 0.63744235
Epoch: 6/15 - Batch: 2000/7933 - Learning rate: 0.001 - Loss: 0.66060305 - Dev BLEU: 0.17312677431654816
Epoch: 6/15 - Batch: 2100/7933 - Learning rate: 0.001 - Loss: 0.5748915
Epoch: 6/15 - Batch: 2200/7933 - Learning rate: 0.001 - Loss: 0.58148474
Epoch: 6/15 - Batch: 2300/7933 - Learning rate: 0.001 - Loss: 0.7298336
Epoch: 6/15 - Batch: 2400/7933 - Learning rate: 0.001 - Loss: 0.55870533
Epoch: 6/15 - Batch: 2500/7933 - Learning rate: 0.001 - Loss: 0.5736603
Epoch: 6/15 - Batch: 2600/7933 - Learning rate: 0.001 - Loss: 0.45570108
Epoch: 6/15 - Batch: 2700/7933 - Learning rate: 0.001 - Loss: 0.26279664
Epoch: 6/15 - Batch: 2800/7933 - Learning rate: 0.001 - Loss: 0.7513398
Epoch: 6/15 - Batch: 2900/7933 - Learning rate: 0.001 - Loss: 0.8807618
Epoch: 6/15 - Batch: 3000/7933 - Learning rate: 0.001 - Loss: 0.77180535 - Dev BLEU: 0.1659020681558719
Epoch: 6/15 - Batch: 3100/7933 - Learning rate: 0.001 - Loss: 0.78956854
Epoch: 6/15 - Batch: 3200/7933 - Learning rate: 0.001 - Loss: 0.74461055
Epoch: 6/15 - Batch: 3300/7933 - Learning rate: 0.001 - Loss: 0.61270577
Epoch: 6/15 - Batch: 3400/7933 - Learning rate: 0.001 - Loss: 0.6110732
Epoch: 6/15 - Batch: 3500/7933 - Learning rate: 0.001 - Loss: 0.7703842
Epoch: 6/15 - Batch: 3600/7933 - Learning rate: 0.001 - Loss: 0.7651919
Epoch: 6/15 - Batch: 3700/7933 - Learning rate: 0.001 - Loss: 0.74537253
Epoch: 6/15 - Batch: 3800/7933 - Learning rate: 0.001 - Loss: 0.7203304
Epoch: 6/15 - Batch: 3900/7933 - Learning rate: 0.001 - Loss: 0.8199862
Epoch: 6/15 - Batch: 4000/7933 - Learning rate: 0.001 - Loss: 0.46887276 - Dev BLEU: 0.1827861068480908
Epoch: 6/15 - Batch: 4100/7933 - Learning rate: 0.001 - Loss: 0.5884947
Epoch: 6/15 - Batch: 4200/7933 - Learning rate: 0.001 - Loss: 0.5672271
Epoch: 6/15 - Batch: 4300/7933 - Learning rate: 0.001 - Loss: 0.64703566
Epoch: 6/15 - Batch: 4400/7933 - Learning rate: 0.001 - Loss: 0.60505944
Epoch: 6/15 - Batch: 4500/7933 - Learning rate: 0.001 - Loss: 0.70819044
Epoch: 6/15 - Batch: 4600/7933 - Learning rate: 0.001 - Loss: 1.1707749
Epoch: 6/15 - Batch: 4700/7933 - Learning rate: 0.001 - Loss: 0.8574672
Epoch: 6/15 - Batch: 4800/7933 - Learning rate: 0.001 - Loss: 0.8385581
Epoch: 6/15 - Batch: 4900/7933 - Learning rate: 0.001 - Loss: 0.9791287
Epoch: 6/15 - Batch: 5000/7933 - Learning rate: 0.001 - Loss: 0.99041164 - Dev BLEU: 0.2135122652030396
Epoch: 6/15 - Batch: 5100/7933 - Learning rate: 0.001 - Loss: 1.0495396
Epoch: 6/15 - Batch: 5200/7933 - Learning rate: 0.001 - Loss: 1.0069507
Epoch: 6/15 - Batch: 5300/7933 - Learning rate: 0.001 - Loss: 1.006117
Epoch: 6/15 - Batch: 5400/7933 - Learning rate: 0.001 - Loss: 0.95151484
Epoch: 6/15 - Batch: 5500/7933 - Learning rate: 0.001 - Loss: 0.9572512
Epoch: 6/15 - Batch: 5600/7933 - Learning rate: 0.001 - Loss: 0.74602425
Epoch: 6/15 - Batch: 5700/7933 - Learning rate: 0.001 - Loss: 0.9150787
Epoch: 6/15 - Batch: 5800/7933 - Learning rate: 0.001 - Loss: 0.91749
Epoch: 6/15 - Batch: 5900/7933 - Learning rate: 0.001 - Loss: 0.618085
Epoch: 6/15 - Batch: 6000/7933 - Learning rate: 0.001 - Loss: 0.9376274 - Dev BLEU: 0.20318303477101285
Epoch: 6/15 - Batch: 6100/7933 - Learning rate: 0.001 - Loss: 0.89491266
Epoch: 6/15 - Batch: 6200/7933 - Learning rate: 0.001 - Loss: 0.8238822
Epoch: 6/15 - Batch: 6300/7933 - Learning rate: 0.001 - Loss: 0.76820517
Epoch: 6/15 - Batch: 6400/7933 - Learning rate: 0.001 - Loss: 0.68021625
Epoch: 6/15 - Batch: 6500/7933 - Learning rate: 0.001 - Loss: 0.7953361
Epoch: 6/15 - Batch: 6600/7933 - Learning rate: 0.001 - Loss: 0.7677756
Epoch: 6/15 - Batch: 6700/7933 - Learning rate: 0.001 - Loss: 0.74732196
Epoch: 6/15 - Batch: 6800/7933 - Learning rate: 0.001 - Loss: 0.7390304
Epoch: 6/15 - Batch: 6900/7933 - Learning rate: 0.001 - Loss: 0.51242787
Epoch: 6/15 - Batch: 7000/7933 - Learning rate: 0.001 - Loss: 1.0983368 - Dev BLEU: 0.23871355031230046
Epoch: 6/15 - Batch: 7100/7933 - Learning rate: 0.001 - Loss: 0.821641
Epoch: 6/15 - Batch: 7200/7933 - Learning rate: 0.001 - Loss: 0.65297705
Epoch: 6/15 - Batch: 7300/7933 - Learning rate: 0.001 - Loss: 0.80230814
Epoch: 6/15 - Batch: 7400/7933 - Learning rate: 0.001 - Loss: 0.8460879
Epoch: 6/15 - Batch: 7500/7933 - Learning rate: 0.001 - Loss: 0.6172218
Epoch: 6/15 - Batch: 7600/7933 - Learning rate: 0.001 - Loss: 1.0984838
Epoch: 6/15 - Batch: 7700/7933 - Learning rate: 0.001 - Loss: 1.2311127
Epoch: 6/15 - Batch: 7800/7933 - Learning rate: 0.001 - Loss: 1.1097422
Epoch: 6/15 - Batch: 7900/7933 - Learning rate: 0.001 - Loss: 0.81612813
Epoch: 6/15 - Batch: 7933/7933 - Learning rate: 0.001 - Loss: 1.027724 - Dev BLEU: 0.21507836513464446
Epoch: 7/15 - Batch: 100/7933 - Learning rate: 0.001 - Loss: 0.77578664
Epoch: 7/15 - Batch: 200/7933 - Learning rate: 0.001 - Loss: 0.67667025
Epoch: 7/15 - Batch: 300/7933 - Learning rate: 0.001 - Loss: 0.50653887
Epoch: 7/15 - Batch: 400/7933 - Learning rate: 0.001 - Loss: 0.8651346
Epoch: 7/15 - Batch: 500/7933 - Learning rate: 0.001 - Loss: 0.5737259
Epoch: 7/15 - Batch: 600/7933 - Learning rate: 0.001 - Loss: 0.39227977
Epoch: 7/15 - Batch: 700/7933 - Learning rate: 0.001 - Loss: 0.61831814
Epoch: 7/15 - Batch: 800/7933 - Learning rate: 0.001 - Loss: 0.6103179
Epoch: 7/15 - Batch: 900/7933 - Learning rate: 0.001 - Loss: 0.40375853
Epoch: 7/15 - Batch: 1000/7933 - Learning rate: 0.001 - Loss: 0.66179204 - Dev BLEU: 0.19652012604543387
Epoch: 7/15 - Batch: 1100/7933 - Learning rate: 0.001 - Loss: 0.598122
Epoch: 7/15 - Batch: 1200/7933 - Learning rate: 0.001 - Loss: 0.8463656
Epoch: 7/15 - Batch: 1300/7933 - Learning rate: 0.001 - Loss: 0.69945204
Epoch: 7/15 - Batch: 1400/7933 - Learning rate: 0.001 - Loss: 0.7768183
Epoch: 7/15 - Batch: 1500/7933 - Learning rate: 0.001 - Loss: 0.5491659
Epoch: 7/15 - Batch: 1600/7933 - Learning rate: 0.001 - Loss: 1.0238302
Epoch: 7/15 - Batch: 1700/7933 - Learning rate: 0.001 - Loss: 0.7668347
Epoch: 7/15 - Batch: 1800/7933 - Learning rate: 0.001 - Loss: 0.4078243
Epoch: 7/15 - Batch: 1900/7933 - Learning rate: 0.001 - Loss: 0.62729543
Epoch: 7/15 - Batch: 2000/7933 - Learning rate: 0.001 - Loss: 0.63760096 - Dev BLEU: 0.17395807821446396
Epoch: 7/15 - Batch: 2100/7933 - Learning rate: 0.001 - Loss: 0.5595127
Epoch: 7/15 - Batch: 2200/7933 - Learning rate: 0.001 - Loss: 0.5675017
Epoch: 7/15 - Batch: 2300/7933 - Learning rate: 0.001 - Loss: 0.69161814
Epoch: 7/15 - Batch: 2400/7933 - Learning rate: 0.001 - Loss: 0.5545617
Epoch: 7/15 - Batch: 2500/7933 - Learning rate: 0.001 - Loss: 0.5520466
Epoch: 7/15 - Batch: 2600/7933 - Learning rate: 0.001 - Loss: 0.45194614
Epoch: 7/15 - Batch: 2700/7933 - Learning rate: 0.001 - Loss: 0.25909093
Epoch: 7/15 - Batch: 2800/7933 - Learning rate: 0.001 - Loss: 0.71861583
Epoch: 7/15 - Batch: 2900/7933 - Learning rate: 0.001 - Loss: 0.84622556
Epoch: 7/15 - Batch: 3000/7933 - Learning rate: 0.001 - Loss: 0.7400712 - Dev BLEU: 0.16586640681713377
Epoch: 7/15 - Batch: 3100/7933 - Learning rate: 0.001 - Loss: 0.7802925
Epoch: 7/15 - Batch: 3200/7933 - Learning rate: 0.001 - Loss: 0.7179774
Epoch: 7/15 - Batch: 3300/7933 - Learning rate: 0.001 - Loss: 0.6066155
Epoch: 7/15 - Batch: 3400/7933 - Learning rate: 0.001 - Loss: 0.5890154
Epoch: 7/15 - Batch: 3500/7933 - Learning rate: 0.001 - Loss: 0.7518063
Epoch: 7/15 - Batch: 3600/7933 - Learning rate: 0.001 - Loss: 0.724729
Epoch: 7/15 - Batch: 3700/7933 - Learning rate: 0.001 - Loss: 0.73918885
Epoch: 7/15 - Batch: 3800/7933 - Learning rate: 0.001 - Loss: 0.69018775
Epoch: 7/15 - Batch: 3900/7933 - Learning rate: 0.001 - Loss: 0.783348
Epoch: 7/15 - Batch: 4000/7933 - Learning rate: 0.001 - Loss: 0.46180296 - Dev BLEU: 0.19114783001352714
Epoch: 7/15 - Batch: 4100/7933 - Learning rate: 0.001 - Loss: 0.57793874
Epoch: 7/15 - Batch: 4200/7933 - Learning rate: 0.001 - Loss: 0.5498708
Epoch: 7/15 - Batch: 4300/7933 - Learning rate: 0.001 - Loss: 0.63275695
Epoch: 7/15 - Batch: 4400/7933 - Learning rate: 0.001 - Loss: 0.5863801
Epoch: 7/15 - Batch: 4500/7933 - Learning rate: 0.001 - Loss: 0.69231534
Epoch: 7/15 - Batch: 4600/7933 - Learning rate: 0.001 - Loss: 1.1018014
Epoch: 7/15 - Batch: 4700/7933 - Learning rate: 0.001 - Loss: 0.77760965
Epoch: 7/15 - Batch: 4800/7933 - Learning rate: 0.001 - Loss: 0.8156769
Epoch: 7/15 - Batch: 4900/7933 - Learning rate: 0.001 - Loss: 0.94514483
Epoch: 7/15 - Batch: 5000/7933 - Learning rate: 0.001 - Loss: 0.9567129 - Dev BLEU: 0.2188630335245525
Epoch: 7/15 - Batch: 5100/7933 - Learning rate: 0.001 - Loss: 0.9984683
Epoch: 7/15 - Batch: 5200/7933 - Learning rate: 0.001 - Loss: 0.9630444
Epoch: 7/15 - Batch: 5300/7933 - Learning rate: 0.001 - Loss: 0.96037257
Epoch: 7/15 - Batch: 5400/7933 - Learning rate: 0.001 - Loss: 0.9266025
Epoch: 7/15 - Batch: 5500/7933 - Learning rate: 0.001 - Loss: 0.90457237
Epoch: 7/15 - Batch: 5600/7933 - Learning rate: 0.001 - Loss: 0.7100613
Epoch: 7/15 - Batch: 5700/7933 - Learning rate: 0.001 - Loss: 0.898195
Epoch: 7/15 - Batch: 5800/7933 - Learning rate: 0.001 - Loss: 0.9013336
Epoch: 7/15 - Batch: 5900/7933 - Learning rate: 0.001 - Loss: 0.59629184
Epoch: 7/15 - Batch: 6000/7933 - Learning rate: 0.001 - Loss: 0.9107085 - Dev BLEU: 0.20609719862667317
Epoch: 7/15 - Batch: 6100/7933 - Learning rate: 0.001 - Loss: 0.8613406
Epoch: 7/15 - Batch: 6200/7933 - Learning rate: 0.001 - Loss: 0.79600084
Epoch: 7/15 - Batch: 6300/7933 - Learning rate: 0.001 - Loss: 0.7521819
Epoch: 7/15 - Batch: 6400/7933 - Learning rate: 0.001 - Loss: 0.69124603
Epoch: 7/15 - Batch: 6500/7933 - Learning rate: 0.001 - Loss: 0.78367
Epoch: 7/15 - Batch: 6600/7933 - Learning rate: 0.001 - Loss: 0.7508893
Epoch: 7/15 - Batch: 6700/7933 - Learning rate: 0.001 - Loss: 0.7322785
Epoch: 7/15 - Batch: 6800/7933 - Learning rate: 0.001 - Loss: 0.7303117
Epoch: 7/15 - Batch: 6900/7933 - Learning rate: 0.001 - Loss: 0.501381
Epoch: 7/15 - Batch: 7000/7933 - Learning rate: 0.001 - Loss: 1.0773466 - Dev BLEU: 0.24210927605629026
Epoch: 7/15 - Batch: 7100/7933 - Learning rate: 0.001 - Loss: 0.7983724
Epoch: 7/15 - Batch: 7200/7933 - Learning rate: 0.001 - Loss: 0.641787
Epoch: 7/15 - Batch: 7300/7933 - Learning rate: 0.001 - Loss: 0.78512776
Epoch: 7/15 - Batch: 7400/7933 - Learning rate: 0.001 - Loss: 0.83262724
Epoch: 7/15 - Batch: 7500/7933 - Learning rate: 0.001 - Loss: 0.6082172
Epoch: 7/15 - Batch: 7600/7933 - Learning rate: 0.001 - Loss: 1.0552654
Epoch: 7/15 - Batch: 7700/7933 - Learning rate: 0.001 - Loss: 1.2099371
Epoch: 7/15 - Batch: 7800/7933 - Learning rate: 0.001 - Loss: 1.0802006
Epoch: 7/15 - Batch: 7900/7933 - Learning rate: 0.001 - Loss: 0.8125284
Epoch: 7/15 - Batch: 7933/7933 - Learning rate: 0.001 - Loss: 0.9891869 - Dev BLEU: 0.21580091044345018
Epoch: 8/15 - Batch: 100/7933 - Learning rate: 0.0005 - Loss: 0.7618008
Epoch: 8/15 - Batch: 200/7933 - Learning rate: 0.0005 - Loss: 0.6387839
Epoch: 8/15 - Batch: 300/7933 - Learning rate: 0.0005 - Loss: 0.495432
Epoch: 8/15 - Batch: 400/7933 - Learning rate: 0.0005 - Loss: 0.81866825
Epoch: 8/15 - Batch: 500/7933 - Learning rate: 0.0005 - Loss: 0.5472482
Epoch: 8/15 - Batch: 600/7933 - Learning rate: 0.0005 - Loss: 0.3793239
Epoch: 8/15 - Batch: 700/7933 - Learning rate: 0.0005 - Loss: 0.5895838
Epoch: 8/15 - Batch: 800/7933 - Learning rate: 0.0005 - Loss: 0.56812507
Epoch: 8/15 - Batch: 900/7933 - Learning rate: 0.0005 - Loss: 0.38424352
Epoch: 8/15 - Batch: 1000/7933 - Learning rate: 0.0005 - Loss: 0.63734525 - Dev BLEU: 0.20527693675520162
Epoch: 8/15 - Batch: 1100/7933 - Learning rate: 0.0005 - Loss: 0.56255907
Epoch: 8/15 - Batch: 1200/7933 - Learning rate: 0.0005 - Loss: 0.7884448
Epoch: 8/15 - Batch: 1300/7933 - Learning rate: 0.0005 - Loss: 0.6505368
Epoch: 8/15 - Batch: 1400/7933 - Learning rate: 0.0005 - Loss: 0.73656684
Epoch: 8/15 - Batch: 1500/7933 - Learning rate: 0.0005 - Loss: 0.5302602
Epoch: 8/15 - Batch: 1600/7933 - Learning rate: 0.0005 - Loss: 0.9808523
Epoch: 8/15 - Batch: 1700/7933 - Learning rate: 0.0005 - Loss: 0.7120748
Epoch: 8/15 - Batch: 1800/7933 - Learning rate: 0.0005 - Loss: 0.38817537
Epoch: 8/15 - Batch: 1900/7933 - Learning rate: 0.0005 - Loss: 0.6055521
Epoch: 8/15 - Batch: 2000/7933 - Learning rate: 0.0005 - Loss: 0.59868306 - Dev BLEU: 0.19500319735424612
Epoch: 8/15 - Batch: 2100/7933 - Learning rate: 0.0005 - Loss: 0.51801765
Epoch: 8/15 - Batch: 2200/7933 - Learning rate: 0.0005 - Loss: 0.5248163
Epoch: 8/15 - Batch: 2300/7933 - Learning rate: 0.0005 - Loss: 0.6500486
Epoch: 8/15 - Batch: 2400/7933 - Learning rate: 0.0005 - Loss: 0.5052289
Epoch: 8/15 - Batch: 2500/7933 - Learning rate: 0.0005 - Loss: 0.513806
Epoch: 8/15 - Batch: 2600/7933 - Learning rate: 0.0005 - Loss: 0.42313606
Epoch: 8/15 - Batch: 2700/7933 - Learning rate: 0.0005 - Loss: 0.24153839
Epoch: 8/15 - Batch: 2800/7933 - Learning rate: 0.0005 - Loss: 0.67140347
Epoch: 8/15 - Batch: 2900/7933 - Learning rate: 0.0005 - Loss: 0.80306596
Epoch: 8/15 - Batch: 3000/7933 - Learning rate: 0.0005 - Loss: 0.6906654 - Dev BLEU: 0.1732179459001884
Epoch: 8/15 - Batch: 3100/7933 - Learning rate: 0.0005 - Loss: 0.725952
Epoch: 8/15 - Batch: 3200/7933 - Learning rate: 0.0005 - Loss: 0.69569933
Epoch: 8/15 - Batch: 3300/7933 - Learning rate: 0.0005 - Loss: 0.5756923
Epoch: 8/15 - Batch: 3400/7933 - Learning rate: 0.0005 - Loss: 0.5583021
Epoch: 8/15 - Batch: 3500/7933 - Learning rate: 0.0005 - Loss: 0.69500804
Epoch: 8/15 - Batch: 3600/7933 - Learning rate: 0.0005 - Loss: 0.69591707
Epoch: 8/15 - Batch: 3700/7933 - Learning rate: 0.0005 - Loss: 0.6751186
Epoch: 8/15 - Batch: 3800/7933 - Learning rate: 0.0005 - Loss: 0.63557
Epoch: 8/15 - Batch: 3900/7933 - Learning rate: 0.0005 - Loss: 0.7349492
Epoch: 8/15 - Batch: 4000/7933 - Learning rate: 0.0005 - Loss: 0.42714816 - Dev BLEU: 0.20996172555431752
Epoch: 8/15 - Batch: 4100/7933 - Learning rate: 0.0005 - Loss: 0.53333986
Epoch: 8/15 - Batch: 4200/7933 - Learning rate: 0.0005 - Loss: 0.52020365
Epoch: 8/15 - Batch: 4300/7933 - Learning rate: 0.0005 - Loss: 0.5948582
Epoch: 8/15 - Batch: 4400/7933 - Learning rate: 0.0005 - Loss: 0.5545942
Epoch: 8/15 - Batch: 4500/7933 - Learning rate: 0.0005 - Loss: 0.643199
Epoch: 8/15 - Batch: 4600/7933 - Learning rate: 0.0005 - Loss: 0.96370816
Epoch: 8/15 - Batch: 4700/7933 - Learning rate: 0.0005 - Loss: 0.7311465
Epoch: 8/15 - Batch: 4800/7933 - Learning rate: 0.0005 - Loss: 0.6863729
Epoch: 8/15 - Batch: 4900/7933 - Learning rate: 0.0005 - Loss: 0.82346255
Epoch: 8/15 - Batch: 5000/7933 - Learning rate: 0.0005 - Loss: 0.8760322 - Dev BLEU: 0.23651123495920537
Epoch: 8/15 - Batch: 5100/7933 - Learning rate: 0.0005 - Loss: 0.92740655
Epoch: 8/15 - Batch: 5200/7933 - Learning rate: 0.0005 - Loss: 0.9046415
Epoch: 8/15 - Batch: 5300/7933 - Learning rate: 0.0005 - Loss: 0.8740776
Epoch: 8/15 - Batch: 5400/7933 - Learning rate: 0.0005 - Loss: 0.8265299
Epoch: 8/15 - Batch: 5500/7933 - Learning rate: 0.0005 - Loss: 0.820426
Epoch: 8/15 - Batch: 5600/7933 - Learning rate: 0.0005 - Loss: 0.6489995
Epoch: 8/15 - Batch: 5700/7933 - Learning rate: 0.0005 - Loss: 0.7812529
Epoch: 8/15 - Batch: 5800/7933 - Learning rate: 0.0005 - Loss: 0.78140295
Epoch: 8/15 - Batch: 5900/7933 - Learning rate: 0.0005 - Loss: 0.5318041
Epoch: 8/15 - Batch: 6000/7933 - Learning rate: 0.0005 - Loss: 0.82364523 - Dev BLEU: 0.22889051294572718
Epoch: 8/15 - Batch: 6100/7933 - Learning rate: 0.0005 - Loss: 0.7727896
Epoch: 8/15 - Batch: 6200/7933 - Learning rate: 0.0005 - Loss: 0.73771554
Epoch: 8/15 - Batch: 6300/7933 - Learning rate: 0.0005 - Loss: 0.6843953
Epoch: 8/15 - Batch: 6400/7933 - Learning rate: 0.0005 - Loss: 0.63382685
Epoch: 8/15 - Batch: 6500/7933 - Learning rate: 0.0005 - Loss: 0.7266588
Epoch: 8/15 - Batch: 6600/7933 - Learning rate: 0.0005 - Loss: 0.716199
Epoch: 8/15 - Batch: 6700/7933 - Learning rate: 0.0005 - Loss: 0.6975783
Epoch: 8/15 - Batch: 6800/7933 - Learning rate: 0.0005 - Loss: 0.7128671
Epoch: 8/15 - Batch: 6900/7933 - Learning rate: 0.0005 - Loss: 0.47513282
Epoch: 8/15 - Batch: 7000/7933 - Learning rate: 0.0005 - Loss: 1.0098894 - Dev BLEU: 0.2504139916870792
Epoch: 8/15 - Batch: 7100/7933 - Learning rate: 0.0005 - Loss: 0.7579127
Epoch: 8/15 - Batch: 7200/7933 - Learning rate: 0.0005 - Loss: 0.60397017
Epoch: 8/15 - Batch: 7300/7933 - Learning rate: 0.0005 - Loss: 0.7551406
Epoch: 8/15 - Batch: 7400/7933 - Learning rate: 0.0005 - Loss: 0.79772145
Epoch: 8/15 - Batch: 7500/7933 - Learning rate: 0.0005 - Loss: 0.58339214
Epoch: 8/15 - Batch: 7600/7933 - Learning rate: 0.0005 - Loss: 0.9997757
Epoch: 8/15 - Batch: 7700/7933 - Learning rate: 0.0005 - Loss: 1.1445496
Epoch: 8/15 - Batch: 7800/7933 - Learning rate: 0.0005 - Loss: 0.99991626
Epoch: 8/15 - Batch: 7900/7933 - Learning rate: 0.0005 - Loss: 0.7690436
Epoch: 8/15 - Batch: 7933/7933 - Learning rate: 0.0005 - Loss: 0.9349178 - Dev BLEU: 0.23116286476072437
Epoch: 9/15 - Batch: 100/7933 - Learning rate: 0.00025 - Loss: 0.72931576
Epoch: 9/15 - Batch: 200/7933 - Learning rate: 0.00025 - Loss: 0.6282589
Epoch: 9/15 - Batch: 300/7933 - Learning rate: 0.00025 - Loss: 0.4844915
Epoch: 9/15 - Batch: 400/7933 - Learning rate: 0.00025 - Loss: 0.7955371
Epoch: 9/15 - Batch: 500/7933 - Learning rate: 0.00025 - Loss: 0.5060948
Epoch: 9/15 - Batch: 600/7933 - Learning rate: 0.00025 - Loss: 0.36689368
Epoch: 9/15 - Batch: 700/7933 - Learning rate: 0.00025 - Loss: 0.5760298
Epoch: 9/15 - Batch: 800/7933 - Learning rate: 0.00025 - Loss: 0.5497002
Epoch: 9/15 - Batch: 900/7933 - Learning rate: 0.00025 - Loss: 0.36886534
Epoch: 9/15 - Batch: 1000/7933 - Learning rate: 0.00025 - Loss: 0.61596537 - Dev BLEU: 0.21624930119298744
Epoch: 9/15 - Batch: 1100/7933 - Learning rate: 0.00025 - Loss: 0.5527543
Epoch: 9/15 - Batch: 1200/7933 - Learning rate: 0.00025 - Loss: 0.7605954
Epoch: 9/15 - Batch: 1300/7933 - Learning rate: 0.00025 - Loss: 0.6282479
Epoch: 9/15 - Batch: 1400/7933 - Learning rate: 0.00025 - Loss: 0.7109239
Epoch: 9/15 - Batch: 1500/7933 - Learning rate: 0.00025 - Loss: 0.5130902
Epoch: 9/15 - Batch: 1600/7933 - Learning rate: 0.00025 - Loss: 0.94206536
Epoch: 9/15 - Batch: 1700/7933 - Learning rate: 0.00025 - Loss: 0.68445784
Epoch: 9/15 - Batch: 1800/7933 - Learning rate: 0.00025 - Loss: 0.37361583
Epoch: 9/15 - Batch: 1900/7933 - Learning rate: 0.00025 - Loss: 0.58169675
Epoch: 9/15 - Batch: 2000/7933 - Learning rate: 0.00025 - Loss: 0.5770332 - Dev BLEU: 0.20841751057721844
Epoch: 9/15 - Batch: 2100/7933 - Learning rate: 0.00025 - Loss: 0.48740387
Epoch: 9/15 - Batch: 2200/7933 - Learning rate: 0.00025 - Loss: 0.5031942
Epoch: 9/15 - Batch: 2300/7933 - Learning rate: 0.00025 - Loss: 0.6298731
Epoch: 9/15 - Batch: 2400/7933 - Learning rate: 0.00025 - Loss: 0.4807412
Epoch: 9/15 - Batch: 2500/7933 - Learning rate: 0.00025 - Loss: 0.5022429
Epoch: 9/15 - Batch: 2600/7933 - Learning rate: 0.00025 - Loss: 0.40373963
Epoch: 9/15 - Batch: 2700/7933 - Learning rate: 0.00025 - Loss: 0.23972861
Epoch: 9/15 - Batch: 2800/7933 - Learning rate: 0.00025 - Loss: 0.63072926
Epoch: 9/15 - Batch: 2900/7933 - Learning rate: 0.00025 - Loss: 0.77309024
Epoch: 9/15 - Batch: 3000/7933 - Learning rate: 0.00025 - Loss: 0.66267246 - Dev BLEU: 0.21017962206199256
Epoch: 9/15 - Batch: 3100/7933 - Learning rate: 0.00025 - Loss: 0.6919474
Epoch: 9/15 - Batch: 3200/7933 - Learning rate: 0.00025 - Loss: 0.6689992
Epoch: 9/15 - Batch: 3300/7933 - Learning rate: 0.00025 - Loss: 0.5559406
Epoch: 9/15 - Batch: 3400/7933 - Learning rate: 0.00025 - Loss: 0.55088246
Epoch: 9/15 - Batch: 3500/7933 - Learning rate: 0.00025 - Loss: 0.6695462
Epoch: 9/15 - Batch: 3600/7933 - Learning rate: 0.00025 - Loss: 0.66601837
Epoch: 9/15 - Batch: 3700/7933 - Learning rate: 0.00025 - Loss: 0.64848
Epoch: 9/15 - Batch: 3800/7933 - Learning rate: 0.00025 - Loss: 0.6324199
Epoch: 9/15 - Batch: 3900/7933 - Learning rate: 0.00025 - Loss: 0.70895284
Epoch: 9/15 - Batch: 4000/7933 - Learning rate: 0.00025 - Loss: 0.41920704 - Dev BLEU: 0.21650323745651953
Epoch: 9/15 - Batch: 4100/7933 - Learning rate: 0.00025 - Loss: 0.52274567
Epoch: 9/15 - Batch: 4200/7933 - Learning rate: 0.00025 - Loss: 0.50022644
Epoch: 9/15 - Batch: 4300/7933 - Learning rate: 0.00025 - Loss: 0.571757
Epoch: 9/15 - Batch: 4400/7933 - Learning rate: 0.00025 - Loss: 0.53874844
Epoch: 9/15 - Batch: 4500/7933 - Learning rate: 0.00025 - Loss: 0.613339
Epoch: 9/15 - Batch: 4600/7933 - Learning rate: 0.00025 - Loss: 0.89681005
Epoch: 9/15 - Batch: 4700/7933 - Learning rate: 0.00025 - Loss: 0.6614704
Epoch: 9/15 - Batch: 4800/7933 - Learning rate: 0.00025 - Loss: 0.6451502
Epoch: 9/15 - Batch: 4900/7933 - Learning rate: 0.00025 - Loss: 0.77351004
Epoch: 9/15 - Batch: 5000/7933 - Learning rate: 0.00025 - Loss: 0.8243857 - Dev BLEU: 0.2418359793475142
Epoch: 9/15 - Batch: 5100/7933 - Learning rate: 0.00025 - Loss: 0.87762636
Epoch: 9/15 - Batch: 5200/7933 - Learning rate: 0.00025 - Loss: 0.8528581
Epoch: 9/15 - Batch: 5300/7933 - Learning rate: 0.00025 - Loss: 0.8156406
Epoch: 9/15 - Batch: 5400/7933 - Learning rate: 0.00025 - Loss: 0.7872983
Epoch: 9/15 - Batch: 5500/7933 - Learning rate: 0.00025 - Loss: 0.7521095
Epoch: 9/15 - Batch: 5600/7933 - Learning rate: 0.00025 - Loss: 0.60889703
Epoch: 9/15 - Batch: 5700/7933 - Learning rate: 0.00025 - Loss: 0.7342116
Epoch: 9/15 - Batch: 5800/7933 - Learning rate: 0.00025 - Loss: 0.73714626
Epoch: 9/15 - Batch: 5900/7933 - Learning rate: 0.00025 - Loss: 0.49761975
Epoch: 9/15 - Batch: 6000/7933 - Learning rate: 0.00025 - Loss: 0.78486335 - Dev BLEU: 0.24057820228422513
Epoch: 9/15 - Batch: 6100/7933 - Learning rate: 0.00025 - Loss: 0.705238
Epoch: 9/15 - Batch: 6200/7933 - Learning rate: 0.00025 - Loss: 0.6971619
Epoch: 9/15 - Batch: 6300/7933 - Learning rate: 0.00025 - Loss: 0.64281803
Epoch: 9/15 - Batch: 6400/7933 - Learning rate: 0.00025 - Loss: 0.6120129
Epoch: 9/15 - Batch: 6500/7933 - Learning rate: 0.00025 - Loss: 0.7214442
Epoch: 9/15 - Batch: 6600/7933 - Learning rate: 0.00025 - Loss: 0.68543255
Epoch: 9/15 - Batch: 6700/7933 - Learning rate: 0.00025 - Loss: 0.67645437
Epoch: 9/15 - Batch: 6800/7933 - Learning rate: 0.00025 - Loss: 0.6972039
Epoch: 9/15 - Batch: 6900/7933 - Learning rate: 0.00025 - Loss: 0.47104177
Epoch: 9/15 - Batch: 7000/7933 - Learning rate: 0.00025 - Loss: 0.985337 - Dev BLEU: 0.2529685670524966
Epoch: 9/15 - Batch: 7100/7933 - Learning rate: 0.00025 - Loss: 0.7362461
Epoch: 9/15 - Batch: 7200/7933 - Learning rate: 0.00025 - Loss: 0.59007275
Epoch: 9/15 - Batch: 7300/7933 - Learning rate: 0.00025 - Loss: 0.72779506
Epoch: 9/15 - Batch: 7400/7933 - Learning rate: 0.00025 - Loss: 0.77220875
Epoch: 9/15 - Batch: 7500/7933 - Learning rate: 0.00025 - Loss: 0.5786104
Epoch: 9/15 - Batch: 7600/7933 - Learning rate: 0.00025 - Loss: 0.9521764
Epoch: 9/15 - Batch: 7700/7933 - Learning rate: 0.00025 - Loss: 1.1170049
Epoch: 9/15 - Batch: 7800/7933 - Learning rate: 0.00025 - Loss: 0.9641393
Epoch: 9/15 - Batch: 7900/7933 - Learning rate: 0.00025 - Loss: 0.74780184
Epoch: 9/15 - Batch: 7933/7933 - Learning rate: 0.00025 - Loss: 0.8828053 - Dev BLEU: 0.2364829417213135
Epoch: 10/15 - Batch: 100/7933 - Learning rate: 0.000125 - Loss: 0.7224261
Epoch: 10/15 - Batch: 200/7933 - Learning rate: 0.000125 - Loss: 0.5965867
Epoch: 10/15 - Batch: 300/7933 - Learning rate: 0.000125 - Loss: 0.46614674
Epoch: 10/15 - Batch: 400/7933 - Learning rate: 0.000125 - Loss: 0.7662718
Epoch: 10/15 - Batch: 500/7933 - Learning rate: 0.000125 - Loss: 0.4847474
Epoch: 10/15 - Batch: 600/7933 - Learning rate: 0.000125 - Loss: 0.36274523
Epoch: 10/15 - Batch: 700/7933 - Learning rate: 0.000125 - Loss: 0.54715735
Epoch: 10/15 - Batch: 800/7933 - Learning rate: 0.000125 - Loss: 0.52379435
Epoch: 10/15 - Batch: 900/7933 - Learning rate: 0.000125 - Loss: 0.36116657
Epoch: 10/15 - Batch: 1000/7933 - Learning rate: 0.000125 - Loss: 0.5948878 - Dev BLEU: 0.2240932486068287
Epoch: 10/15 - Batch: 1100/7933 - Learning rate: 0.000125 - Loss: 0.54897046
Epoch: 10/15 - Batch: 1200/7933 - Learning rate: 0.000125 - Loss: 0.7391905
Epoch: 10/15 - Batch: 1300/7933 - Learning rate: 0.000125 - Loss: 0.6058987
Epoch: 10/15 - Batch: 1400/7933 - Learning rate: 0.000125 - Loss: 0.69634914
Epoch: 10/15 - Batch: 1500/7933 - Learning rate: 0.000125 - Loss: 0.5022555
Epoch: 10/15 - Batch: 1600/7933 - Learning rate: 0.000125 - Loss: 0.92740977
Epoch: 10/15 - Batch: 1700/7933 - Learning rate: 0.000125 - Loss: 0.6712501
Epoch: 10/15 - Batch: 1800/7933 - Learning rate: 0.000125 - Loss: 0.36161444
Epoch: 10/15 - Batch: 1900/7933 - Learning rate: 0.000125 - Loss: 0.5608592
Epoch: 10/15 - Batch: 2000/7933 - Learning rate: 0.000125 - Loss: 0.5743953 - Dev BLEU: 0.21989952310090735
Epoch: 10/15 - Batch: 2100/7933 - Learning rate: 0.000125 - Loss: 0.4822126
Epoch: 10/15 - Batch: 2200/7933 - Learning rate: 0.000125 - Loss: 0.4837124
Epoch: 10/15 - Batch: 2300/7933 - Learning rate: 0.000125 - Loss: 0.623724
Epoch: 10/15 - Batch: 2400/7933 - Learning rate: 0.000125 - Loss: 0.47611284
Epoch: 10/15 - Batch: 2500/7933 - Learning rate: 0.000125 - Loss: 0.47795767
Epoch: 10/15 - Batch: 2600/7933 - Learning rate: 0.000125 - Loss: 0.40420893
Epoch: 10/15 - Batch: 2700/7933 - Learning rate: 0.000125 - Loss: 0.23925506
Epoch: 10/15 - Batch: 2800/7933 - Learning rate: 0.000125 - Loss: 0.6216298
Epoch: 10/15 - Batch: 2900/7933 - Learning rate: 0.000125 - Loss: 0.7590936
Epoch: 10/15 - Batch: 3000/7933 - Learning rate: 0.000125 - Loss: 0.64694136 - Dev BLEU: 0.21815848129058052
Epoch: 10/15 - Batch: 3100/7933 - Learning rate: 0.000125 - Loss: 0.68458277
Epoch: 10/15 - Batch: 3200/7933 - Learning rate: 0.000125 - Loss: 0.64569545
Epoch: 10/15 - Batch: 3300/7933 - Learning rate: 0.000125 - Loss: 0.537954
Epoch: 10/15 - Batch: 3400/7933 - Learning rate: 0.000125 - Loss: 0.52732754
Epoch: 10/15 - Batch: 3500/7933 - Learning rate: 0.000125 - Loss: 0.65870196
Epoch: 10/15 - Batch: 3600/7933 - Learning rate: 0.000125 - Loss: 0.65703666
Epoch: 10/15 - Batch: 3700/7933 - Learning rate: 0.000125 - Loss: 0.6444321
Epoch: 10/15 - Batch: 3800/7933 - Learning rate: 0.000125 - Loss: 0.6025741
Epoch: 10/15 - Batch: 3900/7933 - Learning rate: 0.000125 - Loss: 0.6825142
Epoch: 10/15 - Batch: 4000/7933 - Learning rate: 0.000125 - Loss: 0.41221943 - Dev BLEU: 0.2234036952428165
Epoch: 10/15 - Batch: 4100/7933 - Learning rate: 0.000125 - Loss: 0.5171101
Epoch: 10/15 - Batch: 4200/7933 - Learning rate: 0.000125 - Loss: 0.48114392
Epoch: 10/15 - Batch: 4300/7933 - Learning rate: 0.000125 - Loss: 0.58330446
Epoch: 10/15 - Batch: 4400/7933 - Learning rate: 0.000125 - Loss: 0.5202919
Epoch: 10/15 - Batch: 4500/7933 - Learning rate: 0.000125 - Loss: 0.6061344
Epoch: 10/15 - Batch: 4600/7933 - Learning rate: 0.000125 - Loss: 0.85407645
Epoch: 10/15 - Batch: 4700/7933 - Learning rate: 0.000125 - Loss: 0.6448313
Epoch: 10/15 - Batch: 4800/7933 - Learning rate: 0.000125 - Loss: 0.61221063
Epoch: 10/15 - Batch: 4900/7933 - Learning rate: 0.000125 - Loss: 0.7361605
Epoch: 10/15 - Batch: 5000/7933 - Learning rate: 0.000125 - Loss: 0.7978958 - Dev BLEU: 0.24519657983831264
Epoch: 10/15 - Batch: 5100/7933 - Learning rate: 0.000125 - Loss: 0.8472703
Epoch: 10/15 - Batch: 5200/7933 - Learning rate: 0.000125 - Loss: 0.8265896
Epoch: 10/15 - Batch: 5300/7933 - Learning rate: 0.000125 - Loss: 0.7936378
Epoch: 10/15 - Batch: 5400/7933 - Learning rate: 0.000125 - Loss: 0.7559284
Epoch: 10/15 - Batch: 5500/7933 - Learning rate: 0.000125 - Loss: 0.7323444
Epoch: 10/15 - Batch: 5600/7933 - Learning rate: 0.000125 - Loss: 0.5961563
Epoch: 10/15 - Batch: 5700/7933 - Learning rate: 0.000125 - Loss: 0.72245026
Epoch: 10/15 - Batch: 5800/7933 - Learning rate: 0.000125 - Loss: 0.71905637
Epoch: 10/15 - Batch: 5900/7933 - Learning rate: 0.000125 - Loss: 0.47276986
Epoch: 10/15 - Batch: 6000/7933 - Learning rate: 0.000125 - Loss: 0.76339567 - Dev BLEU: 0.2459809997875903
Epoch: 10/15 - Batch: 6100/7933 - Learning rate: 0.000125 - Loss: 0.68843156
Epoch: 10/15 - Batch: 6200/7933 - Learning rate: 0.000125 - Loss: 0.67348665
Epoch: 10/15 - Batch: 6300/7933 - Learning rate: 0.000125 - Loss: 0.62171
Epoch: 10/15 - Batch: 6400/7933 - Learning rate: 0.000125 - Loss: 0.60612077
Epoch: 10/15 - Batch: 6500/7933 - Learning rate: 0.000125 - Loss: 0.7049279
Epoch: 10/15 - Batch: 6600/7933 - Learning rate: 0.000125 - Loss: 0.6826608
Epoch: 10/15 - Batch: 6700/7933 - Learning rate: 0.000125 - Loss: 0.684572
Epoch: 10/15 - Batch: 6800/7933 - Learning rate: 0.000125 - Loss: 0.6938322
Epoch: 10/15 - Batch: 6900/7933 - Learning rate: 0.000125 - Loss: 0.45971867
Epoch: 10/15 - Batch: 7000/7933 - Learning rate: 0.000125 - Loss: 0.97120667 - Dev BLEU: 0.2561585888483587
Epoch: 10/15 - Batch: 7100/7933 - Learning rate: 0.000125 - Loss: 0.7223457
Epoch: 10/15 - Batch: 7200/7933 - Learning rate: 0.000125 - Loss: 0.58596385
Epoch: 10/15 - Batch: 7300/7933 - Learning rate: 0.000125 - Loss: 0.7177683
Epoch: 10/15 - Batch: 7400/7933 - Learning rate: 0.000125 - Loss: 0.76347774
Epoch: 10/15 - Batch: 7500/7933 - Learning rate: 0.000125 - Loss: 0.56888914
Epoch: 10/15 - Batch: 7600/7933 - Learning rate: 0.000125 - Loss: 0.94351906
Epoch: 10/15 - Batch: 7700/7933 - Learning rate: 0.000125 - Loss: 1.0959285
Epoch: 10/15 - Batch: 7800/7933 - Learning rate: 0.000125 - Loss: 0.9370722
Epoch: 10/15 - Batch: 7900/7933 - Learning rate: 0.000125 - Loss: 0.74235684
Epoch: 10/15 - Batch: 7933/7933 - Learning rate: 0.000125 - Loss: 0.88306606 - Dev BLEU: 0.2409165948409943
Epoch: 11/15 - Batch: 100/7933 - Learning rate: 6.25e-05 - Loss: 0.71163434
Epoch: 11/15 - Batch: 200/7933 - Learning rate: 6.25e-05 - Loss: 0.59664613
Epoch: 11/15 - Batch: 300/7933 - Learning rate: 6.25e-05 - Loss: 0.4705121
Epoch: 11/15 - Batch: 400/7933 - Learning rate: 6.25e-05 - Loss: 0.76899177
Epoch: 11/15 - Batch: 500/7933 - Learning rate: 6.25e-05 - Loss: 0.4851811
Epoch: 11/15 - Batch: 600/7933 - Learning rate: 6.25e-05 - Loss: 0.36145225
Epoch: 11/15 - Batch: 700/7933 - Learning rate: 6.25e-05 - Loss: 0.55180895
Epoch: 11/15 - Batch: 800/7933 - Learning rate: 6.25e-05 - Loss: 0.5201527
Epoch: 11/15 - Batch: 900/7933 - Learning rate: 6.25e-05 - Loss: 0.3580379
Epoch: 11/15 - Batch: 1000/7933 - Learning rate: 6.25e-05 - Loss: 0.5928626 - Dev BLEU: 0.23172200776773957
Epoch: 11/15 - Batch: 1100/7933 - Learning rate: 6.25e-05 - Loss: 0.54323494
Epoch: 11/15 - Batch: 1200/7933 - Learning rate: 6.25e-05 - Loss: 0.7251792
Epoch: 11/15 - Batch: 1300/7933 - Learning rate: 6.25e-05 - Loss: 0.59980696
Epoch: 11/15 - Batch: 1400/7933 - Learning rate: 6.25e-05 - Loss: 0.6944803
Epoch: 11/15 - Batch: 1500/7933 - Learning rate: 6.25e-05 - Loss: 0.5034412
Epoch: 11/15 - Batch: 1600/7933 - Learning rate: 6.25e-05 - Loss: 0.9130436
Epoch: 11/15 - Batch: 1700/7933 - Learning rate: 6.25e-05 - Loss: 0.6710855
Epoch: 11/15 - Batch: 1800/7933 - Learning rate: 6.25e-05 - Loss: 0.35964948
Epoch: 11/15 - Batch: 1900/7933 - Learning rate: 6.25e-05 - Loss: 0.56533927
Epoch: 11/15 - Batch: 2000/7933 - Learning rate: 6.25e-05 - Loss: 0.5775719 - Dev BLEU: 0.22951251748910498
Epoch: 11/15 - Batch: 2100/7933 - Learning rate: 6.25e-05 - Loss: 0.46332273
Epoch: 11/15 - Batch: 2200/7933 - Learning rate: 6.25e-05 - Loss: 0.48121548
Epoch: 11/15 - Batch: 2300/7933 - Learning rate: 6.25e-05 - Loss: 0.6259993
Epoch: 11/15 - Batch: 2400/7933 - Learning rate: 6.25e-05 - Loss: 0.48453802
Epoch: 11/15 - Batch: 2500/7933 - Learning rate: 6.25e-05 - Loss: 0.47372395
Epoch: 11/15 - Batch: 2600/7933 - Learning rate: 6.25e-05 - Loss: 0.39425665
Epoch: 11/15 - Batch: 2700/7933 - Learning rate: 6.25e-05 - Loss: 0.24029689
Epoch: 11/15 - Batch: 2800/7933 - Learning rate: 6.25e-05 - Loss: 0.611553
Epoch: 11/15 - Batch: 2900/7933 - Learning rate: 6.25e-05 - Loss: 0.74500114
Epoch: 11/15 - Batch: 3000/7933 - Learning rate: 6.25e-05 - Loss: 0.6396252 - Dev BLEU: 0.22477973751647734
Epoch: 11/15 - Batch: 3100/7933 - Learning rate: 6.25e-05 - Loss: 0.6641138
Epoch: 11/15 - Batch: 3200/7933 - Learning rate: 6.25e-05 - Loss: 0.6482175
Epoch: 11/15 - Batch: 3300/7933 - Learning rate: 6.25e-05 - Loss: 0.5368415
Epoch: 11/15 - Batch: 3400/7933 - Learning rate: 6.25e-05 - Loss: 0.5292608
Epoch: 11/15 - Batch: 3500/7933 - Learning rate: 6.25e-05 - Loss: 0.64004785
Epoch: 11/15 - Batch: 3600/7933 - Learning rate: 6.25e-05 - Loss: 0.6433491
Epoch: 11/15 - Batch: 3700/7933 - Learning rate: 6.25e-05 - Loss: 0.6277001
Epoch: 11/15 - Batch: 3800/7933 - Learning rate: 6.25e-05 - Loss: 0.59507835
Epoch: 11/15 - Batch: 3900/7933 - Learning rate: 6.25e-05 - Loss: 0.682447
Epoch: 11/15 - Batch: 4000/7933 - Learning rate: 6.25e-05 - Loss: 0.4080715 - Dev BLEU: 0.22929079817595927
Epoch: 11/15 - Batch: 4100/7933 - Learning rate: 6.25e-05 - Loss: 0.51133955
Epoch: 11/15 - Batch: 4200/7933 - Learning rate: 6.25e-05 - Loss: 0.474065
Epoch: 11/15 - Batch: 4300/7933 - Learning rate: 6.25e-05 - Loss: 0.5598048
Epoch: 11/15 - Batch: 4400/7933 - Learning rate: 6.25e-05 - Loss: 0.5147919
Epoch: 11/15 - Batch: 4500/7933 - Learning rate: 6.25e-05 - Loss: 0.5911024
Epoch: 11/15 - Batch: 4600/7933 - Learning rate: 6.25e-05 - Loss: 0.8476498
Epoch: 11/15 - Batch: 4700/7933 - Learning rate: 6.25e-05 - Loss: 0.61669856
Epoch: 11/15 - Batch: 4800/7933 - Learning rate: 6.25e-05 - Loss: 0.58175355
Epoch: 11/15 - Batch: 4900/7933 - Learning rate: 6.25e-05 - Loss: 0.7146287
Epoch: 11/15 - Batch: 5000/7933 - Learning rate: 6.25e-05 - Loss: 0.77944607 - Dev BLEU: 0.24759548291727423
Epoch: 11/15 - Batch: 5100/7933 - Learning rate: 6.25e-05 - Loss: 0.8094957
Epoch: 11/15 - Batch: 5200/7933 - Learning rate: 6.25e-05 - Loss: 0.813454
Epoch: 11/15 - Batch: 5300/7933 - Learning rate: 6.25e-05 - Loss: 0.79161
Epoch: 11/15 - Batch: 5400/7933 - Learning rate: 6.25e-05 - Loss: 0.7453744
Epoch: 11/15 - Batch: 5500/7933 - Learning rate: 6.25e-05 - Loss: 0.72477907
Epoch: 11/15 - Batch: 5600/7933 - Learning rate: 6.25e-05 - Loss: 0.5829788
Epoch: 11/15 - Batch: 5700/7933 - Learning rate: 6.25e-05 - Loss: 0.7039244
Epoch: 11/15 - Batch: 5800/7933 - Learning rate: 6.25e-05 - Loss: 0.7023832
Epoch: 11/15 - Batch: 5900/7933 - Learning rate: 6.25e-05 - Loss: 0.46160185
Epoch: 11/15 - Batch: 6000/7933 - Learning rate: 6.25e-05 - Loss: 0.7595242 - Dev BLEU: 0.24955133887373696
Epoch: 11/15 - Batch: 6100/7933 - Learning rate: 6.25e-05 - Loss: 0.6838505
Epoch: 11/15 - Batch: 6200/7933 - Learning rate: 6.25e-05 - Loss: 0.6580932
Epoch: 11/15 - Batch: 6300/7933 - Learning rate: 6.25e-05 - Loss: 0.60070735
Epoch: 11/15 - Batch: 6400/7933 - Learning rate: 6.25e-05 - Loss: 0.5922777
Epoch: 11/15 - Batch: 6500/7933 - Learning rate: 6.25e-05 - Loss: 0.6961461
Epoch: 11/15 - Batch: 6600/7933 - Learning rate: 6.25e-05 - Loss: 0.6855823
Epoch: 11/15 - Batch: 6700/7933 - Learning rate: 6.25e-05 - Loss: 0.67556083
Epoch: 11/15 - Batch: 6800/7933 - Learning rate: 6.25e-05 - Loss: 0.6875383
Epoch: 11/15 - Batch: 6900/7933 - Learning rate: 6.25e-05 - Loss: 0.45641282
Epoch: 11/15 - Batch: 7000/7933 - Learning rate: 6.25e-05 - Loss: 0.9655145 - Dev BLEU: 0.25683539234919134
Epoch: 11/15 - Batch: 7100/7933 - Learning rate: 6.25e-05 - Loss: 0.7210737
Epoch: 11/15 - Batch: 7200/7933 - Learning rate: 6.25e-05 - Loss: 0.5934161
Epoch: 11/15 - Batch: 7300/7933 - Learning rate: 6.25e-05 - Loss: 0.7123904
Epoch: 11/15 - Batch: 7400/7933 - Learning rate: 6.25e-05 - Loss: 0.76099473
Epoch: 11/15 - Batch: 7500/7933 - Learning rate: 6.25e-05 - Loss: 0.5677536
Epoch: 11/15 - Batch: 7600/7933 - Learning rate: 6.25e-05 - Loss: 0.9472117
Epoch: 11/15 - Batch: 7700/7933 - Learning rate: 6.25e-05 - Loss: 1.0746076
Epoch: 11/15 - Batch: 7800/7933 - Learning rate: 6.25e-05 - Loss: 0.9326162
Epoch: 11/15 - Batch: 7900/7933 - Learning rate: 6.25e-05 - Loss: 0.7447427
Epoch: 11/15 - Batch: 7933/7933 - Learning rate: 6.25e-05 - Loss: 0.87865347 - Dev BLEU: 0.24682477184260826
Epoch: 12/15 - Batch: 100/7933 - Learning rate: 3.125e-05 - Loss: 0.7034016
Epoch: 12/15 - Batch: 200/7933 - Learning rate: 3.125e-05 - Loss: 0.57509774
Epoch: 12/15 - Batch: 300/7933 - Learning rate: 3.125e-05 - Loss: 0.45851192
Epoch: 12/15 - Batch: 400/7933 - Learning rate: 3.125e-05 - Loss: 0.7510519
Epoch: 12/15 - Batch: 500/7933 - Learning rate: 3.125e-05 - Loss: 0.48253477
Epoch: 12/15 - Batch: 600/7933 - Learning rate: 3.125e-05 - Loss: 0.35346296
Epoch: 12/15 - Batch: 700/7933 - Learning rate: 3.125e-05 - Loss: 0.54397273
Epoch: 12/15 - Batch: 800/7933 - Learning rate: 3.125e-05 - Loss: 0.5213326
Epoch: 12/15 - Batch: 900/7933 - Learning rate: 3.125e-05 - Loss: 0.355746
Epoch: 12/15 - Batch: 1000/7933 - Learning rate: 3.125e-05 - Loss: 0.59927756 - Dev BLEU: 0.23646031983422935
Epoch: 12/15 - Batch: 1100/7933 - Learning rate: 3.125e-05 - Loss: 0.53738207
Epoch: 12/15 - Batch: 1200/7933 - Learning rate: 3.125e-05 - Loss: 0.7271112
Epoch: 12/15 - Batch: 1300/7933 - Learning rate: 3.125e-05 - Loss: 0.5851701
Epoch: 12/15 - Batch: 1400/7933 - Learning rate: 3.125e-05 - Loss: 0.6855671
Epoch: 12/15 - Batch: 1500/7933 - Learning rate: 3.125e-05 - Loss: 0.5012511
Epoch: 12/15 - Batch: 1600/7933 - Learning rate: 3.125e-05 - Loss: 0.9175399
Epoch: 12/15 - Batch: 1700/7933 - Learning rate: 3.125e-05 - Loss: 0.6569766
Epoch: 12/15 - Batch: 1800/7933 - Learning rate: 3.125e-05 - Loss: 0.3563039
Epoch: 12/15 - Batch: 1900/7933 - Learning rate: 3.125e-05 - Loss: 0.5648496
Epoch: 12/15 - Batch: 2000/7933 - Learning rate: 3.125e-05 - Loss: 0.56517 - Dev BLEU: 0.23600038076015603
Epoch: 12/15 - Batch: 2100/7933 - Learning rate: 3.125e-05 - Loss: 0.4598766
Epoch: 12/15 - Batch: 2200/7933 - Learning rate: 3.125e-05 - Loss: 0.48267025
Epoch: 12/15 - Batch: 2300/7933 - Learning rate: 3.125e-05 - Loss: 0.6235334
Epoch: 12/15 - Batch: 2400/7933 - Learning rate: 3.125e-05 - Loss: 0.47708857
Epoch: 12/15 - Batch: 2500/7933 - Learning rate: 3.125e-05 - Loss: 0.47539648
Epoch: 12/15 - Batch: 2600/7933 - Learning rate: 3.125e-05 - Loss: 0.4026867
Epoch: 12/15 - Batch: 2700/7933 - Learning rate: 3.125e-05 - Loss: 0.23699138
Epoch: 12/15 - Batch: 2800/7933 - Learning rate: 3.125e-05 - Loss: 0.6054543
Epoch: 12/15 - Batch: 2900/7933 - Learning rate: 3.125e-05 - Loss: 0.74345696
Epoch: 12/15 - Batch: 3000/7933 - Learning rate: 3.125e-05 - Loss: 0.6456661 - Dev BLEU: 0.22974716074914095
Epoch: 12/15 - Batch: 3100/7933 - Learning rate: 3.125e-05 - Loss: 0.66362023
Epoch: 12/15 - Batch: 3200/7933 - Learning rate: 3.125e-05 - Loss: 0.64216614
Epoch: 12/15 - Batch: 3300/7933 - Learning rate: 3.125e-05 - Loss: 0.5342555
Epoch: 12/15 - Batch: 3400/7933 - Learning rate: 3.125e-05 - Loss: 0.5230768
Epoch: 12/15 - Batch: 3500/7933 - Learning rate: 3.125e-05 - Loss: 0.6323971
Epoch: 12/15 - Batch: 3600/7933 - Learning rate: 3.125e-05 - Loss: 0.65222067
Epoch: 12/15 - Batch: 3700/7933 - Learning rate: 3.125e-05 - Loss: 0.63513017
Epoch: 12/15 - Batch: 3800/7933 - Learning rate: 3.125e-05 - Loss: 0.60471004
Epoch: 12/15 - Batch: 3900/7933 - Learning rate: 3.125e-05 - Loss: 0.6711176
Epoch: 12/15 - Batch: 4000/7933 - Learning rate: 3.125e-05 - Loss: 0.40182433 - Dev BLEU: 0.232672083849979
Epoch: 12/15 - Batch: 4100/7933 - Learning rate: 3.125e-05 - Loss: 0.5111531
Epoch: 12/15 - Batch: 4200/7933 - Learning rate: 3.125e-05 - Loss: 0.46397436
Epoch: 12/15 - Batch: 4300/7933 - Learning rate: 3.125e-05 - Loss: 0.55969155
Epoch: 12/15 - Batch: 4400/7933 - Learning rate: 3.125e-05 - Loss: 0.5279633
Epoch: 12/15 - Batch: 4500/7933 - Learning rate: 3.125e-05 - Loss: 0.5873276
Epoch: 12/15 - Batch: 4600/7933 - Learning rate: 3.125e-05 - Loss: 0.85363054
Epoch: 12/15 - Batch: 4700/7933 - Learning rate: 3.125e-05 - Loss: 0.60131997
Epoch: 12/15 - Batch: 4800/7933 - Learning rate: 3.125e-05 - Loss: 0.5704428
Epoch: 12/15 - Batch: 4900/7933 - Learning rate: 3.125e-05 - Loss: 0.731417
Epoch: 12/15 - Batch: 5000/7933 - Learning rate: 3.125e-05 - Loss: 0.78552824 - Dev BLEU: 0.2479821115936449
Epoch: 12/15 - Batch: 5100/7933 - Learning rate: 3.125e-05 - Loss: 0.8043889
Epoch: 12/15 - Batch: 5200/7933 - Learning rate: 3.125e-05 - Loss: 0.80583423
Epoch: 12/15 - Batch: 5300/7933 - Learning rate: 3.125e-05 - Loss: 0.7693654
Epoch: 12/15 - Batch: 5400/7933 - Learning rate: 3.125e-05 - Loss: 0.75008726
Epoch: 12/15 - Batch: 5500/7933 - Learning rate: 3.125e-05 - Loss: 0.7288145
Epoch: 12/15 - Batch: 5600/7933 - Learning rate: 3.125e-05 - Loss: 0.5641892
Epoch: 12/15 - Batch: 5700/7933 - Learning rate: 3.125e-05 - Loss: 0.68228245
Epoch: 12/15 - Batch: 5800/7933 - Learning rate: 3.125e-05 - Loss: 0.7017965
Epoch: 12/15 - Batch: 5900/7933 - Learning rate: 3.125e-05 - Loss: 0.4781578
Epoch: 12/15 - Batch: 6000/7933 - Learning rate: 3.125e-05 - Loss: 0.7418527 - Dev BLEU: 0.25122414736544896
Epoch: 12/15 - Batch: 6100/7933 - Learning rate: 3.125e-05 - Loss: 0.6535933
Epoch: 12/15 - Batch: 6200/7933 - Learning rate: 3.125e-05 - Loss: 0.6635079
Epoch: 12/15 - Batch: 6300/7933 - Learning rate: 3.125e-05 - Loss: 0.604275
Epoch: 12/15 - Batch: 6400/7933 - Learning rate: 3.125e-05 - Loss: 0.5969055
Epoch: 12/15 - Batch: 6500/7933 - Learning rate: 3.125e-05 - Loss: 0.69390637
Epoch: 12/15 - Batch: 6600/7933 - Learning rate: 3.125e-05 - Loss: 0.6784758
Epoch: 12/15 - Batch: 6700/7933 - Learning rate: 3.125e-05 - Loss: 0.67293316
Epoch: 12/15 - Batch: 6800/7933 - Learning rate: 3.125e-05 - Loss: 0.68500316
Epoch: 12/15 - Batch: 6900/7933 - Learning rate: 3.125e-05 - Loss: 0.45960966
Epoch: 12/15 - Batch: 7000/7933 - Learning rate: 3.125e-05 - Loss: 0.9612817 - Dev BLEU: 0.25482591357475876
Epoch: 12/15 - Batch: 7100/7933 - Learning rate: 3.125e-05 - Loss: 0.7176767
Epoch: 12/15 - Batch: 7200/7933 - Learning rate: 3.125e-05 - Loss: 0.59134513
Epoch: 12/15 - Batch: 7300/7933 - Learning rate: 3.125e-05 - Loss: 0.71714437
Epoch: 12/15 - Batch: 7400/7933 - Learning rate: 3.125e-05 - Loss: 0.75236595
Epoch: 12/15 - Batch: 7500/7933 - Learning rate: 3.125e-05 - Loss: 0.5703243
Epoch: 12/15 - Batch: 7600/7933 - Learning rate: 3.125e-05 - Loss: 0.9331097
Epoch: 12/15 - Batch: 7700/7933 - Learning rate: 3.125e-05 - Loss: 1.0962033
Epoch: 12/15 - Batch: 7800/7933 - Learning rate: 3.125e-05 - Loss: 0.923395
Epoch: 12/15 - Batch: 7900/7933 - Learning rate: 3.125e-05 - Loss: 0.7490394
Epoch: 12/15 - Batch: 7933/7933 - Learning rate: 3.125e-05 - Loss: 0.8791463 - Dev BLEU: 0.24958847221883382
Epoch: 13/15 - Batch: 100/7933 - Learning rate: 1.5625e-05 - Loss: 0.70962846
Epoch: 13/15 - Batch: 200/7933 - Learning rate: 1.5625e-05 - Loss: 0.5738446
Epoch: 13/15 - Batch: 300/7933 - Learning rate: 1.5625e-05 - Loss: 0.45556784
Epoch: 13/15 - Batch: 400/7933 - Learning rate: 1.5625e-05 - Loss: 0.76072896
Epoch: 13/15 - Batch: 500/7933 - Learning rate: 1.5625e-05 - Loss: 0.47940147
Epoch: 13/15 - Batch: 600/7933 - Learning rate: 1.5625e-05 - Loss: 0.35693294
Epoch: 13/15 - Batch: 700/7933 - Learning rate: 1.5625e-05 - Loss: 0.547728
Epoch: 13/15 - Batch: 800/7933 - Learning rate: 1.5625e-05 - Loss: 0.5255777
Epoch: 13/15 - Batch: 900/7933 - Learning rate: 1.5625e-05 - Loss: 0.3528057
Epoch: 13/15 - Batch: 1000/7933 - Learning rate: 1.5625e-05 - Loss: 0.6027341 - Dev BLEU: 0.2392263108527001
Epoch: 13/15 - Batch: 1100/7933 - Learning rate: 1.5625e-05 - Loss: 0.5450906
Epoch: 13/15 - Batch: 1200/7933 - Learning rate: 1.5625e-05 - Loss: 0.7118772
Epoch: 13/15 - Batch: 1300/7933 - Learning rate: 1.5625e-05 - Loss: 0.57515585
Epoch: 13/15 - Batch: 1400/7933 - Learning rate: 1.5625e-05 - Loss: 0.68251145
Epoch: 13/15 - Batch: 1500/7933 - Learning rate: 1.5625e-05 - Loss: 0.501666
Epoch: 13/15 - Batch: 1600/7933 - Learning rate: 1.5625e-05 - Loss: 0.92129916
Epoch: 13/15 - Batch: 1700/7933 - Learning rate: 1.5625e-05 - Loss: 0.6611046
Epoch: 13/15 - Batch: 1800/7933 - Learning rate: 1.5625e-05 - Loss: 0.3591317
Epoch: 13/15 - Batch: 1900/7933 - Learning rate: 1.5625e-05 - Loss: 0.57251704
Epoch: 13/15 - Batch: 2000/7933 - Learning rate: 1.5625e-05 - Loss: 0.56746566 - Dev BLEU: 0.24195750164434807
Epoch: 13/15 - Batch: 2100/7933 - Learning rate: 1.5625e-05 - Loss: 0.45504597
Epoch: 13/15 - Batch: 2200/7933 - Learning rate: 1.5625e-05 - Loss: 0.4896817
Epoch: 13/15 - Batch: 2300/7933 - Learning rate: 1.5625e-05 - Loss: 0.6255133
Epoch: 13/15 - Batch: 2400/7933 - Learning rate: 1.5625e-05 - Loss: 0.48226896
Epoch: 13/15 - Batch: 2500/7933 - Learning rate: 1.5625e-05 - Loss: 0.478688
Epoch: 13/15 - Batch: 2600/7933 - Learning rate: 1.5625e-05 - Loss: 0.40419415
Epoch: 13/15 - Batch: 2700/7933 - Learning rate: 1.5625e-05 - Loss: 0.24388003
Epoch: 13/15 - Batch: 2800/7933 - Learning rate: 1.5625e-05 - Loss: 0.6301081
Epoch: 13/15 - Batch: 2900/7933 - Learning rate: 1.5625e-05 - Loss: 0.73555917
Epoch: 13/15 - Batch: 3000/7933 - Learning rate: 1.5625e-05 - Loss: 0.6358233 - Dev BLEU: 0.23703303345339438
Epoch: 13/15 - Batch: 3100/7933 - Learning rate: 1.5625e-05 - Loss: 0.6492559
Epoch: 13/15 - Batch: 3200/7933 - Learning rate: 1.5625e-05 - Loss: 0.63425905
Epoch: 13/15 - Batch: 3300/7933 - Learning rate: 1.5625e-05 - Loss: 0.52962136
Epoch: 13/15 - Batch: 3400/7933 - Learning rate: 1.5625e-05 - Loss: 0.53332907
Epoch: 13/15 - Batch: 3500/7933 - Learning rate: 1.5625e-05 - Loss: 0.6399512
Epoch: 13/15 - Batch: 3600/7933 - Learning rate: 1.5625e-05 - Loss: 0.64314693
Epoch: 13/15 - Batch: 3700/7933 - Learning rate: 1.5625e-05 - Loss: 0.6368642
Epoch: 13/15 - Batch: 3800/7933 - Learning rate: 1.5625e-05 - Loss: 0.5916643
Epoch: 13/15 - Batch: 3900/7933 - Learning rate: 1.5625e-05 - Loss: 0.67723334
Epoch: 13/15 - Batch: 4000/7933 - Learning rate: 1.5625e-05 - Loss: 0.40263018 - Dev BLEU: 0.2372527273202733
Epoch: 13/15 - Batch: 4100/7933 - Learning rate: 1.5625e-05 - Loss: 0.50924706
Epoch: 13/15 - Batch: 4200/7933 - Learning rate: 1.5625e-05 - Loss: 0.46720383
Epoch: 13/15 - Batch: 4300/7933 - Learning rate: 1.5625e-05 - Loss: 0.55809265
Epoch: 13/15 - Batch: 4400/7933 - Learning rate: 1.5625e-05 - Loss: 0.5116829
Epoch: 13/15 - Batch: 4500/7933 - Learning rate: 1.5625e-05 - Loss: 0.58565813
Epoch: 13/15 - Batch: 4600/7933 - Learning rate: 1.5625e-05 - Loss: 0.8285274
Epoch: 13/15 - Batch: 4700/7933 - Learning rate: 1.5625e-05 - Loss: 0.61063343
Epoch: 13/15 - Batch: 4800/7933 - Learning rate: 1.5625e-05 - Loss: 0.575795
Epoch: 13/15 - Batch: 4900/7933 - Learning rate: 1.5625e-05 - Loss: 0.7194656
Epoch: 13/15 - Batch: 5000/7933 - Learning rate: 1.5625e-05 - Loss: 0.78328395 - Dev BLEU: 0.2503645635811926
Epoch: 13/15 - Batch: 5100/7933 - Learning rate: 1.5625e-05 - Loss: 0.81311935
Epoch: 13/15 - Batch: 5200/7933 - Learning rate: 1.5625e-05 - Loss: 0.8194337
Epoch: 13/15 - Batch: 5300/7933 - Learning rate: 1.5625e-05 - Loss: 0.78978807
Epoch: 13/15 - Batch: 5400/7933 - Learning rate: 1.5625e-05 - Loss: 0.7393561
Epoch: 13/15 - Batch: 5500/7933 - Learning rate: 1.5625e-05 - Loss: 0.7326182
Epoch: 13/15 - Batch: 5600/7933 - Learning rate: 1.5625e-05 - Loss: 0.585833
Epoch: 13/15 - Batch: 5700/7933 - Learning rate: 1.5625e-05 - Loss: 0.6934358
Epoch: 13/15 - Batch: 5800/7933 - Learning rate: 1.5625e-05 - Loss: 0.6896226
Epoch: 13/15 - Batch: 5900/7933 - Learning rate: 1.5625e-05 - Loss: 0.45587492
Epoch: 13/15 - Batch: 6000/7933 - Learning rate: 1.5625e-05 - Loss: 0.74915224 - Dev BLEU: 0.2514090263732512
Epoch: 13/15 - Batch: 6100/7933 - Learning rate: 1.5625e-05 - Loss: 0.651102
Epoch: 13/15 - Batch: 6200/7933 - Learning rate: 1.5625e-05 - Loss: 0.654601
Epoch: 13/15 - Batch: 6300/7933 - Learning rate: 1.5625e-05 - Loss: 0.6016288
Epoch: 13/15 - Batch: 6400/7933 - Learning rate: 1.5625e-05 - Loss: 0.60031253
Epoch: 13/15 - Batch: 6500/7933 - Learning rate: 1.5625e-05 - Loss: 0.69858027
Epoch: 13/15 - Batch: 6600/7933 - Learning rate: 1.5625e-05 - Loss: 0.69411874
Epoch: 13/15 - Batch: 6700/7933 - Learning rate: 1.5625e-05 - Loss: 0.672575
Epoch: 13/15 - Batch: 6800/7933 - Learning rate: 1.5625e-05 - Loss: 0.6848347
Epoch: 13/15 - Batch: 6900/7933 - Learning rate: 1.5625e-05 - Loss: 0.4570569
Epoch: 13/15 - Batch: 7000/7933 - Learning rate: 1.5625e-05 - Loss: 0.9622023 - Dev BLEU: 0.2536161606233681
Epoch: 13/15 - Batch: 7100/7933 - Learning rate: 1.5625e-05 - Loss: 0.7095525
Epoch: 13/15 - Batch: 7200/7933 - Learning rate: 1.5625e-05 - Loss: 0.58960694
Epoch: 13/15 - Batch: 7300/7933 - Learning rate: 1.5625e-05 - Loss: 0.7154946
Epoch: 13/15 - Batch: 7400/7933 - Learning rate: 1.5625e-05 - Loss: 0.7602051
Epoch: 13/15 - Batch: 7500/7933 - Learning rate: 1.5625e-05 - Loss: 0.56588227
Epoch: 13/15 - Batch: 7600/7933 - Learning rate: 1.5625e-05 - Loss: 0.955118
Epoch: 13/15 - Batch: 7700/7933 - Learning rate: 1.5625e-05 - Loss: 1.097043
Epoch: 13/15 - Batch: 7800/7933 - Learning rate: 1.5625e-05 - Loss: 0.9197465
Epoch: 13/15 - Batch: 7900/7933 - Learning rate: 1.5625e-05 - Loss: 0.74861014
Epoch: 13/15 - Batch: 7933/7933 - Learning rate: 1.5625e-05 - Loss: 0.9075194 - Dev BLEU: 0.2521730627073661
Epoch: 14/15 - Batch: 100/7933 - Learning rate: 7.8125e-06 - Loss: 0.7203126
Epoch: 14/15 - Batch: 200/7933 - Learning rate: 7.8125e-06 - Loss: 0.57530797
Epoch: 14/15 - Batch: 300/7933 - Learning rate: 7.8125e-06 - Loss: 0.45975748
Epoch: 14/15 - Batch: 400/7933 - Learning rate: 7.8125e-06 - Loss: 0.7453929
Epoch: 14/15 - Batch: 500/7933 - Learning rate: 7.8125e-06 - Loss: 0.46702182
Epoch: 14/15 - Batch: 600/7933 - Learning rate: 7.8125e-06 - Loss: 0.35743204
Epoch: 14/15 - Batch: 700/7933 - Learning rate: 7.8125e-06 - Loss: 0.54950964
Epoch: 14/15 - Batch: 800/7933 - Learning rate: 7.8125e-06 - Loss: 0.52240515
Epoch: 14/15 - Batch: 900/7933 - Learning rate: 7.8125e-06 - Loss: 0.35120684
Epoch: 14/15 - Batch: 1000/7933 - Learning rate: 7.8125e-06 - Loss: 0.6078234 - Dev BLEU: 0.24314216652362475
Epoch: 14/15 - Batch: 1100/7933 - Learning rate: 7.8125e-06 - Loss: 0.5466367
Epoch: 14/15 - Batch: 1200/7933 - Learning rate: 7.8125e-06 - Loss: 0.7007052
Epoch: 14/15 - Batch: 1300/7933 - Learning rate: 7.8125e-06 - Loss: 0.5866213
Epoch: 14/15 - Batch: 1400/7933 - Learning rate: 7.8125e-06 - Loss: 0.6723844
Epoch: 14/15 - Batch: 1500/7933 - Learning rate: 7.8125e-06 - Loss: 0.50701
Epoch: 14/15 - Batch: 1600/7933 - Learning rate: 7.8125e-06 - Loss: 0.9194214
Epoch: 14/15 - Batch: 1700/7933 - Learning rate: 7.8125e-06 - Loss: 0.6538024
Epoch: 14/15 - Batch: 1800/7933 - Learning rate: 7.8125e-06 - Loss: 0.35249865
Epoch: 14/15 - Batch: 1900/7933 - Learning rate: 7.8125e-06 - Loss: 0.5704762
Epoch: 14/15 - Batch: 2000/7933 - Learning rate: 7.8125e-06 - Loss: 0.5657277 - Dev BLEU: 0.24229716369734003
Epoch: 14/15 - Batch: 2100/7933 - Learning rate: 7.8125e-06 - Loss: 0.45753878
Epoch: 14/15 - Batch: 2200/7933 - Learning rate: 7.8125e-06 - Loss: 0.48561132
Epoch: 14/15 - Batch: 2300/7933 - Learning rate: 7.8125e-06 - Loss: 0.6403384
Epoch: 14/15 - Batch: 2400/7933 - Learning rate: 7.8125e-06 - Loss: 0.4850663
Epoch: 14/15 - Batch: 2500/7933 - Learning rate: 7.8125e-06 - Loss: 0.48123962
Epoch: 14/15 - Batch: 2600/7933 - Learning rate: 7.8125e-06 - Loss: 0.40900812
Epoch: 14/15 - Batch: 2700/7933 - Learning rate: 7.8125e-06 - Loss: 0.24308711
Epoch: 14/15 - Batch: 2800/7933 - Learning rate: 7.8125e-06 - Loss: 0.63068736
Epoch: 14/15 - Batch: 2900/7933 - Learning rate: 7.8125e-06 - Loss: 0.7341775
Epoch: 14/15 - Batch: 3000/7933 - Learning rate: 7.8125e-06 - Loss: 0.6324458 - Dev BLEU: 0.24226241095481588
Epoch: 14/15 - Batch: 3100/7933 - Learning rate: 7.8125e-06 - Loss: 0.6685429
Epoch: 14/15 - Batch: 3200/7933 - Learning rate: 7.8125e-06 - Loss: 0.63886124
Epoch: 14/15 - Batch: 3300/7933 - Learning rate: 7.8125e-06 - Loss: 0.5284872
Epoch: 14/15 - Batch: 3400/7933 - Learning rate: 7.8125e-06 - Loss: 0.53860915
Epoch: 14/15 - Batch: 3500/7933 - Learning rate: 7.8125e-06 - Loss: 0.6275769
Epoch: 14/15 - Batch: 3600/7933 - Learning rate: 7.8125e-06 - Loss: 0.65296096
Epoch: 14/15 - Batch: 3700/7933 - Learning rate: 7.8125e-06 - Loss: 0.6230174
Epoch: 14/15 - Batch: 3800/7933 - Learning rate: 7.8125e-06 - Loss: 0.5952598
Epoch: 14/15 - Batch: 3900/7933 - Learning rate: 7.8125e-06 - Loss: 0.6674068
Epoch: 14/15 - Batch: 4000/7933 - Learning rate: 7.8125e-06 - Loss: 0.40022248 - Dev BLEU: 0.24016218242945916
Epoch: 14/15 - Batch: 4100/7933 - Learning rate: 7.8125e-06 - Loss: 0.50757563
Epoch: 14/15 - Batch: 4200/7933 - Learning rate: 7.8125e-06 - Loss: 0.467499
Epoch: 14/15 - Batch: 4300/7933 - Learning rate: 7.8125e-06 - Loss: 0.5612289
Epoch: 14/15 - Batch: 4400/7933 - Learning rate: 7.8125e-06 - Loss: 0.519886
Epoch: 14/15 - Batch: 4500/7933 - Learning rate: 7.8125e-06 - Loss: 0.5934866
Epoch: 14/15 - Batch: 4600/7933 - Learning rate: 7.8125e-06 - Loss: 0.8256493
Epoch: 14/15 - Batch: 4700/7933 - Learning rate: 7.8125e-06 - Loss: 0.602702
Epoch: 14/15 - Batch: 4800/7933 - Learning rate: 7.8125e-06 - Loss: 0.5854809
Epoch: 14/15 - Batch: 4900/7933 - Learning rate: 7.8125e-06 - Loss: 0.73208666
Epoch: 14/15 - Batch: 5000/7933 - Learning rate: 7.8125e-06 - Loss: 0.7725031 - Dev BLEU: 0.24860679259670027
Epoch: 14/15 - Batch: 5100/7933 - Learning rate: 7.8125e-06 - Loss: 0.8162747
Epoch: 14/15 - Batch: 5200/7933 - Learning rate: 7.8125e-06 - Loss: 0.80663157
Epoch: 14/15 - Batch: 5300/7933 - Learning rate: 7.8125e-06 - Loss: 0.7820708
Epoch: 14/15 - Batch: 5400/7933 - Learning rate: 7.8125e-06 - Loss: 0.74416596
Epoch: 14/15 - Batch: 5500/7933 - Learning rate: 7.8125e-06 - Loss: 0.72323525
Epoch: 14/15 - Batch: 5600/7933 - Learning rate: 7.8125e-06 - Loss: 0.5727995
Epoch: 14/15 - Batch: 5700/7933 - Learning rate: 7.8125e-06 - Loss: 0.6901037
Epoch: 14/15 - Batch: 5800/7933 - Learning rate: 7.8125e-06 - Loss: 0.6940525
Epoch: 14/15 - Batch: 5900/7933 - Learning rate: 7.8125e-06 - Loss: 0.4620045
Epoch: 14/15 - Batch: 6000/7933 - Learning rate: 7.8125e-06 - Loss: 0.7575983 - Dev BLEU: 0.25181714139660133
Epoch: 14/15 - Batch: 6100/7933 - Learning rate: 7.8125e-06 - Loss: 0.6529277
Epoch: 14/15 - Batch: 6200/7933 - Learning rate: 7.8125e-06 - Loss: 0.6615429
Epoch: 14/15 - Batch: 6300/7933 - Learning rate: 7.8125e-06 - Loss: 0.6055772
Epoch: 14/15 - Batch: 6400/7933 - Learning rate: 7.8125e-06 - Loss: 0.5929429
Epoch: 14/15 - Batch: 6500/7933 - Learning rate: 7.8125e-06 - Loss: 0.69131845
Epoch: 14/15 - Batch: 6600/7933 - Learning rate: 7.8125e-06 - Loss: 0.68297356
Epoch: 14/15 - Batch: 6700/7933 - Learning rate: 7.8125e-06 - Loss: 0.67789835
Epoch: 14/15 - Batch: 6800/7933 - Learning rate: 7.8125e-06 - Loss: 0.6904188
Epoch: 14/15 - Batch: 6900/7933 - Learning rate: 7.8125e-06 - Loss: 0.45820934
Epoch: 14/15 - Batch: 7000/7933 - Learning rate: 7.8125e-06 - Loss: 0.96627325 - Dev BLEU: 0.25244786259670904
Epoch: 14/15 - Batch: 7100/7933 - Learning rate: 7.8125e-06 - Loss: 0.70972073
Epoch: 14/15 - Batch: 7200/7933 - Learning rate: 7.8125e-06 - Loss: 0.5915961
Epoch: 14/15 - Batch: 7300/7933 - Learning rate: 7.8125e-06 - Loss: 0.71410936
Epoch: 14/15 - Batch: 7400/7933 - Learning rate: 7.8125e-06 - Loss: 0.75822306
Epoch: 14/15 - Batch: 7500/7933 - Learning rate: 7.8125e-06 - Loss: 0.5729135
Epoch: 14/15 - Batch: 7600/7933 - Learning rate: 7.8125e-06 - Loss: 0.9259909
Epoch: 14/15 - Batch: 7700/7933 - Learning rate: 7.8125e-06 - Loss: 1.1012192
Epoch: 14/15 - Batch: 7800/7933 - Learning rate: 7.8125e-06 - Loss: 0.92873704
Epoch: 14/15 - Batch: 7900/7933 - Learning rate: 7.8125e-06 - Loss: 0.74264276
Epoch: 14/15 - Batch: 7933/7933 - Learning rate: 7.8125e-06 - Loss: 0.86889374 - Dev BLEU: 0.2528948752121329
Epoch: 15/15 - Batch: 100/7933 - Learning rate: 3.90625e-06 - Loss: 0.7124725
Epoch: 15/15 - Batch: 200/7933 - Learning rate: 3.90625e-06 - Loss: 0.5726398
Epoch: 15/15 - Batch: 300/7933 - Learning rate: 3.90625e-06 - Loss: 0.4650417
Epoch: 15/15 - Batch: 400/7933 - Learning rate: 3.90625e-06 - Loss: 0.7518466
Epoch: 15/15 - Batch: 500/7933 - Learning rate: 3.90625e-06 - Loss: 0.4760312
Epoch: 15/15 - Batch: 600/7933 - Learning rate: 3.90625e-06 - Loss: 0.35444817
Epoch: 15/15 - Batch: 700/7933 - Learning rate: 3.90625e-06 - Loss: 0.5581373
Epoch: 15/15 - Batch: 800/7933 - Learning rate: 3.90625e-06 - Loss: 0.53175765
Epoch: 15/15 - Batch: 900/7933 - Learning rate: 3.90625e-06 - Loss: 0.35697633
Epoch: 15/15 - Batch: 1000/7933 - Learning rate: 3.90625e-06 - Loss: 0.60240984 - Dev BLEU: 0.24817769351221464
Epoch: 15/15 - Batch: 1100/7933 - Learning rate: 3.90625e-06 - Loss: 0.53881305
Epoch: 15/15 - Batch: 1200/7933 - Learning rate: 3.90625e-06 - Loss: 0.70929617
Epoch: 15/15 - Batch: 1300/7933 - Learning rate: 3.90625e-06 - Loss: 0.5856523
Epoch: 15/15 - Batch: 1400/7933 - Learning rate: 3.90625e-06 - Loss: 0.68407065
Epoch: 15/15 - Batch: 1500/7933 - Learning rate: 3.90625e-06 - Loss: 0.51021695
Epoch: 15/15 - Batch: 1600/7933 - Learning rate: 3.90625e-06 - Loss: 0.9042637
Epoch: 15/15 - Batch: 1700/7933 - Learning rate: 3.90625e-06 - Loss: 0.65406054
Epoch: 15/15 - Batch: 1800/7933 - Learning rate: 3.90625e-06 - Loss: 0.353177
Epoch: 15/15 - Batch: 1900/7933 - Learning rate: 3.90625e-06 - Loss: 0.5695491
Epoch: 15/15 - Batch: 2000/7933 - Learning rate: 3.90625e-06 - Loss: 0.56343496 - Dev BLEU: 0.24600876915630152
Epoch: 15/15 - Batch: 2100/7933 - Learning rate: 3.90625e-06 - Loss: 0.4664793
Epoch: 15/15 - Batch: 2200/7933 - Learning rate: 3.90625e-06 - Loss: 0.4838381
Epoch: 15/15 - Batch: 2300/7933 - Learning rate: 3.90625e-06 - Loss: 0.6351921
Epoch: 15/15 - Batch: 2400/7933 - Learning rate: 3.90625e-06 - Loss: 0.4871691
Epoch: 15/15 - Batch: 2500/7933 - Learning rate: 3.90625e-06 - Loss: 0.47946653
Epoch: 15/15 - Batch: 2600/7933 - Learning rate: 3.90625e-06 - Loss: 0.4142362
Epoch: 15/15 - Batch: 2700/7933 - Learning rate: 3.90625e-06 - Loss: 0.24626884
Epoch: 15/15 - Batch: 2800/7933 - Learning rate: 3.90625e-06 - Loss: 0.62914044
Epoch: 15/15 - Batch: 2900/7933 - Learning rate: 3.90625e-06 - Loss: 0.7266297
Epoch: 15/15 - Batch: 3000/7933 - Learning rate: 3.90625e-06 - Loss: 0.62929714 - Dev BLEU: 0.24289565474730368
Epoch: 15/15 - Batch: 3100/7933 - Learning rate: 3.90625e-06 - Loss: 0.6548184
Epoch: 15/15 - Batch: 3200/7933 - Learning rate: 3.90625e-06 - Loss: 0.64351577
Epoch: 15/15 - Batch: 3300/7933 - Learning rate: 3.90625e-06 - Loss: 0.52557766
Epoch: 15/15 - Batch: 3400/7933 - Learning rate: 3.90625e-06 - Loss: 0.53641564
Epoch: 15/15 - Batch: 3500/7933 - Learning rate: 3.90625e-06 - Loss: 0.6352716
Epoch: 15/15 - Batch: 3600/7933 - Learning rate: 3.90625e-06 - Loss: 0.6437951
Epoch: 15/15 - Batch: 3700/7933 - Learning rate: 3.90625e-06 - Loss: 0.6131362
Epoch: 15/15 - Batch: 3800/7933 - Learning rate: 3.90625e-06 - Loss: 0.5892435
Epoch: 15/15 - Batch: 3900/7933 - Learning rate: 3.90625e-06 - Loss: 0.6646066
Epoch: 15/15 - Batch: 4000/7933 - Learning rate: 3.90625e-06 - Loss: 0.4097113 - Dev BLEU: 0.24281435340887977
Epoch: 15/15 - Batch: 4100/7933 - Learning rate: 3.90625e-06 - Loss: 0.51274705
Epoch: 15/15 - Batch: 4200/7933 - Learning rate: 3.90625e-06 - Loss: 0.46433195
Epoch: 15/15 - Batch: 4300/7933 - Learning rate: 3.90625e-06 - Loss: 0.5515756
Epoch: 15/15 - Batch: 4400/7933 - Learning rate: 3.90625e-06 - Loss: 0.5170864
Epoch: 15/15 - Batch: 4500/7933 - Learning rate: 3.90625e-06 - Loss: 0.5975382
Epoch: 15/15 - Batch: 4600/7933 - Learning rate: 3.90625e-06 - Loss: 0.8105493
Epoch: 15/15 - Batch: 4700/7933 - Learning rate: 3.90625e-06 - Loss: 0.6056519
Epoch: 15/15 - Batch: 4800/7933 - Learning rate: 3.90625e-06 - Loss: 0.5814831
Epoch: 15/15 - Batch: 4900/7933 - Learning rate: 3.90625e-06 - Loss: 0.7351011
Epoch: 15/15 - Batch: 5000/7933 - Learning rate: 3.90625e-06 - Loss: 0.77706516 - Dev BLEU: 0.24797345316431152
Epoch: 15/15 - Batch: 5100/7933 - Learning rate: 3.90625e-06 - Loss: 0.8078073
Epoch: 15/15 - Batch: 5200/7933 - Learning rate: 3.90625e-06 - Loss: 0.8126145
Epoch: 15/15 - Batch: 5300/7933 - Learning rate: 3.90625e-06 - Loss: 0.77287084
Epoch: 15/15 - Batch: 5400/7933 - Learning rate: 3.90625e-06 - Loss: 0.7377294
Epoch: 15/15 - Batch: 5500/7933 - Learning rate: 3.90625e-06 - Loss: 0.7329016
Epoch: 15/15 - Batch: 5600/7933 - Learning rate: 3.90625e-06 - Loss: 0.57376
Epoch: 15/15 - Batch: 5700/7933 - Learning rate: 3.90625e-06 - Loss: 0.6886191
Epoch: 15/15 - Batch: 5800/7933 - Learning rate: 3.90625e-06 - Loss: 0.6963625
Epoch: 15/15 - Batch: 5900/7933 - Learning rate: 3.90625e-06 - Loss: 0.46529523
Epoch: 15/15 - Batch: 6000/7933 - Learning rate: 3.90625e-06 - Loss: 0.74195105 - Dev BLEU: 0.25078466078014333
Epoch: 15/15 - Batch: 6100/7933 - Learning rate: 3.90625e-06 - Loss: 0.6400492
Epoch: 15/15 - Batch: 6200/7933 - Learning rate: 3.90625e-06 - Loss: 0.65855134
Epoch: 15/15 - Batch: 6300/7933 - Learning rate: 3.90625e-06 - Loss: 0.6116358
Epoch: 15/15 - Batch: 6400/7933 - Learning rate: 3.90625e-06 - Loss: 0.5794569
Epoch: 15/15 - Batch: 6500/7933 - Learning rate: 3.90625e-06 - Loss: 0.6900239
Epoch: 15/15 - Batch: 6600/7933 - Learning rate: 3.90625e-06 - Loss: 0.6875693
Epoch: 15/15 - Batch: 6700/7933 - Learning rate: 3.90625e-06 - Loss: 0.67638844
Epoch: 15/15 - Batch: 6800/7933 - Learning rate: 3.90625e-06 - Loss: 0.69412357
Epoch: 15/15 - Batch: 6900/7933 - Learning rate: 3.90625e-06 - Loss: 0.45669636
Epoch: 15/15 - Batch: 7000/7933 - Learning rate: 3.90625e-06 - Loss: 0.96700037 - Dev BLEU: 0.25246961042433747
Epoch: 15/15 - Batch: 7100/7933 - Learning rate: 3.90625e-06 - Loss: 0.7251423
Epoch: 15/15 - Batch: 7200/7933 - Learning rate: 3.90625e-06 - Loss: 0.5847123
Epoch: 15/15 - Batch: 7300/7933 - Learning rate: 3.90625e-06 - Loss: 0.7210747
Epoch: 15/15 - Batch: 7400/7933 - Learning rate: 3.90625e-06 - Loss: 0.7533362
Epoch: 15/15 - Batch: 7500/7933 - Learning rate: 3.90625e-06 - Loss: 0.57058835
Epoch: 15/15 - Batch: 7600/7933 - Learning rate: 3.90625e-06 - Loss: 0.9376439
Epoch: 15/15 - Batch: 7700/7933 - Learning rate: 3.90625e-06 - Loss: 1.0998089
Epoch: 15/15 - Batch: 7800/7933 - Learning rate: 3.90625e-06 - Loss: 0.9324057
Epoch: 15/15 - Batch: 7900/7933 - Learning rate: 3.90625e-06 - Loss: 0.7433688
Epoch: 15/15 - Batch: 7933/7933 - Learning rate: 3.90625e-06 - Loss: 0.8725248 - Dev BLEU: 0.2527653180540415 - Test BLEU: 0.27965395485021405
