Epoch: 1/15 - Batch: 100/7933 - Learning rate: 0.001 - Loss: 1.8797822
Epoch: 1/15 - Batch: 200/7933 - Learning rate: 0.001 - Loss: 2.70876
Epoch: 1/15 - Batch: 300/7933 - Learning rate: 0.001 - Loss: 1.2484552
Epoch: 1/15 - Batch: 400/7933 - Learning rate: 0.001 - Loss: 2.2556477
Epoch: 1/15 - Batch: 500/7933 - Learning rate: 0.001 - Loss: 2.0604482
Epoch: 1/15 - Batch: 600/7933 - Learning rate: 0.001 - Loss: 0.87251574
Epoch: 1/15 - Batch: 700/7933 - Learning rate: 0.001 - Loss: 1.8495252
Epoch: 1/15 - Batch: 800/7933 - Learning rate: 0.001 - Loss: 1.5357705
Epoch: 1/15 - Batch: 900/7933 - Learning rate: 0.001 - Loss: 1.033496
Epoch: 1/15 - Batch: 1000/7933 - Learning rate: 0.001 - Loss: 1.7685244 - Dev BLEU: 0.0
Epoch: 1/15 - Batch: 1100/7933 - Learning rate: 0.001 - Loss: 1.4218653
Epoch: 1/15 - Batch: 1200/7933 - Learning rate: 0.001 - Loss: 1.9313786
Epoch: 1/15 - Batch: 1300/7933 - Learning rate: 0.001 - Loss: 1.772468
Epoch: 1/15 - Batch: 1400/7933 - Learning rate: 0.001 - Loss: 1.8935231
Epoch: 1/15 - Batch: 1500/7933 - Learning rate: 0.001 - Loss: 1.355204
Epoch: 1/15 - Batch: 1600/7933 - Learning rate: 0.001 - Loss: 2.3569257
Epoch: 1/15 - Batch: 1700/7933 - Learning rate: 0.001 - Loss: 1.8025005
Epoch: 1/15 - Batch: 1800/7933 - Learning rate: 0.001 - Loss: 1.212212
Epoch: 1/15 - Batch: 1900/7933 - Learning rate: 0.001 - Loss: 1.4307549
Epoch: 1/15 - Batch: 2000/7933 - Learning rate: 0.001 - Loss: 1.5571843 - Dev BLEU: 0.006162988198394878
Epoch: 1/15 - Batch: 2100/7933 - Learning rate: 0.001 - Loss: 1.3062972
Epoch: 1/15 - Batch: 2200/7933 - Learning rate: 0.001 - Loss: 1.5246266
Epoch: 1/15 - Batch: 2300/7933 - Learning rate: 0.001 - Loss: 1.6985053
Epoch: 1/15 - Batch: 2400/7933 - Learning rate: 0.001 - Loss: 1.4057106
Epoch: 1/15 - Batch: 2500/7933 - Learning rate: 0.001 - Loss: 1.6127114
Epoch: 1/15 - Batch: 2600/7933 - Learning rate: 0.001 - Loss: 1.1204691
Epoch: 1/15 - Batch: 2700/7933 - Learning rate: 0.001 - Loss: 0.6913035
Epoch: 1/15 - Batch: 2800/7933 - Learning rate: 0.001 - Loss: 1.7164568
Epoch: 1/15 - Batch: 2900/7933 - Learning rate: 0.001 - Loss: 1.6845421
Epoch: 1/15 - Batch: 3000/7933 - Learning rate: 0.001 - Loss: 1.5912514 - Dev BLEU: 0.015367571001082648
Epoch: 1/15 - Batch: 3100/7933 - Learning rate: 0.001 - Loss: 1.3643353
Epoch: 1/15 - Batch: 3200/7933 - Learning rate: 0.001 - Loss: 1.4402525
Epoch: 1/15 - Batch: 3300/7933 - Learning rate: 0.001 - Loss: 1.3120898
Epoch: 1/15 - Batch: 3400/7933 - Learning rate: 0.001 - Loss: 1.2246888
Epoch: 1/15 - Batch: 3500/7933 - Learning rate: 0.001 - Loss: 1.6888834
Epoch: 1/15 - Batch: 3600/7933 - Learning rate: 0.001 - Loss: 1.4730678
Epoch: 1/15 - Batch: 3700/7933 - Learning rate: 0.001 - Loss: 1.6020064
Epoch: 1/15 - Batch: 3800/7933 - Learning rate: 0.001 - Loss: 1.5173547
Epoch: 1/15 - Batch: 3900/7933 - Learning rate: 0.001 - Loss: 1.6605334
Epoch: 1/15 - Batch: 4000/7933 - Learning rate: 0.001 - Loss: 0.9407978 - Dev BLEU: 0.022088556995689766
Epoch: 1/15 - Batch: 4100/7933 - Learning rate: 0.001 - Loss: 1.2025315
Epoch: 1/15 - Batch: 4200/7933 - Learning rate: 0.001 - Loss: 1.1353226
Epoch: 1/15 - Batch: 4300/7933 - Learning rate: 0.001 - Loss: 1.2321842
Epoch: 1/15 - Batch: 4400/7933 - Learning rate: 0.001 - Loss: 1.2275622
Epoch: 1/15 - Batch: 4500/7933 - Learning rate: 0.001 - Loss: 1.3194432
Epoch: 1/15 - Batch: 4600/7933 - Learning rate: 0.001 - Loss: 2.426336
Epoch: 1/15 - Batch: 4700/7933 - Learning rate: 0.001 - Loss: 1.8661821
Epoch: 1/15 - Batch: 4800/7933 - Learning rate: 0.001 - Loss: 1.8974781
Epoch: 1/15 - Batch: 4900/7933 - Learning rate: 0.001 - Loss: 2.0371907
Epoch: 1/15 - Batch: 5000/7933 - Learning rate: 0.001 - Loss: 1.9128252 - Dev BLEU: 0.048804986802945496
Epoch: 1/15 - Batch: 5100/7933 - Learning rate: 0.001 - Loss: 1.8436029
Epoch: 1/15 - Batch: 5200/7933 - Learning rate: 0.001 - Loss: 1.894896
Epoch: 1/15 - Batch: 5300/7933 - Learning rate: 0.001 - Loss: 1.8204806
Epoch: 1/15 - Batch: 5400/7933 - Learning rate: 0.001 - Loss: 1.7960308
Epoch: 1/15 - Batch: 5500/7933 - Learning rate: 0.001 - Loss: 1.8649722
Epoch: 1/15 - Batch: 5600/7933 - Learning rate: 0.001 - Loss: 1.4904763
Epoch: 1/15 - Batch: 5700/7933 - Learning rate: 0.001 - Loss: 1.8108759
Epoch: 1/15 - Batch: 5800/7933 - Learning rate: 0.001 - Loss: 1.7628374
Epoch: 1/15 - Batch: 5900/7933 - Learning rate: 0.001 - Loss: 1.3752234
Epoch: 1/15 - Batch: 6000/7933 - Learning rate: 0.001 - Loss: 1.7487338 - Dev BLEU: 0.05811015915925471
Epoch: 1/15 - Batch: 6100/7933 - Learning rate: 0.001 - Loss: 1.8654399
Epoch: 1/15 - Batch: 6200/7933 - Learning rate: 0.001 - Loss: 1.4986215
Epoch: 1/15 - Batch: 6300/7933 - Learning rate: 0.001 - Loss: 1.4912602
Epoch: 1/15 - Batch: 6400/7933 - Learning rate: 0.001 - Loss: 1.2266066
Epoch: 1/15 - Batch: 6500/7933 - Learning rate: 0.001 - Loss: 1.3329226
Epoch: 1/15 - Batch: 6600/7933 - Learning rate: 0.001 - Loss: 1.4471701
Epoch: 1/15 - Batch: 6700/7933 - Learning rate: 0.001 - Loss: 1.2391449
Epoch: 1/15 - Batch: 6800/7933 - Learning rate: 0.001 - Loss: 1.1494913
Epoch: 1/15 - Batch: 6900/7933 - Learning rate: 0.001 - Loss: 0.91958135
Epoch: 1/15 - Batch: 7000/7933 - Learning rate: 0.001 - Loss: 1.7354605 - Dev BLEU: 0.10865006193385893
Epoch: 1/15 - Batch: 7100/7933 - Learning rate: 0.001 - Loss: 1.345728
Epoch: 1/15 - Batch: 7200/7933 - Learning rate: 0.001 - Loss: 1.0501415
Epoch: 1/15 - Batch: 7300/7933 - Learning rate: 0.001 - Loss: 1.2607224
Epoch: 1/15 - Batch: 7400/7933 - Learning rate: 0.001 - Loss: 1.3427039
Epoch: 1/15 - Batch: 7500/7933 - Learning rate: 0.001 - Loss: 0.9399542
Epoch: 1/15 - Batch: 7600/7933 - Learning rate: 0.001 - Loss: 1.6863743
Epoch: 1/15 - Batch: 7700/7933 - Learning rate: 0.001 - Loss: 1.8794674
Epoch: 1/15 - Batch: 7800/7933 - Learning rate: 0.001 - Loss: 1.6898147
Epoch: 1/15 - Batch: 7900/7933 - Learning rate: 0.001 - Loss: 1.3248752
Epoch: 1/15 - Batch: 7933/7933 - Learning rate: 0.001 - Loss: 1.8064318 - Dev BLEU: 0.1079971043961838
Epoch: 2/15 - Batch: 100/7933 - Learning rate: 0.001 - Loss: 1.0357839
Epoch: 2/15 - Batch: 200/7933 - Learning rate: 0.001 - Loss: 1.1861626
Epoch: 2/15 - Batch: 300/7933 - Learning rate: 0.001 - Loss: 0.732558
Epoch: 2/15 - Batch: 400/7933 - Learning rate: 0.001 - Loss: 1.281271
Epoch: 2/15 - Batch: 500/7933 - Learning rate: 0.001 - Loss: 1.084624
Epoch: 2/15 - Batch: 600/7933 - Learning rate: 0.001 - Loss: 0.53197134
Epoch: 2/15 - Batch: 700/7933 - Learning rate: 0.001 - Loss: 0.9658074
Epoch: 2/15 - Batch: 800/7933 - Learning rate: 0.001 - Loss: 0.91813385
Epoch: 2/15 - Batch: 900/7933 - Learning rate: 0.001 - Loss: 0.58616996
Epoch: 2/15 - Batch: 1000/7933 - Learning rate: 0.001 - Loss: 1.0069613 - Dev BLEU: 0.09097186426262321
Epoch: 2/15 - Batch: 1100/7933 - Learning rate: 0.001 - Loss: 0.85862696
Epoch: 2/15 - Batch: 1200/7933 - Learning rate: 0.001 - Loss: 1.2102748
Epoch: 2/15 - Batch: 1300/7933 - Learning rate: 0.001 - Loss: 1.0804625
Epoch: 2/15 - Batch: 1400/7933 - Learning rate: 0.001 - Loss: 1.1372005
Epoch: 2/15 - Batch: 1500/7933 - Learning rate: 0.001 - Loss: 0.7621945
Epoch: 2/15 - Batch: 1600/7933 - Learning rate: 0.001 - Loss: 1.4884478
Epoch: 2/15 - Batch: 1700/7933 - Learning rate: 0.001 - Loss: 1.1083179
Epoch: 2/15 - Batch: 1800/7933 - Learning rate: 0.001 - Loss: 0.63126343
Epoch: 2/15 - Batch: 1900/7933 - Learning rate: 0.001 - Loss: 0.91217816
Epoch: 2/15 - Batch: 2000/7933 - Learning rate: 0.001 - Loss: 0.9737841 - Dev BLEU: 0.09408284311682781
Epoch: 2/15 - Batch: 2100/7933 - Learning rate: 0.001 - Loss: 0.8163148
Epoch: 2/15 - Batch: 2200/7933 - Learning rate: 0.001 - Loss: 0.8676132
Epoch: 2/15 - Batch: 2300/7933 - Learning rate: 0.001 - Loss: 1.0277238
Epoch: 2/15 - Batch: 2400/7933 - Learning rate: 0.001 - Loss: 0.8518985
Epoch: 2/15 - Batch: 2500/7933 - Learning rate: 0.001 - Loss: 0.8664996
Epoch: 2/15 - Batch: 2600/7933 - Learning rate: 0.001 - Loss: 0.65536344
Epoch: 2/15 - Batch: 2700/7933 - Learning rate: 0.001 - Loss: 0.37576473
Epoch: 2/15 - Batch: 2800/7933 - Learning rate: 0.001 - Loss: 1.0678202
Epoch: 2/15 - Batch: 2900/7933 - Learning rate: 0.001 - Loss: 1.1532853
Epoch: 2/15 - Batch: 3000/7933 - Learning rate: 0.001 - Loss: 1.0826201 - Dev BLEU: 0.10461725726784211
Epoch: 2/15 - Batch: 3100/7933 - Learning rate: 0.001 - Loss: 1.0396396
Epoch: 2/15 - Batch: 3200/7933 - Learning rate: 0.001 - Loss: 0.98167276
Epoch: 2/15 - Batch: 3300/7933 - Learning rate: 0.001 - Loss: 0.7940081
Epoch: 2/15 - Batch: 3400/7933 - Learning rate: 0.001 - Loss: 0.8053082
Epoch: 2/15 - Batch: 3500/7933 - Learning rate: 0.001 - Loss: 1.0670127
Epoch: 2/15 - Batch: 3600/7933 - Learning rate: 0.001 - Loss: 1.0151727
Epoch: 2/15 - Batch: 3700/7933 - Learning rate: 0.001 - Loss: 1.0465033
Epoch: 2/15 - Batch: 3800/7933 - Learning rate: 0.001 - Loss: 0.9589268
Epoch: 2/15 - Batch: 3900/7933 - Learning rate: 0.001 - Loss: 1.1236467
Epoch: 2/15 - Batch: 4000/7933 - Learning rate: 0.001 - Loss: 0.631401 - Dev BLEU: 0.11208555369960944
Epoch: 2/15 - Batch: 4100/7933 - Learning rate: 0.001 - Loss: 0.80652016
Epoch: 2/15 - Batch: 4200/7933 - Learning rate: 0.001 - Loss: 0.7617523
Epoch: 2/15 - Batch: 4300/7933 - Learning rate: 0.001 - Loss: 0.8539947
Epoch: 2/15 - Batch: 4400/7933 - Learning rate: 0.001 - Loss: 0.8184813
Epoch: 2/15 - Batch: 4500/7933 - Learning rate: 0.001 - Loss: 0.91766465
Epoch: 2/15 - Batch: 4600/7933 - Learning rate: 0.001 - Loss: 1.761209
Epoch: 2/15 - Batch: 4700/7933 - Learning rate: 0.001 - Loss: 1.2651699
Epoch: 2/15 - Batch: 4800/7933 - Learning rate: 0.001 - Loss: 1.2433904
Epoch: 2/15 - Batch: 4900/7933 - Learning rate: 0.001 - Loss: 1.3964639
Epoch: 2/15 - Batch: 5000/7933 - Learning rate: 0.001 - Loss: 1.3590776 - Dev BLEU: 0.14209628249213185
Epoch: 2/15 - Batch: 5100/7933 - Learning rate: 0.001 - Loss: 1.4008092
Epoch: 2/15 - Batch: 5200/7933 - Learning rate: 0.001 - Loss: 1.3476901
Epoch: 2/15 - Batch: 5300/7933 - Learning rate: 0.001 - Loss: 1.3040847
Epoch: 2/15 - Batch: 5400/7933 - Learning rate: 0.001 - Loss: 1.283737
Epoch: 2/15 - Batch: 5500/7933 - Learning rate: 0.001 - Loss: 1.2816621
Epoch: 2/15 - Batch: 5600/7933 - Learning rate: 0.001 - Loss: 1.0232145
Epoch: 2/15 - Batch: 5700/7933 - Learning rate: 0.001 - Loss: 1.2893769
Epoch: 2/15 - Batch: 5800/7933 - Learning rate: 0.001 - Loss: 1.2578573
Epoch: 2/15 - Batch: 5900/7933 - Learning rate: 0.001 - Loss: 0.93028367
Epoch: 2/15 - Batch: 6000/7933 - Learning rate: 0.001 - Loss: 1.2617584 - Dev BLEU: 0.13408911971829354
Epoch: 2/15 - Batch: 6100/7933 - Learning rate: 0.001 - Loss: 1.3004752
Epoch: 2/15 - Batch: 6200/7933 - Learning rate: 0.001 - Loss: 1.0871763
Epoch: 2/15 - Batch: 6300/7933 - Learning rate: 0.001 - Loss: 1.0335351
Epoch: 2/15 - Batch: 6400/7933 - Learning rate: 0.001 - Loss: 0.9016745
Epoch: 2/15 - Batch: 6500/7933 - Learning rate: 0.001 - Loss: 1.0160699
Epoch: 2/15 - Batch: 6600/7933 - Learning rate: 0.001 - Loss: 1.0428823
Epoch: 2/15 - Batch: 6700/7933 - Learning rate: 0.001 - Loss: 0.94144017
Epoch: 2/15 - Batch: 6800/7933 - Learning rate: 0.001 - Loss: 0.89947957
Epoch: 2/15 - Batch: 6900/7933 - Learning rate: 0.001 - Loss: 0.66901773
Epoch: 2/15 - Batch: 7000/7933 - Learning rate: 0.001 - Loss: 1.3627836 - Dev BLEU: 0.19193466377806595
Epoch: 2/15 - Batch: 7100/7933 - Learning rate: 0.001 - Loss: 1.038086
Epoch: 2/15 - Batch: 7200/7933 - Learning rate: 0.001 - Loss: 0.8185482
Epoch: 2/15 - Batch: 7300/7933 - Learning rate: 0.001 - Loss: 1.0031109
Epoch: 2/15 - Batch: 7400/7933 - Learning rate: 0.001 - Loss: 1.0607314
Epoch: 2/15 - Batch: 7500/7933 - Learning rate: 0.001 - Loss: 0.76092345
Epoch: 2/15 - Batch: 7600/7933 - Learning rate: 0.001 - Loss: 1.4065504
Epoch: 2/15 - Batch: 7700/7933 - Learning rate: 0.001 - Loss: 1.507621
Epoch: 2/15 - Batch: 7800/7933 - Learning rate: 0.001 - Loss: 1.4041198
Epoch: 2/15 - Batch: 7900/7933 - Learning rate: 0.001 - Loss: 1.043393
Epoch: 2/15 - Batch: 7933/7933 - Learning rate: 0.001 - Loss: 1.4812301 - Dev BLEU: 0.17231516833157443
Epoch: 3/15 - Batch: 100/7933 - Learning rate: 0.001 - Loss: 0.89532894
Epoch: 3/15 - Batch: 200/7933 - Learning rate: 0.001 - Loss: 0.923301
Epoch: 3/15 - Batch: 300/7933 - Learning rate: 0.001 - Loss: 0.6188357
Epoch: 3/15 - Batch: 400/7933 - Learning rate: 0.001 - Loss: 1.0856746
Epoch: 3/15 - Batch: 500/7933 - Learning rate: 0.001 - Loss: 0.821695
Epoch: 3/15 - Batch: 600/7933 - Learning rate: 0.001 - Loss: 0.45571202
Epoch: 3/15 - Batch: 700/7933 - Learning rate: 0.001 - Loss: 0.7786116
Epoch: 3/15 - Batch: 800/7933 - Learning rate: 0.001 - Loss: 0.75670034
Epoch: 3/15 - Batch: 900/7933 - Learning rate: 0.001 - Loss: 0.49027756
Epoch: 3/15 - Batch: 1000/7933 - Learning rate: 0.001 - Loss: 0.8211069 - Dev BLEU: 0.1539281002736362
Epoch: 3/15 - Batch: 1100/7933 - Learning rate: 0.001 - Loss: 0.7168716
Epoch: 3/15 - Batch: 1200/7933 - Learning rate: 0.001 - Loss: 1.0168008
Epoch: 3/15 - Batch: 1300/7933 - Learning rate: 0.001 - Loss: 0.8877006
Epoch: 3/15 - Batch: 1400/7933 - Learning rate: 0.001 - Loss: 0.950249
Epoch: 3/15 - Batch: 1500/7933 - Learning rate: 0.001 - Loss: 0.655946
Epoch: 3/15 - Batch: 1600/7933 - Learning rate: 0.001 - Loss: 1.2797251
Epoch: 3/15 - Batch: 1700/7933 - Learning rate: 0.001 - Loss: 0.95130056
Epoch: 3/15 - Batch: 1800/7933 - Learning rate: 0.001 - Loss: 0.5200477
Epoch: 3/15 - Batch: 1900/7933 - Learning rate: 0.001 - Loss: 0.7846107
Epoch: 3/15 - Batch: 2000/7933 - Learning rate: 0.001 - Loss: 0.8157328 - Dev BLEU: 0.13835840095738114
Epoch: 3/15 - Batch: 2100/7933 - Learning rate: 0.001 - Loss: 0.6790401
Epoch: 3/15 - Batch: 2200/7933 - Learning rate: 0.001 - Loss: 0.7284934
Epoch: 3/15 - Batch: 2300/7933 - Learning rate: 0.001 - Loss: 0.88471544
Epoch: 3/15 - Batch: 2400/7933 - Learning rate: 0.001 - Loss: 0.7126015
Epoch: 3/15 - Batch: 2500/7933 - Learning rate: 0.001 - Loss: 0.7188119
Epoch: 3/15 - Batch: 2600/7933 - Learning rate: 0.001 - Loss: 0.56144005
Epoch: 3/15 - Batch: 2700/7933 - Learning rate: 0.001 - Loss: 0.31768504
Epoch: 3/15 - Batch: 2800/7933 - Learning rate: 0.001 - Loss: 0.91374576
Epoch: 3/15 - Batch: 2900/7933 - Learning rate: 0.001 - Loss: 1.0192394
Epoch: 3/15 - Batch: 3000/7933 - Learning rate: 0.001 - Loss: 0.9326683 - Dev BLEU: 0.14627245935323385
Epoch: 3/15 - Batch: 3100/7933 - Learning rate: 0.001 - Loss: 0.9318718
Epoch: 3/15 - Batch: 3200/7933 - Learning rate: 0.001 - Loss: 0.8594165
Epoch: 3/15 - Batch: 3300/7933 - Learning rate: 0.001 - Loss: 0.7061873
Epoch: 3/15 - Batch: 3400/7933 - Learning rate: 0.001 - Loss: 0.69795376
Epoch: 3/15 - Batch: 3500/7933 - Learning rate: 0.001 - Loss: 0.94495517
Epoch: 3/15 - Batch: 3600/7933 - Learning rate: 0.001 - Loss: 0.90512735
Epoch: 3/15 - Batch: 3700/7933 - Learning rate: 0.001 - Loss: 0.9089384
Epoch: 3/15 - Batch: 3800/7933 - Learning rate: 0.001 - Loss: 0.84466565
Epoch: 3/15 - Batch: 3900/7933 - Learning rate: 0.001 - Loss: 0.9886535
Epoch: 3/15 - Batch: 4000/7933 - Learning rate: 0.001 - Loss: 0.5448594 - Dev BLEU: 0.15459050587468562
Epoch: 3/15 - Batch: 4100/7933 - Learning rate: 0.001 - Loss: 0.71574295
Epoch: 3/15 - Batch: 4200/7933 - Learning rate: 0.001 - Loss: 0.6784639
Epoch: 3/15 - Batch: 4300/7933 - Learning rate: 0.001 - Loss: 0.741323
Epoch: 3/15 - Batch: 4400/7933 - Learning rate: 0.001 - Loss: 0.72570723
Epoch: 3/15 - Batch: 4500/7933 - Learning rate: 0.001 - Loss: 0.8174467
Epoch: 3/15 - Batch: 4600/7933 - Learning rate: 0.001 - Loss: 1.5022715
Epoch: 3/15 - Batch: 4700/7933 - Learning rate: 0.001 - Loss: 1.0720625
Epoch: 3/15 - Batch: 4800/7933 - Learning rate: 0.001 - Loss: 1.0557146
Epoch: 3/15 - Batch: 4900/7933 - Learning rate: 0.001 - Loss: 1.1680127
Epoch: 3/15 - Batch: 5000/7933 - Learning rate: 0.001 - Loss: 1.1969801 - Dev BLEU: 0.1754901263376083
Epoch: 3/15 - Batch: 5100/7933 - Learning rate: 0.001 - Loss: 1.2630477
Epoch: 3/15 - Batch: 5200/7933 - Learning rate: 0.001 - Loss: 1.1987112
Epoch: 3/15 - Batch: 5300/7933 - Learning rate: 0.001 - Loss: 1.1849526
Epoch: 3/15 - Batch: 5400/7933 - Learning rate: 0.001 - Loss: 1.1359804
Epoch: 3/15 - Batch: 5500/7933 - Learning rate: 0.001 - Loss: 1.130354
Epoch: 3/15 - Batch: 5600/7933 - Learning rate: 0.001 - Loss: 0.8938602
Epoch: 3/15 - Batch: 5700/7933 - Learning rate: 0.001 - Loss: 1.1152891
Epoch: 3/15 - Batch: 5800/7933 - Learning rate: 0.001 - Loss: 1.0951592
Epoch: 3/15 - Batch: 5900/7933 - Learning rate: 0.001 - Loss: 0.80240434
Epoch: 3/15 - Batch: 6000/7933 - Learning rate: 0.001 - Loss: 1.1255552 - Dev BLEU: 0.17015073157676341
Epoch: 3/15 - Batch: 6100/7933 - Learning rate: 0.001 - Loss: 1.0765167
Epoch: 3/15 - Batch: 6200/7933 - Learning rate: 0.001 - Loss: 0.94172305
Epoch: 3/15 - Batch: 6300/7933 - Learning rate: 0.001 - Loss: 0.92073274
Epoch: 3/15 - Batch: 6400/7933 - Learning rate: 0.001 - Loss: 0.813253
Epoch: 3/15 - Batch: 6500/7933 - Learning rate: 0.001 - Loss: 0.91466767
Epoch: 3/15 - Batch: 6600/7933 - Learning rate: 0.001 - Loss: 0.9202338
Epoch: 3/15 - Batch: 6700/7933 - Learning rate: 0.001 - Loss: 0.8662341
Epoch: 3/15 - Batch: 6800/7933 - Learning rate: 0.001 - Loss: 0.8218354
Epoch: 3/15 - Batch: 6900/7933 - Learning rate: 0.001 - Loss: 0.5923179
Epoch: 3/15 - Batch: 7000/7933 - Learning rate: 0.001 - Loss: 1.2428045 - Dev BLEU: 0.21511658408777243
Epoch: 3/15 - Batch: 7100/7933 - Learning rate: 0.001 - Loss: 0.93908775
Epoch: 3/15 - Batch: 7200/7933 - Learning rate: 0.001 - Loss: 0.7433574
Epoch: 3/15 - Batch: 7300/7933 - Learning rate: 0.001 - Loss: 0.91252965
Epoch: 3/15 - Batch: 7400/7933 - Learning rate: 0.001 - Loss: 0.9537914
Epoch: 3/15 - Batch: 7500/7933 - Learning rate: 0.001 - Loss: 0.69200987
Epoch: 3/15 - Batch: 7600/7933 - Learning rate: 0.001 - Loss: 1.2652738
Epoch: 3/15 - Batch: 7700/7933 - Learning rate: 0.001 - Loss: 1.3937749
Epoch: 3/15 - Batch: 7800/7933 - Learning rate: 0.001 - Loss: 1.2875891
Epoch: 3/15 - Batch: 7900/7933 - Learning rate: 0.001 - Loss: 0.95170295
Epoch: 3/15 - Batch: 7933/7933 - Learning rate: 0.001 - Loss: 1.3140061 - Dev BLEU: 0.19942541352987095
Epoch: 4/15 - Batch: 100/7933 - Learning rate: 0.001 - Loss: 0.84484506
Epoch: 4/15 - Batch: 200/7933 - Learning rate: 0.001 - Loss: 0.81746864
Epoch: 4/15 - Batch: 300/7933 - Learning rate: 0.001 - Loss: 0.57742727
Epoch: 4/15 - Batch: 400/7933 - Learning rate: 0.001 - Loss: 0.97965264
Epoch: 4/15 - Batch: 500/7933 - Learning rate: 0.001 - Loss: 0.69867253
Epoch: 4/15 - Batch: 600/7933 - Learning rate: 0.001 - Loss: 0.43283615
Epoch: 4/15 - Batch: 700/7933 - Learning rate: 0.001 - Loss: 0.70975804
Epoch: 4/15 - Batch: 800/7933 - Learning rate: 0.001 - Loss: 0.6978713
Epoch: 4/15 - Batch: 900/7933 - Learning rate: 0.001 - Loss: 0.45885915
Epoch: 4/15 - Batch: 1000/7933 - Learning rate: 0.001 - Loss: 0.77071357 - Dev BLEU: 0.17819399833775093
Epoch: 4/15 - Batch: 1100/7933 - Learning rate: 0.001 - Loss: 0.6749679
Epoch: 4/15 - Batch: 1200/7933 - Learning rate: 0.001 - Loss: 0.93842196
Epoch: 4/15 - Batch: 1300/7933 - Learning rate: 0.001 - Loss: 0.81246316
Epoch: 4/15 - Batch: 1400/7933 - Learning rate: 0.001 - Loss: 0.88367766
Epoch: 4/15 - Batch: 1500/7933 - Learning rate: 0.001 - Loss: 0.61022687
Epoch: 4/15 - Batch: 1600/7933 - Learning rate: 0.001 - Loss: 1.1703584
Epoch: 4/15 - Batch: 1700/7933 - Learning rate: 0.001 - Loss: 0.8676802
Epoch: 4/15 - Batch: 1800/7933 - Learning rate: 0.001 - Loss: 0.47082198
Epoch: 4/15 - Batch: 1900/7933 - Learning rate: 0.001 - Loss: 0.71462566
Epoch: 4/15 - Batch: 2000/7933 - Learning rate: 0.001 - Loss: 0.74569875 - Dev BLEU: 0.1568207211034764
Epoch: 4/15 - Batch: 2100/7933 - Learning rate: 0.001 - Loss: 0.6273689
Epoch: 4/15 - Batch: 2200/7933 - Learning rate: 0.001 - Loss: 0.6524988
Epoch: 4/15 - Batch: 2300/7933 - Learning rate: 0.001 - Loss: 0.7927448
Epoch: 4/15 - Batch: 2400/7933 - Learning rate: 0.001 - Loss: 0.65567136
Epoch: 4/15 - Batch: 2500/7933 - Learning rate: 0.001 - Loss: 0.643892
Epoch: 4/15 - Batch: 2600/7933 - Learning rate: 0.001 - Loss: 0.52931356
Epoch: 4/15 - Batch: 2700/7933 - Learning rate: 0.001 - Loss: 0.29001993
Epoch: 4/15 - Batch: 2800/7933 - Learning rate: 0.001 - Loss: 0.8333583
Epoch: 4/15 - Batch: 2900/7933 - Learning rate: 0.001 - Loss: 0.9531262
Epoch: 4/15 - Batch: 3000/7933 - Learning rate: 0.001 - Loss: 0.870348 - Dev BLEU: 0.1654548823502916
Epoch: 4/15 - Batch: 3100/7933 - Learning rate: 0.001 - Loss: 0.8606307
Epoch: 4/15 - Batch: 3200/7933 - Learning rate: 0.001 - Loss: 0.799711
Epoch: 4/15 - Batch: 3300/7933 - Learning rate: 0.001 - Loss: 0.67304236
Epoch: 4/15 - Batch: 3400/7933 - Learning rate: 0.001 - Loss: 0.65309244
Epoch: 4/15 - Batch: 3500/7933 - Learning rate: 0.001 - Loss: 0.8752148
Epoch: 4/15 - Batch: 3600/7933 - Learning rate: 0.001 - Loss: 0.83844733
Epoch: 4/15 - Batch: 3700/7933 - Learning rate: 0.001 - Loss: 0.82536775
Epoch: 4/15 - Batch: 3800/7933 - Learning rate: 0.001 - Loss: 0.7753058
Epoch: 4/15 - Batch: 3900/7933 - Learning rate: 0.001 - Loss: 0.9124169
Epoch: 4/15 - Batch: 4000/7933 - Learning rate: 0.001 - Loss: 0.5095346 - Dev BLEU: 0.17251815724057395
Epoch: 4/15 - Batch: 4100/7933 - Learning rate: 0.001 - Loss: 0.6742339
Epoch: 4/15 - Batch: 4200/7933 - Learning rate: 0.001 - Loss: 0.62440956
Epoch: 4/15 - Batch: 4300/7933 - Learning rate: 0.001 - Loss: 0.705458
Epoch: 4/15 - Batch: 4400/7933 - Learning rate: 0.001 - Loss: 0.66996956
Epoch: 4/15 - Batch: 4500/7933 - Learning rate: 0.001 - Loss: 0.78838015
Epoch: 4/15 - Batch: 4600/7933 - Learning rate: 0.001 - Loss: 1.3524954
Epoch: 4/15 - Batch: 4700/7933 - Learning rate: 0.001 - Loss: 0.98407924
Epoch: 4/15 - Batch: 4800/7933 - Learning rate: 0.001 - Loss: 0.9560968
Epoch: 4/15 - Batch: 4900/7933 - Learning rate: 0.001 - Loss: 1.0727379
Epoch: 4/15 - Batch: 5000/7933 - Learning rate: 0.001 - Loss: 1.1090379 - Dev BLEU: 0.19648786960800604
Epoch: 4/15 - Batch: 5100/7933 - Learning rate: 0.001 - Loss: 1.1676494
Epoch: 4/15 - Batch: 5200/7933 - Learning rate: 0.001 - Loss: 1.1184262
Epoch: 4/15 - Batch: 5300/7933 - Learning rate: 0.001 - Loss: 1.0894847
Epoch: 4/15 - Batch: 5400/7933 - Learning rate: 0.001 - Loss: 1.0456252
Epoch: 4/15 - Batch: 5500/7933 - Learning rate: 0.001 - Loss: 1.0601894
Epoch: 4/15 - Batch: 5600/7933 - Learning rate: 0.001 - Loss: 0.8288106
Epoch: 4/15 - Batch: 5700/7933 - Learning rate: 0.001 - Loss: 1.0349909
Epoch: 4/15 - Batch: 5800/7933 - Learning rate: 0.001 - Loss: 1.018233
Epoch: 4/15 - Batch: 5900/7933 - Learning rate: 0.001 - Loss: 0.7240113
Epoch: 4/15 - Batch: 6000/7933 - Learning rate: 0.001 - Loss: 1.0482152 - Dev BLEU: 0.18637036947095295
Epoch: 4/15 - Batch: 6100/7933 - Learning rate: 0.001 - Loss: 1.0066428
Epoch: 4/15 - Batch: 6200/7933 - Learning rate: 0.001 - Loss: 0.8804989
Epoch: 4/15 - Batch: 6300/7933 - Learning rate: 0.001 - Loss: 0.8729164
Epoch: 4/15 - Batch: 6400/7933 - Learning rate: 0.001 - Loss: 0.7626601
Epoch: 4/15 - Batch: 6500/7933 - Learning rate: 0.001 - Loss: 0.865546
Epoch: 4/15 - Batch: 6600/7933 - Learning rate: 0.001 - Loss: 0.8492385
Epoch: 4/15 - Batch: 6700/7933 - Learning rate: 0.001 - Loss: 0.81490225
Epoch: 4/15 - Batch: 6800/7933 - Learning rate: 0.001 - Loss: 0.78258824
Epoch: 4/15 - Batch: 6900/7933 - Learning rate: 0.001 - Loss: 0.55536777
Epoch: 4/15 - Batch: 7000/7933 - Learning rate: 0.001 - Loss: 1.1752436 - Dev BLEU: 0.2283660648207961
Epoch: 4/15 - Batch: 7100/7933 - Learning rate: 0.001 - Loss: 0.8858585
Epoch: 4/15 - Batch: 7200/7933 - Learning rate: 0.001 - Loss: 0.70653063
Epoch: 4/15 - Batch: 7300/7933 - Learning rate: 0.001 - Loss: 0.8588993
Epoch: 4/15 - Batch: 7400/7933 - Learning rate: 0.001 - Loss: 0.9115193
Epoch: 4/15 - Batch: 7500/7933 - Learning rate: 0.001 - Loss: 0.65904707
Epoch: 4/15 - Batch: 7600/7933 - Learning rate: 0.001 - Loss: 1.1884344
Epoch: 4/15 - Batch: 7700/7933 - Learning rate: 0.001 - Loss: 1.3427238
Epoch: 4/15 - Batch: 7800/7933 - Learning rate: 0.001 - Loss: 1.2029203
Epoch: 4/15 - Batch: 7900/7933 - Learning rate: 0.001 - Loss: 0.9044454
Epoch: 4/15 - Batch: 7933/7933 - Learning rate: 0.001 - Loss: 1.2063853 - Dev BLEU: 0.2085458140575914
Epoch: 5/15 - Batch: 100/7933 - Learning rate: 0.001 - Loss: 0.8260573
Epoch: 5/15 - Batch: 200/7933 - Learning rate: 0.001 - Loss: 0.7499387
Epoch: 5/15 - Batch: 300/7933 - Learning rate: 0.001 - Loss: 0.5567286
Epoch: 5/15 - Batch: 400/7933 - Learning rate: 0.001 - Loss: 0.93544585
Epoch: 5/15 - Batch: 500/7933 - Learning rate: 0.001 - Loss: 0.6376565
Epoch: 5/15 - Batch: 600/7933 - Learning rate: 0.001 - Loss: 0.41027904
Epoch: 5/15 - Batch: 700/7933 - Learning rate: 0.001 - Loss: 0.673099
Epoch: 5/15 - Batch: 800/7933 - Learning rate: 0.001 - Loss: 0.65385747
Epoch: 5/15 - Batch: 900/7933 - Learning rate: 0.001 - Loss: 0.43536586
Epoch: 5/15 - Batch: 1000/7933 - Learning rate: 0.001 - Loss: 0.72674924 - Dev BLEU: 0.18896053117788972
Epoch: 5/15 - Batch: 1100/7933 - Learning rate: 0.001 - Loss: 0.6265247
Epoch: 5/15 - Batch: 1200/7933 - Learning rate: 0.001 - Loss: 0.895
Epoch: 5/15 - Batch: 1300/7933 - Learning rate: 0.001 - Loss: 0.7515836
Epoch: 5/15 - Batch: 1400/7933 - Learning rate: 0.001 - Loss: 0.8409254
Epoch: 5/15 - Batch: 1500/7933 - Learning rate: 0.001 - Loss: 0.5780644
Epoch: 5/15 - Batch: 1600/7933 - Learning rate: 0.001 - Loss: 1.105357
Epoch: 5/15 - Batch: 1700/7933 - Learning rate: 0.001 - Loss: 0.8247385
Epoch: 5/15 - Batch: 1800/7933 - Learning rate: 0.001 - Loss: 0.44236487
Epoch: 5/15 - Batch: 1900/7933 - Learning rate: 0.001 - Loss: 0.67456126
Epoch: 5/15 - Batch: 2000/7933 - Learning rate: 0.001 - Loss: 0.6948921 - Dev BLEU: 0.16692099701639024
Epoch: 5/15 - Batch: 2100/7933 - Learning rate: 0.001 - Loss: 0.60371166
Epoch: 5/15 - Batch: 2200/7933 - Learning rate: 0.001 - Loss: 0.59826297
Epoch: 5/15 - Batch: 2300/7933 - Learning rate: 0.001 - Loss: 0.7438781
Epoch: 5/15 - Batch: 2400/7933 - Learning rate: 0.001 - Loss: 0.6184628
Epoch: 5/15 - Batch: 2500/7933 - Learning rate: 0.001 - Loss: 0.6024037
Epoch: 5/15 - Batch: 2600/7933 - Learning rate: 0.001 - Loss: 0.49379265
Epoch: 5/15 - Batch: 2700/7933 - Learning rate: 0.001 - Loss: 0.2809409
Epoch: 5/15 - Batch: 2800/7933 - Learning rate: 0.001 - Loss: 0.78492343
Epoch: 5/15 - Batch: 2900/7933 - Learning rate: 0.001 - Loss: 0.9136456
Epoch: 5/15 - Batch: 3000/7933 - Learning rate: 0.001 - Loss: 0.8184758 - Dev BLEU: 0.17212587251708772
Epoch: 5/15 - Batch: 3100/7933 - Learning rate: 0.001 - Loss: 0.82040334
Epoch: 5/15 - Batch: 3200/7933 - Learning rate: 0.001 - Loss: 0.7585565
Epoch: 5/15 - Batch: 3300/7933 - Learning rate: 0.001 - Loss: 0.6397706
Epoch: 5/15 - Batch: 3400/7933 - Learning rate: 0.001 - Loss: 0.625263
Epoch: 5/15 - Batch: 3500/7933 - Learning rate: 0.001 - Loss: 0.8379081
Epoch: 5/15 - Batch: 3600/7933 - Learning rate: 0.001 - Loss: 0.80695426
Epoch: 5/15 - Batch: 3700/7933 - Learning rate: 0.001 - Loss: 0.7788192
Epoch: 5/15 - Batch: 3800/7933 - Learning rate: 0.001 - Loss: 0.7570856
Epoch: 5/15 - Batch: 3900/7933 - Learning rate: 0.001 - Loss: 0.86793715
Epoch: 5/15 - Batch: 4000/7933 - Learning rate: 0.001 - Loss: 0.48505008 - Dev BLEU: 0.18310191178327018
Epoch: 5/15 - Batch: 4100/7933 - Learning rate: 0.001 - Loss: 0.6377974
Epoch: 5/15 - Batch: 4200/7933 - Learning rate: 0.001 - Loss: 0.60899615
Epoch: 5/15 - Batch: 4300/7933 - Learning rate: 0.001 - Loss: 0.6698575
Epoch: 5/15 - Batch: 4400/7933 - Learning rate: 0.001 - Loss: 0.6404999
Epoch: 5/15 - Batch: 4500/7933 - Learning rate: 0.001 - Loss: 0.7351332
Epoch: 5/15 - Batch: 4600/7933 - Learning rate: 0.001 - Loss: 1.2842139
Epoch: 5/15 - Batch: 4700/7933 - Learning rate: 0.001 - Loss: 0.9340221
Epoch: 5/15 - Batch: 4800/7933 - Learning rate: 0.001 - Loss: 0.8984652
Epoch: 5/15 - Batch: 4900/7933 - Learning rate: 0.001 - Loss: 1.0039389
Epoch: 5/15 - Batch: 5000/7933 - Learning rate: 0.001 - Loss: 1.0595888 - Dev BLEU: 0.20862685239883094
Epoch: 5/15 - Batch: 5100/7933 - Learning rate: 0.001 - Loss: 1.1079812
Epoch: 5/15 - Batch: 5200/7933 - Learning rate: 0.001 - Loss: 1.0715797
Epoch: 5/15 - Batch: 5300/7933 - Learning rate: 0.001 - Loss: 1.0331651
Epoch: 5/15 - Batch: 5400/7933 - Learning rate: 0.001 - Loss: 0.9865975
Epoch: 5/15 - Batch: 5500/7933 - Learning rate: 0.001 - Loss: 0.9978118
Epoch: 5/15 - Batch: 5600/7933 - Learning rate: 0.001 - Loss: 0.7783066
Epoch: 5/15 - Batch: 5700/7933 - Learning rate: 0.001 - Loss: 0.99888897
Epoch: 5/15 - Batch: 5800/7933 - Learning rate: 0.001 - Loss: 0.9633735
Epoch: 5/15 - Batch: 5900/7933 - Learning rate: 0.001 - Loss: 0.6855139
Epoch: 5/15 - Batch: 6000/7933 - Learning rate: 0.001 - Loss: 0.9768062 - Dev BLEU: 0.19130667438818508
Epoch: 5/15 - Batch: 6100/7933 - Learning rate: 0.001 - Loss: 0.94695204
Epoch: 5/15 - Batch: 6200/7933 - Learning rate: 0.001 - Loss: 0.8654892
Epoch: 5/15 - Batch: 6300/7933 - Learning rate: 0.001 - Loss: 0.822046
Epoch: 5/15 - Batch: 6400/7933 - Learning rate: 0.001 - Loss: 0.7353317
Epoch: 5/15 - Batch: 6500/7933 - Learning rate: 0.001 - Loss: 0.83000755
Epoch: 5/15 - Batch: 6600/7933 - Learning rate: 0.001 - Loss: 0.8068632
Epoch: 5/15 - Batch: 6700/7933 - Learning rate: 0.001 - Loss: 0.7894098
Epoch: 5/15 - Batch: 6800/7933 - Learning rate: 0.001 - Loss: 0.76087624
Epoch: 5/15 - Batch: 6900/7933 - Learning rate: 0.001 - Loss: 0.53153706
Epoch: 5/15 - Batch: 7000/7933 - Learning rate: 0.001 - Loss: 1.1352333 - Dev BLEU: 0.23367663995806834
Epoch: 5/15 - Batch: 7100/7933 - Learning rate: 0.001 - Loss: 0.8504958
Epoch: 5/15 - Batch: 7200/7933 - Learning rate: 0.001 - Loss: 0.6721242
Epoch: 5/15 - Batch: 7300/7933 - Learning rate: 0.001 - Loss: 0.83156633
Epoch: 5/15 - Batch: 7400/7933 - Learning rate: 0.001 - Loss: 0.8766577
Epoch: 5/15 - Batch: 7500/7933 - Learning rate: 0.001 - Loss: 0.63786954
Epoch: 5/15 - Batch: 7600/7933 - Learning rate: 0.001 - Loss: 1.1423824
Epoch: 5/15 - Batch: 7700/7933 - Learning rate: 0.001 - Loss: 1.2848253
Epoch: 5/15 - Batch: 7800/7933 - Learning rate: 0.001 - Loss: 1.1642549
Epoch: 5/15 - Batch: 7900/7933 - Learning rate: 0.001 - Loss: 0.8712052
Epoch: 5/15 - Batch: 7933/7933 - Learning rate: 0.001 - Loss: 1.1391917 - Dev BLEU: 0.21853480112909907
Epoch: 6/15 - Batch: 100/7933 - Learning rate: 0.001 - Loss: 0.8031724
Epoch: 6/15 - Batch: 200/7933 - Learning rate: 0.001 - Loss: 0.6944941
Epoch: 6/15 - Batch: 300/7933 - Learning rate: 0.001 - Loss: 0.5262438
Epoch: 6/15 - Batch: 400/7933 - Learning rate: 0.001 - Loss: 0.8955969
Epoch: 6/15 - Batch: 500/7933 - Learning rate: 0.001 - Loss: 0.6059015
Epoch: 6/15 - Batch: 600/7933 - Learning rate: 0.001 - Loss: 0.40067652
Epoch: 6/15 - Batch: 700/7933 - Learning rate: 0.001 - Loss: 0.6491548
Epoch: 6/15 - Batch: 800/7933 - Learning rate: 0.001 - Loss: 0.6419376
Epoch: 6/15 - Batch: 900/7933 - Learning rate: 0.001 - Loss: 0.41723368
Epoch: 6/15 - Batch: 1000/7933 - Learning rate: 0.001 - Loss: 0.71659064 - Dev BLEU: 0.1952094237166161
Epoch: 6/15 - Batch: 1100/7933 - Learning rate: 0.001 - Loss: 0.60814476
Epoch: 6/15 - Batch: 1200/7933 - Learning rate: 0.001 - Loss: 0.8618821
Epoch: 6/15 - Batch: 1300/7933 - Learning rate: 0.001 - Loss: 0.72377366
Epoch: 6/15 - Batch: 1400/7933 - Learning rate: 0.001 - Loss: 0.8038695
Epoch: 6/15 - Batch: 1500/7933 - Learning rate: 0.001 - Loss: 0.56867665
Epoch: 6/15 - Batch: 1600/7933 - Learning rate: 0.001 - Loss: 1.0627992
Epoch: 6/15 - Batch: 1700/7933 - Learning rate: 0.001 - Loss: 0.7952621
Epoch: 6/15 - Batch: 1800/7933 - Learning rate: 0.001 - Loss: 0.42772982
Epoch: 6/15 - Batch: 1900/7933 - Learning rate: 0.001 - Loss: 0.6485315
Epoch: 6/15 - Batch: 2000/7933 - Learning rate: 0.001 - Loss: 0.68761843 - Dev BLEU: 0.17165806626826036
Epoch: 6/15 - Batch: 2100/7933 - Learning rate: 0.001 - Loss: 0.57993215
Epoch: 6/15 - Batch: 2200/7933 - Learning rate: 0.001 - Loss: 0.58233255
Epoch: 6/15 - Batch: 2300/7933 - Learning rate: 0.001 - Loss: 0.7246085
Epoch: 6/15 - Batch: 2400/7933 - Learning rate: 0.001 - Loss: 0.59595543
Epoch: 6/15 - Batch: 2500/7933 - Learning rate: 0.001 - Loss: 0.5688598
Epoch: 6/15 - Batch: 2600/7933 - Learning rate: 0.001 - Loss: 0.47510242
Epoch: 6/15 - Batch: 2700/7933 - Learning rate: 0.001 - Loss: 0.27064723
Epoch: 6/15 - Batch: 2800/7933 - Learning rate: 0.001 - Loss: 0.7484843
Epoch: 6/15 - Batch: 2900/7933 - Learning rate: 0.001 - Loss: 0.8846456
Epoch: 6/15 - Batch: 3000/7933 - Learning rate: 0.001 - Loss: 0.779539 - Dev BLEU: 0.17817867582125763
Epoch: 6/15 - Batch: 3100/7933 - Learning rate: 0.001 - Loss: 0.80251116
Epoch: 6/15 - Batch: 3200/7933 - Learning rate: 0.001 - Loss: 0.7416125
Epoch: 6/15 - Batch: 3300/7933 - Learning rate: 0.001 - Loss: 0.6321961
Epoch: 6/15 - Batch: 3400/7933 - Learning rate: 0.001 - Loss: 0.6051297
Epoch: 6/15 - Batch: 3500/7933 - Learning rate: 0.001 - Loss: 0.7957066
Epoch: 6/15 - Batch: 3600/7933 - Learning rate: 0.001 - Loss: 0.7811421
Epoch: 6/15 - Batch: 3700/7933 - Learning rate: 0.001 - Loss: 0.7721183
Epoch: 6/15 - Batch: 3800/7933 - Learning rate: 0.001 - Loss: 0.7318019
Epoch: 6/15 - Batch: 3900/7933 - Learning rate: 0.001 - Loss: 0.8229639
Epoch: 6/15 - Batch: 4000/7933 - Learning rate: 0.001 - Loss: 0.47715756 - Dev BLEU: 0.18623401478190893
Epoch: 6/15 - Batch: 4100/7933 - Learning rate: 0.001 - Loss: 0.6104559
Epoch: 6/15 - Batch: 4200/7933 - Learning rate: 0.001 - Loss: 0.5793913
Epoch: 6/15 - Batch: 4300/7933 - Learning rate: 0.001 - Loss: 0.65581673
Epoch: 6/15 - Batch: 4400/7933 - Learning rate: 0.001 - Loss: 0.6099823
Epoch: 6/15 - Batch: 4500/7933 - Learning rate: 0.001 - Loss: 0.72407955
Epoch: 6/15 - Batch: 4600/7933 - Learning rate: 0.001 - Loss: 1.2004975
Epoch: 6/15 - Batch: 4700/7933 - Learning rate: 0.001 - Loss: 0.867085
Epoch: 6/15 - Batch: 4800/7933 - Learning rate: 0.001 - Loss: 0.82568634
Epoch: 6/15 - Batch: 4900/7933 - Learning rate: 0.001 - Loss: 0.9774664
Epoch: 6/15 - Batch: 5000/7933 - Learning rate: 0.001 - Loss: 1.0051408 - Dev BLEU: 0.2143269715541348
Epoch: 6/15 - Batch: 5100/7933 - Learning rate: 0.001 - Loss: 1.0724795
Epoch: 6/15 - Batch: 5200/7933 - Learning rate: 0.001 - Loss: 1.03036
Epoch: 6/15 - Batch: 5300/7933 - Learning rate: 0.001 - Loss: 0.983074
Epoch: 6/15 - Batch: 5400/7933 - Learning rate: 0.001 - Loss: 0.9590666
Epoch: 6/15 - Batch: 5500/7933 - Learning rate: 0.001 - Loss: 0.9580969
Epoch: 6/15 - Batch: 5600/7933 - Learning rate: 0.001 - Loss: 0.7617652
Epoch: 6/15 - Batch: 5700/7933 - Learning rate: 0.001 - Loss: 0.92188144
Epoch: 6/15 - Batch: 5800/7933 - Learning rate: 0.001 - Loss: 0.92135
Epoch: 6/15 - Batch: 5900/7933 - Learning rate: 0.001 - Loss: 0.65060043
Epoch: 6/15 - Batch: 6000/7933 - Learning rate: 0.001 - Loss: 0.9571594 - Dev BLEU: 0.2028610703303692
Epoch: 6/15 - Batch: 6100/7933 - Learning rate: 0.001 - Loss: 0.9138794
Epoch: 6/15 - Batch: 6200/7933 - Learning rate: 0.001 - Loss: 0.8165741
Epoch: 6/15 - Batch: 6300/7933 - Learning rate: 0.001 - Loss: 0.7837793
Epoch: 6/15 - Batch: 6400/7933 - Learning rate: 0.001 - Loss: 0.72301376
Epoch: 6/15 - Batch: 6500/7933 - Learning rate: 0.001 - Loss: 0.94343895
Epoch: 6/15 - Batch: 6600/7933 - Learning rate: 0.001 - Loss: 0.81865937
Epoch: 6/15 - Batch: 6700/7933 - Learning rate: 0.001 - Loss: 0.7877578
Epoch: 6/15 - Batch: 6800/7933 - Learning rate: 0.001 - Loss: 0.7823626
Epoch: 6/15 - Batch: 6900/7933 - Learning rate: 0.001 - Loss: 0.5392008
Epoch: 6/15 - Batch: 7000/7933 - Learning rate: 0.001 - Loss: 1.1315206 - Dev BLEU: 0.23749122478365695
Epoch: 6/15 - Batch: 7100/7933 - Learning rate: 0.001 - Loss: 0.830478
Epoch: 6/15 - Batch: 7200/7933 - Learning rate: 0.001 - Loss: 0.6690976
Epoch: 6/15 - Batch: 7300/7933 - Learning rate: 0.001 - Loss: 0.8158185
Epoch: 6/15 - Batch: 7400/7933 - Learning rate: 0.001 - Loss: 0.88010573
Epoch: 6/15 - Batch: 7500/7933 - Learning rate: 0.001 - Loss: 0.63402253
Epoch: 6/15 - Batch: 7600/7933 - Learning rate: 0.001 - Loss: 1.1391789
Epoch: 6/15 - Batch: 7700/7933 - Learning rate: 0.001 - Loss: 1.2860402
Epoch: 6/15 - Batch: 7800/7933 - Learning rate: 0.001 - Loss: 1.1390042
Epoch: 6/15 - Batch: 7900/7933 - Learning rate: 0.001 - Loss: 0.8614889
Epoch: 6/15 - Batch: 7933/7933 - Learning rate: 0.001 - Loss: 1.1289437 - Dev BLEU: 0.22177238842687969
Epoch: 7/15 - Batch: 100/7933 - Learning rate: 0.001 - Loss: 0.78891295
Epoch: 7/15 - Batch: 200/7933 - Learning rate: 0.001 - Loss: 0.6959841
Epoch: 7/15 - Batch: 300/7933 - Learning rate: 0.001 - Loss: 0.5153318
Epoch: 7/15 - Batch: 400/7933 - Learning rate: 0.001 - Loss: 0.8554792
Epoch: 7/15 - Batch: 500/7933 - Learning rate: 0.001 - Loss: 0.5960556
Epoch: 7/15 - Batch: 600/7933 - Learning rate: 0.001 - Loss: 0.39569777
Epoch: 7/15 - Batch: 700/7933 - Learning rate: 0.001 - Loss: 0.6240561
Epoch: 7/15 - Batch: 800/7933 - Learning rate: 0.001 - Loss: 0.60946107
Epoch: 7/15 - Batch: 900/7933 - Learning rate: 0.001 - Loss: 0.4135798
Epoch: 7/15 - Batch: 1000/7933 - Learning rate: 0.001 - Loss: 0.68688965 - Dev BLEU: 0.2026832582894803
Epoch: 7/15 - Batch: 1100/7933 - Learning rate: 0.001 - Loss: 0.60136557
Epoch: 7/15 - Batch: 1200/7933 - Learning rate: 0.001 - Loss: 0.81757015
Epoch: 7/15 - Batch: 1300/7933 - Learning rate: 0.001 - Loss: 0.6849966
Epoch: 7/15 - Batch: 1400/7933 - Learning rate: 0.001 - Loss: 0.78687674
Epoch: 7/15 - Batch: 1500/7933 - Learning rate: 0.001 - Loss: 0.548165
Epoch: 7/15 - Batch: 1600/7933 - Learning rate: 0.001 - Loss: 1.0302657
Epoch: 7/15 - Batch: 1700/7933 - Learning rate: 0.001 - Loss: 0.77912474
Epoch: 7/15 - Batch: 1800/7933 - Learning rate: 0.001 - Loss: 0.41626954
Epoch: 7/15 - Batch: 1900/7933 - Learning rate: 0.001 - Loss: 0.6463157
Epoch: 7/15 - Batch: 2000/7933 - Learning rate: 0.001 - Loss: 0.65396607 - Dev BLEU: 0.18187502582842247
Epoch: 7/15 - Batch: 2100/7933 - Learning rate: 0.001 - Loss: 0.5641477
Epoch: 7/15 - Batch: 2200/7933 - Learning rate: 0.001 - Loss: 0.5621601
Epoch: 7/15 - Batch: 2300/7933 - Learning rate: 0.001 - Loss: 0.68735754
Epoch: 7/15 - Batch: 2400/7933 - Learning rate: 0.001 - Loss: 0.55950785
Epoch: 7/15 - Batch: 2500/7933 - Learning rate: 0.001 - Loss: 0.553092
Epoch: 7/15 - Batch: 2600/7933 - Learning rate: 0.001 - Loss: 0.4533917
Epoch: 7/15 - Batch: 2700/7933 - Learning rate: 0.001 - Loss: 0.2593617
Epoch: 7/15 - Batch: 2800/7933 - Learning rate: 0.001 - Loss: 0.7211114
Epoch: 7/15 - Batch: 2900/7933 - Learning rate: 0.001 - Loss: 0.850665
Epoch: 7/15 - Batch: 3000/7933 - Learning rate: 0.001 - Loss: 0.74826986 - Dev BLEU: 0.17752935161188546
Epoch: 7/15 - Batch: 3100/7933 - Learning rate: 0.001 - Loss: 0.7771852
Epoch: 7/15 - Batch: 3200/7933 - Learning rate: 0.001 - Loss: 0.7225629
Epoch: 7/15 - Batch: 3300/7933 - Learning rate: 0.001 - Loss: 0.61497223
Epoch: 7/15 - Batch: 3400/7933 - Learning rate: 0.001 - Loss: 0.5937339
Epoch: 7/15 - Batch: 3500/7933 - Learning rate: 0.001 - Loss: 0.776956
Epoch: 7/15 - Batch: 3600/7933 - Learning rate: 0.001 - Loss: 0.7368602
Epoch: 7/15 - Batch: 3700/7933 - Learning rate: 0.001 - Loss: 0.72707576
Epoch: 7/15 - Batch: 3800/7933 - Learning rate: 0.001 - Loss: 0.6997176
Epoch: 7/15 - Batch: 3900/7933 - Learning rate: 0.001 - Loss: 0.792137
Epoch: 7/15 - Batch: 4000/7933 - Learning rate: 0.001 - Loss: 0.45947656 - Dev BLEU: 0.19728967078823845
Epoch: 7/15 - Batch: 4100/7933 - Learning rate: 0.001 - Loss: 0.60097986
Epoch: 7/15 - Batch: 4200/7933 - Learning rate: 0.001 - Loss: 0.5731899
Epoch: 7/15 - Batch: 4300/7933 - Learning rate: 0.001 - Loss: 0.6460936
Epoch: 7/15 - Batch: 4400/7933 - Learning rate: 0.001 - Loss: 0.5908925
Epoch: 7/15 - Batch: 4500/7933 - Learning rate: 0.001 - Loss: 0.69148844
Epoch: 7/15 - Batch: 4600/7933 - Learning rate: 0.001 - Loss: 1.1311014
Epoch: 7/15 - Batch: 4700/7933 - Learning rate: 0.001 - Loss: 0.82189405
Epoch: 7/15 - Batch: 4800/7933 - Learning rate: 0.001 - Loss: 0.7897079
Epoch: 7/15 - Batch: 4900/7933 - Learning rate: 0.001 - Loss: 0.93482643
Epoch: 7/15 - Batch: 5000/7933 - Learning rate: 0.001 - Loss: 0.96300364 - Dev BLEU: 0.22093249597636944
Epoch: 7/15 - Batch: 5100/7933 - Learning rate: 0.001 - Loss: 1.0295469
Epoch: 7/15 - Batch: 5200/7933 - Learning rate: 0.001 - Loss: 1.0017278
Epoch: 7/15 - Batch: 5300/7933 - Learning rate: 0.001 - Loss: 0.96142906
Epoch: 7/15 - Batch: 5400/7933 - Learning rate: 0.001 - Loss: 0.9220449
Epoch: 7/15 - Batch: 5500/7933 - Learning rate: 0.001 - Loss: 0.9341388
Epoch: 7/15 - Batch: 5600/7933 - Learning rate: 0.001 - Loss: 0.72154826
Epoch: 7/15 - Batch: 5700/7933 - Learning rate: 0.001 - Loss: 0.8990855
Epoch: 7/15 - Batch: 5800/7933 - Learning rate: 0.001 - Loss: 0.8998696
Epoch: 7/15 - Batch: 5900/7933 - Learning rate: 0.001 - Loss: 0.63236976
Epoch: 7/15 - Batch: 6000/7933 - Learning rate: 0.001 - Loss: 0.9100506 - Dev BLEU: 0.20881119651408814
Epoch: 7/15 - Batch: 6100/7933 - Learning rate: 0.001 - Loss: 0.87137854
Epoch: 7/15 - Batch: 6200/7933 - Learning rate: 0.001 - Loss: 0.8033373
Epoch: 7/15 - Batch: 6300/7933 - Learning rate: 0.001 - Loss: 0.7863246
Epoch: 7/15 - Batch: 6400/7933 - Learning rate: 0.001 - Loss: 0.70408887
Epoch: 7/15 - Batch: 6500/7933 - Learning rate: 0.001 - Loss: 0.8019878
Epoch: 7/15 - Batch: 6600/7933 - Learning rate: 0.001 - Loss: 0.7696958
Epoch: 7/15 - Batch: 6700/7933 - Learning rate: 0.001 - Loss: 0.75106317
Epoch: 7/15 - Batch: 6800/7933 - Learning rate: 0.001 - Loss: 0.73835516
Epoch: 7/15 - Batch: 6900/7933 - Learning rate: 0.001 - Loss: 0.50889677
Epoch: 7/15 - Batch: 7000/7933 - Learning rate: 0.001 - Loss: 1.0825038 - Dev BLEU: 0.24334142505592857
Epoch: 7/15 - Batch: 7100/7933 - Learning rate: 0.001 - Loss: 0.8073873
Epoch: 7/15 - Batch: 7200/7933 - Learning rate: 0.001 - Loss: 0.6494699
Epoch: 7/15 - Batch: 7300/7933 - Learning rate: 0.001 - Loss: 0.7932444
Epoch: 7/15 - Batch: 7400/7933 - Learning rate: 0.001 - Loss: 0.85941803
Epoch: 7/15 - Batch: 7500/7933 - Learning rate: 0.001 - Loss: 0.61845464
Epoch: 7/15 - Batch: 7600/7933 - Learning rate: 0.001 - Loss: 1.0972015
Epoch: 7/15 - Batch: 7700/7933 - Learning rate: 0.001 - Loss: 1.2390747
Epoch: 7/15 - Batch: 7800/7933 - Learning rate: 0.001 - Loss: 1.1212636
Epoch: 7/15 - Batch: 7900/7933 - Learning rate: 0.001 - Loss: 0.8284645
Epoch: 7/15 - Batch: 7933/7933 - Learning rate: 0.001 - Loss: 1.0592071 - Dev BLEU: 0.2232446091170824
Epoch: 8/15 - Batch: 100/7933 - Learning rate: 0.0005 - Loss: 0.7594116
Epoch: 8/15 - Batch: 200/7933 - Learning rate: 0.0005 - Loss: 0.6812751
Epoch: 8/15 - Batch: 300/7933 - Learning rate: 0.0005 - Loss: 0.4936186
Epoch: 8/15 - Batch: 400/7933 - Learning rate: 0.0005 - Loss: 0.83490086
Epoch: 8/15 - Batch: 500/7933 - Learning rate: 0.0005 - Loss: 0.5668866
Epoch: 8/15 - Batch: 600/7933 - Learning rate: 0.0005 - Loss: 0.38049147
Epoch: 8/15 - Batch: 700/7933 - Learning rate: 0.0005 - Loss: 0.5884981
Epoch: 8/15 - Batch: 800/7933 - Learning rate: 0.0005 - Loss: 0.5893252
Epoch: 8/15 - Batch: 900/7933 - Learning rate: 0.0005 - Loss: 0.39491948
Epoch: 8/15 - Batch: 1000/7933 - Learning rate: 0.0005 - Loss: 0.66171956 - Dev BLEU: 0.21024145666340854
Epoch: 8/15 - Batch: 1100/7933 - Learning rate: 0.0005 - Loss: 0.5740711
Epoch: 8/15 - Batch: 1200/7933 - Learning rate: 0.0005 - Loss: 0.80051714
Epoch: 8/15 - Batch: 1300/7933 - Learning rate: 0.0005 - Loss: 0.6575241
Epoch: 8/15 - Batch: 1400/7933 - Learning rate: 0.0005 - Loss: 0.7543899
Epoch: 8/15 - Batch: 1500/7933 - Learning rate: 0.0005 - Loss: 0.5272549
Epoch: 8/15 - Batch: 1600/7933 - Learning rate: 0.0005 - Loss: 1.0033419
Epoch: 8/15 - Batch: 1700/7933 - Learning rate: 0.0005 - Loss: 0.7348199
Epoch: 8/15 - Batch: 1800/7933 - Learning rate: 0.0005 - Loss: 0.38871187
Epoch: 8/15 - Batch: 1900/7933 - Learning rate: 0.0005 - Loss: 0.61780137
Epoch: 8/15 - Batch: 2000/7933 - Learning rate: 0.0005 - Loss: 0.61755735 - Dev BLEU: 0.20105784681542982
Epoch: 8/15 - Batch: 2100/7933 - Learning rate: 0.0005 - Loss: 0.5363116
Epoch: 8/15 - Batch: 2200/7933 - Learning rate: 0.0005 - Loss: 0.53765225
Epoch: 8/15 - Batch: 2300/7933 - Learning rate: 0.0005 - Loss: 0.6485046
Epoch: 8/15 - Batch: 2400/7933 - Learning rate: 0.0005 - Loss: 0.5321769
Epoch: 8/15 - Batch: 2500/7933 - Learning rate: 0.0005 - Loss: 0.5147444
Epoch: 8/15 - Batch: 2600/7933 - Learning rate: 0.0005 - Loss: 0.43827802
Epoch: 8/15 - Batch: 2700/7933 - Learning rate: 0.0005 - Loss: 0.25131574
Epoch: 8/15 - Batch: 2800/7933 - Learning rate: 0.0005 - Loss: 0.6788722
Epoch: 8/15 - Batch: 2900/7933 - Learning rate: 0.0005 - Loss: 0.8159734
Epoch: 8/15 - Batch: 3000/7933 - Learning rate: 0.0005 - Loss: 0.7081085 - Dev BLEU: 0.18672808265865862
Epoch: 8/15 - Batch: 3100/7933 - Learning rate: 0.0005 - Loss: 0.7307731
Epoch: 8/15 - Batch: 3200/7933 - Learning rate: 0.0005 - Loss: 0.6943433
Epoch: 8/15 - Batch: 3300/7933 - Learning rate: 0.0005 - Loss: 0.5895515
Epoch: 8/15 - Batch: 3400/7933 - Learning rate: 0.0005 - Loss: 0.5657087
Epoch: 8/15 - Batch: 3500/7933 - Learning rate: 0.0005 - Loss: 0.7230714
Epoch: 8/15 - Batch: 3600/7933 - Learning rate: 0.0005 - Loss: 0.7236486
Epoch: 8/15 - Batch: 3700/7933 - Learning rate: 0.0005 - Loss: 0.68604857
Epoch: 8/15 - Batch: 3800/7933 - Learning rate: 0.0005 - Loss: 0.67160565
Epoch: 8/15 - Batch: 3900/7933 - Learning rate: 0.0005 - Loss: 0.7448487
Epoch: 8/15 - Batch: 4000/7933 - Learning rate: 0.0005 - Loss: 0.44022295 - Dev BLEU: 0.21358415152838428
Epoch: 8/15 - Batch: 4100/7933 - Learning rate: 0.0005 - Loss: 0.55858994
Epoch: 8/15 - Batch: 4200/7933 - Learning rate: 0.0005 - Loss: 0.5355914
Epoch: 8/15 - Batch: 4300/7933 - Learning rate: 0.0005 - Loss: 0.6051921
Epoch: 8/15 - Batch: 4400/7933 - Learning rate: 0.0005 - Loss: 0.5772441
Epoch: 8/15 - Batch: 4500/7933 - Learning rate: 0.0005 - Loss: 0.6617148
Epoch: 8/15 - Batch: 4600/7933 - Learning rate: 0.0005 - Loss: 0.99925697
Epoch: 8/15 - Batch: 4700/7933 - Learning rate: 0.0005 - Loss: 0.73257995
Epoch: 8/15 - Batch: 4800/7933 - Learning rate: 0.0005 - Loss: 0.70988727
Epoch: 8/15 - Batch: 4900/7933 - Learning rate: 0.0005 - Loss: 0.83430916
Epoch: 8/15 - Batch: 5000/7933 - Learning rate: 0.0005 - Loss: 0.89733905 - Dev BLEU: 0.2358689662828089
Epoch: 8/15 - Batch: 5100/7933 - Learning rate: 0.0005 - Loss: 0.95622873
Epoch: 8/15 - Batch: 5200/7933 - Learning rate: 0.0005 - Loss: 0.9116862
Epoch: 8/15 - Batch: 5300/7933 - Learning rate: 0.0005 - Loss: 0.87418336
Epoch: 8/15 - Batch: 5400/7933 - Learning rate: 0.0005 - Loss: 0.8479276
Epoch: 8/15 - Batch: 5500/7933 - Learning rate: 0.0005 - Loss: 0.82065946
Epoch: 8/15 - Batch: 5600/7933 - Learning rate: 0.0005 - Loss: 0.6435024
Epoch: 8/15 - Batch: 5700/7933 - Learning rate: 0.0005 - Loss: 0.82127225
Epoch: 8/15 - Batch: 5800/7933 - Learning rate: 0.0005 - Loss: 0.8022236
Epoch: 8/15 - Batch: 5900/7933 - Learning rate: 0.0005 - Loss: 0.5424382
Epoch: 8/15 - Batch: 6000/7933 - Learning rate: 0.0005 - Loss: 0.8495063 - Dev BLEU: 0.22992548569362176
Epoch: 8/15 - Batch: 6100/7933 - Learning rate: 0.0005 - Loss: 0.78906417
Epoch: 8/15 - Batch: 6200/7933 - Learning rate: 0.0005 - Loss: 0.74255943
Epoch: 8/15 - Batch: 6300/7933 - Learning rate: 0.0005 - Loss: 0.70228887
Epoch: 8/15 - Batch: 6400/7933 - Learning rate: 0.0005 - Loss: 0.64746356
Epoch: 8/15 - Batch: 6500/7933 - Learning rate: 0.0005 - Loss: 0.7490912
Epoch: 8/15 - Batch: 6600/7933 - Learning rate: 0.0005 - Loss: 0.7263347
Epoch: 8/15 - Batch: 6700/7933 - Learning rate: 0.0005 - Loss: 0.7188131
Epoch: 8/15 - Batch: 6800/7933 - Learning rate: 0.0005 - Loss: 0.7179598
Epoch: 8/15 - Batch: 6900/7933 - Learning rate: 0.0005 - Loss: 0.48570964
Epoch: 8/15 - Batch: 7000/7933 - Learning rate: 0.0005 - Loss: 1.0246586 - Dev BLEU: 0.24997946336612725
Epoch: 8/15 - Batch: 7100/7933 - Learning rate: 0.0005 - Loss: 0.77386653
Epoch: 8/15 - Batch: 7200/7933 - Learning rate: 0.0005 - Loss: 0.6144558
Epoch: 8/15 - Batch: 7300/7933 - Learning rate: 0.0005 - Loss: 0.75196594
Epoch: 8/15 - Batch: 7400/7933 - Learning rate: 0.0005 - Loss: 0.81273055
Epoch: 8/15 - Batch: 7500/7933 - Learning rate: 0.0005 - Loss: 0.5944874
Epoch: 8/15 - Batch: 7600/7933 - Learning rate: 0.0005 - Loss: 1.0430703
Epoch: 8/15 - Batch: 7700/7933 - Learning rate: 0.0005 - Loss: 1.1936507
Epoch: 8/15 - Batch: 7800/7933 - Learning rate: 0.0005 - Loss: 1.0430591
Epoch: 8/15 - Batch: 7900/7933 - Learning rate: 0.0005 - Loss: 0.78405416
Epoch: 8/15 - Batch: 7933/7933 - Learning rate: 0.0005 - Loss: 0.9830843 - Dev BLEU: 0.23650000502640606
Epoch: 9/15 - Batch: 100/7933 - Learning rate: 0.00025 - Loss: 0.7417934
Epoch: 9/15 - Batch: 200/7933 - Learning rate: 0.00025 - Loss: 0.6377258
Epoch: 9/15 - Batch: 300/7933 - Learning rate: 0.00025 - Loss: 0.4909914
Epoch: 9/15 - Batch: 400/7933 - Learning rate: 0.00025 - Loss: 0.7924326
Epoch: 9/15 - Batch: 500/7933 - Learning rate: 0.00025 - Loss: 0.5261966
Epoch: 9/15 - Batch: 600/7933 - Learning rate: 0.00025 - Loss: 0.3774117
Epoch: 9/15 - Batch: 700/7933 - Learning rate: 0.00025 - Loss: 0.574993
Epoch: 9/15 - Batch: 800/7933 - Learning rate: 0.00025 - Loss: 0.56695247
Epoch: 9/15 - Batch: 900/7933 - Learning rate: 0.00025 - Loss: 0.380516
Epoch: 9/15 - Batch: 1000/7933 - Learning rate: 0.00025 - Loss: 0.6306742 - Dev BLEU: 0.2245261463992099
Epoch: 9/15 - Batch: 1100/7933 - Learning rate: 0.00025 - Loss: 0.55807287
Epoch: 9/15 - Batch: 1200/7933 - Learning rate: 0.00025 - Loss: 0.75101304
Epoch: 9/15 - Batch: 1300/7933 - Learning rate: 0.00025 - Loss: 0.63446957
Epoch: 9/15 - Batch: 1400/7933 - Learning rate: 0.00025 - Loss: 0.717687
Epoch: 9/15 - Batch: 1500/7933 - Learning rate: 0.00025 - Loss: 0.5140847
Epoch: 9/15 - Batch: 1600/7933 - Learning rate: 0.00025 - Loss: 0.96921575
Epoch: 9/15 - Batch: 1700/7933 - Learning rate: 0.00025 - Loss: 0.71198833
Epoch: 9/15 - Batch: 1800/7933 - Learning rate: 0.00025 - Loss: 0.36908686
Epoch: 9/15 - Batch: 1900/7933 - Learning rate: 0.00025 - Loss: 0.59770626
Epoch: 9/15 - Batch: 2000/7933 - Learning rate: 0.00025 - Loss: 0.5957604 - Dev BLEU: 0.21302090273785407
Epoch: 9/15 - Batch: 2100/7933 - Learning rate: 0.00025 - Loss: 0.5088661
Epoch: 9/15 - Batch: 2200/7933 - Learning rate: 0.00025 - Loss: 0.50131625
Epoch: 9/15 - Batch: 2300/7933 - Learning rate: 0.00025 - Loss: 0.61682546
Epoch: 9/15 - Batch: 2400/7933 - Learning rate: 0.00025 - Loss: 0.49952155
Epoch: 9/15 - Batch: 2500/7933 - Learning rate: 0.00025 - Loss: 0.501759
Epoch: 9/15 - Batch: 2600/7933 - Learning rate: 0.00025 - Loss: 0.417869
Epoch: 9/15 - Batch: 2700/7933 - Learning rate: 0.00025 - Loss: 0.24287546
Epoch: 9/15 - Batch: 2800/7933 - Learning rate: 0.00025 - Loss: 0.65299624
Epoch: 9/15 - Batch: 2900/7933 - Learning rate: 0.00025 - Loss: 0.7899971
Epoch: 9/15 - Batch: 3000/7933 - Learning rate: 0.00025 - Loss: 0.6861555 - Dev BLEU: 0.2162807936414312
Epoch: 9/15 - Batch: 3100/7933 - Learning rate: 0.00025 - Loss: 0.7115324
Epoch: 9/15 - Batch: 3200/7933 - Learning rate: 0.00025 - Loss: 0.65801805
Epoch: 9/15 - Batch: 3300/7933 - Learning rate: 0.00025 - Loss: 0.5650126
Epoch: 9/15 - Batch: 3400/7933 - Learning rate: 0.00025 - Loss: 0.5363686
Epoch: 9/15 - Batch: 3500/7933 - Learning rate: 0.00025 - Loss: 0.6953488
Epoch: 9/15 - Batch: 3600/7933 - Learning rate: 0.00025 - Loss: 0.68872476
Epoch: 9/15 - Batch: 3700/7933 - Learning rate: 0.00025 - Loss: 0.6816557
Epoch: 9/15 - Batch: 3800/7933 - Learning rate: 0.00025 - Loss: 0.6427531
Epoch: 9/15 - Batch: 3900/7933 - Learning rate: 0.00025 - Loss: 0.6993248
Epoch: 9/15 - Batch: 4000/7933 - Learning rate: 0.00025 - Loss: 0.42642522 - Dev BLEU: 0.2219272917931053
Epoch: 9/15 - Batch: 4100/7933 - Learning rate: 0.00025 - Loss: 0.54407567
Epoch: 9/15 - Batch: 4200/7933 - Learning rate: 0.00025 - Loss: 0.523006
Epoch: 9/15 - Batch: 4300/7933 - Learning rate: 0.00025 - Loss: 0.58802146
Epoch: 9/15 - Batch: 4400/7933 - Learning rate: 0.00025 - Loss: 0.5498677
Epoch: 9/15 - Batch: 4500/7933 - Learning rate: 0.00025 - Loss: 0.64953977
Epoch: 9/15 - Batch: 4600/7933 - Learning rate: 0.00025 - Loss: 0.9482733
Epoch: 9/15 - Batch: 4700/7933 - Learning rate: 0.00025 - Loss: 0.68002075
Epoch: 9/15 - Batch: 4800/7933 - Learning rate: 0.00025 - Loss: 0.65248084
Epoch: 9/15 - Batch: 4900/7933 - Learning rate: 0.00025 - Loss: 0.7700985
Epoch: 9/15 - Batch: 5000/7933 - Learning rate: 0.00025 - Loss: 0.8354309 - Dev BLEU: 0.24348340746076327
Epoch: 9/15 - Batch: 5100/7933 - Learning rate: 0.00025 - Loss: 0.88141525
Epoch: 9/15 - Batch: 5200/7933 - Learning rate: 0.00025 - Loss: 0.8608951
Epoch: 9/15 - Batch: 5300/7933 - Learning rate: 0.00025 - Loss: 0.851806
Epoch: 9/15 - Batch: 5400/7933 - Learning rate: 0.00025 - Loss: 0.7984151
Epoch: 9/15 - Batch: 5500/7933 - Learning rate: 0.00025 - Loss: 0.795194
Epoch: 9/15 - Batch: 5600/7933 - Learning rate: 0.00025 - Loss: 0.6168216
Epoch: 9/15 - Batch: 5700/7933 - Learning rate: 0.00025 - Loss: 0.75610906
Epoch: 9/15 - Batch: 5800/7933 - Learning rate: 0.00025 - Loss: 0.74096704
Epoch: 9/15 - Batch: 5900/7933 - Learning rate: 0.00025 - Loss: 0.51589334
Epoch: 9/15 - Batch: 6000/7933 - Learning rate: 0.00025 - Loss: 0.80331534 - Dev BLEU: 0.24523000148678942
Epoch: 9/15 - Batch: 6100/7933 - Learning rate: 0.00025 - Loss: 0.7339102
Epoch: 9/15 - Batch: 6200/7933 - Learning rate: 0.00025 - Loss: 0.71424675
Epoch: 9/15 - Batch: 6300/7933 - Learning rate: 0.00025 - Loss: 0.64525366
Epoch: 9/15 - Batch: 6400/7933 - Learning rate: 0.00025 - Loss: 0.61972195
Epoch: 9/15 - Batch: 6500/7933 - Learning rate: 0.00025 - Loss: 0.74594015
Epoch: 9/15 - Batch: 6600/7933 - Learning rate: 0.00025 - Loss: 0.70679474
Epoch: 9/15 - Batch: 6700/7933 - Learning rate: 0.00025 - Loss: 0.70933896
Epoch: 9/15 - Batch: 6800/7933 - Learning rate: 0.00025 - Loss: 0.7087654
Epoch: 9/15 - Batch: 6900/7933 - Learning rate: 0.00025 - Loss: 0.4758865
Epoch: 9/15 - Batch: 7000/7933 - Learning rate: 0.00025 - Loss: 1.0079819 - Dev BLEU: 0.25635111560250773
Epoch: 9/15 - Batch: 7100/7933 - Learning rate: 0.00025 - Loss: 0.74548274
Epoch: 9/15 - Batch: 7200/7933 - Learning rate: 0.00025 - Loss: 0.5919354
Epoch: 9/15 - Batch: 7300/7933 - Learning rate: 0.00025 - Loss: 0.72459376
Epoch: 9/15 - Batch: 7400/7933 - Learning rate: 0.00025 - Loss: 0.784651
Epoch: 9/15 - Batch: 7500/7933 - Learning rate: 0.00025 - Loss: 0.5834061
Epoch: 9/15 - Batch: 7600/7933 - Learning rate: 0.00025 - Loss: 0.9942233
Epoch: 9/15 - Batch: 7700/7933 - Learning rate: 0.00025 - Loss: 1.1592357
Epoch: 9/15 - Batch: 7800/7933 - Learning rate: 0.00025 - Loss: 0.98473847
Epoch: 9/15 - Batch: 7900/7933 - Learning rate: 0.00025 - Loss: 0.7732054
Epoch: 9/15 - Batch: 7933/7933 - Learning rate: 0.00025 - Loss: 0.9462941 - Dev BLEU: 0.24386973190210964
Epoch: 10/15 - Batch: 100/7933 - Learning rate: 0.000125 - Loss: 0.7273329
Epoch: 10/15 - Batch: 200/7933 - Learning rate: 0.000125 - Loss: 0.61020964
Epoch: 10/15 - Batch: 300/7933 - Learning rate: 0.000125 - Loss: 0.47551432
Epoch: 10/15 - Batch: 400/7933 - Learning rate: 0.000125 - Loss: 0.77447677
Epoch: 10/15 - Batch: 500/7933 - Learning rate: 0.000125 - Loss: 0.51991546
Epoch: 10/15 - Batch: 600/7933 - Learning rate: 0.000125 - Loss: 0.3720177
Epoch: 10/15 - Batch: 700/7933 - Learning rate: 0.000125 - Loss: 0.5691567
Epoch: 10/15 - Batch: 800/7933 - Learning rate: 0.000125 - Loss: 0.5504067
Epoch: 10/15 - Batch: 900/7933 - Learning rate: 0.000125 - Loss: 0.37338656
Epoch: 10/15 - Batch: 1000/7933 - Learning rate: 0.000125 - Loss: 0.61344016 - Dev BLEU: 0.2310196014751587
Epoch: 10/15 - Batch: 1100/7933 - Learning rate: 0.000125 - Loss: 0.55174714
Epoch: 10/15 - Batch: 1200/7933 - Learning rate: 0.000125 - Loss: 0.7315745
Epoch: 10/15 - Batch: 1300/7933 - Learning rate: 0.000125 - Loss: 0.6107754
Epoch: 10/15 - Batch: 1400/7933 - Learning rate: 0.000125 - Loss: 0.71008116
Epoch: 10/15 - Batch: 1500/7933 - Learning rate: 0.000125 - Loss: 0.51548105
Epoch: 10/15 - Batch: 1600/7933 - Learning rate: 0.000125 - Loss: 0.9442479
Epoch: 10/15 - Batch: 1700/7933 - Learning rate: 0.000125 - Loss: 0.69674087
Epoch: 10/15 - Batch: 1800/7933 - Learning rate: 0.000125 - Loss: 0.37038034
Epoch: 10/15 - Batch: 1900/7933 - Learning rate: 0.000125 - Loss: 0.58845234
Epoch: 10/15 - Batch: 2000/7933 - Learning rate: 0.000125 - Loss: 0.595203 - Dev BLEU: 0.2239978836625433
Epoch: 10/15 - Batch: 2100/7933 - Learning rate: 0.000125 - Loss: 0.49504325
Epoch: 10/15 - Batch: 2200/7933 - Learning rate: 0.000125 - Loss: 0.49724695
Epoch: 10/15 - Batch: 2300/7933 - Learning rate: 0.000125 - Loss: 0.6124477
Epoch: 10/15 - Batch: 2400/7933 - Learning rate: 0.000125 - Loss: 0.48950696
Epoch: 10/15 - Batch: 2500/7933 - Learning rate: 0.000125 - Loss: 0.49277487
Epoch: 10/15 - Batch: 2600/7933 - Learning rate: 0.000125 - Loss: 0.41342875
Epoch: 10/15 - Batch: 2700/7933 - Learning rate: 0.000125 - Loss: 0.23924975
Epoch: 10/15 - Batch: 2800/7933 - Learning rate: 0.000125 - Loss: 0.62573445
Epoch: 10/15 - Batch: 2900/7933 - Learning rate: 0.000125 - Loss: 0.7836165
Epoch: 10/15 - Batch: 3000/7933 - Learning rate: 0.000125 - Loss: 0.6665135 - Dev BLEU: 0.22369070888407766
Epoch: 10/15 - Batch: 3100/7933 - Learning rate: 0.000125 - Loss: 0.68205494
Epoch: 10/15 - Batch: 3200/7933 - Learning rate: 0.000125 - Loss: 0.65149504
Epoch: 10/15 - Batch: 3300/7933 - Learning rate: 0.000125 - Loss: 0.55720586
Epoch: 10/15 - Batch: 3400/7933 - Learning rate: 0.000125 - Loss: 0.53705287
Epoch: 10/15 - Batch: 3500/7933 - Learning rate: 0.000125 - Loss: 0.6630644
Epoch: 10/15 - Batch: 3600/7933 - Learning rate: 0.000125 - Loss: 0.67284393
Epoch: 10/15 - Batch: 3700/7933 - Learning rate: 0.000125 - Loss: 0.64040637
Epoch: 10/15 - Batch: 3800/7933 - Learning rate: 0.000125 - Loss: 0.6189608
Epoch: 10/15 - Batch: 3900/7933 - Learning rate: 0.000125 - Loss: 0.69352293
Epoch: 10/15 - Batch: 4000/7933 - Learning rate: 0.000125 - Loss: 0.41604114 - Dev BLEU: 0.2281102300635755
Epoch: 10/15 - Batch: 4100/7933 - Learning rate: 0.000125 - Loss: 0.5333111
Epoch: 10/15 - Batch: 4200/7933 - Learning rate: 0.000125 - Loss: 0.5063178
Epoch: 10/15 - Batch: 4300/7933 - Learning rate: 0.000125 - Loss: 0.5785979
Epoch: 10/15 - Batch: 4400/7933 - Learning rate: 0.000125 - Loss: 0.54121226
Epoch: 10/15 - Batch: 4500/7933 - Learning rate: 0.000125 - Loss: 0.6244858
Epoch: 10/15 - Batch: 4600/7933 - Learning rate: 0.000125 - Loss: 0.8746172
Epoch: 10/15 - Batch: 4700/7933 - Learning rate: 0.000125 - Loss: 0.6428709
Epoch: 10/15 - Batch: 4800/7933 - Learning rate: 0.000125 - Loss: 0.6271112
Epoch: 10/15 - Batch: 4900/7933 - Learning rate: 0.000125 - Loss: 0.73715645
Epoch: 10/15 - Batch: 5000/7933 - Learning rate: 0.000125 - Loss: 0.82229054 - Dev BLEU: 0.2475735935973547
Epoch: 10/15 - Batch: 5100/7933 - Learning rate: 0.000125 - Loss: 0.860438
Epoch: 10/15 - Batch: 5200/7933 - Learning rate: 0.000125 - Loss: 0.8428919
Epoch: 10/15 - Batch: 5300/7933 - Learning rate: 0.000125 - Loss: 0.81607085
Epoch: 10/15 - Batch: 5400/7933 - Learning rate: 0.000125 - Loss: 0.77530766
Epoch: 10/15 - Batch: 5500/7933 - Learning rate: 0.000125 - Loss: 0.7787919
Epoch: 10/15 - Batch: 5600/7933 - Learning rate: 0.000125 - Loss: 0.59573287
Epoch: 10/15 - Batch: 5700/7933 - Learning rate: 0.000125 - Loss: 0.7290742
Epoch: 10/15 - Batch: 5800/7933 - Learning rate: 0.000125 - Loss: 0.7148093
Epoch: 10/15 - Batch: 5900/7933 - Learning rate: 0.000125 - Loss: 0.5036621
Epoch: 10/15 - Batch: 6000/7933 - Learning rate: 0.000125 - Loss: 0.76067555 - Dev BLEU: 0.24734963486748418
Epoch: 10/15 - Batch: 6100/7933 - Learning rate: 0.000125 - Loss: 0.710264
Epoch: 10/15 - Batch: 6200/7933 - Learning rate: 0.000125 - Loss: 0.6855692
Epoch: 10/15 - Batch: 6300/7933 - Learning rate: 0.000125 - Loss: 0.643398
Epoch: 10/15 - Batch: 6400/7933 - Learning rate: 0.000125 - Loss: 0.6172097
Epoch: 10/15 - Batch: 6500/7933 - Learning rate: 0.000125 - Loss: 0.7251525
Epoch: 10/15 - Batch: 6600/7933 - Learning rate: 0.000125 - Loss: 0.6983516
Epoch: 10/15 - Batch: 6700/7933 - Learning rate: 0.000125 - Loss: 0.70199245
Epoch: 10/15 - Batch: 6800/7933 - Learning rate: 0.000125 - Loss: 0.69150597
Epoch: 10/15 - Batch: 6900/7933 - Learning rate: 0.000125 - Loss: 0.4720058
Epoch: 10/15 - Batch: 7000/7933 - Learning rate: 0.000125 - Loss: 0.992202 - Dev BLEU: 0.25881137875629606
Epoch: 10/15 - Batch: 7100/7933 - Learning rate: 0.000125 - Loss: 0.728798
Epoch: 10/15 - Batch: 7200/7933 - Learning rate: 0.000125 - Loss: 0.59471315
Epoch: 10/15 - Batch: 7300/7933 - Learning rate: 0.000125 - Loss: 0.7247614
Epoch: 10/15 - Batch: 7400/7933 - Learning rate: 0.000125 - Loss: 0.78093964
Epoch: 10/15 - Batch: 7500/7933 - Learning rate: 0.000125 - Loss: 0.578653
Epoch: 10/15 - Batch: 7600/7933 - Learning rate: 0.000125 - Loss: 0.97873044
Epoch: 10/15 - Batch: 7700/7933 - Learning rate: 0.000125 - Loss: 1.1537584
Epoch: 10/15 - Batch: 7800/7933 - Learning rate: 0.000125 - Loss: 0.983477
Epoch: 10/15 - Batch: 7900/7933 - Learning rate: 0.000125 - Loss: 0.7658596
Epoch: 10/15 - Batch: 7933/7933 - Learning rate: 0.000125 - Loss: 0.9520134 - Dev BLEU: 0.24956388410087987
Epoch: 11/15 - Batch: 100/7933 - Learning rate: 6.25e-05 - Loss: 0.7239829
Epoch: 11/15 - Batch: 200/7933 - Learning rate: 6.25e-05 - Loss: 0.6074638
Epoch: 11/15 - Batch: 300/7933 - Learning rate: 6.25e-05 - Loss: 0.4699163
Epoch: 11/15 - Batch: 400/7933 - Learning rate: 6.25e-05 - Loss: 0.7588629
Epoch: 11/15 - Batch: 500/7933 - Learning rate: 6.25e-05 - Loss: 0.50511616
Epoch: 11/15 - Batch: 600/7933 - Learning rate: 6.25e-05 - Loss: 0.36985323
Epoch: 11/15 - Batch: 700/7933 - Learning rate: 6.25e-05 - Loss: 0.55829686
Epoch: 11/15 - Batch: 800/7933 - Learning rate: 6.25e-05 - Loss: 0.5435955
Epoch: 11/15 - Batch: 900/7933 - Learning rate: 6.25e-05 - Loss: 0.3723173
Epoch: 11/15 - Batch: 1000/7933 - Learning rate: 6.25e-05 - Loss: 0.6144441 - Dev BLEU: 0.2355330921258276
Epoch: 11/15 - Batch: 1100/7933 - Learning rate: 6.25e-05 - Loss: 0.55022496
Epoch: 11/15 - Batch: 1200/7933 - Learning rate: 6.25e-05 - Loss: 0.7269302
Epoch: 11/15 - Batch: 1300/7933 - Learning rate: 6.25e-05 - Loss: 0.606402
Epoch: 11/15 - Batch: 1400/7933 - Learning rate: 6.25e-05 - Loss: 0.7011277
Epoch: 11/15 - Batch: 1500/7933 - Learning rate: 6.25e-05 - Loss: 0.51420105
Epoch: 11/15 - Batch: 1600/7933 - Learning rate: 6.25e-05 - Loss: 0.9467283
Epoch: 11/15 - Batch: 1700/7933 - Learning rate: 6.25e-05 - Loss: 0.69694966
Epoch: 11/15 - Batch: 1800/7933 - Learning rate: 6.25e-05 - Loss: 0.36309728
Epoch: 11/15 - Batch: 1900/7933 - Learning rate: 6.25e-05 - Loss: 0.5774096
Epoch: 11/15 - Batch: 2000/7933 - Learning rate: 6.25e-05 - Loss: 0.5870029 - Dev BLEU: 0.23326523276122582
Epoch: 11/15 - Batch: 2100/7933 - Learning rate: 6.25e-05 - Loss: 0.49187958
Epoch: 11/15 - Batch: 2200/7933 - Learning rate: 6.25e-05 - Loss: 0.49178013
Epoch: 11/15 - Batch: 2300/7933 - Learning rate: 6.25e-05 - Loss: 0.6141585
Epoch: 11/15 - Batch: 2400/7933 - Learning rate: 6.25e-05 - Loss: 0.49549717
Epoch: 11/15 - Batch: 2500/7933 - Learning rate: 6.25e-05 - Loss: 0.47923976
Epoch: 11/15 - Batch: 2600/7933 - Learning rate: 6.25e-05 - Loss: 0.41227478
Epoch: 11/15 - Batch: 2700/7933 - Learning rate: 6.25e-05 - Loss: 0.24227962
Epoch: 11/15 - Batch: 2800/7933 - Learning rate: 6.25e-05 - Loss: 0.6214148
Epoch: 11/15 - Batch: 2900/7933 - Learning rate: 6.25e-05 - Loss: 0.7785381
Epoch: 11/15 - Batch: 3000/7933 - Learning rate: 6.25e-05 - Loss: 0.65958744 - Dev BLEU: 0.2305707103110216
Epoch: 11/15 - Batch: 3100/7933 - Learning rate: 6.25e-05 - Loss: 0.6859623
Epoch: 11/15 - Batch: 3200/7933 - Learning rate: 6.25e-05 - Loss: 0.6361312
Epoch: 11/15 - Batch: 3300/7933 - Learning rate: 6.25e-05 - Loss: 0.54172033
Epoch: 11/15 - Batch: 3400/7933 - Learning rate: 6.25e-05 - Loss: 0.53887177
Epoch: 11/15 - Batch: 3500/7933 - Learning rate: 6.25e-05 - Loss: 0.66059756
Epoch: 11/15 - Batch: 3600/7933 - Learning rate: 6.25e-05 - Loss: 0.6576133
Epoch: 11/15 - Batch: 3700/7933 - Learning rate: 6.25e-05 - Loss: 0.6365957
Epoch: 11/15 - Batch: 3800/7933 - Learning rate: 6.25e-05 - Loss: 0.61537695
Epoch: 11/15 - Batch: 3900/7933 - Learning rate: 6.25e-05 - Loss: 0.6934373
Epoch: 11/15 - Batch: 4000/7933 - Learning rate: 6.25e-05 - Loss: 0.40992168 - Dev BLEU: 0.23332149863172882
Epoch: 11/15 - Batch: 4100/7933 - Learning rate: 6.25e-05 - Loss: 0.52755356
Epoch: 11/15 - Batch: 4200/7933 - Learning rate: 6.25e-05 - Loss: 0.50075966
Epoch: 11/15 - Batch: 4300/7933 - Learning rate: 6.25e-05 - Loss: 0.57322663
Epoch: 11/15 - Batch: 4400/7933 - Learning rate: 6.25e-05 - Loss: 0.53030497
Epoch: 11/15 - Batch: 4500/7933 - Learning rate: 6.25e-05 - Loss: 0.61138445
Epoch: 11/15 - Batch: 4600/7933 - Learning rate: 6.25e-05 - Loss: 0.85873693
Epoch: 11/15 - Batch: 4700/7933 - Learning rate: 6.25e-05 - Loss: 0.63158596
Epoch: 11/15 - Batch: 4800/7933 - Learning rate: 6.25e-05 - Loss: 0.59535944
Epoch: 11/15 - Batch: 4900/7933 - Learning rate: 6.25e-05 - Loss: 0.74069434
Epoch: 11/15 - Batch: 5000/7933 - Learning rate: 6.25e-05 - Loss: 0.811245 - Dev BLEU: 0.24887041447782343
Epoch: 11/15 - Batch: 5100/7933 - Learning rate: 6.25e-05 - Loss: 0.8404078
Epoch: 11/15 - Batch: 5200/7933 - Learning rate: 6.25e-05 - Loss: 0.8417404
Epoch: 11/15 - Batch: 5300/7933 - Learning rate: 6.25e-05 - Loss: 0.81666553
Epoch: 11/15 - Batch: 5400/7933 - Learning rate: 6.25e-05 - Loss: 0.7487792
Epoch: 11/15 - Batch: 5500/7933 - Learning rate: 6.25e-05 - Loss: 0.7644798
Epoch: 11/15 - Batch: 5600/7933 - Learning rate: 6.25e-05 - Loss: 0.6021131
Epoch: 11/15 - Batch: 5700/7933 - Learning rate: 6.25e-05 - Loss: 0.71667004
Epoch: 11/15 - Batch: 5800/7933 - Learning rate: 6.25e-05 - Loss: 0.72701126
Epoch: 11/15 - Batch: 5900/7933 - Learning rate: 6.25e-05 - Loss: 0.49240896
Epoch: 11/15 - Batch: 6000/7933 - Learning rate: 6.25e-05 - Loss: 0.7634904 - Dev BLEU: 0.250981030401028
Epoch: 11/15 - Batch: 6100/7933 - Learning rate: 6.25e-05 - Loss: 0.6902861
Epoch: 11/15 - Batch: 6200/7933 - Learning rate: 6.25e-05 - Loss: 0.66890067
Epoch: 11/15 - Batch: 6300/7933 - Learning rate: 6.25e-05 - Loss: 0.6283112
Epoch: 11/15 - Batch: 6400/7933 - Learning rate: 6.25e-05 - Loss: 0.6067401
Epoch: 11/15 - Batch: 6500/7933 - Learning rate: 6.25e-05 - Loss: 0.7083125
Epoch: 11/15 - Batch: 6600/7933 - Learning rate: 6.25e-05 - Loss: 0.69410455
Epoch: 11/15 - Batch: 6700/7933 - Learning rate: 6.25e-05 - Loss: 0.7055139
Epoch: 11/15 - Batch: 6800/7933 - Learning rate: 6.25e-05 - Loss: 0.69484425
Epoch: 11/15 - Batch: 6900/7933 - Learning rate: 6.25e-05 - Loss: 0.46651465
Epoch: 11/15 - Batch: 7000/7933 - Learning rate: 6.25e-05 - Loss: 0.996262 - Dev BLEU: 0.26022764350042316
Epoch: 11/15 - Batch: 7100/7933 - Learning rate: 6.25e-05 - Loss: 0.72667676
Epoch: 11/15 - Batch: 7200/7933 - Learning rate: 6.25e-05 - Loss: 0.59474045
Epoch: 11/15 - Batch: 7300/7933 - Learning rate: 6.25e-05 - Loss: 0.71710986
Epoch: 11/15 - Batch: 7400/7933 - Learning rate: 6.25e-05 - Loss: 0.7748866
Epoch: 11/15 - Batch: 7500/7933 - Learning rate: 6.25e-05 - Loss: 0.5759761
Epoch: 11/15 - Batch: 7600/7933 - Learning rate: 6.25e-05 - Loss: 0.96773976
Epoch: 11/15 - Batch: 7700/7933 - Learning rate: 6.25e-05 - Loss: 1.1376625
Epoch: 11/15 - Batch: 7800/7933 - Learning rate: 6.25e-05 - Loss: 0.97279894
Epoch: 11/15 - Batch: 7900/7933 - Learning rate: 6.25e-05 - Loss: 0.75415015
Epoch: 11/15 - Batch: 7933/7933 - Learning rate: 6.25e-05 - Loss: 0.9574067 - Dev BLEU: 0.2534141247776247
Epoch: 12/15 - Batch: 100/7933 - Learning rate: 3.125e-05 - Loss: 0.71915203
Epoch: 12/15 - Batch: 200/7933 - Learning rate: 3.125e-05 - Loss: 0.6027791
Epoch: 12/15 - Batch: 300/7933 - Learning rate: 3.125e-05 - Loss: 0.4655947
Epoch: 12/15 - Batch: 400/7933 - Learning rate: 3.125e-05 - Loss: 0.75810665
Epoch: 12/15 - Batch: 500/7933 - Learning rate: 3.125e-05 - Loss: 0.5101843
Epoch: 12/15 - Batch: 600/7933 - Learning rate: 3.125e-05 - Loss: 0.36258128
Epoch: 12/15 - Batch: 700/7933 - Learning rate: 3.125e-05 - Loss: 0.5557043
Epoch: 12/15 - Batch: 800/7933 - Learning rate: 3.125e-05 - Loss: 0.5310122
Epoch: 12/15 - Batch: 900/7933 - Learning rate: 3.125e-05 - Loss: 0.3696677
Epoch: 12/15 - Batch: 1000/7933 - Learning rate: 3.125e-05 - Loss: 0.6176505 - Dev BLEU: 0.2413016142660896
Epoch: 12/15 - Batch: 1100/7933 - Learning rate: 3.125e-05 - Loss: 0.5479059
Epoch: 12/15 - Batch: 1200/7933 - Learning rate: 3.125e-05 - Loss: 0.70594937
Epoch: 12/15 - Batch: 1300/7933 - Learning rate: 3.125e-05 - Loss: 0.60563433
Epoch: 12/15 - Batch: 1400/7933 - Learning rate: 3.125e-05 - Loss: 0.6876408
Epoch: 12/15 - Batch: 1500/7933 - Learning rate: 3.125e-05 - Loss: 0.5089489
Epoch: 12/15 - Batch: 1600/7933 - Learning rate: 3.125e-05 - Loss: 0.92988974
Epoch: 12/15 - Batch: 1700/7933 - Learning rate: 3.125e-05 - Loss: 0.6881891
Epoch: 12/15 - Batch: 1800/7933 - Learning rate: 3.125e-05 - Loss: 0.35977072
Epoch: 12/15 - Batch: 1900/7933 - Learning rate: 3.125e-05 - Loss: 0.592406
Epoch: 12/15 - Batch: 2000/7933 - Learning rate: 3.125e-05 - Loss: 0.59386986 - Dev BLEU: 0.23755023811414422
Epoch: 12/15 - Batch: 2100/7933 - Learning rate: 3.125e-05 - Loss: 0.46817195
Epoch: 12/15 - Batch: 2200/7933 - Learning rate: 3.125e-05 - Loss: 0.49745727
Epoch: 12/15 - Batch: 2300/7933 - Learning rate: 3.125e-05 - Loss: 0.61151737
Epoch: 12/15 - Batch: 2400/7933 - Learning rate: 3.125e-05 - Loss: 0.49559292
Epoch: 12/15 - Batch: 2500/7933 - Learning rate: 3.125e-05 - Loss: 0.4856781
Epoch: 12/15 - Batch: 2600/7933 - Learning rate: 3.125e-05 - Loss: 0.4128182
Epoch: 12/15 - Batch: 2700/7933 - Learning rate: 3.125e-05 - Loss: 0.2390462
Epoch: 12/15 - Batch: 2800/7933 - Learning rate: 3.125e-05 - Loss: 0.61542773
Epoch: 12/15 - Batch: 2900/7933 - Learning rate: 3.125e-05 - Loss: 0.75284976
Epoch: 12/15 - Batch: 3000/7933 - Learning rate: 3.125e-05 - Loss: 0.66385436 - Dev BLEU: 0.2363288684811679
Epoch: 12/15 - Batch: 3100/7933 - Learning rate: 3.125e-05 - Loss: 0.6871393
Epoch: 12/15 - Batch: 3200/7933 - Learning rate: 3.125e-05 - Loss: 0.6349905
Epoch: 12/15 - Batch: 3300/7933 - Learning rate: 3.125e-05 - Loss: 0.5482065
Epoch: 12/15 - Batch: 3400/7933 - Learning rate: 3.125e-05 - Loss: 0.53206307
Epoch: 12/15 - Batch: 3500/7933 - Learning rate: 3.125e-05 - Loss: 0.65968823
Epoch: 12/15 - Batch: 3600/7933 - Learning rate: 3.125e-05 - Loss: 0.653167
Epoch: 12/15 - Batch: 3700/7933 - Learning rate: 3.125e-05 - Loss: 0.637944
Epoch: 12/15 - Batch: 3800/7933 - Learning rate: 3.125e-05 - Loss: 0.61888576
Epoch: 12/15 - Batch: 3900/7933 - Learning rate: 3.125e-05 - Loss: 0.6874176
Epoch: 12/15 - Batch: 4000/7933 - Learning rate: 3.125e-05 - Loss: 0.4160733 - Dev BLEU: 0.2362591051653383
Epoch: 12/15 - Batch: 4100/7933 - Learning rate: 3.125e-05 - Loss: 0.54332757
Epoch: 12/15 - Batch: 4200/7933 - Learning rate: 3.125e-05 - Loss: 0.49087033
Epoch: 12/15 - Batch: 4300/7933 - Learning rate: 3.125e-05 - Loss: 0.5670135
Epoch: 12/15 - Batch: 4400/7933 - Learning rate: 3.125e-05 - Loss: 0.52632236
Epoch: 12/15 - Batch: 4500/7933 - Learning rate: 3.125e-05 - Loss: 0.6103131
Epoch: 12/15 - Batch: 4600/7933 - Learning rate: 3.125e-05 - Loss: 0.86128294
Epoch: 12/15 - Batch: 4700/7933 - Learning rate: 3.125e-05 - Loss: 0.6185805
Epoch: 12/15 - Batch: 4800/7933 - Learning rate: 3.125e-05 - Loss: 0.60419023
Epoch: 12/15 - Batch: 4900/7933 - Learning rate: 3.125e-05 - Loss: 0.7213686
Epoch: 12/15 - Batch: 5000/7933 - Learning rate: 3.125e-05 - Loss: 0.7950206 - Dev BLEU: 0.24879946817820808
Epoch: 12/15 - Batch: 5100/7933 - Learning rate: 3.125e-05 - Loss: 0.8460715
Epoch: 12/15 - Batch: 5200/7933 - Learning rate: 3.125e-05 - Loss: 0.8194757
Epoch: 12/15 - Batch: 5300/7933 - Learning rate: 3.125e-05 - Loss: 0.7925041
Epoch: 12/15 - Batch: 5400/7933 - Learning rate: 3.125e-05 - Loss: 0.7486111
Epoch: 12/15 - Batch: 5500/7933 - Learning rate: 3.125e-05 - Loss: 0.73719317
Epoch: 12/15 - Batch: 5600/7933 - Learning rate: 3.125e-05 - Loss: 0.5728295
Epoch: 12/15 - Batch: 5700/7933 - Learning rate: 3.125e-05 - Loss: 0.7079138
Epoch: 12/15 - Batch: 5800/7933 - Learning rate: 3.125e-05 - Loss: 0.69387746
Epoch: 12/15 - Batch: 5900/7933 - Learning rate: 3.125e-05 - Loss: 0.47532827
Epoch: 12/15 - Batch: 6000/7933 - Learning rate: 3.125e-05 - Loss: 0.76165956 - Dev BLEU: 0.2520090691324491
Epoch: 12/15 - Batch: 6100/7933 - Learning rate: 3.125e-05 - Loss: 0.67180187
Epoch: 12/15 - Batch: 6200/7933 - Learning rate: 3.125e-05 - Loss: 0.67063123
Epoch: 12/15 - Batch: 6300/7933 - Learning rate: 3.125e-05 - Loss: 0.63213974
Epoch: 12/15 - Batch: 6400/7933 - Learning rate: 3.125e-05 - Loss: 0.61218953
Epoch: 12/15 - Batch: 6500/7933 - Learning rate: 3.125e-05 - Loss: 0.71170974
Epoch: 12/15 - Batch: 6600/7933 - Learning rate: 3.125e-05 - Loss: 0.6967078
Epoch: 12/15 - Batch: 6700/7933 - Learning rate: 3.125e-05 - Loss: 0.698649
Epoch: 12/15 - Batch: 6800/7933 - Learning rate: 3.125e-05 - Loss: 0.6919235
Epoch: 12/15 - Batch: 6900/7933 - Learning rate: 3.125e-05 - Loss: 0.46560442
Epoch: 12/15 - Batch: 7000/7933 - Learning rate: 3.125e-05 - Loss: 0.99107647 - Dev BLEU: 0.25949658625318894
Epoch: 12/15 - Batch: 7100/7933 - Learning rate: 3.125e-05 - Loss: 0.7217627
Epoch: 12/15 - Batch: 7200/7933 - Learning rate: 3.125e-05 - Loss: 0.5869279
Epoch: 12/15 - Batch: 7300/7933 - Learning rate: 3.125e-05 - Loss: 0.7125555
Epoch: 12/15 - Batch: 7400/7933 - Learning rate: 3.125e-05 - Loss: 0.7703649
Epoch: 12/15 - Batch: 7500/7933 - Learning rate: 3.125e-05 - Loss: 0.58100575
Epoch: 12/15 - Batch: 7600/7933 - Learning rate: 3.125e-05 - Loss: 0.9594384
Epoch: 12/15 - Batch: 7700/7933 - Learning rate: 3.125e-05 - Loss: 1.1290145
Epoch: 12/15 - Batch: 7800/7933 - Learning rate: 3.125e-05 - Loss: 0.9672611
Epoch: 12/15 - Batch: 7900/7933 - Learning rate: 3.125e-05 - Loss: 0.7519671
Epoch: 12/15 - Batch: 7933/7933 - Learning rate: 3.125e-05 - Loss: 0.93971455 - Dev BLEU: 0.25463888200273116
Epoch: 13/15 - Batch: 100/7933 - Learning rate: 1.5625e-05 - Loss: 0.71854824
Epoch: 13/15 - Batch: 200/7933 - Learning rate: 1.5625e-05 - Loss: 0.596538
Epoch: 13/15 - Batch: 300/7933 - Learning rate: 1.5625e-05 - Loss: 0.4612094
Epoch: 13/15 - Batch: 400/7933 - Learning rate: 1.5625e-05 - Loss: 0.74910057
Epoch: 13/15 - Batch: 500/7933 - Learning rate: 1.5625e-05 - Loss: 0.4999503
Epoch: 13/15 - Batch: 600/7933 - Learning rate: 1.5625e-05 - Loss: 0.36489657
Epoch: 13/15 - Batch: 700/7933 - Learning rate: 1.5625e-05 - Loss: 0.5554954
Epoch: 13/15 - Batch: 800/7933 - Learning rate: 1.5625e-05 - Loss: 0.5339408
Epoch: 13/15 - Batch: 900/7933 - Learning rate: 1.5625e-05 - Loss: 0.3659334
Epoch: 13/15 - Batch: 1000/7933 - Learning rate: 1.5625e-05 - Loss: 0.60872 - Dev BLEU: 0.24470948031826134
Epoch: 13/15 - Batch: 1100/7933 - Learning rate: 1.5625e-05 - Loss: 0.5364612
Epoch: 13/15 - Batch: 1200/7933 - Learning rate: 1.5625e-05 - Loss: 0.705811
Epoch: 13/15 - Batch: 1300/7933 - Learning rate: 1.5625e-05 - Loss: 0.6027051
Epoch: 13/15 - Batch: 1400/7933 - Learning rate: 1.5625e-05 - Loss: 0.70023805
Epoch: 13/15 - Batch: 1500/7933 - Learning rate: 1.5625e-05 - Loss: 0.5130268
Epoch: 13/15 - Batch: 1600/7933 - Learning rate: 1.5625e-05 - Loss: 0.93255866
Epoch: 13/15 - Batch: 1700/7933 - Learning rate: 1.5625e-05 - Loss: 0.6807374
Epoch: 13/15 - Batch: 1800/7933 - Learning rate: 1.5625e-05 - Loss: 0.3641061
Epoch: 13/15 - Batch: 1900/7933 - Learning rate: 1.5625e-05 - Loss: 0.5763948
Epoch: 13/15 - Batch: 2000/7933 - Learning rate: 1.5625e-05 - Loss: 0.5907565 - Dev BLEU: 0.24268413792532859
Epoch: 13/15 - Batch: 2100/7933 - Learning rate: 1.5625e-05 - Loss: 0.4754598
Epoch: 13/15 - Batch: 2200/7933 - Learning rate: 1.5625e-05 - Loss: 0.5087932
Epoch: 13/15 - Batch: 2300/7933 - Learning rate: 1.5625e-05 - Loss: 0.6177286
Epoch: 13/15 - Batch: 2400/7933 - Learning rate: 1.5625e-05 - Loss: 0.506946
Epoch: 13/15 - Batch: 2500/7933 - Learning rate: 1.5625e-05 - Loss: 0.48912624
Epoch: 13/15 - Batch: 2600/7933 - Learning rate: 1.5625e-05 - Loss: 0.420398
Epoch: 13/15 - Batch: 2700/7933 - Learning rate: 1.5625e-05 - Loss: 0.2442227
Epoch: 13/15 - Batch: 2800/7933 - Learning rate: 1.5625e-05 - Loss: 0.63101846
Epoch: 13/15 - Batch: 2900/7933 - Learning rate: 1.5625e-05 - Loss: 0.7450838
Epoch: 13/15 - Batch: 3000/7933 - Learning rate: 1.5625e-05 - Loss: 0.6558868 - Dev BLEU: 0.24074288774662947
Epoch: 13/15 - Batch: 3100/7933 - Learning rate: 1.5625e-05 - Loss: 0.673823
Epoch: 13/15 - Batch: 3200/7933 - Learning rate: 1.5625e-05 - Loss: 0.6247277
Epoch: 13/15 - Batch: 3300/7933 - Learning rate: 1.5625e-05 - Loss: 0.5332836
Epoch: 13/15 - Batch: 3400/7933 - Learning rate: 1.5625e-05 - Loss: 0.5294166
Epoch: 13/15 - Batch: 3500/7933 - Learning rate: 1.5625e-05 - Loss: 0.65283847
Epoch: 13/15 - Batch: 3600/7933 - Learning rate: 1.5625e-05 - Loss: 0.6583762
Epoch: 13/15 - Batch: 3700/7933 - Learning rate: 1.5625e-05 - Loss: 0.631337
Epoch: 13/15 - Batch: 3800/7933 - Learning rate: 1.5625e-05 - Loss: 0.6159949
Epoch: 13/15 - Batch: 3900/7933 - Learning rate: 1.5625e-05 - Loss: 0.68614876
Epoch: 13/15 - Batch: 4000/7933 - Learning rate: 1.5625e-05 - Loss: 0.40793982 - Dev BLEU: 0.24038999189573823
Epoch: 13/15 - Batch: 4100/7933 - Learning rate: 1.5625e-05 - Loss: 0.54140514
Epoch: 13/15 - Batch: 4200/7933 - Learning rate: 1.5625e-05 - Loss: 0.48419815
Epoch: 13/15 - Batch: 4300/7933 - Learning rate: 1.5625e-05 - Loss: 0.5702513
Epoch: 13/15 - Batch: 4400/7933 - Learning rate: 1.5625e-05 - Loss: 0.5329059
Epoch: 13/15 - Batch: 4500/7933 - Learning rate: 1.5625e-05 - Loss: 0.6052801
Epoch: 13/15 - Batch: 4600/7933 - Learning rate: 1.5625e-05 - Loss: 0.865059
Epoch: 13/15 - Batch: 4700/7933 - Learning rate: 1.5625e-05 - Loss: 0.62408686
Epoch: 13/15 - Batch: 4800/7933 - Learning rate: 1.5625e-05 - Loss: 0.5901822
Epoch: 13/15 - Batch: 4900/7933 - Learning rate: 1.5625e-05 - Loss: 0.72900677
Epoch: 13/15 - Batch: 5000/7933 - Learning rate: 1.5625e-05 - Loss: 0.79775643 - Dev BLEU: 0.24979476238004952
Epoch: 13/15 - Batch: 5100/7933 - Learning rate: 1.5625e-05 - Loss: 0.83793885
Epoch: 13/15 - Batch: 5200/7933 - Learning rate: 1.5625e-05 - Loss: 0.81104016
Epoch: 13/15 - Batch: 5300/7933 - Learning rate: 1.5625e-05 - Loss: 0.8078472
Epoch: 13/15 - Batch: 5400/7933 - Learning rate: 1.5625e-05 - Loss: 0.7601216
Epoch: 13/15 - Batch: 5500/7933 - Learning rate: 1.5625e-05 - Loss: 0.74156797
Epoch: 13/15 - Batch: 5600/7933 - Learning rate: 1.5625e-05 - Loss: 0.5861975
Epoch: 13/15 - Batch: 5700/7933 - Learning rate: 1.5625e-05 - Loss: 0.7279765
Epoch: 13/15 - Batch: 5800/7933 - Learning rate: 1.5625e-05 - Loss: 0.7013187
Epoch: 13/15 - Batch: 5900/7933 - Learning rate: 1.5625e-05 - Loss: 0.4896214
Epoch: 13/15 - Batch: 6000/7933 - Learning rate: 1.5625e-05 - Loss: 0.7520882 - Dev BLEU: 0.25324527018951953
Epoch: 13/15 - Batch: 6100/7933 - Learning rate: 1.5625e-05 - Loss: 0.67466944
Epoch: 13/15 - Batch: 6200/7933 - Learning rate: 1.5625e-05 - Loss: 0.6701589
Epoch: 13/15 - Batch: 6300/7933 - Learning rate: 1.5625e-05 - Loss: 0.6115717
Epoch: 13/15 - Batch: 6400/7933 - Learning rate: 1.5625e-05 - Loss: 0.60361105
Epoch: 13/15 - Batch: 6500/7933 - Learning rate: 1.5625e-05 - Loss: 0.70950896
Epoch: 13/15 - Batch: 6600/7933 - Learning rate: 1.5625e-05 - Loss: 0.70667773
Epoch: 13/15 - Batch: 6700/7933 - Learning rate: 1.5625e-05 - Loss: 0.700119
Epoch: 13/15 - Batch: 6800/7933 - Learning rate: 1.5625e-05 - Loss: 0.70009196
Epoch: 13/15 - Batch: 6900/7933 - Learning rate: 1.5625e-05 - Loss: 0.46640116
Epoch: 13/15 - Batch: 7000/7933 - Learning rate: 1.5625e-05 - Loss: 0.98522335 - Dev BLEU: 0.2579690874373405
Epoch: 13/15 - Batch: 7100/7933 - Learning rate: 1.5625e-05 - Loss: 0.73666614
Epoch: 13/15 - Batch: 7200/7933 - Learning rate: 1.5625e-05 - Loss: 0.5969716
Epoch: 13/15 - Batch: 7300/7933 - Learning rate: 1.5625e-05 - Loss: 0.71151054
Epoch: 13/15 - Batch: 7400/7933 - Learning rate: 1.5625e-05 - Loss: 0.7738443
Epoch: 13/15 - Batch: 7500/7933 - Learning rate: 1.5625e-05 - Loss: 0.57663524
Epoch: 13/15 - Batch: 7600/7933 - Learning rate: 1.5625e-05 - Loss: 0.96330005
Epoch: 13/15 - Batch: 7700/7933 - Learning rate: 1.5625e-05 - Loss: 1.136638
Epoch: 13/15 - Batch: 7800/7933 - Learning rate: 1.5625e-05 - Loss: 0.95923066
Epoch: 13/15 - Batch: 7900/7933 - Learning rate: 1.5625e-05 - Loss: 0.75755686
Epoch: 13/15 - Batch: 7933/7933 - Learning rate: 1.5625e-05 - Loss: 0.945419 - Dev BLEU: 0.2569722221862222
Epoch: 14/15 - Batch: 100/7933 - Learning rate: 7.8125e-06 - Loss: 0.7143101
Epoch: 14/15 - Batch: 200/7933 - Learning rate: 7.8125e-06 - Loss: 0.5863524
Epoch: 14/15 - Batch: 300/7933 - Learning rate: 7.8125e-06 - Loss: 0.46695328
Epoch: 14/15 - Batch: 400/7933 - Learning rate: 7.8125e-06 - Loss: 0.7472363
Epoch: 14/15 - Batch: 500/7933 - Learning rate: 7.8125e-06 - Loss: 0.49067715
Epoch: 14/15 - Batch: 600/7933 - Learning rate: 7.8125e-06 - Loss: 0.36125916
Epoch: 14/15 - Batch: 700/7933 - Learning rate: 7.8125e-06 - Loss: 0.54675424
Epoch: 14/15 - Batch: 800/7933 - Learning rate: 7.8125e-06 - Loss: 0.5433134
Epoch: 14/15 - Batch: 900/7933 - Learning rate: 7.8125e-06 - Loss: 0.36641866
Epoch: 14/15 - Batch: 1000/7933 - Learning rate: 7.8125e-06 - Loss: 0.62252694 - Dev BLEU: 0.2477930992392566
Epoch: 14/15 - Batch: 1100/7933 - Learning rate: 7.8125e-06 - Loss: 0.54990876
Epoch: 14/15 - Batch: 1200/7933 - Learning rate: 7.8125e-06 - Loss: 0.70551115
Epoch: 14/15 - Batch: 1300/7933 - Learning rate: 7.8125e-06 - Loss: 0.5978189
Epoch: 14/15 - Batch: 1400/7933 - Learning rate: 7.8125e-06 - Loss: 0.68371564
Epoch: 14/15 - Batch: 1500/7933 - Learning rate: 7.8125e-06 - Loss: 0.5083823
Epoch: 14/15 - Batch: 1600/7933 - Learning rate: 7.8125e-06 - Loss: 0.9217443
Epoch: 14/15 - Batch: 1700/7933 - Learning rate: 7.8125e-06 - Loss: 0.696769
Epoch: 14/15 - Batch: 1800/7933 - Learning rate: 7.8125e-06 - Loss: 0.3588412
Epoch: 14/15 - Batch: 1900/7933 - Learning rate: 7.8125e-06 - Loss: 0.5802103
Epoch: 14/15 - Batch: 2000/7933 - Learning rate: 7.8125e-06 - Loss: 0.5871558 - Dev BLEU: 0.2445159485569848
Epoch: 14/15 - Batch: 2100/7933 - Learning rate: 7.8125e-06 - Loss: 0.4792674
Epoch: 14/15 - Batch: 2200/7933 - Learning rate: 7.8125e-06 - Loss: 0.50074023
Epoch: 14/15 - Batch: 2300/7933 - Learning rate: 7.8125e-06 - Loss: 0.62397635
Epoch: 14/15 - Batch: 2400/7933 - Learning rate: 7.8125e-06 - Loss: 0.49693054
Epoch: 14/15 - Batch: 2500/7933 - Learning rate: 7.8125e-06 - Loss: 0.5006268
Epoch: 14/15 - Batch: 2600/7933 - Learning rate: 7.8125e-06 - Loss: 0.42988342
Epoch: 14/15 - Batch: 2700/7933 - Learning rate: 7.8125e-06 - Loss: 0.24572456
Epoch: 14/15 - Batch: 2800/7933 - Learning rate: 7.8125e-06 - Loss: 0.63476074
Epoch: 14/15 - Batch: 2900/7933 - Learning rate: 7.8125e-06 - Loss: 0.7551045
Epoch: 14/15 - Batch: 3000/7933 - Learning rate: 7.8125e-06 - Loss: 0.6503173 - Dev BLEU: 0.2423564130205772
Epoch: 14/15 - Batch: 3100/7933 - Learning rate: 7.8125e-06 - Loss: 0.6724322
Epoch: 14/15 - Batch: 3200/7933 - Learning rate: 7.8125e-06 - Loss: 0.621017
Epoch: 14/15 - Batch: 3300/7933 - Learning rate: 7.8125e-06 - Loss: 0.539102
Epoch: 14/15 - Batch: 3400/7933 - Learning rate: 7.8125e-06 - Loss: 0.5384846
Epoch: 14/15 - Batch: 3500/7933 - Learning rate: 7.8125e-06 - Loss: 0.6490248
Epoch: 14/15 - Batch: 3600/7933 - Learning rate: 7.8125e-06 - Loss: 0.65608066
Epoch: 14/15 - Batch: 3700/7933 - Learning rate: 7.8125e-06 - Loss: 0.63903064
Epoch: 14/15 - Batch: 3800/7933 - Learning rate: 7.8125e-06 - Loss: 0.6043088
Epoch: 14/15 - Batch: 3900/7933 - Learning rate: 7.8125e-06 - Loss: 0.6749944
Epoch: 14/15 - Batch: 4000/7933 - Learning rate: 7.8125e-06 - Loss: 0.4101645 - Dev BLEU: 0.24422532082376405
Epoch: 14/15 - Batch: 4100/7933 - Learning rate: 7.8125e-06 - Loss: 0.53545403
Epoch: 14/15 - Batch: 4200/7933 - Learning rate: 7.8125e-06 - Loss: 0.48974416
Epoch: 14/15 - Batch: 4300/7933 - Learning rate: 7.8125e-06 - Loss: 0.57204515
Epoch: 14/15 - Batch: 4400/7933 - Learning rate: 7.8125e-06 - Loss: 0.5263525
Epoch: 14/15 - Batch: 4500/7933 - Learning rate: 7.8125e-06 - Loss: 0.61369663
Epoch: 14/15 - Batch: 4600/7933 - Learning rate: 7.8125e-06 - Loss: 0.85002565
Epoch: 14/15 - Batch: 4700/7933 - Learning rate: 7.8125e-06 - Loss: 0.63213676
Epoch: 14/15 - Batch: 4800/7933 - Learning rate: 7.8125e-06 - Loss: 0.5818253
Epoch: 14/15 - Batch: 4900/7933 - Learning rate: 7.8125e-06 - Loss: 0.7381557
Epoch: 14/15 - Batch: 5000/7933 - Learning rate: 7.8125e-06 - Loss: 0.78753495 - Dev BLEU: 0.25009305710897484
Epoch: 14/15 - Batch: 5100/7933 - Learning rate: 7.8125e-06 - Loss: 0.8481733
Epoch: 14/15 - Batch: 5200/7933 - Learning rate: 7.8125e-06 - Loss: 0.8236576
Epoch: 14/15 - Batch: 5300/7933 - Learning rate: 7.8125e-06 - Loss: 0.7922859
Epoch: 14/15 - Batch: 5400/7933 - Learning rate: 7.8125e-06 - Loss: 0.7498154
Epoch: 14/15 - Batch: 5500/7933 - Learning rate: 7.8125e-06 - Loss: 0.74506015
Epoch: 14/15 - Batch: 5600/7933 - Learning rate: 7.8125e-06 - Loss: 0.59455794
Epoch: 14/15 - Batch: 5700/7933 - Learning rate: 7.8125e-06 - Loss: 0.7090188
Epoch: 14/15 - Batch: 5800/7933 - Learning rate: 7.8125e-06 - Loss: 0.7089395
Epoch: 14/15 - Batch: 5900/7933 - Learning rate: 7.8125e-06 - Loss: 0.48369443
Epoch: 14/15 - Batch: 6000/7933 - Learning rate: 7.8125e-06 - Loss: 0.7612888 - Dev BLEU: 0.2528461639631395
Epoch: 14/15 - Batch: 6100/7933 - Learning rate: 7.8125e-06 - Loss: 0.69972044
Epoch: 14/15 - Batch: 6200/7933 - Learning rate: 7.8125e-06 - Loss: 0.67002594
Epoch: 14/15 - Batch: 6300/7933 - Learning rate: 7.8125e-06 - Loss: 0.61414605
Epoch: 14/15 - Batch: 6400/7933 - Learning rate: 7.8125e-06 - Loss: 0.60321754
Epoch: 14/15 - Batch: 6500/7933 - Learning rate: 7.8125e-06 - Loss: 0.7089427
Epoch: 14/15 - Batch: 6600/7933 - Learning rate: 7.8125e-06 - Loss: 0.70578986
Epoch: 14/15 - Batch: 6700/7933 - Learning rate: 7.8125e-06 - Loss: 0.69661117
Epoch: 14/15 - Batch: 6800/7933 - Learning rate: 7.8125e-06 - Loss: 0.6962459
Epoch: 14/15 - Batch: 6900/7933 - Learning rate: 7.8125e-06 - Loss: 0.47116965
Epoch: 14/15 - Batch: 7000/7933 - Learning rate: 7.8125e-06 - Loss: 0.99423164 - Dev BLEU: 0.25633955774194117
Epoch: 14/15 - Batch: 7100/7933 - Learning rate: 7.8125e-06 - Loss: 0.7354217
Epoch: 14/15 - Batch: 7200/7933 - Learning rate: 7.8125e-06 - Loss: 0.58696884
Epoch: 14/15 - Batch: 7300/7933 - Learning rate: 7.8125e-06 - Loss: 0.72504884
Epoch: 14/15 - Batch: 7400/7933 - Learning rate: 7.8125e-06 - Loss: 0.774656
Epoch: 14/15 - Batch: 7500/7933 - Learning rate: 7.8125e-06 - Loss: 0.5807245
Epoch: 14/15 - Batch: 7600/7933 - Learning rate: 7.8125e-06 - Loss: 0.95317197
Epoch: 14/15 - Batch: 7700/7933 - Learning rate: 7.8125e-06 - Loss: 1.138158
Epoch: 14/15 - Batch: 7800/7933 - Learning rate: 7.8125e-06 - Loss: 0.965759
Epoch: 14/15 - Batch: 7900/7933 - Learning rate: 7.8125e-06 - Loss: 0.7621177
Epoch: 14/15 - Batch: 7933/7933 - Learning rate: 7.8125e-06 - Loss: 0.9564126 - Dev BLEU: 0.25653034550459664
Epoch: 15/15 - Batch: 100/7933 - Learning rate: 3.90625e-06 - Loss: 0.7174842
Epoch: 15/15 - Batch: 200/7933 - Learning rate: 3.90625e-06 - Loss: 0.5868209
Epoch: 15/15 - Batch: 300/7933 - Learning rate: 3.90625e-06 - Loss: 0.46273974
Epoch: 15/15 - Batch: 400/7933 - Learning rate: 3.90625e-06 - Loss: 0.7544634
Epoch: 15/15 - Batch: 500/7933 - Learning rate: 3.90625e-06 - Loss: 0.49526066
Epoch: 15/15 - Batch: 600/7933 - Learning rate: 3.90625e-06 - Loss: 0.35424048
Epoch: 15/15 - Batch: 700/7933 - Learning rate: 3.90625e-06 - Loss: 0.55772096
Epoch: 15/15 - Batch: 800/7933 - Learning rate: 3.90625e-06 - Loss: 0.54384255
Epoch: 15/15 - Batch: 900/7933 - Learning rate: 3.90625e-06 - Loss: 0.3651901
Epoch: 15/15 - Batch: 1000/7933 - Learning rate: 3.90625e-06 - Loss: 0.62356013 - Dev BLEU: 0.24919892399394727
Epoch: 15/15 - Batch: 1100/7933 - Learning rate: 3.90625e-06 - Loss: 0.5462297
Epoch: 15/15 - Batch: 1200/7933 - Learning rate: 3.90625e-06 - Loss: 0.6922579
Epoch: 15/15 - Batch: 1300/7933 - Learning rate: 3.90625e-06 - Loss: 0.5954546
Epoch: 15/15 - Batch: 1400/7933 - Learning rate: 3.90625e-06 - Loss: 0.6958319
Epoch: 15/15 - Batch: 1500/7933 - Learning rate: 3.90625e-06 - Loss: 0.5095026
Epoch: 15/15 - Batch: 1600/7933 - Learning rate: 3.90625e-06 - Loss: 0.93002766
Epoch: 15/15 - Batch: 1700/7933 - Learning rate: 3.90625e-06 - Loss: 0.68926495
Epoch: 15/15 - Batch: 1800/7933 - Learning rate: 3.90625e-06 - Loss: 0.35832617
Epoch: 15/15 - Batch: 1900/7933 - Learning rate: 3.90625e-06 - Loss: 0.5795957
Epoch: 15/15 - Batch: 2000/7933 - Learning rate: 3.90625e-06 - Loss: 0.5869798 - Dev BLEU: 0.24613422919016797
Epoch: 15/15 - Batch: 2100/7933 - Learning rate: 3.90625e-06 - Loss: 0.47101626
Epoch: 15/15 - Batch: 2200/7933 - Learning rate: 3.90625e-06 - Loss: 0.49301875
Epoch: 15/15 - Batch: 2300/7933 - Learning rate: 3.90625e-06 - Loss: 0.6211505
Epoch: 15/15 - Batch: 2400/7933 - Learning rate: 3.90625e-06 - Loss: 0.4916272
Epoch: 15/15 - Batch: 2500/7933 - Learning rate: 3.90625e-06 - Loss: 0.48791248
Epoch: 15/15 - Batch: 2600/7933 - Learning rate: 3.90625e-06 - Loss: 0.4326267
Epoch: 15/15 - Batch: 2700/7933 - Learning rate: 3.90625e-06 - Loss: 0.24797763
Epoch: 15/15 - Batch: 2800/7933 - Learning rate: 3.90625e-06 - Loss: 0.6441605
Epoch: 15/15 - Batch: 2900/7933 - Learning rate: 3.90625e-06 - Loss: 0.7527582
Epoch: 15/15 - Batch: 3000/7933 - Learning rate: 3.90625e-06 - Loss: 0.6525817 - Dev BLEU: 0.24768109542062525
Epoch: 15/15 - Batch: 3100/7933 - Learning rate: 3.90625e-06 - Loss: 0.6701855
Epoch: 15/15 - Batch: 3200/7933 - Learning rate: 3.90625e-06 - Loss: 0.62648666
Epoch: 15/15 - Batch: 3300/7933 - Learning rate: 3.90625e-06 - Loss: 0.5337105
Epoch: 15/15 - Batch: 3400/7933 - Learning rate: 3.90625e-06 - Loss: 0.546665
Epoch: 15/15 - Batch: 3500/7933 - Learning rate: 3.90625e-06 - Loss: 0.65795416
Epoch: 15/15 - Batch: 3600/7933 - Learning rate: 3.90625e-06 - Loss: 0.65568435
Epoch: 15/15 - Batch: 3700/7933 - Learning rate: 3.90625e-06 - Loss: 0.6379378
Epoch: 15/15 - Batch: 3800/7933 - Learning rate: 3.90625e-06 - Loss: 0.6135206
Epoch: 15/15 - Batch: 3900/7933 - Learning rate: 3.90625e-06 - Loss: 0.6831038
Epoch: 15/15 - Batch: 4000/7933 - Learning rate: 3.90625e-06 - Loss: 0.40830088 - Dev BLEU: 0.2460215671307349
Epoch: 15/15 - Batch: 4100/7933 - Learning rate: 3.90625e-06 - Loss: 0.53016585
Epoch: 15/15 - Batch: 4200/7933 - Learning rate: 3.90625e-06 - Loss: 0.4879146
Epoch: 15/15 - Batch: 4300/7933 - Learning rate: 3.90625e-06 - Loss: 0.56339014
Epoch: 15/15 - Batch: 4400/7933 - Learning rate: 3.90625e-06 - Loss: 0.53344065
Epoch: 15/15 - Batch: 4500/7933 - Learning rate: 3.90625e-06 - Loss: 0.6142932
Epoch: 15/15 - Batch: 4600/7933 - Learning rate: 3.90625e-06 - Loss: 0.8361997
Epoch: 15/15 - Batch: 4700/7933 - Learning rate: 3.90625e-06 - Loss: 0.6295514
Epoch: 15/15 - Batch: 4800/7933 - Learning rate: 3.90625e-06 - Loss: 0.59327793
Epoch: 15/15 - Batch: 4900/7933 - Learning rate: 3.90625e-06 - Loss: 0.74056256
Epoch: 15/15 - Batch: 5000/7933 - Learning rate: 3.90625e-06 - Loss: 0.8039427 - Dev BLEU: 0.24975763068146897
Epoch: 15/15 - Batch: 5100/7933 - Learning rate: 3.90625e-06 - Loss: 0.842263
Epoch: 15/15 - Batch: 5200/7933 - Learning rate: 3.90625e-06 - Loss: 0.84532046
Epoch: 15/15 - Batch: 5300/7933 - Learning rate: 3.90625e-06 - Loss: 0.790885
Epoch: 15/15 - Batch: 5400/7933 - Learning rate: 3.90625e-06 - Loss: 0.7657694
Epoch: 15/15 - Batch: 5500/7933 - Learning rate: 3.90625e-06 - Loss: 0.7522844
Epoch: 15/15 - Batch: 5600/7933 - Learning rate: 3.90625e-06 - Loss: 0.5784682
Epoch: 15/15 - Batch: 5700/7933 - Learning rate: 3.90625e-06 - Loss: 0.6983115
Epoch: 15/15 - Batch: 5800/7933 - Learning rate: 3.90625e-06 - Loss: 0.7188089
Epoch: 15/15 - Batch: 5900/7933 - Learning rate: 3.90625e-06 - Loss: 0.47798577
Epoch: 15/15 - Batch: 6000/7933 - Learning rate: 3.90625e-06 - Loss: 0.7499719 - Dev BLEU: 0.25047057985743976
Epoch: 15/15 - Batch: 6100/7933 - Learning rate: 3.90625e-06 - Loss: 0.68924
Epoch: 15/15 - Batch: 6200/7933 - Learning rate: 3.90625e-06 - Loss: 0.6663631
Epoch: 15/15 - Batch: 6300/7933 - Learning rate: 3.90625e-06 - Loss: 0.6266299
Epoch: 15/15 - Batch: 6400/7933 - Learning rate: 3.90625e-06 - Loss: 0.6043938
Epoch: 15/15 - Batch: 6500/7933 - Learning rate: 3.90625e-06 - Loss: 0.69867617
Epoch: 15/15 - Batch: 6600/7933 - Learning rate: 3.90625e-06 - Loss: 0.7066991
Epoch: 15/15 - Batch: 6700/7933 - Learning rate: 3.90625e-06 - Loss: 0.6992589
Epoch: 15/15 - Batch: 6800/7933 - Learning rate: 3.90625e-06 - Loss: 0.69687957
Epoch: 15/15 - Batch: 6900/7933 - Learning rate: 3.90625e-06 - Loss: 0.46562397
Epoch: 15/15 - Batch: 7000/7933 - Learning rate: 3.90625e-06 - Loss: 0.9949179 - Dev BLEU: 0.25481982286463556
Epoch: 15/15 - Batch: 7100/7933 - Learning rate: 3.90625e-06 - Loss: 0.72488093
Epoch: 15/15 - Batch: 7200/7933 - Learning rate: 3.90625e-06 - Loss: 0.5911465
Epoch: 15/15 - Batch: 7300/7933 - Learning rate: 3.90625e-06 - Loss: 0.71640694
Epoch: 15/15 - Batch: 7400/7933 - Learning rate: 3.90625e-06 - Loss: 0.7792033
Epoch: 15/15 - Batch: 7500/7933 - Learning rate: 3.90625e-06 - Loss: 0.5805609
Epoch: 15/15 - Batch: 7600/7933 - Learning rate: 3.90625e-06 - Loss: 0.9523608
Epoch: 15/15 - Batch: 7700/7933 - Learning rate: 3.90625e-06 - Loss: 1.1366197
Epoch: 15/15 - Batch: 7800/7933 - Learning rate: 3.90625e-06 - Loss: 0.9619345
Epoch: 15/15 - Batch: 7900/7933 - Learning rate: 3.90625e-06 - Loss: 0.76333994
Epoch: 15/15 - Batch: 7933/7933 - Learning rate: 3.90625e-06 - Loss: 0.9422716 - Dev BLEU: 0.25528474773988075 - Test BLEU: 0.2790905698528834
