Epoch: 1/15 - Batch: 100/7933 - Learning rate: 0.001 - Loss: 1.8868947
Epoch: 1/15 - Batch: 200/7933 - Learning rate: 0.001 - Loss: 2.7220275
Epoch: 1/15 - Batch: 300/7933 - Learning rate: 0.001 - Loss: 1.5222448
Epoch: 1/15 - Batch: 400/7933 - Learning rate: 0.001 - Loss: 2.800044
Epoch: 1/15 - Batch: 500/7933 - Learning rate: 0.001 - Loss: 2.5149577
Epoch: 1/15 - Batch: 600/7933 - Learning rate: 0.001 - Loss: 1.1267505
Epoch: 1/15 - Batch: 700/7933 - Learning rate: 0.001 - Loss: 1.9802374
Epoch: 1/15 - Batch: 800/7933 - Learning rate: 0.001 - Loss: 1.6188135
Epoch: 1/15 - Batch: 900/7933 - Learning rate: 0.001 - Loss: 1.0916797
Epoch: 1/15 - Batch: 1000/7933 - Learning rate: 0.001 - Loss: 1.8776026 - Dev BLEU: 0.0
Epoch: 1/15 - Batch: 1100/7933 - Learning rate: 0.001 - Loss: 1.5015489
Epoch: 1/15 - Batch: 1200/7933 - Learning rate: 0.001 - Loss: 2.041837
Epoch: 1/15 - Batch: 1300/7933 - Learning rate: 0.001 - Loss: 1.9031156
Epoch: 1/15 - Batch: 1400/7933 - Learning rate: 0.001 - Loss: 2.0215948
Epoch: 1/15 - Batch: 1500/7933 - Learning rate: 0.001 - Loss: 1.4457527
Epoch: 1/15 - Batch: 1600/7933 - Learning rate: 0.001 - Loss: 2.5108528
Epoch: 1/15 - Batch: 1700/7933 - Learning rate: 0.001 - Loss: 1.9217212
Epoch: 1/15 - Batch: 1800/7933 - Learning rate: 0.001 - Loss: 1.3178505
Epoch: 1/15 - Batch: 1900/7933 - Learning rate: 0.001 - Loss: 1.5201752
Epoch: 1/15 - Batch: 2000/7933 - Learning rate: 0.001 - Loss: 1.7033821 - Dev BLEU: 0.002645229093815131
Epoch: 1/15 - Batch: 2100/7933 - Learning rate: 0.001 - Loss: 1.3880268
Epoch: 1/15 - Batch: 2200/7933 - Learning rate: 0.001 - Loss: 1.6669357
Epoch: 1/15 - Batch: 2300/7933 - Learning rate: 0.001 - Loss: 1.8443274
Epoch: 1/15 - Batch: 2400/7933 - Learning rate: 0.001 - Loss: 1.522115
Epoch: 1/15 - Batch: 2500/7933 - Learning rate: 0.001 - Loss: 1.7553275
Epoch: 1/15 - Batch: 2600/7933 - Learning rate: 0.001 - Loss: 1.2162867
Epoch: 1/15 - Batch: 2700/7933 - Learning rate: 0.001 - Loss: 0.75247294
Epoch: 1/15 - Batch: 2800/7933 - Learning rate: 0.001 - Loss: 1.8371841
Epoch: 1/15 - Batch: 2900/7933 - Learning rate: 0.001 - Loss: 1.7719026
Epoch: 1/15 - Batch: 3000/7933 - Learning rate: 0.001 - Loss: 1.6939559 - Dev BLEU: 0.007703699535454871
Epoch: 1/15 - Batch: 3100/7933 - Learning rate: 0.001 - Loss: 1.4332727
Epoch: 1/15 - Batch: 3200/7933 - Learning rate: 0.001 - Loss: 1.5455155
Epoch: 1/15 - Batch: 3300/7933 - Learning rate: 0.001 - Loss: 1.4207873
Epoch: 1/15 - Batch: 3400/7933 - Learning rate: 0.001 - Loss: 1.317359
Epoch: 1/15 - Batch: 3500/7933 - Learning rate: 0.001 - Loss: 1.8451306
Epoch: 1/15 - Batch: 3600/7933 - Learning rate: 0.001 - Loss: 1.5496489
Epoch: 1/15 - Batch: 3700/7933 - Learning rate: 0.001 - Loss: 1.7311194
Epoch: 1/15 - Batch: 3800/7933 - Learning rate: 0.001 - Loss: 1.6230367
Epoch: 1/15 - Batch: 3900/7933 - Learning rate: 0.001 - Loss: 1.7553138
Epoch: 1/15 - Batch: 4000/7933 - Learning rate: 0.001 - Loss: 1.0324482 - Dev BLEU: 0.014083461245946153
Epoch: 1/15 - Batch: 4100/7933 - Learning rate: 0.001 - Loss: 1.3129421
Epoch: 1/15 - Batch: 4200/7933 - Learning rate: 0.001 - Loss: 1.2696375
Epoch: 1/15 - Batch: 4300/7933 - Learning rate: 0.001 - Loss: 1.3470991
Epoch: 1/15 - Batch: 4400/7933 - Learning rate: 0.001 - Loss: 1.3313738
Epoch: 1/15 - Batch: 4500/7933 - Learning rate: 0.001 - Loss: 1.4748803
Epoch: 1/15 - Batch: 4600/7933 - Learning rate: 0.001 - Loss: 2.6520836
Epoch: 1/15 - Batch: 4700/7933 - Learning rate: 0.001 - Loss: 2.0609686
Epoch: 1/15 - Batch: 4800/7933 - Learning rate: 0.001 - Loss: 2.113563
Epoch: 1/15 - Batch: 4900/7933 - Learning rate: 0.001 - Loss: 2.2855039
Epoch: 1/15 - Batch: 5000/7933 - Learning rate: 0.001 - Loss: 2.122282 - Dev BLEU: 0.028670521374869456
Epoch: 1/15 - Batch: 5100/7933 - Learning rate: 0.001 - Loss: 2.0074317
Epoch: 1/15 - Batch: 5200/7933 - Learning rate: 0.001 - Loss: 2.1766179
Epoch: 1/15 - Batch: 5300/7933 - Learning rate: 0.001 - Loss: 2.0068676
Epoch: 1/15 - Batch: 5400/7933 - Learning rate: 0.001 - Loss: 2.0051951
Epoch: 1/15 - Batch: 5500/7933 - Learning rate: 0.001 - Loss: 2.0858665
Epoch: 1/15 - Batch: 5600/7933 - Learning rate: 0.001 - Loss: 1.6437012
Epoch: 1/15 - Batch: 5700/7933 - Learning rate: 0.001 - Loss: 2.0199633
Epoch: 1/15 - Batch: 5800/7933 - Learning rate: 0.001 - Loss: 1.9523708
Epoch: 1/15 - Batch: 5900/7933 - Learning rate: 0.001 - Loss: 1.5269157
Epoch: 1/15 - Batch: 6000/7933 - Learning rate: 0.001 - Loss: 1.9171609 - Dev BLEU: 0.040754365844941895
Epoch: 1/15 - Batch: 6100/7933 - Learning rate: 0.001 - Loss: 2.081989
Epoch: 1/15 - Batch: 6200/7933 - Learning rate: 0.001 - Loss: 1.6434231
Epoch: 1/15 - Batch: 6300/7933 - Learning rate: 0.001 - Loss: 1.6587367
Epoch: 1/15 - Batch: 6400/7933 - Learning rate: 0.001 - Loss: 1.3661032
Epoch: 1/15 - Batch: 6500/7933 - Learning rate: 0.001 - Loss: 1.4379319
Epoch: 1/15 - Batch: 6600/7933 - Learning rate: 0.001 - Loss: 1.599437
Epoch: 1/15 - Batch: 6700/7933 - Learning rate: 0.001 - Loss: 1.3424325
Epoch: 1/15 - Batch: 6800/7933 - Learning rate: 0.001 - Loss: 1.241371
Epoch: 1/15 - Batch: 6900/7933 - Learning rate: 0.001 - Loss: 1.0149779
Epoch: 1/15 - Batch: 7000/7933 - Learning rate: 0.001 - Loss: 1.847786 - Dev BLEU: 0.09750484385018464
Epoch: 1/15 - Batch: 7100/7933 - Learning rate: 0.001 - Loss: 1.4213369
Epoch: 1/15 - Batch: 7200/7933 - Learning rate: 0.001 - Loss: 1.1280406
Epoch: 1/15 - Batch: 7300/7933 - Learning rate: 0.001 - Loss: 1.3463495
Epoch: 1/15 - Batch: 7400/7933 - Learning rate: 0.001 - Loss: 1.4249344
Epoch: 1/15 - Batch: 7500/7933 - Learning rate: 0.001 - Loss: 0.9866395
Epoch: 1/15 - Batch: 7600/7933 - Learning rate: 0.001 - Loss: 1.7509357
Epoch: 1/15 - Batch: 7700/7933 - Learning rate: 0.001 - Loss: 1.976791
Epoch: 1/15 - Batch: 7800/7933 - Learning rate: 0.001 - Loss: 1.7862191
Epoch: 1/15 - Batch: 7900/7933 - Learning rate: 0.001 - Loss: 1.400098
Epoch: 1/15 - Batch: 7933/7933 - Learning rate: 0.001 - Loss: 1.9262439 - Dev BLEU: 0.1030274889374265
Epoch: 2/15 - Batch: 100/7933 - Learning rate: 0.001 - Loss: 1.0690924
Epoch: 2/15 - Batch: 200/7933 - Learning rate: 0.001 - Loss: 1.2495326
Epoch: 2/15 - Batch: 300/7933 - Learning rate: 0.001 - Loss: 0.75466394
Epoch: 2/15 - Batch: 400/7933 - Learning rate: 0.001 - Loss: 1.3474454
Epoch: 2/15 - Batch: 500/7933 - Learning rate: 0.001 - Loss: 1.137082
Epoch: 2/15 - Batch: 600/7933 - Learning rate: 0.001 - Loss: 0.54069513
Epoch: 2/15 - Batch: 700/7933 - Learning rate: 0.001 - Loss: 1.0198946
Epoch: 2/15 - Batch: 800/7933 - Learning rate: 0.001 - Loss: 0.9519408
Epoch: 2/15 - Batch: 900/7933 - Learning rate: 0.001 - Loss: 0.6045972
Epoch: 2/15 - Batch: 1000/7933 - Learning rate: 0.001 - Loss: 1.0385544 - Dev BLEU: 0.08964939552162626
Epoch: 2/15 - Batch: 1100/7933 - Learning rate: 0.001 - Loss: 0.8839604
Epoch: 2/15 - Batch: 1200/7933 - Learning rate: 0.001 - Loss: 1.2567825
Epoch: 2/15 - Batch: 1300/7933 - Learning rate: 0.001 - Loss: 1.1183754
Epoch: 2/15 - Batch: 1400/7933 - Learning rate: 0.001 - Loss: 1.1618133
Epoch: 2/15 - Batch: 1500/7933 - Learning rate: 0.001 - Loss: 0.81102186
Epoch: 2/15 - Batch: 1600/7933 - Learning rate: 0.001 - Loss: 1.5292399
Epoch: 2/15 - Batch: 1700/7933 - Learning rate: 0.001 - Loss: 1.1422309
Epoch: 2/15 - Batch: 1800/7933 - Learning rate: 0.001 - Loss: 0.676648
Epoch: 2/15 - Batch: 1900/7933 - Learning rate: 0.001 - Loss: 0.9231464
Epoch: 2/15 - Batch: 2000/7933 - Learning rate: 0.001 - Loss: 0.9917131 - Dev BLEU: 0.09338653905056567
Epoch: 2/15 - Batch: 2100/7933 - Learning rate: 0.001 - Loss: 0.82210773
Epoch: 2/15 - Batch: 2200/7933 - Learning rate: 0.001 - Loss: 0.8741555
Epoch: 2/15 - Batch: 2300/7933 - Learning rate: 0.001 - Loss: 1.0530275
Epoch: 2/15 - Batch: 2400/7933 - Learning rate: 0.001 - Loss: 0.88087815
Epoch: 2/15 - Batch: 2500/7933 - Learning rate: 0.001 - Loss: 0.9170959
Epoch: 2/15 - Batch: 2600/7933 - Learning rate: 0.001 - Loss: 0.67133707
Epoch: 2/15 - Batch: 2700/7933 - Learning rate: 0.001 - Loss: 0.38242573
Epoch: 2/15 - Batch: 2800/7933 - Learning rate: 0.001 - Loss: 1.1037275
Epoch: 2/15 - Batch: 2900/7933 - Learning rate: 0.001 - Loss: 1.1814092
Epoch: 2/15 - Batch: 3000/7933 - Learning rate: 0.001 - Loss: 1.0848397 - Dev BLEU: 0.10626818837546352
Epoch: 2/15 - Batch: 3100/7933 - Learning rate: 0.001 - Loss: 1.0507141
Epoch: 2/15 - Batch: 3200/7933 - Learning rate: 0.001 - Loss: 0.98704875
Epoch: 2/15 - Batch: 3300/7933 - Learning rate: 0.001 - Loss: 0.8079385
Epoch: 2/15 - Batch: 3400/7933 - Learning rate: 0.001 - Loss: 0.8171324
Epoch: 2/15 - Batch: 3500/7933 - Learning rate: 0.001 - Loss: 1.1101232
Epoch: 2/15 - Batch: 3600/7933 - Learning rate: 0.001 - Loss: 1.0500396
Epoch: 2/15 - Batch: 3700/7933 - Learning rate: 0.001 - Loss: 1.0600994
Epoch: 2/15 - Batch: 3800/7933 - Learning rate: 0.001 - Loss: 0.9911894
Epoch: 2/15 - Batch: 3900/7933 - Learning rate: 0.001 - Loss: 1.188979
Epoch: 2/15 - Batch: 4000/7933 - Learning rate: 0.001 - Loss: 0.64396703 - Dev BLEU: 0.11126299615771133
Epoch: 2/15 - Batch: 4100/7933 - Learning rate: 0.001 - Loss: 0.8310509
Epoch: 2/15 - Batch: 4200/7933 - Learning rate: 0.001 - Loss: 0.7799002
Epoch: 2/15 - Batch: 4300/7933 - Learning rate: 0.001 - Loss: 0.8650117
Epoch: 2/15 - Batch: 4400/7933 - Learning rate: 0.001 - Loss: 0.8262795
Epoch: 2/15 - Batch: 4500/7933 - Learning rate: 0.001 - Loss: 0.9347377
Epoch: 2/15 - Batch: 4600/7933 - Learning rate: 0.001 - Loss: 1.7961236
Epoch: 2/15 - Batch: 4700/7933 - Learning rate: 0.001 - Loss: 1.2871134
Epoch: 2/15 - Batch: 4800/7933 - Learning rate: 0.001 - Loss: 1.2635741
Epoch: 2/15 - Batch: 4900/7933 - Learning rate: 0.001 - Loss: 1.4088376
Epoch: 2/15 - Batch: 5000/7933 - Learning rate: 0.001 - Loss: 1.3698404 - Dev BLEU: 0.1530094477381349
Epoch: 2/15 - Batch: 5100/7933 - Learning rate: 0.001 - Loss: 1.4107994
Epoch: 2/15 - Batch: 5200/7933 - Learning rate: 0.001 - Loss: 1.3627495
Epoch: 2/15 - Batch: 5300/7933 - Learning rate: 0.001 - Loss: 1.3304769
Epoch: 2/15 - Batch: 5400/7933 - Learning rate: 0.001 - Loss: 1.296445
Epoch: 2/15 - Batch: 5500/7933 - Learning rate: 0.001 - Loss: 1.2867599
Epoch: 2/15 - Batch: 5600/7933 - Learning rate: 0.001 - Loss: 1.0104748
Epoch: 2/15 - Batch: 5700/7933 - Learning rate: 0.001 - Loss: 1.3138856
Epoch: 2/15 - Batch: 5800/7933 - Learning rate: 0.001 - Loss: 1.245306
Epoch: 2/15 - Batch: 5900/7933 - Learning rate: 0.001 - Loss: 0.9315626
Epoch: 2/15 - Batch: 6000/7933 - Learning rate: 0.001 - Loss: 1.2789452 - Dev BLEU: 0.12795247922379488
Epoch: 2/15 - Batch: 6100/7933 - Learning rate: 0.001 - Loss: 1.309499
Epoch: 2/15 - Batch: 6200/7933 - Learning rate: 0.001 - Loss: 1.0972602
Epoch: 2/15 - Batch: 6300/7933 - Learning rate: 0.001 - Loss: 1.0652833
Epoch: 2/15 - Batch: 6400/7933 - Learning rate: 0.001 - Loss: 0.91348165
Epoch: 2/15 - Batch: 6500/7933 - Learning rate: 0.001 - Loss: 1.0272154
Epoch: 2/15 - Batch: 6600/7933 - Learning rate: 0.001 - Loss: 1.0569911
Epoch: 2/15 - Batch: 6700/7933 - Learning rate: 0.001 - Loss: 0.954082
Epoch: 2/15 - Batch: 6800/7933 - Learning rate: 0.001 - Loss: 0.91083926
Epoch: 2/15 - Batch: 6900/7933 - Learning rate: 0.001 - Loss: 0.68115914
Epoch: 2/15 - Batch: 7000/7933 - Learning rate: 0.001 - Loss: 1.3736923 - Dev BLEU: 0.19468144566850554
Epoch: 2/15 - Batch: 7100/7933 - Learning rate: 0.001 - Loss: 1.0492363
Epoch: 2/15 - Batch: 7200/7933 - Learning rate: 0.001 - Loss: 0.83003104
Epoch: 2/15 - Batch: 7300/7933 - Learning rate: 0.001 - Loss: 1.0066507
Epoch: 2/15 - Batch: 7400/7933 - Learning rate: 0.001 - Loss: 1.0739197
Epoch: 2/15 - Batch: 7500/7933 - Learning rate: 0.001 - Loss: 0.7708016
Epoch: 2/15 - Batch: 7600/7933 - Learning rate: 0.001 - Loss: 1.4169588
Epoch: 2/15 - Batch: 7700/7933 - Learning rate: 0.001 - Loss: 1.5294499
Epoch: 2/15 - Batch: 7800/7933 - Learning rate: 0.001 - Loss: 1.4475485
Epoch: 2/15 - Batch: 7900/7933 - Learning rate: 0.001 - Loss: 1.0534056
Epoch: 2/15 - Batch: 7933/7933 - Learning rate: 0.001 - Loss: 1.519713 - Dev BLEU: 0.17722242253849219
Epoch: 3/15 - Batch: 100/7933 - Learning rate: 0.001 - Loss: 0.91695744
Epoch: 3/15 - Batch: 200/7933 - Learning rate: 0.001 - Loss: 0.9314208
Epoch: 3/15 - Batch: 300/7933 - Learning rate: 0.001 - Loss: 0.6391845
Epoch: 3/15 - Batch: 400/7933 - Learning rate: 0.001 - Loss: 1.0812689
Epoch: 3/15 - Batch: 500/7933 - Learning rate: 0.001 - Loss: 0.83969545
Epoch: 3/15 - Batch: 600/7933 - Learning rate: 0.001 - Loss: 0.46658838
Epoch: 3/15 - Batch: 700/7933 - Learning rate: 0.001 - Loss: 0.7886825
Epoch: 3/15 - Batch: 800/7933 - Learning rate: 0.001 - Loss: 0.77532303
Epoch: 3/15 - Batch: 900/7933 - Learning rate: 0.001 - Loss: 0.4907059
Epoch: 3/15 - Batch: 1000/7933 - Learning rate: 0.001 - Loss: 0.8549233 - Dev BLEU: 0.15615580004291182
Epoch: 3/15 - Batch: 1100/7933 - Learning rate: 0.001 - Loss: 0.7150848
Epoch: 3/15 - Batch: 1200/7933 - Learning rate: 0.001 - Loss: 1.0387603
Epoch: 3/15 - Batch: 1300/7933 - Learning rate: 0.001 - Loss: 0.89768183
Epoch: 3/15 - Batch: 1400/7933 - Learning rate: 0.001 - Loss: 0.95537335
Epoch: 3/15 - Batch: 1500/7933 - Learning rate: 0.001 - Loss: 0.6720839
Epoch: 3/15 - Batch: 1600/7933 - Learning rate: 0.001 - Loss: 1.2678713
Epoch: 3/15 - Batch: 1700/7933 - Learning rate: 0.001 - Loss: 0.9309805
Epoch: 3/15 - Batch: 1800/7933 - Learning rate: 0.001 - Loss: 0.5311129
Epoch: 3/15 - Batch: 1900/7933 - Learning rate: 0.001 - Loss: 0.7763175
Epoch: 3/15 - Batch: 2000/7933 - Learning rate: 0.001 - Loss: 0.82235074 - Dev BLEU: 0.14328797204874097
Epoch: 3/15 - Batch: 2100/7933 - Learning rate: 0.001 - Loss: 0.69109184
Epoch: 3/15 - Batch: 2200/7933 - Learning rate: 0.001 - Loss: 0.7109084
Epoch: 3/15 - Batch: 2300/7933 - Learning rate: 0.001 - Loss: 0.8747976
Epoch: 3/15 - Batch: 2400/7933 - Learning rate: 0.001 - Loss: 0.72141194
Epoch: 3/15 - Batch: 2500/7933 - Learning rate: 0.001 - Loss: 0.7121172
Epoch: 3/15 - Batch: 2600/7933 - Learning rate: 0.001 - Loss: 0.55782574
Epoch: 3/15 - Batch: 2700/7933 - Learning rate: 0.001 - Loss: 0.3183825
Epoch: 3/15 - Batch: 2800/7933 - Learning rate: 0.001 - Loss: 0.91166747
Epoch: 3/15 - Batch: 2900/7933 - Learning rate: 0.001 - Loss: 1.0229613
Epoch: 3/15 - Batch: 3000/7933 - Learning rate: 0.001 - Loss: 0.9427501 - Dev BLEU: 0.15110968859404547
Epoch: 3/15 - Batch: 3100/7933 - Learning rate: 0.001 - Loss: 0.9461632
Epoch: 3/15 - Batch: 3200/7933 - Learning rate: 0.001 - Loss: 0.8696419
Epoch: 3/15 - Batch: 3300/7933 - Learning rate: 0.001 - Loss: 0.71121633
Epoch: 3/15 - Batch: 3400/7933 - Learning rate: 0.001 - Loss: 0.71030575
Epoch: 3/15 - Batch: 3500/7933 - Learning rate: 0.001 - Loss: 0.93830734
Epoch: 3/15 - Batch: 3600/7933 - Learning rate: 0.001 - Loss: 0.91751724
Epoch: 3/15 - Batch: 3700/7933 - Learning rate: 0.001 - Loss: 0.91412246
Epoch: 3/15 - Batch: 3800/7933 - Learning rate: 0.001 - Loss: 0.84322923
Epoch: 3/15 - Batch: 3900/7933 - Learning rate: 0.001 - Loss: 0.99368525
Epoch: 3/15 - Batch: 4000/7933 - Learning rate: 0.001 - Loss: 0.5451947 - Dev BLEU: 0.1578326646058758
Epoch: 3/15 - Batch: 4100/7933 - Learning rate: 0.001 - Loss: 0.7022213
Epoch: 3/15 - Batch: 4200/7933 - Learning rate: 0.001 - Loss: 0.67120403
Epoch: 3/15 - Batch: 4300/7933 - Learning rate: 0.001 - Loss: 0.76761025
Epoch: 3/15 - Batch: 4400/7933 - Learning rate: 0.001 - Loss: 0.72372264
Epoch: 3/15 - Batch: 4500/7933 - Learning rate: 0.001 - Loss: 0.83925617
Epoch: 3/15 - Batch: 4600/7933 - Learning rate: 0.001 - Loss: 1.5406804
Epoch: 3/15 - Batch: 4700/7933 - Learning rate: 0.001 - Loss: 1.076495
Epoch: 3/15 - Batch: 4800/7933 - Learning rate: 0.001 - Loss: 1.0470783
Epoch: 3/15 - Batch: 4900/7933 - Learning rate: 0.001 - Loss: 1.1852988
Epoch: 3/15 - Batch: 5000/7933 - Learning rate: 0.001 - Loss: 1.2047384 - Dev BLEU: 0.18249465146277022
Epoch: 3/15 - Batch: 5100/7933 - Learning rate: 0.001 - Loss: 1.2678387
Epoch: 3/15 - Batch: 5200/7933 - Learning rate: 0.001 - Loss: 1.1779671
Epoch: 3/15 - Batch: 5300/7933 - Learning rate: 0.001 - Loss: 1.1696398
Epoch: 3/15 - Batch: 5400/7933 - Learning rate: 0.001 - Loss: 1.1418232
Epoch: 3/15 - Batch: 5500/7933 - Learning rate: 0.001 - Loss: 1.1069539
Epoch: 3/15 - Batch: 5600/7933 - Learning rate: 0.001 - Loss: 0.86472917
Epoch: 3/15 - Batch: 5700/7933 - Learning rate: 0.001 - Loss: 1.1410495
Epoch: 3/15 - Batch: 5800/7933 - Learning rate: 0.001 - Loss: 1.0965635
Epoch: 3/15 - Batch: 5900/7933 - Learning rate: 0.001 - Loss: 0.7782772
Epoch: 3/15 - Batch: 6000/7933 - Learning rate: 0.001 - Loss: 1.1039321 - Dev BLEU: 0.15568888042945198
Epoch: 3/15 - Batch: 6100/7933 - Learning rate: 0.001 - Loss: 1.0921806
Epoch: 3/15 - Batch: 6200/7933 - Learning rate: 0.001 - Loss: 0.94238544
Epoch: 3/15 - Batch: 6300/7933 - Learning rate: 0.001 - Loss: 0.9243901
Epoch: 3/15 - Batch: 6400/7933 - Learning rate: 0.001 - Loss: 0.791805
Epoch: 3/15 - Batch: 6500/7933 - Learning rate: 0.001 - Loss: 0.913705
Epoch: 3/15 - Batch: 6600/7933 - Learning rate: 0.001 - Loss: 0.9015946
Epoch: 3/15 - Batch: 6700/7933 - Learning rate: 0.001 - Loss: 0.84716356
Epoch: 3/15 - Batch: 6800/7933 - Learning rate: 0.001 - Loss: 0.8261769
Epoch: 3/15 - Batch: 6900/7933 - Learning rate: 0.001 - Loss: 0.5951332
Epoch: 3/15 - Batch: 7000/7933 - Learning rate: 0.001 - Loss: 1.2474455 - Dev BLEU: 0.22130830575495328
Epoch: 3/15 - Batch: 7100/7933 - Learning rate: 0.001 - Loss: 0.9248345
Epoch: 3/15 - Batch: 7200/7933 - Learning rate: 0.001 - Loss: 0.74050456
Epoch: 3/15 - Batch: 7300/7933 - Learning rate: 0.001 - Loss: 0.9147149
Epoch: 3/15 - Batch: 7400/7933 - Learning rate: 0.001 - Loss: 0.9623687
Epoch: 3/15 - Batch: 7500/7933 - Learning rate: 0.001 - Loss: 0.69279623
Epoch: 3/15 - Batch: 7600/7933 - Learning rate: 0.001 - Loss: 1.2769861
Epoch: 3/15 - Batch: 7700/7933 - Learning rate: 0.001 - Loss: 1.4008406
Epoch: 3/15 - Batch: 7800/7933 - Learning rate: 0.001 - Loss: 1.3239924
Epoch: 3/15 - Batch: 7900/7933 - Learning rate: 0.001 - Loss: 0.94072014
Epoch: 3/15 - Batch: 7933/7933 - Learning rate: 0.001 - Loss: 1.3263066 - Dev BLEU: 0.19999936062733584
Epoch: 4/15 - Batch: 100/7933 - Learning rate: 0.001 - Loss: 0.8583839
Epoch: 4/15 - Batch: 200/7933 - Learning rate: 0.001 - Loss: 0.803272
Epoch: 4/15 - Batch: 300/7933 - Learning rate: 0.001 - Loss: 0.58030564
Epoch: 4/15 - Batch: 400/7933 - Learning rate: 0.001 - Loss: 0.99560034
Epoch: 4/15 - Batch: 500/7933 - Learning rate: 0.001 - Loss: 0.72364104
Epoch: 4/15 - Batch: 600/7933 - Learning rate: 0.001 - Loss: 0.43672213
Epoch: 4/15 - Batch: 700/7933 - Learning rate: 0.001 - Loss: 0.7080022
Epoch: 4/15 - Batch: 800/7933 - Learning rate: 0.001 - Loss: 0.70704466
Epoch: 4/15 - Batch: 900/7933 - Learning rate: 0.001 - Loss: 0.44897684
Epoch: 4/15 - Batch: 1000/7933 - Learning rate: 0.001 - Loss: 0.77338475 - Dev BLEU: 0.17879108348657421
Epoch: 4/15 - Batch: 1100/7933 - Learning rate: 0.001 - Loss: 0.6680785
Epoch: 4/15 - Batch: 1200/7933 - Learning rate: 0.001 - Loss: 0.9295813
Epoch: 4/15 - Batch: 1300/7933 - Learning rate: 0.001 - Loss: 0.8037982
Epoch: 4/15 - Batch: 1400/7933 - Learning rate: 0.001 - Loss: 0.8750613
Epoch: 4/15 - Batch: 1500/7933 - Learning rate: 0.001 - Loss: 0.61214626
Epoch: 4/15 - Batch: 1600/7933 - Learning rate: 0.001 - Loss: 1.15228
Epoch: 4/15 - Batch: 1700/7933 - Learning rate: 0.001 - Loss: 0.86589956
Epoch: 4/15 - Batch: 1800/7933 - Learning rate: 0.001 - Loss: 0.4761907
Epoch: 4/15 - Batch: 1900/7933 - Learning rate: 0.001 - Loss: 0.7111105
Epoch: 4/15 - Batch: 2000/7933 - Learning rate: 0.001 - Loss: 0.73750734 - Dev BLEU: 0.16052913467873306
Epoch: 4/15 - Batch: 2100/7933 - Learning rate: 0.001 - Loss: 0.62970626
Epoch: 4/15 - Batch: 2200/7933 - Learning rate: 0.001 - Loss: 0.6441554
Epoch: 4/15 - Batch: 2300/7933 - Learning rate: 0.001 - Loss: 0.7937459
Epoch: 4/15 - Batch: 2400/7933 - Learning rate: 0.001 - Loss: 0.6472488
Epoch: 4/15 - Batch: 2500/7933 - Learning rate: 0.001 - Loss: 0.6364719
Epoch: 4/15 - Batch: 2600/7933 - Learning rate: 0.001 - Loss: 0.5000238
Epoch: 4/15 - Batch: 2700/7933 - Learning rate: 0.001 - Loss: 0.28923053
Epoch: 4/15 - Batch: 2800/7933 - Learning rate: 0.001 - Loss: 0.8290549
Epoch: 4/15 - Batch: 2900/7933 - Learning rate: 0.001 - Loss: 0.9323641
Epoch: 4/15 - Batch: 3000/7933 - Learning rate: 0.001 - Loss: 0.86620224 - Dev BLEU: 0.17156848856668777
Epoch: 4/15 - Batch: 3100/7933 - Learning rate: 0.001 - Loss: 0.871444
Epoch: 4/15 - Batch: 3200/7933 - Learning rate: 0.001 - Loss: 0.807591
Epoch: 4/15 - Batch: 3300/7933 - Learning rate: 0.001 - Loss: 0.65165484
Epoch: 4/15 - Batch: 3400/7933 - Learning rate: 0.001 - Loss: 0.65970105
Epoch: 4/15 - Batch: 3500/7933 - Learning rate: 0.001 - Loss: 0.8649974
Epoch: 4/15 - Batch: 3600/7933 - Learning rate: 0.001 - Loss: 0.85755605
Epoch: 4/15 - Batch: 3700/7933 - Learning rate: 0.001 - Loss: 0.85388196
Epoch: 4/15 - Batch: 3800/7933 - Learning rate: 0.001 - Loss: 0.7787441
Epoch: 4/15 - Batch: 3900/7933 - Learning rate: 0.001 - Loss: 0.92198867
Epoch: 4/15 - Batch: 4000/7933 - Learning rate: 0.001 - Loss: 0.50782865 - Dev BLEU: 0.17613051393286375
Epoch: 4/15 - Batch: 4100/7933 - Learning rate: 0.001 - Loss: 0.6583595
Epoch: 4/15 - Batch: 4200/7933 - Learning rate: 0.001 - Loss: 0.62741935
Epoch: 4/15 - Batch: 4300/7933 - Learning rate: 0.001 - Loss: 0.7177693
Epoch: 4/15 - Batch: 4400/7933 - Learning rate: 0.001 - Loss: 0.6664045
Epoch: 4/15 - Batch: 4500/7933 - Learning rate: 0.001 - Loss: 0.77622014
Epoch: 4/15 - Batch: 4600/7933 - Learning rate: 0.001 - Loss: 1.3617163
Epoch: 4/15 - Batch: 4700/7933 - Learning rate: 0.001 - Loss: 0.9664321
Epoch: 4/15 - Batch: 4800/7933 - Learning rate: 0.001 - Loss: 0.9489412
Epoch: 4/15 - Batch: 4900/7933 - Learning rate: 0.001 - Loss: 1.0795271
Epoch: 4/15 - Batch: 5000/7933 - Learning rate: 0.001 - Loss: 1.0964227 - Dev BLEU: 0.19895388654139937
Epoch: 4/15 - Batch: 5100/7933 - Learning rate: 0.001 - Loss: 1.1511903
Epoch: 4/15 - Batch: 5200/7933 - Learning rate: 0.001 - Loss: 1.0846933
Epoch: 4/15 - Batch: 5300/7933 - Learning rate: 0.001 - Loss: 1.0610796
Epoch: 4/15 - Batch: 5400/7933 - Learning rate: 0.001 - Loss: 1.0410845
Epoch: 4/15 - Batch: 5500/7933 - Learning rate: 0.001 - Loss: 1.0477147
Epoch: 4/15 - Batch: 5600/7933 - Learning rate: 0.001 - Loss: 0.799656
Epoch: 4/15 - Batch: 5700/7933 - Learning rate: 0.001 - Loss: 1.0311604
Epoch: 4/15 - Batch: 5800/7933 - Learning rate: 0.001 - Loss: 0.9949468
Epoch: 4/15 - Batch: 5900/7933 - Learning rate: 0.001 - Loss: 0.69496137
Epoch: 4/15 - Batch: 6000/7933 - Learning rate: 0.001 - Loss: 1.0364888 - Dev BLEU: 0.18235486057484804
Epoch: 4/15 - Batch: 6100/7933 - Learning rate: 0.001 - Loss: 0.99833536
Epoch: 4/15 - Batch: 6200/7933 - Learning rate: 0.001 - Loss: 0.8906613
Epoch: 4/15 - Batch: 6300/7933 - Learning rate: 0.001 - Loss: 0.8392417
Epoch: 4/15 - Batch: 6400/7933 - Learning rate: 0.001 - Loss: 0.7512534
Epoch: 4/15 - Batch: 6500/7933 - Learning rate: 0.001 - Loss: 0.8572822
Epoch: 4/15 - Batch: 6600/7933 - Learning rate: 0.001 - Loss: 0.81923777
Epoch: 4/15 - Batch: 6700/7933 - Learning rate: 0.001 - Loss: 0.806906
Epoch: 4/15 - Batch: 6800/7933 - Learning rate: 0.001 - Loss: 0.7733193
Epoch: 4/15 - Batch: 6900/7933 - Learning rate: 0.001 - Loss: 0.5591185
Epoch: 4/15 - Batch: 7000/7933 - Learning rate: 0.001 - Loss: 1.169525 - Dev BLEU: 0.23452105558685415
Epoch: 4/15 - Batch: 7100/7933 - Learning rate: 0.001 - Loss: 0.8580146
Epoch: 4/15 - Batch: 7200/7933 - Learning rate: 0.001 - Loss: 0.700695
Epoch: 4/15 - Batch: 7300/7933 - Learning rate: 0.001 - Loss: 0.8614502
Epoch: 4/15 - Batch: 7400/7933 - Learning rate: 0.001 - Loss: 0.90673184
Epoch: 4/15 - Batch: 7500/7933 - Learning rate: 0.001 - Loss: 0.6614672
Epoch: 4/15 - Batch: 7600/7933 - Learning rate: 0.001 - Loss: 1.1800153
Epoch: 4/15 - Batch: 7700/7933 - Learning rate: 0.001 - Loss: 1.3320521
Epoch: 4/15 - Batch: 7800/7933 - Learning rate: 0.001 - Loss: 1.2300106
Epoch: 4/15 - Batch: 7900/7933 - Learning rate: 0.001 - Loss: 0.88109314
Epoch: 4/15 - Batch: 7933/7933 - Learning rate: 0.001 - Loss: 1.2024661 - Dev BLEU: 0.2152790790851312
Epoch: 5/15 - Batch: 100/7933 - Learning rate: 0.001 - Loss: 0.82644653
Epoch: 5/15 - Batch: 200/7933 - Learning rate: 0.001 - Loss: 0.7292656
Epoch: 5/15 - Batch: 300/7933 - Learning rate: 0.001 - Loss: 0.5532829
Epoch: 5/15 - Batch: 400/7933 - Learning rate: 0.001 - Loss: 0.9408211
Epoch: 5/15 - Batch: 500/7933 - Learning rate: 0.001 - Loss: 0.6529428
Epoch: 5/15 - Batch: 600/7933 - Learning rate: 0.001 - Loss: 0.42175746
Epoch: 5/15 - Batch: 700/7933 - Learning rate: 0.001 - Loss: 0.6602078
Epoch: 5/15 - Batch: 800/7933 - Learning rate: 0.001 - Loss: 0.6691699
Epoch: 5/15 - Batch: 900/7933 - Learning rate: 0.001 - Loss: 0.42937338
Epoch: 5/15 - Batch: 1000/7933 - Learning rate: 0.001 - Loss: 0.7306843 - Dev BLEU: 0.19005044107973837
Epoch: 5/15 - Batch: 1100/7933 - Learning rate: 0.001 - Loss: 0.622866
Epoch: 5/15 - Batch: 1200/7933 - Learning rate: 0.001 - Loss: 0.8849529
Epoch: 5/15 - Batch: 1300/7933 - Learning rate: 0.001 - Loss: 0.7621172
Epoch: 5/15 - Batch: 1400/7933 - Learning rate: 0.001 - Loss: 0.8242106
Epoch: 5/15 - Batch: 1500/7933 - Learning rate: 0.001 - Loss: 0.5791252
Epoch: 5/15 - Batch: 1600/7933 - Learning rate: 0.001 - Loss: 1.095147
Epoch: 5/15 - Batch: 1700/7933 - Learning rate: 0.001 - Loss: 0.81527805
Epoch: 5/15 - Batch: 1800/7933 - Learning rate: 0.001 - Loss: 0.4314899
Epoch: 5/15 - Batch: 1900/7933 - Learning rate: 0.001 - Loss: 0.6621788
Epoch: 5/15 - Batch: 2000/7933 - Learning rate: 0.001 - Loss: 0.68887615 - Dev BLEU: 0.17259616149091744
Epoch: 5/15 - Batch: 2100/7933 - Learning rate: 0.001 - Loss: 0.60183126
Epoch: 5/15 - Batch: 2200/7933 - Learning rate: 0.001 - Loss: 0.59047085
Epoch: 5/15 - Batch: 2300/7933 - Learning rate: 0.001 - Loss: 0.75849986
Epoch: 5/15 - Batch: 2400/7933 - Learning rate: 0.001 - Loss: 0.5991591
Epoch: 5/15 - Batch: 2500/7933 - Learning rate: 0.001 - Loss: 0.583276
Epoch: 5/15 - Batch: 2600/7933 - Learning rate: 0.001 - Loss: 0.47126243
Epoch: 5/15 - Batch: 2700/7933 - Learning rate: 0.001 - Loss: 0.27350277
Epoch: 5/15 - Batch: 2800/7933 - Learning rate: 0.001 - Loss: 0.7997296
Epoch: 5/15 - Batch: 2900/7933 - Learning rate: 0.001 - Loss: 0.8936044
Epoch: 5/15 - Batch: 3000/7933 - Learning rate: 0.001 - Loss: 0.8079872 - Dev BLEU: 0.1828803365481835
Epoch: 5/15 - Batch: 3100/7933 - Learning rate: 0.001 - Loss: 0.83217657
Epoch: 5/15 - Batch: 3200/7933 - Learning rate: 0.001 - Loss: 0.7669303
Epoch: 5/15 - Batch: 3300/7933 - Learning rate: 0.001 - Loss: 0.6442439
Epoch: 5/15 - Batch: 3400/7933 - Learning rate: 0.001 - Loss: 0.6195225
Epoch: 5/15 - Batch: 3500/7933 - Learning rate: 0.001 - Loss: 0.8058411
Epoch: 5/15 - Batch: 3600/7933 - Learning rate: 0.001 - Loss: 0.7978001
Epoch: 5/15 - Batch: 3700/7933 - Learning rate: 0.001 - Loss: 0.7900152
Epoch: 5/15 - Batch: 3800/7933 - Learning rate: 0.001 - Loss: 0.7296379
Epoch: 5/15 - Batch: 3900/7933 - Learning rate: 0.001 - Loss: 0.8678176
Epoch: 5/15 - Batch: 4000/7933 - Learning rate: 0.001 - Loss: 0.4744683 - Dev BLEU: 0.18734893820215653
Epoch: 5/15 - Batch: 4100/7933 - Learning rate: 0.001 - Loss: 0.62232083
Epoch: 5/15 - Batch: 4200/7933 - Learning rate: 0.001 - Loss: 0.6021741
Epoch: 5/15 - Batch: 4300/7933 - Learning rate: 0.001 - Loss: 0.6796567
Epoch: 5/15 - Batch: 4400/7933 - Learning rate: 0.001 - Loss: 0.6358549
Epoch: 5/15 - Batch: 4500/7933 - Learning rate: 0.001 - Loss: 0.75245184
Epoch: 5/15 - Batch: 4600/7933 - Learning rate: 0.001 - Loss: 1.2497106
Epoch: 5/15 - Batch: 4700/7933 - Learning rate: 0.001 - Loss: 0.8913948
Epoch: 5/15 - Batch: 4800/7933 - Learning rate: 0.001 - Loss: 0.8847601
Epoch: 5/15 - Batch: 4900/7933 - Learning rate: 0.001 - Loss: 1.0123633
Epoch: 5/15 - Batch: 5000/7933 - Learning rate: 0.001 - Loss: 1.0307678 - Dev BLEU: 0.2142336177234323
Epoch: 5/15 - Batch: 5100/7933 - Learning rate: 0.001 - Loss: 1.0831496
Epoch: 5/15 - Batch: 5200/7933 - Learning rate: 0.001 - Loss: 1.0339959
Epoch: 5/15 - Batch: 5300/7933 - Learning rate: 0.001 - Loss: 1.0163409
Epoch: 5/15 - Batch: 5400/7933 - Learning rate: 0.001 - Loss: 0.982388
Epoch: 5/15 - Batch: 5500/7933 - Learning rate: 0.001 - Loss: 0.9617049
Epoch: 5/15 - Batch: 5600/7933 - Learning rate: 0.001 - Loss: 0.75513
Epoch: 5/15 - Batch: 5700/7933 - Learning rate: 0.001 - Loss: 0.9803071
Epoch: 5/15 - Batch: 5800/7933 - Learning rate: 0.001 - Loss: 0.9313111
Epoch: 5/15 - Batch: 5900/7933 - Learning rate: 0.001 - Loss: 0.63929343
Epoch: 5/15 - Batch: 6000/7933 - Learning rate: 0.001 - Loss: 0.9746867 - Dev BLEU: 0.19512986848172043
Epoch: 5/15 - Batch: 6100/7933 - Learning rate: 0.001 - Loss: 0.9280396
Epoch: 5/15 - Batch: 6200/7933 - Learning rate: 0.001 - Loss: 0.8459226
Epoch: 5/15 - Batch: 6300/7933 - Learning rate: 0.001 - Loss: 0.8070638
Epoch: 5/15 - Batch: 6400/7933 - Learning rate: 0.001 - Loss: 0.717663
Epoch: 5/15 - Batch: 6500/7933 - Learning rate: 0.001 - Loss: 0.80989844
Epoch: 5/15 - Batch: 6600/7933 - Learning rate: 0.001 - Loss: 0.79216367
Epoch: 5/15 - Batch: 6700/7933 - Learning rate: 0.001 - Loss: 0.76416665
Epoch: 5/15 - Batch: 6800/7933 - Learning rate: 0.001 - Loss: 0.7530547
Epoch: 5/15 - Batch: 6900/7933 - Learning rate: 0.001 - Loss: 0.5338365
Epoch: 5/15 - Batch: 7000/7933 - Learning rate: 0.001 - Loss: 1.1187474 - Dev BLEU: 0.24176205831841624
Epoch: 5/15 - Batch: 7100/7933 - Learning rate: 0.001 - Loss: 0.8234971
Epoch: 5/15 - Batch: 7200/7933 - Learning rate: 0.001 - Loss: 0.6677262
Epoch: 5/15 - Batch: 7300/7933 - Learning rate: 0.001 - Loss: 0.8249277
Epoch: 5/15 - Batch: 7400/7933 - Learning rate: 0.001 - Loss: 0.87276214
Epoch: 5/15 - Batch: 7500/7933 - Learning rate: 0.001 - Loss: 0.76543844
Epoch: 5/15 - Batch: 7600/7933 - Learning rate: 0.001 - Loss: 1.281429
Epoch: 5/15 - Batch: 7700/7933 - Learning rate: 0.001 - Loss: 1.4157748
Epoch: 5/15 - Batch: 7800/7933 - Learning rate: 0.001 - Loss: 1.3039063
Epoch: 5/15 - Batch: 7900/7933 - Learning rate: 0.001 - Loss: 0.9295399
Epoch: 5/15 - Batch: 7933/7933 - Learning rate: 0.001 - Loss: 1.283801 - Dev BLEU: 0.21717477310551675
Epoch: 6/15 - Batch: 100/7933 - Learning rate: 0.001 - Loss: 0.8499982
Epoch: 6/15 - Batch: 200/7933 - Learning rate: 0.001 - Loss: 0.7665446
Epoch: 6/15 - Batch: 300/7933 - Learning rate: 0.001 - Loss: 0.56247693
Epoch: 6/15 - Batch: 400/7933 - Learning rate: 0.001 - Loss: 0.91753256
Epoch: 6/15 - Batch: 500/7933 - Learning rate: 0.001 - Loss: 0.6636713
Epoch: 6/15 - Batch: 600/7933 - Learning rate: 0.001 - Loss: 0.416976
Epoch: 6/15 - Batch: 700/7933 - Learning rate: 0.001 - Loss: 0.6417443
Epoch: 6/15 - Batch: 800/7933 - Learning rate: 0.001 - Loss: 0.6356278
Epoch: 6/15 - Batch: 900/7933 - Learning rate: 0.001 - Loss: 0.4215547
Epoch: 6/15 - Batch: 1000/7933 - Learning rate: 0.001 - Loss: 0.7050676 - Dev BLEU: 0.20032432133775024
Epoch: 6/15 - Batch: 1100/7933 - Learning rate: 0.001 - Loss: 0.6160505
Epoch: 6/15 - Batch: 1200/7933 - Learning rate: 0.001 - Loss: 0.8533446
Epoch: 6/15 - Batch: 1300/7933 - Learning rate: 0.001 - Loss: 0.7466765
Epoch: 6/15 - Batch: 1400/7933 - Learning rate: 0.001 - Loss: 0.78203475
Epoch: 6/15 - Batch: 1500/7933 - Learning rate: 0.001 - Loss: 0.5716974
Epoch: 6/15 - Batch: 1600/7933 - Learning rate: 0.001 - Loss: 1.0982764
Epoch: 6/15 - Batch: 1700/7933 - Learning rate: 0.001 - Loss: 0.7857275
Epoch: 6/15 - Batch: 1800/7933 - Learning rate: 0.001 - Loss: 0.43765324
Epoch: 6/15 - Batch: 1900/7933 - Learning rate: 0.001 - Loss: 0.6570516
Epoch: 6/15 - Batch: 2000/7933 - Learning rate: 0.001 - Loss: 0.6798469 - Dev BLEU: 0.19269994069998847
Epoch: 6/15 - Batch: 2100/7933 - Learning rate: 0.001 - Loss: 0.5710396
Epoch: 6/15 - Batch: 2200/7933 - Learning rate: 0.001 - Loss: 0.5765498
Epoch: 6/15 - Batch: 2300/7933 - Learning rate: 0.001 - Loss: 0.720671
Epoch: 6/15 - Batch: 2400/7933 - Learning rate: 0.001 - Loss: 0.57368195
Epoch: 6/15 - Batch: 2500/7933 - Learning rate: 0.001 - Loss: 0.5616408
Epoch: 6/15 - Batch: 2600/7933 - Learning rate: 0.001 - Loss: 0.44632837
Epoch: 6/15 - Batch: 2700/7933 - Learning rate: 0.001 - Loss: 0.26493958
Epoch: 6/15 - Batch: 2800/7933 - Learning rate: 0.001 - Loss: 0.7508301
Epoch: 6/15 - Batch: 2900/7933 - Learning rate: 0.001 - Loss: 0.84657514
Epoch: 6/15 - Batch: 3000/7933 - Learning rate: 0.001 - Loss: 0.76819533 - Dev BLEU: 0.1924772257915532
Epoch: 6/15 - Batch: 3100/7933 - Learning rate: 0.001 - Loss: 0.77264184
Epoch: 6/15 - Batch: 3200/7933 - Learning rate: 0.001 - Loss: 0.7274031
Epoch: 6/15 - Batch: 3300/7933 - Learning rate: 0.001 - Loss: 0.605844
Epoch: 6/15 - Batch: 3400/7933 - Learning rate: 0.001 - Loss: 0.60873646
Epoch: 6/15 - Batch: 3500/7933 - Learning rate: 0.001 - Loss: 0.75603235
Epoch: 6/15 - Batch: 3600/7933 - Learning rate: 0.001 - Loss: 0.7897036
Epoch: 6/15 - Batch: 3700/7933 - Learning rate: 0.001 - Loss: 0.7698309
Epoch: 6/15 - Batch: 3800/7933 - Learning rate: 0.001 - Loss: 0.70416063
Epoch: 6/15 - Batch: 3900/7933 - Learning rate: 0.001 - Loss: 0.8041343
Epoch: 6/15 - Batch: 4000/7933 - Learning rate: 0.001 - Loss: 0.4575631 - Dev BLEU: 0.20516631619757156
Epoch: 6/15 - Batch: 4100/7933 - Learning rate: 0.001 - Loss: 0.5777567
Epoch: 6/15 - Batch: 4200/7933 - Learning rate: 0.001 - Loss: 0.5563942
Epoch: 6/15 - Batch: 4300/7933 - Learning rate: 0.001 - Loss: 0.6624745
Epoch: 6/15 - Batch: 4400/7933 - Learning rate: 0.001 - Loss: 0.5969975
Epoch: 6/15 - Batch: 4500/7933 - Learning rate: 0.001 - Loss: 0.709932
Epoch: 6/15 - Batch: 4600/7933 - Learning rate: 0.001 - Loss: 1.1473022
Epoch: 6/15 - Batch: 4700/7933 - Learning rate: 0.001 - Loss: 0.7796113
Epoch: 6/15 - Batch: 4800/7933 - Learning rate: 0.001 - Loss: 0.77443266
Epoch: 6/15 - Batch: 4900/7933 - Learning rate: 0.001 - Loss: 0.9274511
Epoch: 6/15 - Batch: 5000/7933 - Learning rate: 0.001 - Loss: 0.97420037 - Dev BLEU: 0.2333687713597536
Epoch: 6/15 - Batch: 5100/7933 - Learning rate: 0.001 - Loss: 1.0019486
Epoch: 6/15 - Batch: 5200/7933 - Learning rate: 0.001 - Loss: 0.93694955
Epoch: 6/15 - Batch: 5300/7933 - Learning rate: 0.001 - Loss: 0.93139887
Epoch: 6/15 - Batch: 5400/7933 - Learning rate: 0.001 - Loss: 0.9115644
Epoch: 6/15 - Batch: 5500/7933 - Learning rate: 0.001 - Loss: 0.8717869
Epoch: 6/15 - Batch: 5600/7933 - Learning rate: 0.001 - Loss: 0.6898104
Epoch: 6/15 - Batch: 5700/7933 - Learning rate: 0.001 - Loss: 0.90784776
Epoch: 6/15 - Batch: 5800/7933 - Learning rate: 0.001 - Loss: 0.87334204
Epoch: 6/15 - Batch: 5900/7933 - Learning rate: 0.001 - Loss: 0.60991275
Epoch: 6/15 - Batch: 6000/7933 - Learning rate: 0.001 - Loss: 0.9158095 - Dev BLEU: 0.2202851055626006
Epoch: 6/15 - Batch: 6100/7933 - Learning rate: 0.001 - Loss: 0.8637062
Epoch: 6/15 - Batch: 6200/7933 - Learning rate: 0.001 - Loss: 0.7883142
Epoch: 6/15 - Batch: 6300/7933 - Learning rate: 0.001 - Loss: 0.74407744
Epoch: 6/15 - Batch: 6400/7933 - Learning rate: 0.001 - Loss: 0.681716
Epoch: 6/15 - Batch: 6500/7933 - Learning rate: 0.001 - Loss: 0.77773184
Epoch: 6/15 - Batch: 6600/7933 - Learning rate: 0.001 - Loss: 0.74616104
Epoch: 6/15 - Batch: 6700/7933 - Learning rate: 0.001 - Loss: 0.73785275
Epoch: 6/15 - Batch: 6800/7933 - Learning rate: 0.001 - Loss: 0.7367403
Epoch: 6/15 - Batch: 6900/7933 - Learning rate: 0.001 - Loss: 0.51207834
Epoch: 6/15 - Batch: 7000/7933 - Learning rate: 0.001 - Loss: 1.0714394 - Dev BLEU: 0.24781511529529915
Epoch: 6/15 - Batch: 7100/7933 - Learning rate: 0.001 - Loss: 0.79712194
Epoch: 6/15 - Batch: 7200/7933 - Learning rate: 0.001 - Loss: 0.6447107
Epoch: 6/15 - Batch: 7300/7933 - Learning rate: 0.001 - Loss: 0.79004633
Epoch: 6/15 - Batch: 7400/7933 - Learning rate: 0.001 - Loss: 0.8519113
Epoch: 6/15 - Batch: 7500/7933 - Learning rate: 0.001 - Loss: 0.61874473
Epoch: 6/15 - Batch: 7600/7933 - Learning rate: 0.001 - Loss: 1.1260101
Epoch: 6/15 - Batch: 7700/7933 - Learning rate: 0.001 - Loss: 1.2539914
Epoch: 6/15 - Batch: 7800/7933 - Learning rate: 0.001 - Loss: 1.1715348
Epoch: 6/15 - Batch: 7900/7933 - Learning rate: 0.001 - Loss: 0.82513154
Epoch: 6/15 - Batch: 7933/7933 - Learning rate: 0.001 - Loss: 1.1065084 - Dev BLEU: 0.22704101760775824
Epoch: 7/15 - Batch: 100/7933 - Learning rate: 0.001 - Loss: 0.78426814
Epoch: 7/15 - Batch: 200/7933 - Learning rate: 0.001 - Loss: 0.6987209
Epoch: 7/15 - Batch: 300/7933 - Learning rate: 0.001 - Loss: 0.5174679
Epoch: 7/15 - Batch: 400/7933 - Learning rate: 0.001 - Loss: 0.86323005
Epoch: 7/15 - Batch: 500/7933 - Learning rate: 0.001 - Loss: 0.5992144
Epoch: 7/15 - Batch: 600/7933 - Learning rate: 0.001 - Loss: 0.40959656
Epoch: 7/15 - Batch: 700/7933 - Learning rate: 0.001 - Loss: 0.6064862
Epoch: 7/15 - Batch: 800/7933 - Learning rate: 0.001 - Loss: 0.6255784
Epoch: 7/15 - Batch: 900/7933 - Learning rate: 0.001 - Loss: 0.40721533
Epoch: 7/15 - Batch: 1000/7933 - Learning rate: 0.001 - Loss: 0.6774106 - Dev BLEU: 0.20453116402081611
Epoch: 7/15 - Batch: 1100/7933 - Learning rate: 0.001 - Loss: 0.59122366
Epoch: 7/15 - Batch: 1200/7933 - Learning rate: 0.001 - Loss: 0.82203144
Epoch: 7/15 - Batch: 1300/7933 - Learning rate: 0.001 - Loss: 0.7110685
Epoch: 7/15 - Batch: 1400/7933 - Learning rate: 0.001 - Loss: 0.7770671
Epoch: 7/15 - Batch: 1500/7933 - Learning rate: 0.001 - Loss: 0.5646954
Epoch: 7/15 - Batch: 1600/7933 - Learning rate: 0.001 - Loss: 1.0582305
Epoch: 7/15 - Batch: 1700/7933 - Learning rate: 0.001 - Loss: 0.7621101
Epoch: 7/15 - Batch: 1800/7933 - Learning rate: 0.001 - Loss: 0.4138051
Epoch: 7/15 - Batch: 1900/7933 - Learning rate: 0.001 - Loss: 0.6336233
Epoch: 7/15 - Batch: 2000/7933 - Learning rate: 0.001 - Loss: 0.6271236 - Dev BLEU: 0.19080786013990547
Epoch: 7/15 - Batch: 2100/7933 - Learning rate: 0.001 - Loss: 0.55694556
Epoch: 7/15 - Batch: 2200/7933 - Learning rate: 0.001 - Loss: 0.5516467
Epoch: 7/15 - Batch: 2300/7933 - Learning rate: 0.001 - Loss: 0.71204394
Epoch: 7/15 - Batch: 2400/7933 - Learning rate: 0.001 - Loss: 0.5560685
Epoch: 7/15 - Batch: 2500/7933 - Learning rate: 0.001 - Loss: 0.5484132
Epoch: 7/15 - Batch: 2600/7933 - Learning rate: 0.001 - Loss: 0.4336063
Epoch: 7/15 - Batch: 2700/7933 - Learning rate: 0.001 - Loss: 0.26148546
Epoch: 7/15 - Batch: 2800/7933 - Learning rate: 0.001 - Loss: 0.7348069
Epoch: 7/15 - Batch: 2900/7933 - Learning rate: 0.001 - Loss: 0.8364231
Epoch: 7/15 - Batch: 3000/7933 - Learning rate: 0.001 - Loss: 0.7541139 - Dev BLEU: 0.19541396132041675
Epoch: 7/15 - Batch: 3100/7933 - Learning rate: 0.001 - Loss: 0.78421265
Epoch: 7/15 - Batch: 3200/7933 - Learning rate: 0.001 - Loss: 0.7231268
Epoch: 7/15 - Batch: 3300/7933 - Learning rate: 0.001 - Loss: 0.605684
Epoch: 7/15 - Batch: 3400/7933 - Learning rate: 0.001 - Loss: 0.5955057
Epoch: 7/15 - Batch: 3500/7933 - Learning rate: 0.001 - Loss: 0.7509155
Epoch: 7/15 - Batch: 3600/7933 - Learning rate: 0.001 - Loss: 0.7745018
Epoch: 7/15 - Batch: 3700/7933 - Learning rate: 0.001 - Loss: 0.73483616
Epoch: 7/15 - Batch: 3800/7933 - Learning rate: 0.001 - Loss: 0.70260733
Epoch: 7/15 - Batch: 3900/7933 - Learning rate: 0.001 - Loss: 0.8002178
Epoch: 7/15 - Batch: 4000/7933 - Learning rate: 0.001 - Loss: 0.44236904 - Dev BLEU: 0.2018442921033982
Epoch: 7/15 - Batch: 4100/7933 - Learning rate: 0.001 - Loss: 0.5834795
Epoch: 7/15 - Batch: 4200/7933 - Learning rate: 0.001 - Loss: 0.5703297
Epoch: 7/15 - Batch: 4300/7933 - Learning rate: 0.001 - Loss: 0.6429334
Epoch: 7/15 - Batch: 4400/7933 - Learning rate: 0.001 - Loss: 0.5970173
Epoch: 7/15 - Batch: 4500/7933 - Learning rate: 0.001 - Loss: 0.71278685
Epoch: 7/15 - Batch: 4600/7933 - Learning rate: 0.001 - Loss: 1.1379191
Epoch: 7/15 - Batch: 4700/7933 - Learning rate: 0.001 - Loss: 0.822978
Epoch: 7/15 - Batch: 4800/7933 - Learning rate: 0.001 - Loss: 0.7826615
Epoch: 7/15 - Batch: 4900/7933 - Learning rate: 0.001 - Loss: 0.928526
Epoch: 7/15 - Batch: 5000/7933 - Learning rate: 0.001 - Loss: 0.9583027 - Dev BLEU: 0.23112252913362702
Epoch: 7/15 - Batch: 5100/7933 - Learning rate: 0.001 - Loss: 1.0139728
Epoch: 7/15 - Batch: 5200/7933 - Learning rate: 0.001 - Loss: 0.9706568
Epoch: 7/15 - Batch: 5300/7933 - Learning rate: 0.001 - Loss: 0.9516797
Epoch: 7/15 - Batch: 5400/7933 - Learning rate: 0.001 - Loss: 0.90745914
Epoch: 7/15 - Batch: 5500/7933 - Learning rate: 0.001 - Loss: 0.91149336
Epoch: 7/15 - Batch: 5600/7933 - Learning rate: 0.001 - Loss: 0.6901265
Epoch: 7/15 - Batch: 5700/7933 - Learning rate: 0.001 - Loss: 0.89064616
Epoch: 7/15 - Batch: 5800/7933 - Learning rate: 0.001 - Loss: 0.86788386
Epoch: 7/15 - Batch: 5900/7933 - Learning rate: 0.001 - Loss: 0.60919607
Epoch: 7/15 - Batch: 6000/7933 - Learning rate: 0.001 - Loss: 0.92306966 - Dev BLEU: 0.2131725591033393
Epoch: 7/15 - Batch: 6100/7933 - Learning rate: 0.001 - Loss: 0.85176367
Epoch: 7/15 - Batch: 6200/7933 - Learning rate: 0.001 - Loss: 0.7898259
Epoch: 7/15 - Batch: 6300/7933 - Learning rate: 0.001 - Loss: 0.7735476
Epoch: 7/15 - Batch: 6400/7933 - Learning rate: 0.001 - Loss: 0.69354343
Epoch: 7/15 - Batch: 6500/7933 - Learning rate: 0.001 - Loss: 0.7748115
Epoch: 7/15 - Batch: 6600/7933 - Learning rate: 0.001 - Loss: 0.75245005
Epoch: 7/15 - Batch: 6700/7933 - Learning rate: 0.001 - Loss: 0.7317489
Epoch: 7/15 - Batch: 6800/7933 - Learning rate: 0.001 - Loss: 0.73158455
Epoch: 7/15 - Batch: 6900/7933 - Learning rate: 0.001 - Loss: 0.5026056
Epoch: 7/15 - Batch: 7000/7933 - Learning rate: 0.001 - Loss: 1.0655439 - Dev BLEU: 0.24751690191020534
Epoch: 7/15 - Batch: 7100/7933 - Learning rate: 0.001 - Loss: 0.7833035
Epoch: 7/15 - Batch: 7200/7933 - Learning rate: 0.001 - Loss: 0.63823956
Epoch: 7/15 - Batch: 7300/7933 - Learning rate: 0.001 - Loss: 0.78487104
Epoch: 7/15 - Batch: 7400/7933 - Learning rate: 0.001 - Loss: 0.8257303
Epoch: 7/15 - Batch: 7500/7933 - Learning rate: 0.001 - Loss: 0.61752176
Epoch: 7/15 - Batch: 7600/7933 - Learning rate: 0.001 - Loss: 1.09257
Epoch: 7/15 - Batch: 7700/7933 - Learning rate: 0.001 - Loss: 1.2355211
Epoch: 7/15 - Batch: 7800/7933 - Learning rate: 0.001 - Loss: 1.1236109
Epoch: 7/15 - Batch: 7900/7933 - Learning rate: 0.001 - Loss: 0.7976538
Epoch: 7/15 - Batch: 7933/7933 - Learning rate: 0.001 - Loss: 1.0436945 - Dev BLEU: 0.23153842142279146
Epoch: 8/15 - Batch: 100/7933 - Learning rate: 0.0005 - Loss: 0.77770865
Epoch: 8/15 - Batch: 200/7933 - Learning rate: 0.0005 - Loss: 0.66942465
Epoch: 8/15 - Batch: 300/7933 - Learning rate: 0.0005 - Loss: 0.51494044
Epoch: 8/15 - Batch: 400/7933 - Learning rate: 0.0005 - Loss: 0.8306511
Epoch: 8/15 - Batch: 500/7933 - Learning rate: 0.0005 - Loss: 0.57945305
Epoch: 8/15 - Batch: 600/7933 - Learning rate: 0.0005 - Loss: 0.3924232
Epoch: 8/15 - Batch: 700/7933 - Learning rate: 0.0005 - Loss: 0.5862577
Epoch: 8/15 - Batch: 800/7933 - Learning rate: 0.0005 - Loss: 0.6019543
Epoch: 8/15 - Batch: 900/7933 - Learning rate: 0.0005 - Loss: 0.39231077
Epoch: 8/15 - Batch: 1000/7933 - Learning rate: 0.0005 - Loss: 0.64287436 - Dev BLEU: 0.22046279998238477
Epoch: 8/15 - Batch: 1100/7933 - Learning rate: 0.0005 - Loss: 0.5691429
Epoch: 8/15 - Batch: 1200/7933 - Learning rate: 0.0005 - Loss: 0.78833544
Epoch: 8/15 - Batch: 1300/7933 - Learning rate: 0.0005 - Loss: 0.66512
Epoch: 8/15 - Batch: 1400/7933 - Learning rate: 0.0005 - Loss: 0.7460744
Epoch: 8/15 - Batch: 1500/7933 - Learning rate: 0.0005 - Loss: 0.5424076
Epoch: 8/15 - Batch: 1600/7933 - Learning rate: 0.0005 - Loss: 0.99994606
Epoch: 8/15 - Batch: 1700/7933 - Learning rate: 0.0005 - Loss: 0.722434
Epoch: 8/15 - Batch: 1800/7933 - Learning rate: 0.0005 - Loss: 0.38762283
Epoch: 8/15 - Batch: 1900/7933 - Learning rate: 0.0005 - Loss: 0.60274506
Epoch: 8/15 - Batch: 2000/7933 - Learning rate: 0.0005 - Loss: 0.62983525 - Dev BLEU: 0.20940107232560673
Epoch: 8/15 - Batch: 2100/7933 - Learning rate: 0.0005 - Loss: 0.5209925
Epoch: 8/15 - Batch: 2200/7933 - Learning rate: 0.0005 - Loss: 0.5108284
Epoch: 8/15 - Batch: 2300/7933 - Learning rate: 0.0005 - Loss: 0.6609006
Epoch: 8/15 - Batch: 2400/7933 - Learning rate: 0.0005 - Loss: 0.51997334
Epoch: 8/15 - Batch: 2500/7933 - Learning rate: 0.0005 - Loss: 0.5125073
Epoch: 8/15 - Batch: 2600/7933 - Learning rate: 0.0005 - Loss: 0.41982815
Epoch: 8/15 - Batch: 2700/7933 - Learning rate: 0.0005 - Loss: 0.24606356
Epoch: 8/15 - Batch: 2800/7933 - Learning rate: 0.0005 - Loss: 0.69794935
Epoch: 8/15 - Batch: 2900/7933 - Learning rate: 0.0005 - Loss: 0.79264617
Epoch: 8/15 - Batch: 3000/7933 - Learning rate: 0.0005 - Loss: 0.697119 - Dev BLEU: 0.20487480065577532
Epoch: 8/15 - Batch: 3100/7933 - Learning rate: 0.0005 - Loss: 0.7197853
Epoch: 8/15 - Batch: 3200/7933 - Learning rate: 0.0005 - Loss: 0.6965539
Epoch: 8/15 - Batch: 3300/7933 - Learning rate: 0.0005 - Loss: 0.5910184
Epoch: 8/15 - Batch: 3400/7933 - Learning rate: 0.0005 - Loss: 0.567471
Epoch: 8/15 - Batch: 3500/7933 - Learning rate: 0.0005 - Loss: 0.70453745
Epoch: 8/15 - Batch: 3600/7933 - Learning rate: 0.0005 - Loss: 0.716432
Epoch: 8/15 - Batch: 3700/7933 - Learning rate: 0.0005 - Loss: 0.7001387
Epoch: 8/15 - Batch: 3800/7933 - Learning rate: 0.0005 - Loss: 0.6581605
Epoch: 8/15 - Batch: 3900/7933 - Learning rate: 0.0005 - Loss: 0.74121124
Epoch: 8/15 - Batch: 4000/7933 - Learning rate: 0.0005 - Loss: 0.42870542 - Dev BLEU: 0.22106146281099134
Epoch: 8/15 - Batch: 4100/7933 - Learning rate: 0.0005 - Loss: 0.55473
Epoch: 8/15 - Batch: 4200/7933 - Learning rate: 0.0005 - Loss: 0.5300386
Epoch: 8/15 - Batch: 4300/7933 - Learning rate: 0.0005 - Loss: 0.6017898
Epoch: 8/15 - Batch: 4400/7933 - Learning rate: 0.0005 - Loss: 0.56037796
Epoch: 8/15 - Batch: 4500/7933 - Learning rate: 0.0005 - Loss: 0.659596
Epoch: 8/15 - Batch: 4600/7933 - Learning rate: 0.0005 - Loss: 1.0051992
Epoch: 8/15 - Batch: 4700/7933 - Learning rate: 0.0005 - Loss: 0.7149231
Epoch: 8/15 - Batch: 4800/7933 - Learning rate: 0.0005 - Loss: 0.68166035
Epoch: 8/15 - Batch: 4900/7933 - Learning rate: 0.0005 - Loss: 0.8401275
Epoch: 8/15 - Batch: 5000/7933 - Learning rate: 0.0005 - Loss: 0.8721634 - Dev BLEU: 0.24537600498872253
Epoch: 8/15 - Batch: 5100/7933 - Learning rate: 0.0005 - Loss: 0.9154151
Epoch: 8/15 - Batch: 5200/7933 - Learning rate: 0.0005 - Loss: 0.88515604
Epoch: 8/15 - Batch: 5300/7933 - Learning rate: 0.0005 - Loss: 0.8519435
Epoch: 8/15 - Batch: 5400/7933 - Learning rate: 0.0005 - Loss: 0.8423244
Epoch: 8/15 - Batch: 5500/7933 - Learning rate: 0.0005 - Loss: 0.7845836
Epoch: 8/15 - Batch: 5600/7933 - Learning rate: 0.0005 - Loss: 0.62481385
Epoch: 8/15 - Batch: 5700/7933 - Learning rate: 0.0005 - Loss: 0.80819434
Epoch: 8/15 - Batch: 5800/7933 - Learning rate: 0.0005 - Loss: 0.788461
Epoch: 8/15 - Batch: 5900/7933 - Learning rate: 0.0005 - Loss: 0.54509217
Epoch: 8/15 - Batch: 6000/7933 - Learning rate: 0.0005 - Loss: 0.83166564 - Dev BLEU: 0.24351833661453068
Epoch: 8/15 - Batch: 6100/7933 - Learning rate: 0.0005 - Loss: 0.7593252
Epoch: 8/15 - Batch: 6200/7933 - Learning rate: 0.0005 - Loss: 0.72361904
Epoch: 8/15 - Batch: 6300/7933 - Learning rate: 0.0005 - Loss: 0.678652
Epoch: 8/15 - Batch: 6400/7933 - Learning rate: 0.0005 - Loss: 0.63494253
Epoch: 8/15 - Batch: 6500/7933 - Learning rate: 0.0005 - Loss: 0.7343686
Epoch: 8/15 - Batch: 6600/7933 - Learning rate: 0.0005 - Loss: 0.6972419
Epoch: 8/15 - Batch: 6700/7933 - Learning rate: 0.0005 - Loss: 0.70337206
Epoch: 8/15 - Batch: 6800/7933 - Learning rate: 0.0005 - Loss: 0.70436007
Epoch: 8/15 - Batch: 6900/7933 - Learning rate: 0.0005 - Loss: 0.48211184
Epoch: 8/15 - Batch: 7000/7933 - Learning rate: 0.0005 - Loss: 1.0161934 - Dev BLEU: 0.2607421729513258
Epoch: 8/15 - Batch: 7100/7933 - Learning rate: 0.0005 - Loss: 0.7463685
Epoch: 8/15 - Batch: 7200/7933 - Learning rate: 0.0005 - Loss: 0.608689
Epoch: 8/15 - Batch: 7300/7933 - Learning rate: 0.0005 - Loss: 0.73844427
Epoch: 8/15 - Batch: 7400/7933 - Learning rate: 0.0005 - Loss: 0.7884518
Epoch: 8/15 - Batch: 7500/7933 - Learning rate: 0.0005 - Loss: 0.5865788
Epoch: 8/15 - Batch: 7600/7933 - Learning rate: 0.0005 - Loss: 1.008756
Epoch: 8/15 - Batch: 7700/7933 - Learning rate: 0.0005 - Loss: 1.182723
Epoch: 8/15 - Batch: 7800/7933 - Learning rate: 0.0005 - Loss: 1.0518003
Epoch: 8/15 - Batch: 7900/7933 - Learning rate: 0.0005 - Loss: 0.77241987
Epoch: 8/15 - Batch: 7933/7933 - Learning rate: 0.0005 - Loss: 0.9865901 - Dev BLEU: 0.24164702637627314
Epoch: 9/15 - Batch: 100/7933 - Learning rate: 0.00025 - Loss: 0.7509211
Epoch: 9/15 - Batch: 200/7933 - Learning rate: 0.00025 - Loss: 0.62925667
Epoch: 9/15 - Batch: 300/7933 - Learning rate: 0.00025 - Loss: 0.49625778
Epoch: 9/15 - Batch: 400/7933 - Learning rate: 0.00025 - Loss: 0.7904439
Epoch: 9/15 - Batch: 500/7933 - Learning rate: 0.00025 - Loss: 0.5324063
Epoch: 9/15 - Batch: 600/7933 - Learning rate: 0.00025 - Loss: 0.37945628
Epoch: 9/15 - Batch: 700/7933 - Learning rate: 0.00025 - Loss: 0.5713313
Epoch: 9/15 - Batch: 800/7933 - Learning rate: 0.00025 - Loss: 0.5653232
Epoch: 9/15 - Batch: 900/7933 - Learning rate: 0.00025 - Loss: 0.37834477
Epoch: 9/15 - Batch: 1000/7933 - Learning rate: 0.00025 - Loss: 0.6111643 - Dev BLEU: 0.22761409529879156
Epoch: 9/15 - Batch: 1100/7933 - Learning rate: 0.00025 - Loss: 0.55341595
Epoch: 9/15 - Batch: 1200/7933 - Learning rate: 0.00025 - Loss: 0.73704135
Epoch: 9/15 - Batch: 1300/7933 - Learning rate: 0.00025 - Loss: 0.63122314
Epoch: 9/15 - Batch: 1400/7933 - Learning rate: 0.00025 - Loss: 0.7107978
Epoch: 9/15 - Batch: 1500/7933 - Learning rate: 0.00025 - Loss: 0.5102207
Epoch: 9/15 - Batch: 1600/7933 - Learning rate: 0.00025 - Loss: 0.96449625
Epoch: 9/15 - Batch: 1700/7933 - Learning rate: 0.00025 - Loss: 0.6934713
Epoch: 9/15 - Batch: 1800/7933 - Learning rate: 0.00025 - Loss: 0.37131009
Epoch: 9/15 - Batch: 1900/7933 - Learning rate: 0.00025 - Loss: 0.59205306
Epoch: 9/15 - Batch: 2000/7933 - Learning rate: 0.00025 - Loss: 0.6011355 - Dev BLEU: 0.22486372077379585
Epoch: 9/15 - Batch: 2100/7933 - Learning rate: 0.00025 - Loss: 0.49462768
Epoch: 9/15 - Batch: 2200/7933 - Learning rate: 0.00025 - Loss: 0.49294302
Epoch: 9/15 - Batch: 2300/7933 - Learning rate: 0.00025 - Loss: 0.6273771
Epoch: 9/15 - Batch: 2400/7933 - Learning rate: 0.00025 - Loss: 0.5035459
Epoch: 9/15 - Batch: 2500/7933 - Learning rate: 0.00025 - Loss: 0.49232602
Epoch: 9/15 - Batch: 2600/7933 - Learning rate: 0.00025 - Loss: 0.3959717
Epoch: 9/15 - Batch: 2700/7933 - Learning rate: 0.00025 - Loss: 0.23689437
Epoch: 9/15 - Batch: 2800/7933 - Learning rate: 0.00025 - Loss: 0.6573978
Epoch: 9/15 - Batch: 2900/7933 - Learning rate: 0.00025 - Loss: 0.75987524
Epoch: 9/15 - Batch: 3000/7933 - Learning rate: 0.00025 - Loss: 0.6647109 - Dev BLEU: 0.22142103763148235
Epoch: 9/15 - Batch: 3100/7933 - Learning rate: 0.00025 - Loss: 0.6919857
Epoch: 9/15 - Batch: 3200/7933 - Learning rate: 0.00025 - Loss: 0.65525234
Epoch: 9/15 - Batch: 3300/7933 - Learning rate: 0.00025 - Loss: 0.5517013
Epoch: 9/15 - Batch: 3400/7933 - Learning rate: 0.00025 - Loss: 0.5369129
Epoch: 9/15 - Batch: 3500/7933 - Learning rate: 0.00025 - Loss: 0.66239566
Epoch: 9/15 - Batch: 3600/7933 - Learning rate: 0.00025 - Loss: 0.68763834
Epoch: 9/15 - Batch: 3700/7933 - Learning rate: 0.00025 - Loss: 0.65646017
Epoch: 9/15 - Batch: 3800/7933 - Learning rate: 0.00025 - Loss: 0.62143576
Epoch: 9/15 - Batch: 3900/7933 - Learning rate: 0.00025 - Loss: 0.71473616
Epoch: 9/15 - Batch: 4000/7933 - Learning rate: 0.00025 - Loss: 0.41588122 - Dev BLEU: 0.23441346424374107
Epoch: 9/15 - Batch: 4100/7933 - Learning rate: 0.00025 - Loss: 0.5384835
Epoch: 9/15 - Batch: 4200/7933 - Learning rate: 0.00025 - Loss: 0.50820553
Epoch: 9/15 - Batch: 4300/7933 - Learning rate: 0.00025 - Loss: 0.5872449
Epoch: 9/15 - Batch: 4400/7933 - Learning rate: 0.00025 - Loss: 0.53776634
Epoch: 9/15 - Batch: 4500/7933 - Learning rate: 0.00025 - Loss: 0.63379204
Epoch: 9/15 - Batch: 4600/7933 - Learning rate: 0.00025 - Loss: 0.9242212
Epoch: 9/15 - Batch: 4700/7933 - Learning rate: 0.00025 - Loss: 0.64058316
Epoch: 9/15 - Batch: 4800/7933 - Learning rate: 0.00025 - Loss: 0.6288805
Epoch: 9/15 - Batch: 4900/7933 - Learning rate: 0.00025 - Loss: 0.7840243
Epoch: 9/15 - Batch: 5000/7933 - Learning rate: 0.00025 - Loss: 0.8096536 - Dev BLEU: 0.25204963082475756
Epoch: 9/15 - Batch: 5100/7933 - Learning rate: 0.00025 - Loss: 0.861218
Epoch: 9/15 - Batch: 5200/7933 - Learning rate: 0.00025 - Loss: 0.8383102
Epoch: 9/15 - Batch: 5300/7933 - Learning rate: 0.00025 - Loss: 0.8128467
Epoch: 9/15 - Batch: 5400/7933 - Learning rate: 0.00025 - Loss: 0.7902145
Epoch: 9/15 - Batch: 5500/7933 - Learning rate: 0.00025 - Loss: 0.76112264
Epoch: 9/15 - Batch: 5600/7933 - Learning rate: 0.00025 - Loss: 0.5856389
Epoch: 9/15 - Batch: 5700/7933 - Learning rate: 0.00025 - Loss: 0.7763541
Epoch: 9/15 - Batch: 5800/7933 - Learning rate: 0.00025 - Loss: 0.7187981
Epoch: 9/15 - Batch: 5900/7933 - Learning rate: 0.00025 - Loss: 0.5032805
Epoch: 9/15 - Batch: 6000/7933 - Learning rate: 0.00025 - Loss: 0.775494 - Dev BLEU: 0.25333870473092096
Epoch: 9/15 - Batch: 6100/7933 - Learning rate: 0.00025 - Loss: 0.70210516
Epoch: 9/15 - Batch: 6200/7933 - Learning rate: 0.00025 - Loss: 0.6732371
Epoch: 9/15 - Batch: 6300/7933 - Learning rate: 0.00025 - Loss: 0.63041437
Epoch: 9/15 - Batch: 6400/7933 - Learning rate: 0.00025 - Loss: 0.60092556
Epoch: 9/15 - Batch: 6500/7933 - Learning rate: 0.00025 - Loss: 0.7098115
Epoch: 9/15 - Batch: 6600/7933 - Learning rate: 0.00025 - Loss: 0.6817824
Epoch: 9/15 - Batch: 6700/7933 - Learning rate: 0.00025 - Loss: 0.6883432
Epoch: 9/15 - Batch: 6800/7933 - Learning rate: 0.00025 - Loss: 0.68865085
Epoch: 9/15 - Batch: 6900/7933 - Learning rate: 0.00025 - Loss: 0.46764243
Epoch: 9/15 - Batch: 7000/7933 - Learning rate: 0.00025 - Loss: 0.98079365 - Dev BLEU: 0.26730944562935266
Epoch: 9/15 - Batch: 7100/7933 - Learning rate: 0.00025 - Loss: 0.7168211
Epoch: 9/15 - Batch: 7200/7933 - Learning rate: 0.00025 - Loss: 0.5959819
Epoch: 9/15 - Batch: 7300/7933 - Learning rate: 0.00025 - Loss: 0.7168487
Epoch: 9/15 - Batch: 7400/7933 - Learning rate: 0.00025 - Loss: 0.76834714
Epoch: 9/15 - Batch: 7500/7933 - Learning rate: 0.00025 - Loss: 0.5734426
Epoch: 9/15 - Batch: 7600/7933 - Learning rate: 0.00025 - Loss: 0.97809225
Epoch: 9/15 - Batch: 7700/7933 - Learning rate: 0.00025 - Loss: 1.1395118
Epoch: 9/15 - Batch: 7800/7933 - Learning rate: 0.00025 - Loss: 1.0047475
Epoch: 9/15 - Batch: 7900/7933 - Learning rate: 0.00025 - Loss: 0.7501036
Epoch: 9/15 - Batch: 7933/7933 - Learning rate: 0.00025 - Loss: 0.9490824 - Dev BLEU: 0.24894080210156108
Epoch: 10/15 - Batch: 100/7933 - Learning rate: 0.000125 - Loss: 0.7259179
Epoch: 10/15 - Batch: 200/7933 - Learning rate: 0.000125 - Loss: 0.6188078
Epoch: 10/15 - Batch: 300/7933 - Learning rate: 0.000125 - Loss: 0.48240975
Epoch: 10/15 - Batch: 400/7933 - Learning rate: 0.000125 - Loss: 0.77498317
Epoch: 10/15 - Batch: 500/7933 - Learning rate: 0.000125 - Loss: 0.50700724
Epoch: 10/15 - Batch: 600/7933 - Learning rate: 0.000125 - Loss: 0.376197
Epoch: 10/15 - Batch: 700/7933 - Learning rate: 0.000125 - Loss: 0.55313087
Epoch: 10/15 - Batch: 800/7933 - Learning rate: 0.000125 - Loss: 0.55476695
Epoch: 10/15 - Batch: 900/7933 - Learning rate: 0.000125 - Loss: 0.36674067
Epoch: 10/15 - Batch: 1000/7933 - Learning rate: 0.000125 - Loss: 0.601056 - Dev BLEU: 0.23757128614281886
Epoch: 10/15 - Batch: 1100/7933 - Learning rate: 0.000125 - Loss: 0.54661334
Epoch: 10/15 - Batch: 1200/7933 - Learning rate: 0.000125 - Loss: 0.7334712
Epoch: 10/15 - Batch: 1300/7933 - Learning rate: 0.000125 - Loss: 0.6174612
Epoch: 10/15 - Batch: 1400/7933 - Learning rate: 0.000125 - Loss: 0.6949488
Epoch: 10/15 - Batch: 1500/7933 - Learning rate: 0.000125 - Loss: 0.51430404
Epoch: 10/15 - Batch: 1600/7933 - Learning rate: 0.000125 - Loss: 0.95554656
Epoch: 10/15 - Batch: 1700/7933 - Learning rate: 0.000125 - Loss: 0.6797761
Epoch: 10/15 - Batch: 1800/7933 - Learning rate: 0.000125 - Loss: 0.36379328
Epoch: 10/15 - Batch: 1900/7933 - Learning rate: 0.000125 - Loss: 0.57511556
Epoch: 10/15 - Batch: 2000/7933 - Learning rate: 0.000125 - Loss: 0.59007585 - Dev BLEU: 0.23217688275295473
Epoch: 10/15 - Batch: 2100/7933 - Learning rate: 0.000125 - Loss: 0.47012278
Epoch: 10/15 - Batch: 2200/7933 - Learning rate: 0.000125 - Loss: 0.4780541
Epoch: 10/15 - Batch: 2300/7933 - Learning rate: 0.000125 - Loss: 0.6264663
Epoch: 10/15 - Batch: 2400/7933 - Learning rate: 0.000125 - Loss: 0.49254894
Epoch: 10/15 - Batch: 2500/7933 - Learning rate: 0.000125 - Loss: 0.4833765
Epoch: 10/15 - Batch: 2600/7933 - Learning rate: 0.000125 - Loss: 0.39401647
Epoch: 10/15 - Batch: 2700/7933 - Learning rate: 0.000125 - Loss: 0.2397671
Epoch: 10/15 - Batch: 2800/7933 - Learning rate: 0.000125 - Loss: 0.6334563
Epoch: 10/15 - Batch: 2900/7933 - Learning rate: 0.000125 - Loss: 0.76267606
Epoch: 10/15 - Batch: 3000/7933 - Learning rate: 0.000125 - Loss: 0.64751935 - Dev BLEU: 0.2334263136665429
Epoch: 10/15 - Batch: 3100/7933 - Learning rate: 0.000125 - Loss: 0.68893975
Epoch: 10/15 - Batch: 3200/7933 - Learning rate: 0.000125 - Loss: 0.6442169
Epoch: 10/15 - Batch: 3300/7933 - Learning rate: 0.000125 - Loss: 0.5481562
Epoch: 10/15 - Batch: 3400/7933 - Learning rate: 0.000125 - Loss: 0.5279755
Epoch: 10/15 - Batch: 3500/7933 - Learning rate: 0.000125 - Loss: 0.65418035
Epoch: 10/15 - Batch: 3600/7933 - Learning rate: 0.000125 - Loss: 0.67253006
Epoch: 10/15 - Batch: 3700/7933 - Learning rate: 0.000125 - Loss: 0.65675956
Epoch: 10/15 - Batch: 3800/7933 - Learning rate: 0.000125 - Loss: 0.60248697
Epoch: 10/15 - Batch: 3900/7933 - Learning rate: 0.000125 - Loss: 0.6951137
Epoch: 10/15 - Batch: 4000/7933 - Learning rate: 0.000125 - Loss: 0.40599623 - Dev BLEU: 0.24026232569685654
Epoch: 10/15 - Batch: 4100/7933 - Learning rate: 0.000125 - Loss: 0.51324385
Epoch: 10/15 - Batch: 4200/7933 - Learning rate: 0.000125 - Loss: 0.50605446
Epoch: 10/15 - Batch: 4300/7933 - Learning rate: 0.000125 - Loss: 0.5784477
Epoch: 10/15 - Batch: 4400/7933 - Learning rate: 0.000125 - Loss: 0.52941686
Epoch: 10/15 - Batch: 4500/7933 - Learning rate: 0.000125 - Loss: 0.6153012
Epoch: 10/15 - Batch: 4600/7933 - Learning rate: 0.000125 - Loss: 0.87530535
Epoch: 10/15 - Batch: 4700/7933 - Learning rate: 0.000125 - Loss: 0.6154408
Epoch: 10/15 - Batch: 4800/7933 - Learning rate: 0.000125 - Loss: 0.59501773
Epoch: 10/15 - Batch: 4900/7933 - Learning rate: 0.000125 - Loss: 0.7631545
Epoch: 10/15 - Batch: 5000/7933 - Learning rate: 0.000125 - Loss: 0.791178 - Dev BLEU: 0.2548636771552919
Epoch: 10/15 - Batch: 5100/7933 - Learning rate: 0.000125 - Loss: 0.828913
Epoch: 10/15 - Batch: 5200/7933 - Learning rate: 0.000125 - Loss: 0.8049369
Epoch: 10/15 - Batch: 5300/7933 - Learning rate: 0.000125 - Loss: 0.78272146
Epoch: 10/15 - Batch: 5400/7933 - Learning rate: 0.000125 - Loss: 0.7582116
Epoch: 10/15 - Batch: 5500/7933 - Learning rate: 0.000125 - Loss: 0.73218113
Epoch: 10/15 - Batch: 5600/7933 - Learning rate: 0.000125 - Loss: 0.5681186
Epoch: 10/15 - Batch: 5700/7933 - Learning rate: 0.000125 - Loss: 0.73034436
Epoch: 10/15 - Batch: 5800/7933 - Learning rate: 0.000125 - Loss: 0.6855392
Epoch: 10/15 - Batch: 5900/7933 - Learning rate: 0.000125 - Loss: 0.485483
Epoch: 10/15 - Batch: 6000/7933 - Learning rate: 0.000125 - Loss: 0.75481606 - Dev BLEU: 0.2591907731296071
Epoch: 10/15 - Batch: 6100/7933 - Learning rate: 0.000125 - Loss: 0.6685028
Epoch: 10/15 - Batch: 6200/7933 - Learning rate: 0.000125 - Loss: 0.66360766
Epoch: 10/15 - Batch: 6300/7933 - Learning rate: 0.000125 - Loss: 0.61196744
Epoch: 10/15 - Batch: 6400/7933 - Learning rate: 0.000125 - Loss: 0.5974946
Epoch: 10/15 - Batch: 6500/7933 - Learning rate: 0.000125 - Loss: 0.6975916
Epoch: 10/15 - Batch: 6600/7933 - Learning rate: 0.000125 - Loss: 0.6719485
Epoch: 10/15 - Batch: 6700/7933 - Learning rate: 0.000125 - Loss: 0.6818811
Epoch: 10/15 - Batch: 6800/7933 - Learning rate: 0.000125 - Loss: 0.689491
Epoch: 10/15 - Batch: 6900/7933 - Learning rate: 0.000125 - Loss: 0.46224496
Epoch: 10/15 - Batch: 7000/7933 - Learning rate: 0.000125 - Loss: 0.9636629 - Dev BLEU: 0.26801522236755004
Epoch: 10/15 - Batch: 7100/7933 - Learning rate: 0.000125 - Loss: 0.7084534
Epoch: 10/15 - Batch: 7200/7933 - Learning rate: 0.000125 - Loss: 0.58207804
Epoch: 10/15 - Batch: 7300/7933 - Learning rate: 0.000125 - Loss: 0.70645475
Epoch: 10/15 - Batch: 7400/7933 - Learning rate: 0.000125 - Loss: 0.74876654
Epoch: 10/15 - Batch: 7500/7933 - Learning rate: 0.000125 - Loss: 0.57073677
Epoch: 10/15 - Batch: 7600/7933 - Learning rate: 0.000125 - Loss: 0.9619636
Epoch: 10/15 - Batch: 7700/7933 - Learning rate: 0.000125 - Loss: 1.130421
Epoch: 10/15 - Batch: 7800/7933 - Learning rate: 0.000125 - Loss: 0.9827436
Epoch: 10/15 - Batch: 7900/7933 - Learning rate: 0.000125 - Loss: 0.73911595
Epoch: 10/15 - Batch: 7933/7933 - Learning rate: 0.000125 - Loss: 0.9499098 - Dev BLEU: 0.2556468886949256
Epoch: 11/15 - Batch: 100/7933 - Learning rate: 6.25e-05 - Loss: 0.72436047
Epoch: 11/15 - Batch: 200/7933 - Learning rate: 6.25e-05 - Loss: 0.59391356
Epoch: 11/15 - Batch: 300/7933 - Learning rate: 6.25e-05 - Loss: 0.48186934
Epoch: 11/15 - Batch: 400/7933 - Learning rate: 6.25e-05 - Loss: 0.7795075
Epoch: 11/15 - Batch: 500/7933 - Learning rate: 6.25e-05 - Loss: 0.48836797
Epoch: 11/15 - Batch: 600/7933 - Learning rate: 6.25e-05 - Loss: 0.3689444
Epoch: 11/15 - Batch: 700/7933 - Learning rate: 6.25e-05 - Loss: 0.5433872
Epoch: 11/15 - Batch: 800/7933 - Learning rate: 6.25e-05 - Loss: 0.54356956
Epoch: 11/15 - Batch: 900/7933 - Learning rate: 6.25e-05 - Loss: 0.36665416
Epoch: 11/15 - Batch: 1000/7933 - Learning rate: 6.25e-05 - Loss: 0.58793753 - Dev BLEU: 0.24182489411884672
Epoch: 11/15 - Batch: 1100/7933 - Learning rate: 6.25e-05 - Loss: 0.53316253
Epoch: 11/15 - Batch: 1200/7933 - Learning rate: 6.25e-05 - Loss: 0.7132987
Epoch: 11/15 - Batch: 1300/7933 - Learning rate: 6.25e-05 - Loss: 0.60616136
Epoch: 11/15 - Batch: 1400/7933 - Learning rate: 6.25e-05 - Loss: 0.69549495
Epoch: 11/15 - Batch: 1500/7933 - Learning rate: 6.25e-05 - Loss: 0.51539916
Epoch: 11/15 - Batch: 1600/7933 - Learning rate: 6.25e-05 - Loss: 0.92998177
Epoch: 11/15 - Batch: 1700/7933 - Learning rate: 6.25e-05 - Loss: 0.6735194
Epoch: 11/15 - Batch: 1800/7933 - Learning rate: 6.25e-05 - Loss: 0.3564728
Epoch: 11/15 - Batch: 1900/7933 - Learning rate: 6.25e-05 - Loss: 0.57496625
Epoch: 11/15 - Batch: 2000/7933 - Learning rate: 6.25e-05 - Loss: 0.58907795 - Dev BLEU: 0.24250637477784218
Epoch: 11/15 - Batch: 2100/7933 - Learning rate: 6.25e-05 - Loss: 0.45795688
Epoch: 11/15 - Batch: 2200/7933 - Learning rate: 6.25e-05 - Loss: 0.47850922
Epoch: 11/15 - Batch: 2300/7933 - Learning rate: 6.25e-05 - Loss: 0.62014496
Epoch: 11/15 - Batch: 2400/7933 - Learning rate: 6.25e-05 - Loss: 0.49539888
Epoch: 11/15 - Batch: 2500/7933 - Learning rate: 6.25e-05 - Loss: 0.48167917
Epoch: 11/15 - Batch: 2600/7933 - Learning rate: 6.25e-05 - Loss: 0.39737424
Epoch: 11/15 - Batch: 2700/7933 - Learning rate: 6.25e-05 - Loss: 0.23636046
Epoch: 11/15 - Batch: 2800/7933 - Learning rate: 6.25e-05 - Loss: 0.63410664
Epoch: 11/15 - Batch: 2900/7933 - Learning rate: 6.25e-05 - Loss: 0.74931085
Epoch: 11/15 - Batch: 3000/7933 - Learning rate: 6.25e-05 - Loss: 0.6583898 - Dev BLEU: 0.23832602662504743
Epoch: 11/15 - Batch: 3100/7933 - Learning rate: 6.25e-05 - Loss: 0.66859424
Epoch: 11/15 - Batch: 3200/7933 - Learning rate: 6.25e-05 - Loss: 0.6394643
Epoch: 11/15 - Batch: 3300/7933 - Learning rate: 6.25e-05 - Loss: 0.53521675
Epoch: 11/15 - Batch: 3400/7933 - Learning rate: 6.25e-05 - Loss: 0.52985466
Epoch: 11/15 - Batch: 3500/7933 - Learning rate: 6.25e-05 - Loss: 0.64277554
Epoch: 11/15 - Batch: 3600/7933 - Learning rate: 6.25e-05 - Loss: 0.67412233
Epoch: 11/15 - Batch: 3700/7933 - Learning rate: 6.25e-05 - Loss: 0.6603244
Epoch: 11/15 - Batch: 3800/7933 - Learning rate: 6.25e-05 - Loss: 0.6123737
Epoch: 11/15 - Batch: 3900/7933 - Learning rate: 6.25e-05 - Loss: 0.69449824
Epoch: 11/15 - Batch: 4000/7933 - Learning rate: 6.25e-05 - Loss: 0.4046733 - Dev BLEU: 0.24145626066404088
Epoch: 11/15 - Batch: 4100/7933 - Learning rate: 6.25e-05 - Loss: 0.51232505
Epoch: 11/15 - Batch: 4200/7933 - Learning rate: 6.25e-05 - Loss: 0.4918213
Epoch: 11/15 - Batch: 4300/7933 - Learning rate: 6.25e-05 - Loss: 0.57506233
Epoch: 11/15 - Batch: 4400/7933 - Learning rate: 6.25e-05 - Loss: 0.519888
Epoch: 11/15 - Batch: 4500/7933 - Learning rate: 6.25e-05 - Loss: 0.60592127
Epoch: 11/15 - Batch: 4600/7933 - Learning rate: 6.25e-05 - Loss: 0.8511968
Epoch: 11/15 - Batch: 4700/7933 - Learning rate: 6.25e-05 - Loss: 0.59692377
Epoch: 11/15 - Batch: 4800/7933 - Learning rate: 6.25e-05 - Loss: 0.57810307
Epoch: 11/15 - Batch: 4900/7933 - Learning rate: 6.25e-05 - Loss: 0.7214641
Epoch: 11/15 - Batch: 5000/7933 - Learning rate: 6.25e-05 - Loss: 0.7896064 - Dev BLEU: 0.2575118367151734
Epoch: 11/15 - Batch: 5100/7933 - Learning rate: 6.25e-05 - Loss: 0.812823
Epoch: 11/15 - Batch: 5200/7933 - Learning rate: 6.25e-05 - Loss: 0.79463917
Epoch: 11/15 - Batch: 5300/7933 - Learning rate: 6.25e-05 - Loss: 0.78193396
Epoch: 11/15 - Batch: 5400/7933 - Learning rate: 6.25e-05 - Loss: 0.7471085
Epoch: 11/15 - Batch: 5500/7933 - Learning rate: 6.25e-05 - Loss: 0.71886414
Epoch: 11/15 - Batch: 5600/7933 - Learning rate: 6.25e-05 - Loss: 0.5678287
Epoch: 11/15 - Batch: 5700/7933 - Learning rate: 6.25e-05 - Loss: 0.70683265
Epoch: 11/15 - Batch: 5800/7933 - Learning rate: 6.25e-05 - Loss: 0.69800556
Epoch: 11/15 - Batch: 5900/7933 - Learning rate: 6.25e-05 - Loss: 0.48466244
Epoch: 11/15 - Batch: 6000/7933 - Learning rate: 6.25e-05 - Loss: 0.7487129 - Dev BLEU: 0.2636582469402592
Epoch: 11/15 - Batch: 6100/7933 - Learning rate: 6.25e-05 - Loss: 0.6661224
Epoch: 11/15 - Batch: 6200/7933 - Learning rate: 6.25e-05 - Loss: 0.6448004
Epoch: 11/15 - Batch: 6300/7933 - Learning rate: 6.25e-05 - Loss: 0.6059071
Epoch: 11/15 - Batch: 6400/7933 - Learning rate: 6.25e-05 - Loss: 0.5994078
Epoch: 11/15 - Batch: 6500/7933 - Learning rate: 6.25e-05 - Loss: 0.69477385
Epoch: 11/15 - Batch: 6600/7933 - Learning rate: 6.25e-05 - Loss: 0.6799083
Epoch: 11/15 - Batch: 6700/7933 - Learning rate: 6.25e-05 - Loss: 0.68793684
Epoch: 11/15 - Batch: 6800/7933 - Learning rate: 6.25e-05 - Loss: 0.6848105
Epoch: 11/15 - Batch: 6900/7933 - Learning rate: 6.25e-05 - Loss: 0.45634952
Epoch: 11/15 - Batch: 7000/7933 - Learning rate: 6.25e-05 - Loss: 0.95490974 - Dev BLEU: 0.2688750197506291
Epoch: 11/15 - Batch: 7100/7933 - Learning rate: 6.25e-05 - Loss: 0.6976785
Epoch: 11/15 - Batch: 7200/7933 - Learning rate: 6.25e-05 - Loss: 0.5883304
Epoch: 11/15 - Batch: 7300/7933 - Learning rate: 6.25e-05 - Loss: 0.7122683
Epoch: 11/15 - Batch: 7400/7933 - Learning rate: 6.25e-05 - Loss: 0.7522537
Epoch: 11/15 - Batch: 7500/7933 - Learning rate: 6.25e-05 - Loss: 0.5810899
Epoch: 11/15 - Batch: 7600/7933 - Learning rate: 6.25e-05 - Loss: 0.9407885
Epoch: 11/15 - Batch: 7700/7933 - Learning rate: 6.25e-05 - Loss: 1.1154059
Epoch: 11/15 - Batch: 7800/7933 - Learning rate: 6.25e-05 - Loss: 0.97736615
Epoch: 11/15 - Batch: 7900/7933 - Learning rate: 6.25e-05 - Loss: 0.73880655
Epoch: 11/15 - Batch: 7933/7933 - Learning rate: 6.25e-05 - Loss: 0.93258065 - Dev BLEU: 0.25892056084747067
Epoch: 12/15 - Batch: 100/7933 - Learning rate: 3.125e-05 - Loss: 0.71390826
Epoch: 12/15 - Batch: 200/7933 - Learning rate: 3.125e-05 - Loss: 0.59404457
Epoch: 12/15 - Batch: 300/7933 - Learning rate: 3.125e-05 - Loss: 0.47714248
Epoch: 12/15 - Batch: 400/7933 - Learning rate: 3.125e-05 - Loss: 0.7527037
Epoch: 12/15 - Batch: 500/7933 - Learning rate: 3.125e-05 - Loss: 0.50817895
Epoch: 12/15 - Batch: 600/7933 - Learning rate: 3.125e-05 - Loss: 0.36286077
Epoch: 12/15 - Batch: 700/7933 - Learning rate: 3.125e-05 - Loss: 0.5459417
Epoch: 12/15 - Batch: 800/7933 - Learning rate: 3.125e-05 - Loss: 0.54031557
Epoch: 12/15 - Batch: 900/7933 - Learning rate: 3.125e-05 - Loss: 0.36036736
Epoch: 12/15 - Batch: 1000/7933 - Learning rate: 3.125e-05 - Loss: 0.5977656 - Dev BLEU: 0.24730514480398202
Epoch: 12/15 - Batch: 1100/7933 - Learning rate: 3.125e-05 - Loss: 0.54159147
Epoch: 12/15 - Batch: 1200/7933 - Learning rate: 3.125e-05 - Loss: 0.7022316
Epoch: 12/15 - Batch: 1300/7933 - Learning rate: 3.125e-05 - Loss: 0.60409504
Epoch: 12/15 - Batch: 1400/7933 - Learning rate: 3.125e-05 - Loss: 0.69236785
Epoch: 12/15 - Batch: 1500/7933 - Learning rate: 3.125e-05 - Loss: 0.5165352
Epoch: 12/15 - Batch: 1600/7933 - Learning rate: 3.125e-05 - Loss: 0.9296027
Epoch: 12/15 - Batch: 1700/7933 - Learning rate: 3.125e-05 - Loss: 0.6628653
Epoch: 12/15 - Batch: 1800/7933 - Learning rate: 3.125e-05 - Loss: 0.35667598
Epoch: 12/15 - Batch: 1900/7933 - Learning rate: 3.125e-05 - Loss: 0.5681081
Epoch: 12/15 - Batch: 2000/7933 - Learning rate: 3.125e-05 - Loss: 0.58452445 - Dev BLEU: 0.2461740580866743
Epoch: 12/15 - Batch: 2100/7933 - Learning rate: 3.125e-05 - Loss: 0.4580113
Epoch: 12/15 - Batch: 2200/7933 - Learning rate: 3.125e-05 - Loss: 0.48166993
Epoch: 12/15 - Batch: 2300/7933 - Learning rate: 3.125e-05 - Loss: 0.62609595
Epoch: 12/15 - Batch: 2400/7933 - Learning rate: 3.125e-05 - Loss: 0.49421597
Epoch: 12/15 - Batch: 2500/7933 - Learning rate: 3.125e-05 - Loss: 0.46727893
Epoch: 12/15 - Batch: 2600/7933 - Learning rate: 3.125e-05 - Loss: 0.3898093
Epoch: 12/15 - Batch: 2700/7933 - Learning rate: 3.125e-05 - Loss: 0.23755883
Epoch: 12/15 - Batch: 2800/7933 - Learning rate: 3.125e-05 - Loss: 0.6366069
Epoch: 12/15 - Batch: 2900/7933 - Learning rate: 3.125e-05 - Loss: 0.7318772
Epoch: 12/15 - Batch: 3000/7933 - Learning rate: 3.125e-05 - Loss: 0.65545547 - Dev BLEU: 0.2437825074956847
Epoch: 12/15 - Batch: 3100/7933 - Learning rate: 3.125e-05 - Loss: 0.67369837
Epoch: 12/15 - Batch: 3200/7933 - Learning rate: 3.125e-05 - Loss: 0.6349418
Epoch: 12/15 - Batch: 3300/7933 - Learning rate: 3.125e-05 - Loss: 0.5484871
Epoch: 12/15 - Batch: 3400/7933 - Learning rate: 3.125e-05 - Loss: 0.5191004
Epoch: 12/15 - Batch: 3500/7933 - Learning rate: 3.125e-05 - Loss: 0.6425835
Epoch: 12/15 - Batch: 3600/7933 - Learning rate: 3.125e-05 - Loss: 0.65906435
Epoch: 12/15 - Batch: 3700/7933 - Learning rate: 3.125e-05 - Loss: 0.6510044
Epoch: 12/15 - Batch: 3800/7933 - Learning rate: 3.125e-05 - Loss: 0.6063698
Epoch: 12/15 - Batch: 3900/7933 - Learning rate: 3.125e-05 - Loss: 0.666285
Epoch: 12/15 - Batch: 4000/7933 - Learning rate: 3.125e-05 - Loss: 0.40769535 - Dev BLEU: 0.2451433985421704
Epoch: 12/15 - Batch: 4100/7933 - Learning rate: 3.125e-05 - Loss: 0.5069744
Epoch: 12/15 - Batch: 4200/7933 - Learning rate: 3.125e-05 - Loss: 0.4934726
Epoch: 12/15 - Batch: 4300/7933 - Learning rate: 3.125e-05 - Loss: 0.569658
Epoch: 12/15 - Batch: 4400/7933 - Learning rate: 3.125e-05 - Loss: 0.5197929
Epoch: 12/15 - Batch: 4500/7933 - Learning rate: 3.125e-05 - Loss: 0.6078814
Epoch: 12/15 - Batch: 4600/7933 - Learning rate: 3.125e-05 - Loss: 0.8793286
Epoch: 12/15 - Batch: 4700/7933 - Learning rate: 3.125e-05 - Loss: 0.59288883
Epoch: 12/15 - Batch: 4800/7933 - Learning rate: 3.125e-05 - Loss: 0.5645272
Epoch: 12/15 - Batch: 4900/7933 - Learning rate: 3.125e-05 - Loss: 0.7057397
Epoch: 12/15 - Batch: 5000/7933 - Learning rate: 3.125e-05 - Loss: 0.7682352 - Dev BLEU: 0.2589080372633376
Epoch: 12/15 - Batch: 5100/7933 - Learning rate: 3.125e-05 - Loss: 0.8189561
Epoch: 12/15 - Batch: 5200/7933 - Learning rate: 3.125e-05 - Loss: 0.79821545
Epoch: 12/15 - Batch: 5300/7933 - Learning rate: 3.125e-05 - Loss: 0.75230426
Epoch: 12/15 - Batch: 5400/7933 - Learning rate: 3.125e-05 - Loss: 0.74832433
Epoch: 12/15 - Batch: 5500/7933 - Learning rate: 3.125e-05 - Loss: 0.7200273
Epoch: 12/15 - Batch: 5600/7933 - Learning rate: 3.125e-05 - Loss: 0.54482394
Epoch: 12/15 - Batch: 5700/7933 - Learning rate: 3.125e-05 - Loss: 0.7065349
Epoch: 12/15 - Batch: 5800/7933 - Learning rate: 3.125e-05 - Loss: 0.6840245
Epoch: 12/15 - Batch: 5900/7933 - Learning rate: 3.125e-05 - Loss: 0.46543586
Epoch: 12/15 - Batch: 6000/7933 - Learning rate: 3.125e-05 - Loss: 0.7414388 - Dev BLEU: 0.2636444976864261
Epoch: 12/15 - Batch: 6100/7933 - Learning rate: 3.125e-05 - Loss: 0.6621856
Epoch: 12/15 - Batch: 6200/7933 - Learning rate: 3.125e-05 - Loss: 0.6515955
Epoch: 12/15 - Batch: 6300/7933 - Learning rate: 3.125e-05 - Loss: 0.6031621
Epoch: 12/15 - Batch: 6400/7933 - Learning rate: 3.125e-05 - Loss: 0.571394
Epoch: 12/15 - Batch: 6500/7933 - Learning rate: 3.125e-05 - Loss: 0.6895149
Epoch: 12/15 - Batch: 6600/7933 - Learning rate: 3.125e-05 - Loss: 0.67410874
Epoch: 12/15 - Batch: 6700/7933 - Learning rate: 3.125e-05 - Loss: 0.6821886
Epoch: 12/15 - Batch: 6800/7933 - Learning rate: 3.125e-05 - Loss: 0.68858206
Epoch: 12/15 - Batch: 6900/7933 - Learning rate: 3.125e-05 - Loss: 0.45719913
Epoch: 12/15 - Batch: 7000/7933 - Learning rate: 3.125e-05 - Loss: 0.9526443 - Dev BLEU: 0.26827411022509196
Epoch: 12/15 - Batch: 7100/7933 - Learning rate: 3.125e-05 - Loss: 0.7015151
Epoch: 12/15 - Batch: 7200/7933 - Learning rate: 3.125e-05 - Loss: 0.5879459
Epoch: 12/15 - Batch: 7300/7933 - Learning rate: 3.125e-05 - Loss: 0.7019015
Epoch: 12/15 - Batch: 7400/7933 - Learning rate: 3.125e-05 - Loss: 0.73785895
Epoch: 12/15 - Batch: 7500/7933 - Learning rate: 3.125e-05 - Loss: 0.56284785
Epoch: 12/15 - Batch: 7600/7933 - Learning rate: 3.125e-05 - Loss: 0.9592214
Epoch: 12/15 - Batch: 7700/7933 - Learning rate: 3.125e-05 - Loss: 1.1131735
Epoch: 12/15 - Batch: 7800/7933 - Learning rate: 3.125e-05 - Loss: 0.95648223
Epoch: 12/15 - Batch: 7900/7933 - Learning rate: 3.125e-05 - Loss: 0.7319252
Epoch: 12/15 - Batch: 7933/7933 - Learning rate: 3.125e-05 - Loss: 0.9408276 - Dev BLEU: 0.2620732614273079
Epoch: 13/15 - Batch: 100/7933 - Learning rate: 1.5625e-05 - Loss: 0.71507895
Epoch: 13/15 - Batch: 200/7933 - Learning rate: 1.5625e-05 - Loss: 0.5981179
Epoch: 13/15 - Batch: 300/7933 - Learning rate: 1.5625e-05 - Loss: 0.4752058
Epoch: 13/15 - Batch: 400/7933 - Learning rate: 1.5625e-05 - Loss: 0.75745326
Epoch: 13/15 - Batch: 500/7933 - Learning rate: 1.5625e-05 - Loss: 0.50066346
Epoch: 13/15 - Batch: 600/7933 - Learning rate: 1.5625e-05 - Loss: 0.36489952
Epoch: 13/15 - Batch: 700/7933 - Learning rate: 1.5625e-05 - Loss: 0.5411092
Epoch: 13/15 - Batch: 800/7933 - Learning rate: 1.5625e-05 - Loss: 0.5416754
Epoch: 13/15 - Batch: 900/7933 - Learning rate: 1.5625e-05 - Loss: 0.35923082
Epoch: 13/15 - Batch: 1000/7933 - Learning rate: 1.5625e-05 - Loss: 0.5949593 - Dev BLEU: 0.2517450730499379
Epoch: 13/15 - Batch: 1100/7933 - Learning rate: 1.5625e-05 - Loss: 0.5421315
Epoch: 13/15 - Batch: 1200/7933 - Learning rate: 1.5625e-05 - Loss: 0.6990501
Epoch: 13/15 - Batch: 1300/7933 - Learning rate: 1.5625e-05 - Loss: 0.59607244
Epoch: 13/15 - Batch: 1400/7933 - Learning rate: 1.5625e-05 - Loss: 0.681223
Epoch: 13/15 - Batch: 1500/7933 - Learning rate: 1.5625e-05 - Loss: 0.5154691
Epoch: 13/15 - Batch: 1600/7933 - Learning rate: 1.5625e-05 - Loss: 0.9349857
Epoch: 13/15 - Batch: 1700/7933 - Learning rate: 1.5625e-05 - Loss: 0.66562337
Epoch: 13/15 - Batch: 1800/7933 - Learning rate: 1.5625e-05 - Loss: 0.3493457
Epoch: 13/15 - Batch: 1900/7933 - Learning rate: 1.5625e-05 - Loss: 0.5718776
Epoch: 13/15 - Batch: 2000/7933 - Learning rate: 1.5625e-05 - Loss: 0.5744869 - Dev BLEU: 0.2501654904701595
Epoch: 13/15 - Batch: 2100/7933 - Learning rate: 1.5625e-05 - Loss: 0.46178415
Epoch: 13/15 - Batch: 2200/7933 - Learning rate: 1.5625e-05 - Loss: 0.48470625
Epoch: 13/15 - Batch: 2300/7933 - Learning rate: 1.5625e-05 - Loss: 0.6365462
Epoch: 13/15 - Batch: 2400/7933 - Learning rate: 1.5625e-05 - Loss: 0.48682678
Epoch: 13/15 - Batch: 2500/7933 - Learning rate: 1.5625e-05 - Loss: 0.48429716
Epoch: 13/15 - Batch: 2600/7933 - Learning rate: 1.5625e-05 - Loss: 0.39827415
Epoch: 13/15 - Batch: 2700/7933 - Learning rate: 1.5625e-05 - Loss: 0.24096821
Epoch: 13/15 - Batch: 2800/7933 - Learning rate: 1.5625e-05 - Loss: 0.6298342
Epoch: 13/15 - Batch: 2900/7933 - Learning rate: 1.5625e-05 - Loss: 0.7237785
Epoch: 13/15 - Batch: 3000/7933 - Learning rate: 1.5625e-05 - Loss: 0.63504815 - Dev BLEU: 0.247006601496103
Epoch: 13/15 - Batch: 3100/7933 - Learning rate: 1.5625e-05 - Loss: 0.66233796
Epoch: 13/15 - Batch: 3200/7933 - Learning rate: 1.5625e-05 - Loss: 0.6314311
Epoch: 13/15 - Batch: 3300/7933 - Learning rate: 1.5625e-05 - Loss: 0.5442938
Epoch: 13/15 - Batch: 3400/7933 - Learning rate: 1.5625e-05 - Loss: 0.5230611
Epoch: 13/15 - Batch: 3500/7933 - Learning rate: 1.5625e-05 - Loss: 0.6437568
Epoch: 13/15 - Batch: 3600/7933 - Learning rate: 1.5625e-05 - Loss: 0.6726916
Epoch: 13/15 - Batch: 3700/7933 - Learning rate: 1.5625e-05 - Loss: 0.6473859
Epoch: 13/15 - Batch: 3800/7933 - Learning rate: 1.5625e-05 - Loss: 0.61507857
Epoch: 13/15 - Batch: 3900/7933 - Learning rate: 1.5625e-05 - Loss: 0.68412054
Epoch: 13/15 - Batch: 4000/7933 - Learning rate: 1.5625e-05 - Loss: 0.41210425 - Dev BLEU: 0.2473888507089335
Epoch: 13/15 - Batch: 4100/7933 - Learning rate: 1.5625e-05 - Loss: 0.50525457
Epoch: 13/15 - Batch: 4200/7933 - Learning rate: 1.5625e-05 - Loss: 0.4829399
Epoch: 13/15 - Batch: 4300/7933 - Learning rate: 1.5625e-05 - Loss: 0.5756845
Epoch: 13/15 - Batch: 4400/7933 - Learning rate: 1.5625e-05 - Loss: 0.5319513
Epoch: 13/15 - Batch: 4500/7933 - Learning rate: 1.5625e-05 - Loss: 0.6010828
Epoch: 13/15 - Batch: 4600/7933 - Learning rate: 1.5625e-05 - Loss: 0.850296
Epoch: 13/15 - Batch: 4700/7933 - Learning rate: 1.5625e-05 - Loss: 0.5977979
Epoch: 13/15 - Batch: 4800/7933 - Learning rate: 1.5625e-05 - Loss: 0.5591009
Epoch: 13/15 - Batch: 4900/7933 - Learning rate: 1.5625e-05 - Loss: 0.718533
Epoch: 13/15 - Batch: 5000/7933 - Learning rate: 1.5625e-05 - Loss: 0.7631115 - Dev BLEU: 0.2590499369964684
Epoch: 13/15 - Batch: 5100/7933 - Learning rate: 1.5625e-05 - Loss: 0.81428206
Epoch: 13/15 - Batch: 5200/7933 - Learning rate: 1.5625e-05 - Loss: 0.7948943
Epoch: 13/15 - Batch: 5300/7933 - Learning rate: 1.5625e-05 - Loss: 0.7358657
Epoch: 13/15 - Batch: 5400/7933 - Learning rate: 1.5625e-05 - Loss: 0.7114555
Epoch: 13/15 - Batch: 5500/7933 - Learning rate: 1.5625e-05 - Loss: 0.70851594
Epoch: 13/15 - Batch: 5600/7933 - Learning rate: 1.5625e-05 - Loss: 0.57127076
Epoch: 13/15 - Batch: 5700/7933 - Learning rate: 1.5625e-05 - Loss: 0.7139566
Epoch: 13/15 - Batch: 5800/7933 - Learning rate: 1.5625e-05 - Loss: 0.6686107
Epoch: 13/15 - Batch: 5900/7933 - Learning rate: 1.5625e-05 - Loss: 0.47384846
Epoch: 13/15 - Batch: 6000/7933 - Learning rate: 1.5625e-05 - Loss: 0.74164134 - Dev BLEU: 0.26190566737959114
Epoch: 13/15 - Batch: 6100/7933 - Learning rate: 1.5625e-05 - Loss: 0.657071
Epoch: 13/15 - Batch: 6200/7933 - Learning rate: 1.5625e-05 - Loss: 0.64166605
Epoch: 13/15 - Batch: 6300/7933 - Learning rate: 1.5625e-05 - Loss: 0.6188391
Epoch: 13/15 - Batch: 6400/7933 - Learning rate: 1.5625e-05 - Loss: 0.5860852
Epoch: 13/15 - Batch: 6500/7933 - Learning rate: 1.5625e-05 - Loss: 0.6866747
Epoch: 13/15 - Batch: 6600/7933 - Learning rate: 1.5625e-05 - Loss: 0.68084985
Epoch: 13/15 - Batch: 6700/7933 - Learning rate: 1.5625e-05 - Loss: 0.6852188
Epoch: 13/15 - Batch: 6800/7933 - Learning rate: 1.5625e-05 - Loss: 0.6822387
Epoch: 13/15 - Batch: 6900/7933 - Learning rate: 1.5625e-05 - Loss: 0.45760506
Epoch: 13/15 - Batch: 7000/7933 - Learning rate: 1.5625e-05 - Loss: 0.9584071 - Dev BLEU: 0.26799192095193364
Epoch: 13/15 - Batch: 7100/7933 - Learning rate: 1.5625e-05 - Loss: 0.68888205
Epoch: 13/15 - Batch: 7200/7933 - Learning rate: 1.5625e-05 - Loss: 0.5819978
Epoch: 13/15 - Batch: 7300/7933 - Learning rate: 1.5625e-05 - Loss: 0.704265
Epoch: 13/15 - Batch: 7400/7933 - Learning rate: 1.5625e-05 - Loss: 0.7346346
Epoch: 13/15 - Batch: 7500/7933 - Learning rate: 1.5625e-05 - Loss: 0.5664005
Epoch: 13/15 - Batch: 7600/7933 - Learning rate: 1.5625e-05 - Loss: 0.95797
Epoch: 13/15 - Batch: 7700/7933 - Learning rate: 1.5625e-05 - Loss: 1.1189193
Epoch: 13/15 - Batch: 7800/7933 - Learning rate: 1.5625e-05 - Loss: 0.963136
Epoch: 13/15 - Batch: 7900/7933 - Learning rate: 1.5625e-05 - Loss: 0.73768026
Epoch: 13/15 - Batch: 7933/7933 - Learning rate: 1.5625e-05 - Loss: 0.91619325 - Dev BLEU: 0.2641208215204759
Epoch: 14/15 - Batch: 100/7933 - Learning rate: 7.8125e-06 - Loss: 0.7246937
Epoch: 14/15 - Batch: 200/7933 - Learning rate: 7.8125e-06 - Loss: 0.5952869
Epoch: 14/15 - Batch: 300/7933 - Learning rate: 7.8125e-06 - Loss: 0.4764605
Epoch: 14/15 - Batch: 400/7933 - Learning rate: 7.8125e-06 - Loss: 0.7567319
Epoch: 14/15 - Batch: 500/7933 - Learning rate: 7.8125e-06 - Loss: 0.49803618
Epoch: 14/15 - Batch: 600/7933 - Learning rate: 7.8125e-06 - Loss: 0.35999733
Epoch: 14/15 - Batch: 700/7933 - Learning rate: 7.8125e-06 - Loss: 0.5446272
Epoch: 14/15 - Batch: 800/7933 - Learning rate: 7.8125e-06 - Loss: 0.53935355
Epoch: 14/15 - Batch: 900/7933 - Learning rate: 7.8125e-06 - Loss: 0.35870472
Epoch: 14/15 - Batch: 1000/7933 - Learning rate: 7.8125e-06 - Loss: 0.59124213 - Dev BLEU: 0.2545653786270963
Epoch: 14/15 - Batch: 1100/7933 - Learning rate: 7.8125e-06 - Loss: 0.5270614
Epoch: 14/15 - Batch: 1200/7933 - Learning rate: 7.8125e-06 - Loss: 0.6941939
Epoch: 14/15 - Batch: 1300/7933 - Learning rate: 7.8125e-06 - Loss: 0.5987597
Epoch: 14/15 - Batch: 1400/7933 - Learning rate: 7.8125e-06 - Loss: 0.6811447
Epoch: 14/15 - Batch: 1500/7933 - Learning rate: 7.8125e-06 - Loss: 0.51405954
Epoch: 14/15 - Batch: 1600/7933 - Learning rate: 7.8125e-06 - Loss: 0.9254336
Epoch: 14/15 - Batch: 1700/7933 - Learning rate: 7.8125e-06 - Loss: 0.6592347
Epoch: 14/15 - Batch: 1800/7933 - Learning rate: 7.8125e-06 - Loss: 0.3630443
Epoch: 14/15 - Batch: 1900/7933 - Learning rate: 7.8125e-06 - Loss: 0.561858
Epoch: 14/15 - Batch: 2000/7933 - Learning rate: 7.8125e-06 - Loss: 0.581886 - Dev BLEU: 0.25422350119480663
Epoch: 14/15 - Batch: 2100/7933 - Learning rate: 7.8125e-06 - Loss: 0.4570329
Epoch: 14/15 - Batch: 2200/7933 - Learning rate: 7.8125e-06 - Loss: 0.47869167
Epoch: 14/15 - Batch: 2300/7933 - Learning rate: 7.8125e-06 - Loss: 0.62689245
Epoch: 14/15 - Batch: 2400/7933 - Learning rate: 7.8125e-06 - Loss: 0.49756026
Epoch: 14/15 - Batch: 2500/7933 - Learning rate: 7.8125e-06 - Loss: 0.47797427
Epoch: 14/15 - Batch: 2600/7933 - Learning rate: 7.8125e-06 - Loss: 0.4056038
Epoch: 14/15 - Batch: 2700/7933 - Learning rate: 7.8125e-06 - Loss: 0.24436836
Epoch: 14/15 - Batch: 2800/7933 - Learning rate: 7.8125e-06 - Loss: 0.6371262
Epoch: 14/15 - Batch: 2900/7933 - Learning rate: 7.8125e-06 - Loss: 0.72400236
Epoch: 14/15 - Batch: 3000/7933 - Learning rate: 7.8125e-06 - Loss: 0.64254355 - Dev BLEU: 0.25178150404914196
Epoch: 14/15 - Batch: 3100/7933 - Learning rate: 7.8125e-06 - Loss: 0.6639498
Epoch: 14/15 - Batch: 3200/7933 - Learning rate: 7.8125e-06 - Loss: 0.64194554
Epoch: 14/15 - Batch: 3300/7933 - Learning rate: 7.8125e-06 - Loss: 0.5354604
Epoch: 14/15 - Batch: 3400/7933 - Learning rate: 7.8125e-06 - Loss: 0.5329731
Epoch: 14/15 - Batch: 3500/7933 - Learning rate: 7.8125e-06 - Loss: 0.63360935
Epoch: 14/15 - Batch: 3600/7933 - Learning rate: 7.8125e-06 - Loss: 0.66557515
Epoch: 14/15 - Batch: 3700/7933 - Learning rate: 7.8125e-06 - Loss: 0.6417467
Epoch: 14/15 - Batch: 3800/7933 - Learning rate: 7.8125e-06 - Loss: 0.60231483
Epoch: 14/15 - Batch: 3900/7933 - Learning rate: 7.8125e-06 - Loss: 0.6789018
Epoch: 14/15 - Batch: 4000/7933 - Learning rate: 7.8125e-06 - Loss: 0.4012853 - Dev BLEU: 0.2517230413713086
Epoch: 14/15 - Batch: 4100/7933 - Learning rate: 7.8125e-06 - Loss: 0.5075148
Epoch: 14/15 - Batch: 4200/7933 - Learning rate: 7.8125e-06 - Loss: 0.48673034
Epoch: 14/15 - Batch: 4300/7933 - Learning rate: 7.8125e-06 - Loss: 0.56597835
Epoch: 14/15 - Batch: 4400/7933 - Learning rate: 7.8125e-06 - Loss: 0.5177707
Epoch: 14/15 - Batch: 4500/7933 - Learning rate: 7.8125e-06 - Loss: 0.60309577
Epoch: 14/15 - Batch: 4600/7933 - Learning rate: 7.8125e-06 - Loss: 0.8446186
Epoch: 14/15 - Batch: 4700/7933 - Learning rate: 7.8125e-06 - Loss: 0.5978068
Epoch: 14/15 - Batch: 4800/7933 - Learning rate: 7.8125e-06 - Loss: 0.55623007
Epoch: 14/15 - Batch: 4900/7933 - Learning rate: 7.8125e-06 - Loss: 0.72671336
Epoch: 14/15 - Batch: 5000/7933 - Learning rate: 7.8125e-06 - Loss: 0.76095694 - Dev BLEU: 0.26015799924284616
Epoch: 14/15 - Batch: 5100/7933 - Learning rate: 7.8125e-06 - Loss: 0.81214905
Epoch: 14/15 - Batch: 5200/7933 - Learning rate: 7.8125e-06 - Loss: 0.8280782
Epoch: 14/15 - Batch: 5300/7933 - Learning rate: 7.8125e-06 - Loss: 0.75787795
Epoch: 14/15 - Batch: 5400/7933 - Learning rate: 7.8125e-06 - Loss: 0.74448967
Epoch: 14/15 - Batch: 5500/7933 - Learning rate: 7.8125e-06 - Loss: 0.6981581
Epoch: 14/15 - Batch: 5600/7933 - Learning rate: 7.8125e-06 - Loss: 0.56711096
Epoch: 14/15 - Batch: 5700/7933 - Learning rate: 7.8125e-06 - Loss: 0.6981621
Epoch: 14/15 - Batch: 5800/7933 - Learning rate: 7.8125e-06 - Loss: 0.6668796
Epoch: 14/15 - Batch: 5900/7933 - Learning rate: 7.8125e-06 - Loss: 0.47180158
Epoch: 14/15 - Batch: 6000/7933 - Learning rate: 7.8125e-06 - Loss: 0.7356463 - Dev BLEU: 0.26305801810896035
Epoch: 14/15 - Batch: 6100/7933 - Learning rate: 7.8125e-06 - Loss: 0.65731996
Epoch: 14/15 - Batch: 6200/7933 - Learning rate: 7.8125e-06 - Loss: 0.6541862
Epoch: 14/15 - Batch: 6300/7933 - Learning rate: 7.8125e-06 - Loss: 0.61180145
Epoch: 14/15 - Batch: 6400/7933 - Learning rate: 7.8125e-06 - Loss: 0.5799746
Epoch: 14/15 - Batch: 6500/7933 - Learning rate: 7.8125e-06 - Loss: 0.6845862
Epoch: 14/15 - Batch: 6600/7933 - Learning rate: 7.8125e-06 - Loss: 0.6801217
Epoch: 14/15 - Batch: 6700/7933 - Learning rate: 7.8125e-06 - Loss: 0.6887581
Epoch: 14/15 - Batch: 6800/7933 - Learning rate: 7.8125e-06 - Loss: 0.68600816
Epoch: 14/15 - Batch: 6900/7933 - Learning rate: 7.8125e-06 - Loss: 0.45966083
Epoch: 14/15 - Batch: 7000/7933 - Learning rate: 7.8125e-06 - Loss: 0.97708917 - Dev BLEU: 0.26594020298300053
Epoch: 14/15 - Batch: 7100/7933 - Learning rate: 7.8125e-06 - Loss: 0.6994361
Epoch: 14/15 - Batch: 7200/7933 - Learning rate: 7.8125e-06 - Loss: 0.5871498
Epoch: 14/15 - Batch: 7300/7933 - Learning rate: 7.8125e-06 - Loss: 0.7042552
Epoch: 14/15 - Batch: 7400/7933 - Learning rate: 7.8125e-06 - Loss: 0.7399611
Epoch: 14/15 - Batch: 7500/7933 - Learning rate: 7.8125e-06 - Loss: 0.5698187
Epoch: 14/15 - Batch: 7600/7933 - Learning rate: 7.8125e-06 - Loss: 0.94388586
Epoch: 14/15 - Batch: 7700/7933 - Learning rate: 7.8125e-06 - Loss: 1.1152271
Epoch: 14/15 - Batch: 7800/7933 - Learning rate: 7.8125e-06 - Loss: 0.9620875
Epoch: 14/15 - Batch: 7900/7933 - Learning rate: 7.8125e-06 - Loss: 0.7293723
Epoch: 14/15 - Batch: 7933/7933 - Learning rate: 7.8125e-06 - Loss: 0.9447604 - Dev BLEU: 0.26582146325019484
Epoch: 15/15 - Batch: 100/7933 - Learning rate: 3.90625e-06 - Loss: 0.7096083
Epoch: 15/15 - Batch: 200/7933 - Learning rate: 3.90625e-06 - Loss: 0.5953716
Epoch: 15/15 - Batch: 300/7933 - Learning rate: 3.90625e-06 - Loss: 0.48491338
Epoch: 15/15 - Batch: 400/7933 - Learning rate: 3.90625e-06 - Loss: 0.7644817
Epoch: 15/15 - Batch: 500/7933 - Learning rate: 3.90625e-06 - Loss: 0.49752453
Epoch: 15/15 - Batch: 600/7933 - Learning rate: 3.90625e-06 - Loss: 0.36123562
Epoch: 15/15 - Batch: 700/7933 - Learning rate: 3.90625e-06 - Loss: 0.5414847
Epoch: 15/15 - Batch: 800/7933 - Learning rate: 3.90625e-06 - Loss: 0.5462566
Epoch: 15/15 - Batch: 900/7933 - Learning rate: 3.90625e-06 - Loss: 0.35815114
Epoch: 15/15 - Batch: 1000/7933 - Learning rate: 3.90625e-06 - Loss: 0.59538585 - Dev BLEU: 0.259057130758826
Epoch: 15/15 - Batch: 1100/7933 - Learning rate: 3.90625e-06 - Loss: 0.5449745
Epoch: 15/15 - Batch: 1200/7933 - Learning rate: 3.90625e-06 - Loss: 0.6970148
Epoch: 15/15 - Batch: 1300/7933 - Learning rate: 3.90625e-06 - Loss: 0.6006443
Epoch: 15/15 - Batch: 1400/7933 - Learning rate: 3.90625e-06 - Loss: 0.69517416
Epoch: 15/15 - Batch: 1500/7933 - Learning rate: 3.90625e-06 - Loss: 0.51581883
Epoch: 15/15 - Batch: 1600/7933 - Learning rate: 3.90625e-06 - Loss: 0.9306507
Epoch: 15/15 - Batch: 1700/7933 - Learning rate: 3.90625e-06 - Loss: 0.6647077
Epoch: 15/15 - Batch: 1800/7933 - Learning rate: 3.90625e-06 - Loss: 0.36450043
Epoch: 15/15 - Batch: 1900/7933 - Learning rate: 3.90625e-06 - Loss: 0.56768507
Epoch: 15/15 - Batch: 2000/7933 - Learning rate: 3.90625e-06 - Loss: 0.58220327 - Dev BLEU: 0.2543893303044503
Epoch: 15/15 - Batch: 2100/7933 - Learning rate: 3.90625e-06 - Loss: 0.46823153
Epoch: 15/15 - Batch: 2200/7933 - Learning rate: 3.90625e-06 - Loss: 0.48152903
Epoch: 15/15 - Batch: 2300/7933 - Learning rate: 3.90625e-06 - Loss: 0.62968
Epoch: 15/15 - Batch: 2400/7933 - Learning rate: 3.90625e-06 - Loss: 0.5039527
Epoch: 15/15 - Batch: 2500/7933 - Learning rate: 3.90625e-06 - Loss: 0.4889085
Epoch: 15/15 - Batch: 2600/7933 - Learning rate: 3.90625e-06 - Loss: 0.4041665
Epoch: 15/15 - Batch: 2700/7933 - Learning rate: 3.90625e-06 - Loss: 0.23933516
Epoch: 15/15 - Batch: 2800/7933 - Learning rate: 3.90625e-06 - Loss: 0.634249
Epoch: 15/15 - Batch: 2900/7933 - Learning rate: 3.90625e-06 - Loss: 0.7264545
Epoch: 15/15 - Batch: 3000/7933 - Learning rate: 3.90625e-06 - Loss: 0.6356885 - Dev BLEU: 0.25529361493271857
Epoch: 15/15 - Batch: 3100/7933 - Learning rate: 3.90625e-06 - Loss: 0.6627393
Epoch: 15/15 - Batch: 3200/7933 - Learning rate: 3.90625e-06 - Loss: 0.64025134
Epoch: 15/15 - Batch: 3300/7933 - Learning rate: 3.90625e-06 - Loss: 0.5403322
Epoch: 15/15 - Batch: 3400/7933 - Learning rate: 3.90625e-06 - Loss: 0.53891957
Epoch: 15/15 - Batch: 3500/7933 - Learning rate: 3.90625e-06 - Loss: 0.63070565
Epoch: 15/15 - Batch: 3600/7933 - Learning rate: 3.90625e-06 - Loss: 0.6714084
Epoch: 15/15 - Batch: 3700/7933 - Learning rate: 3.90625e-06 - Loss: 0.65359944
Epoch: 15/15 - Batch: 3800/7933 - Learning rate: 3.90625e-06 - Loss: 0.6022307
Epoch: 15/15 - Batch: 3900/7933 - Learning rate: 3.90625e-06 - Loss: 0.6755284
Epoch: 15/15 - Batch: 4000/7933 - Learning rate: 3.90625e-06 - Loss: 0.40028596 - Dev BLEU: 0.25574528003792363
Epoch: 15/15 - Batch: 4100/7933 - Learning rate: 3.90625e-06 - Loss: 0.5073131
Epoch: 15/15 - Batch: 4200/7933 - Learning rate: 3.90625e-06 - Loss: 0.4854723
Epoch: 15/15 - Batch: 4300/7933 - Learning rate: 3.90625e-06 - Loss: 0.55933887
Epoch: 15/15 - Batch: 4400/7933 - Learning rate: 3.90625e-06 - Loss: 0.5160091
Epoch: 15/15 - Batch: 4500/7933 - Learning rate: 3.90625e-06 - Loss: 0.60430205
Epoch: 15/15 - Batch: 4600/7933 - Learning rate: 3.90625e-06 - Loss: 0.83524996
Epoch: 15/15 - Batch: 4700/7933 - Learning rate: 3.90625e-06 - Loss: 0.5954738
Epoch: 15/15 - Batch: 4800/7933 - Learning rate: 3.90625e-06 - Loss: 0.5693607
Epoch: 15/15 - Batch: 4900/7933 - Learning rate: 3.90625e-06 - Loss: 0.7261195
Epoch: 15/15 - Batch: 5000/7933 - Learning rate: 3.90625e-06 - Loss: 0.765476 - Dev BLEU: 0.2585473401178495
Epoch: 15/15 - Batch: 5100/7933 - Learning rate: 3.90625e-06 - Loss: 0.80426526
Epoch: 15/15 - Batch: 5200/7933 - Learning rate: 3.90625e-06 - Loss: 0.8002033
Epoch: 15/15 - Batch: 5300/7933 - Learning rate: 3.90625e-06 - Loss: 0.7605563
Epoch: 15/15 - Batch: 5400/7933 - Learning rate: 3.90625e-06 - Loss: 0.73461825
Epoch: 15/15 - Batch: 5500/7933 - Learning rate: 3.90625e-06 - Loss: 0.70075643
Epoch: 15/15 - Batch: 5600/7933 - Learning rate: 3.90625e-06 - Loss: 0.5609276
Epoch: 15/15 - Batch: 5700/7933 - Learning rate: 3.90625e-06 - Loss: 0.70892644
Epoch: 15/15 - Batch: 5800/7933 - Learning rate: 3.90625e-06 - Loss: 0.6764109
Epoch: 15/15 - Batch: 5900/7933 - Learning rate: 3.90625e-06 - Loss: 0.4763066
Epoch: 15/15 - Batch: 6000/7933 - Learning rate: 3.90625e-06 - Loss: 0.7509344 - Dev BLEU: 0.2632796964584571
Epoch: 15/15 - Batch: 6100/7933 - Learning rate: 3.90625e-06 - Loss: 0.65563256
Epoch: 15/15 - Batch: 6200/7933 - Learning rate: 3.90625e-06 - Loss: 0.6653497
Epoch: 15/15 - Batch: 6300/7933 - Learning rate: 3.90625e-06 - Loss: 0.60329145
Epoch: 15/15 - Batch: 6400/7933 - Learning rate: 3.90625e-06 - Loss: 0.5881476
Epoch: 15/15 - Batch: 6500/7933 - Learning rate: 3.90625e-06 - Loss: 0.6769457
Epoch: 15/15 - Batch: 6600/7933 - Learning rate: 3.90625e-06 - Loss: 0.68053895
Epoch: 15/15 - Batch: 6700/7933 - Learning rate: 3.90625e-06 - Loss: 0.6731717
Epoch: 15/15 - Batch: 6800/7933 - Learning rate: 3.90625e-06 - Loss: 0.6791658
Epoch: 15/15 - Batch: 6900/7933 - Learning rate: 3.90625e-06 - Loss: 0.45695242
Epoch: 15/15 - Batch: 7000/7933 - Learning rate: 3.90625e-06 - Loss: 0.99197584 - Dev BLEU: 0.2658391598402029
Epoch: 15/15 - Batch: 7100/7933 - Learning rate: 3.90625e-06 - Loss: 0.7132862
Epoch: 15/15 - Batch: 7200/7933 - Learning rate: 3.90625e-06 - Loss: 0.5819416
Epoch: 15/15 - Batch: 7300/7933 - Learning rate: 3.90625e-06 - Loss: 0.7065794
Epoch: 15/15 - Batch: 7400/7933 - Learning rate: 3.90625e-06 - Loss: 0.74568135
Epoch: 15/15 - Batch: 7500/7933 - Learning rate: 3.90625e-06 - Loss: 0.57165956
Epoch: 15/15 - Batch: 7600/7933 - Learning rate: 3.90625e-06 - Loss: 0.9423041
Epoch: 15/15 - Batch: 7700/7933 - Learning rate: 3.90625e-06 - Loss: 1.1249725
Epoch: 15/15 - Batch: 7800/7933 - Learning rate: 3.90625e-06 - Loss: 0.9545515
Epoch: 15/15 - Batch: 7900/7933 - Learning rate: 3.90625e-06 - Loss: 0.7414769
Epoch: 15/15 - Batch: 7933/7933 - Learning rate: 3.90625e-06 - Loss: 0.9444549 - Dev BLEU: 0.26473889995921074 - Test BLEU: 0.29268447066723835
