{
  "num_epochs" : 15,
  "batch_size" : 100,
  "num_units" : 512,
  "num_layers" : 5,
  "initial_learning_rate" : 0.001,
  "initial_keep_probability" : 0.8,
  "beam_width" : 3,
  "decoder_mode" : "beam_search",
  "unit_type" : "lstm",   
  "embedding_params" : {
    "embedding_method" : "gaussian_random",
    "window_size" : "None",
    "standard_deviation" : 0.5 	
  }
}