Epoch: 1/15 - Batch: 100/7933 - Learning rate: 0.001 - Loss: 1.87932
Epoch: 1/15 - Batch: 200/7933 - Learning rate: 0.001 - Loss: 2.5877647
Epoch: 1/15 - Batch: 300/7933 - Learning rate: 0.001 - Loss: 1.4116737
Epoch: 1/15 - Batch: 400/7933 - Learning rate: 0.001 - Loss: 2.5229595
Epoch: 1/15 - Batch: 500/7933 - Learning rate: 0.001 - Loss: 2.27786
Epoch: 1/15 - Batch: 600/7933 - Learning rate: 0.001 - Loss: 0.9626921
Epoch: 1/15 - Batch: 700/7933 - Learning rate: 0.001 - Loss: 2.0528905
Epoch: 1/15 - Batch: 800/7933 - Learning rate: 0.001 - Loss: 1.7346894
Epoch: 1/15 - Batch: 900/7933 - Learning rate: 0.001 - Loss: 1.165389
Epoch: 1/15 - Batch: 1000/7933 - Learning rate: 0.001 - Loss: 1.859173 - Dev BLEU: 0.0
Epoch: 1/15 - Batch: 1100/7933 - Learning rate: 0.001 - Loss: 1.5116667
Epoch: 1/15 - Batch: 1200/7933 - Learning rate: 0.001 - Loss: 2.029751
Epoch: 1/15 - Batch: 1300/7933 - Learning rate: 0.001 - Loss: 1.8999306
Epoch: 1/15 - Batch: 1400/7933 - Learning rate: 0.001 - Loss: 2.0465636
Epoch: 1/15 - Batch: 1500/7933 - Learning rate: 0.001 - Loss: 1.4473054
Epoch: 1/15 - Batch: 1600/7933 - Learning rate: 0.001 - Loss: 2.5459318
Epoch: 1/15 - Batch: 1700/7933 - Learning rate: 0.001 - Loss: 1.9296495
Epoch: 1/15 - Batch: 1800/7933 - Learning rate: 0.001 - Loss: 1.3175225
Epoch: 1/15 - Batch: 1900/7933 - Learning rate: 0.001 - Loss: 1.5121953
Epoch: 1/15 - Batch: 2000/7933 - Learning rate: 0.001 - Loss: 1.6555251 - Dev BLEU: 0.0024747378683828225
Epoch: 1/15 - Batch: 2100/7933 - Learning rate: 0.001 - Loss: 1.3702991
Epoch: 1/15 - Batch: 2200/7933 - Learning rate: 0.001 - Loss: 1.6207964
Epoch: 1/15 - Batch: 2300/7933 - Learning rate: 0.001 - Loss: 1.8097467
Epoch: 1/15 - Batch: 2400/7933 - Learning rate: 0.001 - Loss: 1.4982758
Epoch: 1/15 - Batch: 2500/7933 - Learning rate: 0.001 - Loss: 1.7396381
Epoch: 1/15 - Batch: 2600/7933 - Learning rate: 0.001 - Loss: 1.1736969
Epoch: 1/15 - Batch: 2700/7933 - Learning rate: 0.001 - Loss: 0.7335197
Epoch: 1/15 - Batch: 2800/7933 - Learning rate: 0.001 - Loss: 1.8106501
Epoch: 1/15 - Batch: 2900/7933 - Learning rate: 0.001 - Loss: 1.7754488
Epoch: 1/15 - Batch: 3000/7933 - Learning rate: 0.001 - Loss: 1.6625834 - Dev BLEU: 0.017492698399109892
Epoch: 1/15 - Batch: 3100/7933 - Learning rate: 0.001 - Loss: 1.4305804
Epoch: 1/15 - Batch: 3200/7933 - Learning rate: 0.001 - Loss: 1.5401953
Epoch: 1/15 - Batch: 3300/7933 - Learning rate: 0.001 - Loss: 1.3937639
Epoch: 1/15 - Batch: 3400/7933 - Learning rate: 0.001 - Loss: 1.2932757
Epoch: 1/15 - Batch: 3500/7933 - Learning rate: 0.001 - Loss: 1.823671
Epoch: 1/15 - Batch: 3600/7933 - Learning rate: 0.001 - Loss: 1.5474938
Epoch: 1/15 - Batch: 3700/7933 - Learning rate: 0.001 - Loss: 1.6829063
Epoch: 1/15 - Batch: 3800/7933 - Learning rate: 0.001 - Loss: 1.6097126
Epoch: 1/15 - Batch: 3900/7933 - Learning rate: 0.001 - Loss: 1.742207
Epoch: 1/15 - Batch: 4000/7933 - Learning rate: 0.001 - Loss: 0.99134165 - Dev BLEU: 0.027734600937324164
Epoch: 1/15 - Batch: 4100/7933 - Learning rate: 0.001 - Loss: 1.244698
Epoch: 1/15 - Batch: 4200/7933 - Learning rate: 0.001 - Loss: 1.1913036
Epoch: 1/15 - Batch: 4300/7933 - Learning rate: 0.001 - Loss: 1.3054022
Epoch: 1/15 - Batch: 4400/7933 - Learning rate: 0.001 - Loss: 1.2753785
Epoch: 1/15 - Batch: 4500/7933 - Learning rate: 0.001 - Loss: 1.3889455
Epoch: 1/15 - Batch: 4600/7933 - Learning rate: 0.001 - Loss: 2.6161196
Epoch: 1/15 - Batch: 4700/7933 - Learning rate: 0.001 - Loss: 2.0210648
Epoch: 1/15 - Batch: 4800/7933 - Learning rate: 0.001 - Loss: 2.0007095
Epoch: 1/15 - Batch: 4900/7933 - Learning rate: 0.001 - Loss: 2.1775799
Epoch: 1/15 - Batch: 5000/7933 - Learning rate: 0.001 - Loss: 1.9987487 - Dev BLEU: 0.05572454756137508
Epoch: 1/15 - Batch: 5100/7933 - Learning rate: 0.001 - Loss: 1.9454367
Epoch: 1/15 - Batch: 5200/7933 - Learning rate: 0.001 - Loss: 1.9553361
Epoch: 1/15 - Batch: 5300/7933 - Learning rate: 0.001 - Loss: 1.9350477
Epoch: 1/15 - Batch: 5400/7933 - Learning rate: 0.001 - Loss: 1.9177582
Epoch: 1/15 - Batch: 5500/7933 - Learning rate: 0.001 - Loss: 1.9896507
Epoch: 1/15 - Batch: 5600/7933 - Learning rate: 0.001 - Loss: 1.5989465
Epoch: 1/15 - Batch: 5700/7933 - Learning rate: 0.001 - Loss: 1.9682367
Epoch: 1/15 - Batch: 5800/7933 - Learning rate: 0.001 - Loss: 1.9067671
Epoch: 1/15 - Batch: 5900/7933 - Learning rate: 0.001 - Loss: 1.4906386
Epoch: 1/15 - Batch: 6000/7933 - Learning rate: 0.001 - Loss: 1.8765212 - Dev BLEU: 0.06494876654456612
Epoch: 1/15 - Batch: 6100/7933 - Learning rate: 0.001 - Loss: 2.0638616
Epoch: 1/15 - Batch: 6200/7933 - Learning rate: 0.001 - Loss: 1.5941441
Epoch: 1/15 - Batch: 6300/7933 - Learning rate: 0.001 - Loss: 1.6701666
Epoch: 1/15 - Batch: 6400/7933 - Learning rate: 0.001 - Loss: 1.3311731
Epoch: 1/15 - Batch: 6500/7933 - Learning rate: 0.001 - Loss: 1.4395378
Epoch: 1/15 - Batch: 6600/7933 - Learning rate: 0.001 - Loss: 1.5850724
Epoch: 1/15 - Batch: 6700/7933 - Learning rate: 0.001 - Loss: 1.314061
Epoch: 1/15 - Batch: 6800/7933 - Learning rate: 0.001 - Loss: 1.250216
Epoch: 1/15 - Batch: 6900/7933 - Learning rate: 0.001 - Loss: 0.9743109
Epoch: 1/15 - Batch: 7000/7933 - Learning rate: 0.001 - Loss: 1.8649789 - Dev BLEU: 0.10773992281842272
Epoch: 1/15 - Batch: 7100/7933 - Learning rate: 0.001 - Loss: 1.4601755
Epoch: 1/15 - Batch: 7200/7933 - Learning rate: 0.001 - Loss: 1.129901
Epoch: 1/15 - Batch: 7300/7933 - Learning rate: 0.001 - Loss: 1.3676908
Epoch: 1/15 - Batch: 7400/7933 - Learning rate: 0.001 - Loss: 1.4808966
Epoch: 1/15 - Batch: 7500/7933 - Learning rate: 0.001 - Loss: 1.0224488
Epoch: 1/15 - Batch: 7600/7933 - Learning rate: 0.001 - Loss: 1.8701457
Epoch: 1/15 - Batch: 7700/7933 - Learning rate: 0.001 - Loss: 2.0308418
Epoch: 1/15 - Batch: 7800/7933 - Learning rate: 0.001 - Loss: 1.8666307
Epoch: 1/15 - Batch: 7900/7933 - Learning rate: 0.001 - Loss: 1.5417454
Epoch: 1/15 - Batch: 7933/7933 - Learning rate: 0.001 - Loss: 2.0499575 - Dev BLEU: 0.10057458297968677
Epoch: 2/15 - Batch: 100/7933 - Learning rate: 0.001 - Loss: 1.0953691
Epoch: 2/15 - Batch: 200/7933 - Learning rate: 0.001 - Loss: 1.3191077
Epoch: 2/15 - Batch: 300/7933 - Learning rate: 0.001 - Loss: 0.7688364
Epoch: 2/15 - Batch: 400/7933 - Learning rate: 0.001 - Loss: 1.3411485
Epoch: 2/15 - Batch: 500/7933 - Learning rate: 0.001 - Loss: 1.1895547
Epoch: 2/15 - Batch: 600/7933 - Learning rate: 0.001 - Loss: 0.55266654
Epoch: 2/15 - Batch: 700/7933 - Learning rate: 0.001 - Loss: 1.0505507
Epoch: 2/15 - Batch: 800/7933 - Learning rate: 0.001 - Loss: 0.95627695
Epoch: 2/15 - Batch: 900/7933 - Learning rate: 0.001 - Loss: 0.61617893
Epoch: 2/15 - Batch: 1000/7933 - Learning rate: 0.001 - Loss: 1.0847095 - Dev BLEU: 0.09350576603557999
Epoch: 2/15 - Batch: 1100/7933 - Learning rate: 0.001 - Loss: 0.9383253
Epoch: 2/15 - Batch: 1200/7933 - Learning rate: 0.001 - Loss: 1.3019567
Epoch: 2/15 - Batch: 1300/7933 - Learning rate: 0.001 - Loss: 1.1931145
Epoch: 2/15 - Batch: 1400/7933 - Learning rate: 0.001 - Loss: 1.1995353
Epoch: 2/15 - Batch: 1500/7933 - Learning rate: 0.001 - Loss: 0.8362173
Epoch: 2/15 - Batch: 1600/7933 - Learning rate: 0.001 - Loss: 1.649037
Epoch: 2/15 - Batch: 1700/7933 - Learning rate: 0.001 - Loss: 1.219909
Epoch: 2/15 - Batch: 1800/7933 - Learning rate: 0.001 - Loss: 0.7119739
Epoch: 2/15 - Batch: 1900/7933 - Learning rate: 0.001 - Loss: 0.999303
Epoch: 2/15 - Batch: 2000/7933 - Learning rate: 0.001 - Loss: 1.0439415 - Dev BLEU: 0.08872083963052343
Epoch: 2/15 - Batch: 2100/7933 - Learning rate: 0.001 - Loss: 0.867041
Epoch: 2/15 - Batch: 2200/7933 - Learning rate: 0.001 - Loss: 0.9433252
Epoch: 2/15 - Batch: 2300/7933 - Learning rate: 0.001 - Loss: 1.123027
Epoch: 2/15 - Batch: 2400/7933 - Learning rate: 0.001 - Loss: 0.9458434
Epoch: 2/15 - Batch: 2500/7933 - Learning rate: 0.001 - Loss: 0.96962357
Epoch: 2/15 - Batch: 2600/7933 - Learning rate: 0.001 - Loss: 0.71041566
Epoch: 2/15 - Batch: 2700/7933 - Learning rate: 0.001 - Loss: 0.42036837
Epoch: 2/15 - Batch: 2800/7933 - Learning rate: 0.001 - Loss: 1.1704011
Epoch: 2/15 - Batch: 2900/7933 - Learning rate: 0.001 - Loss: 1.2318937
Epoch: 2/15 - Batch: 3000/7933 - Learning rate: 0.001 - Loss: 1.1778222 - Dev BLEU: 0.09866214958715488
Epoch: 2/15 - Batch: 3100/7933 - Learning rate: 0.001 - Loss: 1.1196386
Epoch: 2/15 - Batch: 3200/7933 - Learning rate: 0.001 - Loss: 1.031428
Epoch: 2/15 - Batch: 3300/7933 - Learning rate: 0.001 - Loss: 0.84552395
Epoch: 2/15 - Batch: 3400/7933 - Learning rate: 0.001 - Loss: 0.8781529
Epoch: 2/15 - Batch: 3500/7933 - Learning rate: 0.001 - Loss: 1.1954385
Epoch: 2/15 - Batch: 3600/7933 - Learning rate: 0.001 - Loss: 1.1235771
Epoch: 2/15 - Batch: 3700/7933 - Learning rate: 0.001 - Loss: 1.1372045
Epoch: 2/15 - Batch: 3800/7933 - Learning rate: 0.001 - Loss: 1.048726
Epoch: 2/15 - Batch: 3900/7933 - Learning rate: 0.001 - Loss: 1.233216
Epoch: 2/15 - Batch: 4000/7933 - Learning rate: 0.001 - Loss: 0.7035513 - Dev BLEU: 0.1052199360779338
Epoch: 2/15 - Batch: 4100/7933 - Learning rate: 0.001 - Loss: 0.88981664
Epoch: 2/15 - Batch: 4200/7933 - Learning rate: 0.001 - Loss: 0.81258744
Epoch: 2/15 - Batch: 4300/7933 - Learning rate: 0.001 - Loss: 0.91275716
Epoch: 2/15 - Batch: 4400/7933 - Learning rate: 0.001 - Loss: 0.8439293
Epoch: 2/15 - Batch: 4500/7933 - Learning rate: 0.001 - Loss: 0.99641645
Epoch: 2/15 - Batch: 4600/7933 - Learning rate: 0.001 - Loss: 1.9455631
Epoch: 2/15 - Batch: 4700/7933 - Learning rate: 0.001 - Loss: 1.4111439
Epoch: 2/15 - Batch: 4800/7933 - Learning rate: 0.001 - Loss: 1.3811896
Epoch: 2/15 - Batch: 4900/7933 - Learning rate: 0.001 - Loss: 1.524196
Epoch: 2/15 - Batch: 5000/7933 - Learning rate: 0.001 - Loss: 1.5055064 - Dev BLEU: 0.1369917772599823
Epoch: 2/15 - Batch: 5100/7933 - Learning rate: 0.001 - Loss: 1.4760289
Epoch: 2/15 - Batch: 5200/7933 - Learning rate: 0.001 - Loss: 1.4565195
Epoch: 2/15 - Batch: 5300/7933 - Learning rate: 0.001 - Loss: 1.4276617
Epoch: 2/15 - Batch: 5400/7933 - Learning rate: 0.001 - Loss: 1.4126279
Epoch: 2/15 - Batch: 5500/7933 - Learning rate: 0.001 - Loss: 1.426264
Epoch: 2/15 - Batch: 5600/7933 - Learning rate: 0.001 - Loss: 1.1988062
Epoch: 2/15 - Batch: 5700/7933 - Learning rate: 0.001 - Loss: 1.4314148
Epoch: 2/15 - Batch: 5800/7933 - Learning rate: 0.001 - Loss: 1.4317046
Epoch: 2/15 - Batch: 5900/7933 - Learning rate: 0.001 - Loss: 1.0774198
Epoch: 2/15 - Batch: 6000/7933 - Learning rate: 0.001 - Loss: 1.4120435 - Dev BLEU: 0.12900260512721703
Epoch: 2/15 - Batch: 6100/7933 - Learning rate: 0.001 - Loss: 1.489507
Epoch: 2/15 - Batch: 6200/7933 - Learning rate: 0.001 - Loss: 1.212075
Epoch: 2/15 - Batch: 6300/7933 - Learning rate: 0.001 - Loss: 1.1772754
Epoch: 2/15 - Batch: 6400/7933 - Learning rate: 0.001 - Loss: 1.0097729
Epoch: 2/15 - Batch: 6500/7933 - Learning rate: 0.001 - Loss: 1.1170594
Epoch: 2/15 - Batch: 6600/7933 - Learning rate: 0.001 - Loss: 1.1881641
Epoch: 2/15 - Batch: 6700/7933 - Learning rate: 0.001 - Loss: 1.0392305
Epoch: 2/15 - Batch: 6800/7933 - Learning rate: 0.001 - Loss: 0.9940308
Epoch: 2/15 - Batch: 6900/7933 - Learning rate: 0.001 - Loss: 0.7344791
Epoch: 2/15 - Batch: 7000/7933 - Learning rate: 0.001 - Loss: 1.4830701 - Dev BLEU: 0.17116849227032976
Epoch: 2/15 - Batch: 7100/7933 - Learning rate: 0.001 - Loss: 1.1592592
Epoch: 2/15 - Batch: 7200/7933 - Learning rate: 0.001 - Loss: 0.91354483
Epoch: 2/15 - Batch: 7300/7933 - Learning rate: 0.001 - Loss: 1.1153972
Epoch: 2/15 - Batch: 7400/7933 - Learning rate: 0.001 - Loss: 1.2064319
Epoch: 2/15 - Batch: 7500/7933 - Learning rate: 0.001 - Loss: 0.84476066
Epoch: 2/15 - Batch: 7600/7933 - Learning rate: 0.001 - Loss: 1.5670581
Epoch: 2/15 - Batch: 7700/7933 - Learning rate: 0.001 - Loss: 1.6691427
Epoch: 2/15 - Batch: 7800/7933 - Learning rate: 0.001 - Loss: 1.6083841
Epoch: 2/15 - Batch: 7900/7933 - Learning rate: 0.001 - Loss: 1.2745067
Epoch: 2/15 - Batch: 7933/7933 - Learning rate: 0.001 - Loss: 1.712511 - Dev BLEU: 0.1568678999945305
Epoch: 3/15 - Batch: 100/7933 - Learning rate: 0.001 - Loss: 0.95689905
Epoch: 3/15 - Batch: 200/7933 - Learning rate: 0.001 - Loss: 1.0530668
Epoch: 3/15 - Batch: 300/7933 - Learning rate: 0.001 - Loss: 0.66783124
Epoch: 3/15 - Batch: 400/7933 - Learning rate: 0.001 - Loss: 1.1147723
Epoch: 3/15 - Batch: 500/7933 - Learning rate: 0.001 - Loss: 0.95143914
Epoch: 3/15 - Batch: 600/7933 - Learning rate: 0.001 - Loss: 0.4853018
Epoch: 3/15 - Batch: 700/7933 - Learning rate: 0.001 - Loss: 0.8509526
Epoch: 3/15 - Batch: 800/7933 - Learning rate: 0.001 - Loss: 0.82863337
Epoch: 3/15 - Batch: 900/7933 - Learning rate: 0.001 - Loss: 0.5189454
Epoch: 3/15 - Batch: 1000/7933 - Learning rate: 0.001 - Loss: 0.90860593 - Dev BLEU: 0.13587920597044248
Epoch: 3/15 - Batch: 1100/7933 - Learning rate: 0.001 - Loss: 0.8010925
Epoch: 3/15 - Batch: 1200/7933 - Learning rate: 0.001 - Loss: 1.0959841
Epoch: 3/15 - Batch: 1300/7933 - Learning rate: 0.001 - Loss: 0.9964051
Epoch: 3/15 - Batch: 1400/7933 - Learning rate: 0.001 - Loss: 1.0125103
Epoch: 3/15 - Batch: 1500/7933 - Learning rate: 0.001 - Loss: 0.7357458
Epoch: 3/15 - Batch: 1600/7933 - Learning rate: 0.001 - Loss: 1.4185287
Epoch: 3/15 - Batch: 1700/7933 - Learning rate: 0.001 - Loss: 1.0402929
Epoch: 3/15 - Batch: 1800/7933 - Learning rate: 0.001 - Loss: 0.59029853
Epoch: 3/15 - Batch: 1900/7933 - Learning rate: 0.001 - Loss: 0.8567853
Epoch: 3/15 - Batch: 2000/7933 - Learning rate: 0.001 - Loss: 0.90382713 - Dev BLEU: 0.12316153656048431
Epoch: 3/15 - Batch: 2100/7933 - Learning rate: 0.001 - Loss: 0.7621051
Epoch: 3/15 - Batch: 2200/7933 - Learning rate: 0.001 - Loss: 0.7895986
Epoch: 3/15 - Batch: 2300/7933 - Learning rate: 0.001 - Loss: 0.9613356
Epoch: 3/15 - Batch: 2400/7933 - Learning rate: 0.001 - Loss: 0.81550837
Epoch: 3/15 - Batch: 2500/7933 - Learning rate: 0.001 - Loss: 0.8252555
Epoch: 3/15 - Batch: 2600/7933 - Learning rate: 0.001 - Loss: 0.6016006
Epoch: 3/15 - Batch: 2700/7933 - Learning rate: 0.001 - Loss: 0.35270292
Epoch: 3/15 - Batch: 2800/7933 - Learning rate: 0.001 - Loss: 1.0039135
Epoch: 3/15 - Batch: 2900/7933 - Learning rate: 0.001 - Loss: 1.0802296
Epoch: 3/15 - Batch: 3000/7933 - Learning rate: 0.001 - Loss: 1.0011458 - Dev BLEU: 0.130789999257639
Epoch: 3/15 - Batch: 3100/7933 - Learning rate: 0.001 - Loss: 1.0034803
Epoch: 3/15 - Batch: 3200/7933 - Learning rate: 0.001 - Loss: 0.9169093
Epoch: 3/15 - Batch: 3300/7933 - Learning rate: 0.001 - Loss: 0.74534637
Epoch: 3/15 - Batch: 3400/7933 - Learning rate: 0.001 - Loss: 0.7664115
Epoch: 3/15 - Batch: 3500/7933 - Learning rate: 0.001 - Loss: 1.0335114
Epoch: 3/15 - Batch: 3600/7933 - Learning rate: 0.001 - Loss: 0.999209
Epoch: 3/15 - Batch: 3700/7933 - Learning rate: 0.001 - Loss: 1.0024987
Epoch: 3/15 - Batch: 3800/7933 - Learning rate: 0.001 - Loss: 0.91803783
Epoch: 3/15 - Batch: 3900/7933 - Learning rate: 0.001 - Loss: 1.0731595
Epoch: 3/15 - Batch: 4000/7933 - Learning rate: 0.001 - Loss: 0.61791384 - Dev BLEU: 0.13795113180104449
Epoch: 3/15 - Batch: 4100/7933 - Learning rate: 0.001 - Loss: 0.7911767
Epoch: 3/15 - Batch: 4200/7933 - Learning rate: 0.001 - Loss: 0.7237278
Epoch: 3/15 - Batch: 4300/7933 - Learning rate: 0.001 - Loss: 0.8253255
Epoch: 3/15 - Batch: 4400/7933 - Learning rate: 0.001 - Loss: 0.7767341
Epoch: 3/15 - Batch: 4500/7933 - Learning rate: 0.001 - Loss: 0.8847614
Epoch: 3/15 - Batch: 4600/7933 - Learning rate: 0.001 - Loss: 1.7009059
Epoch: 3/15 - Batch: 4700/7933 - Learning rate: 0.001 - Loss: 1.2127469
Epoch: 3/15 - Batch: 4800/7933 - Learning rate: 0.001 - Loss: 1.1803536
Epoch: 3/15 - Batch: 4900/7933 - Learning rate: 0.001 - Loss: 1.3628322
Epoch: 3/15 - Batch: 5000/7933 - Learning rate: 0.001 - Loss: 1.3444034 - Dev BLEU: 0.16291936215880395
Epoch: 3/15 - Batch: 5100/7933 - Learning rate: 0.001 - Loss: 1.339801
Epoch: 3/15 - Batch: 5200/7933 - Learning rate: 0.001 - Loss: 1.3220322
Epoch: 3/15 - Batch: 5300/7933 - Learning rate: 0.001 - Loss: 1.2648259
Epoch: 3/15 - Batch: 5400/7933 - Learning rate: 0.001 - Loss: 1.2171862
Epoch: 3/15 - Batch: 5500/7933 - Learning rate: 0.001 - Loss: 1.2575423
Epoch: 3/15 - Batch: 5600/7933 - Learning rate: 0.001 - Loss: 1.0420371
Epoch: 3/15 - Batch: 5700/7933 - Learning rate: 0.001 - Loss: 1.2254211
Epoch: 3/15 - Batch: 5800/7933 - Learning rate: 0.001 - Loss: 1.242965
Epoch: 3/15 - Batch: 5900/7933 - Learning rate: 0.001 - Loss: 0.9174701
Epoch: 3/15 - Batch: 6000/7933 - Learning rate: 0.001 - Loss: 1.2570772 - Dev BLEU: 0.15664970522120955
Epoch: 3/15 - Batch: 6100/7933 - Learning rate: 0.001 - Loss: 1.3018894
Epoch: 3/15 - Batch: 6200/7933 - Learning rate: 0.001 - Loss: 1.0647552
Epoch: 3/15 - Batch: 6300/7933 - Learning rate: 0.001 - Loss: 1.0490986
Epoch: 3/15 - Batch: 6400/7933 - Learning rate: 0.001 - Loss: 0.9020748
Epoch: 3/15 - Batch: 6500/7933 - Learning rate: 0.001 - Loss: 1.0012034
Epoch: 3/15 - Batch: 6600/7933 - Learning rate: 0.001 - Loss: 1.0380807
Epoch: 3/15 - Batch: 6700/7933 - Learning rate: 0.001 - Loss: 0.94085425
Epoch: 3/15 - Batch: 6800/7933 - Learning rate: 0.001 - Loss: 0.91898847
Epoch: 3/15 - Batch: 6900/7933 - Learning rate: 0.001 - Loss: 0.65656376
Epoch: 3/15 - Batch: 7000/7933 - Learning rate: 0.001 - Loss: 1.368136 - Dev BLEU: 0.19203592370736125
Epoch: 3/15 - Batch: 7100/7933 - Learning rate: 0.001 - Loss: 1.0505999
Epoch: 3/15 - Batch: 7200/7933 - Learning rate: 0.001 - Loss: 0.83427256
Epoch: 3/15 - Batch: 7300/7933 - Learning rate: 0.001 - Loss: 1.0277898
Epoch: 3/15 - Batch: 7400/7933 - Learning rate: 0.001 - Loss: 1.1005766
Epoch: 3/15 - Batch: 7500/7933 - Learning rate: 0.001 - Loss: 0.7680495
Epoch: 3/15 - Batch: 7600/7933 - Learning rate: 0.001 - Loss: 1.4187872
Epoch: 3/15 - Batch: 7700/7933 - Learning rate: 0.001 - Loss: 1.5234059
Epoch: 3/15 - Batch: 7800/7933 - Learning rate: 0.001 - Loss: 1.4638294
Epoch: 3/15 - Batch: 7900/7933 - Learning rate: 0.001 - Loss: 1.1413225
Epoch: 3/15 - Batch: 7933/7933 - Learning rate: 0.001 - Loss: 1.512174 - Dev BLEU: 0.17886739306337512
Epoch: 4/15 - Batch: 100/7933 - Learning rate: 0.001 - Loss: 0.8939083
Epoch: 4/15 - Batch: 200/7933 - Learning rate: 0.001 - Loss: 0.9624418
Epoch: 4/15 - Batch: 300/7933 - Learning rate: 0.001 - Loss: 0.6259925
Epoch: 4/15 - Batch: 400/7933 - Learning rate: 0.001 - Loss: 1.0246234
Epoch: 4/15 - Batch: 500/7933 - Learning rate: 0.001 - Loss: 0.83510363
Epoch: 4/15 - Batch: 600/7933 - Learning rate: 0.001 - Loss: 0.46194118
Epoch: 4/15 - Batch: 700/7933 - Learning rate: 0.001 - Loss: 0.78603035
Epoch: 4/15 - Batch: 800/7933 - Learning rate: 0.001 - Loss: 0.75479347
Epoch: 4/15 - Batch: 900/7933 - Learning rate: 0.001 - Loss: 0.48405161
Epoch: 4/15 - Batch: 1000/7933 - Learning rate: 0.001 - Loss: 0.8343137 - Dev BLEU: 0.15406410590711997
Epoch: 4/15 - Batch: 1100/7933 - Learning rate: 0.001 - Loss: 0.7209507
Epoch: 4/15 - Batch: 1200/7933 - Learning rate: 0.001 - Loss: 0.9979441
Epoch: 4/15 - Batch: 1300/7933 - Learning rate: 0.001 - Loss: 0.9063686
Epoch: 4/15 - Batch: 1400/7933 - Learning rate: 0.001 - Loss: 0.94274193
Epoch: 4/15 - Batch: 1500/7933 - Learning rate: 0.001 - Loss: 0.66211516
Epoch: 4/15 - Batch: 1600/7933 - Learning rate: 0.001 - Loss: 1.3069603
Epoch: 4/15 - Batch: 1700/7933 - Learning rate: 0.001 - Loss: 0.9640474
Epoch: 4/15 - Batch: 1800/7933 - Learning rate: 0.001 - Loss: 0.52411973
Epoch: 4/15 - Batch: 1900/7933 - Learning rate: 0.001 - Loss: 0.7835838
Epoch: 4/15 - Batch: 2000/7933 - Learning rate: 0.001 - Loss: 0.8348743 - Dev BLEU: 0.1382353828962578
Epoch: 4/15 - Batch: 2100/7933 - Learning rate: 0.001 - Loss: 0.7081719
Epoch: 4/15 - Batch: 2200/7933 - Learning rate: 0.001 - Loss: 0.7189316
Epoch: 4/15 - Batch: 2300/7933 - Learning rate: 0.001 - Loss: 0.8872142
Epoch: 4/15 - Batch: 2400/7933 - Learning rate: 0.001 - Loss: 0.74760205
Epoch: 4/15 - Batch: 2500/7933 - Learning rate: 0.001 - Loss: 0.73703945
Epoch: 4/15 - Batch: 2600/7933 - Learning rate: 0.001 - Loss: 0.55463296
Epoch: 4/15 - Batch: 2700/7933 - Learning rate: 0.001 - Loss: 0.32447445
Epoch: 4/15 - Batch: 2800/7933 - Learning rate: 0.001 - Loss: 0.9397533
Epoch: 4/15 - Batch: 2900/7933 - Learning rate: 0.001 - Loss: 1.0084393
Epoch: 4/15 - Batch: 3000/7933 - Learning rate: 0.001 - Loss: 0.9188264 - Dev BLEU: 0.14660258157272218
Epoch: 4/15 - Batch: 3100/7933 - Learning rate: 0.001 - Loss: 0.946484
Epoch: 4/15 - Batch: 3200/7933 - Learning rate: 0.001 - Loss: 0.862864
Epoch: 4/15 - Batch: 3300/7933 - Learning rate: 0.001 - Loss: 0.69533867
Epoch: 4/15 - Batch: 3400/7933 - Learning rate: 0.001 - Loss: 0.7152356
Epoch: 4/15 - Batch: 3500/7933 - Learning rate: 0.001 - Loss: 0.9594669
Epoch: 4/15 - Batch: 3600/7933 - Learning rate: 0.001 - Loss: 0.92327875
Epoch: 4/15 - Batch: 3700/7933 - Learning rate: 0.001 - Loss: 0.9278123
Epoch: 4/15 - Batch: 3800/7933 - Learning rate: 0.001 - Loss: 0.85069907
Epoch: 4/15 - Batch: 3900/7933 - Learning rate: 0.001 - Loss: 1.0149292
Epoch: 4/15 - Batch: 4000/7933 - Learning rate: 0.001 - Loss: 0.5730406 - Dev BLEU: 0.15303885527116817
Epoch: 4/15 - Batch: 4100/7933 - Learning rate: 0.001 - Loss: 0.7530694
Epoch: 4/15 - Batch: 4200/7933 - Learning rate: 0.001 - Loss: 0.6904994
Epoch: 4/15 - Batch: 4300/7933 - Learning rate: 0.001 - Loss: 0.761631
Epoch: 4/15 - Batch: 4400/7933 - Learning rate: 0.001 - Loss: 0.70578694
Epoch: 4/15 - Batch: 4500/7933 - Learning rate: 0.001 - Loss: 0.8268242
Epoch: 4/15 - Batch: 4600/7933 - Learning rate: 0.001 - Loss: 1.5409703
Epoch: 4/15 - Batch: 4700/7933 - Learning rate: 0.001 - Loss: 1.1208352
Epoch: 4/15 - Batch: 4800/7933 - Learning rate: 0.001 - Loss: 1.0816988
Epoch: 4/15 - Batch: 4900/7933 - Learning rate: 0.001 - Loss: 1.2292777
Epoch: 4/15 - Batch: 5000/7933 - Learning rate: 0.001 - Loss: 1.2334918 - Dev BLEU: 0.18178378463689243
Epoch: 4/15 - Batch: 5100/7933 - Learning rate: 0.001 - Loss: 1.2801218
Epoch: 4/15 - Batch: 5200/7933 - Learning rate: 0.001 - Loss: 1.2225028
Epoch: 4/15 - Batch: 5300/7933 - Learning rate: 0.001 - Loss: 1.1818085
Epoch: 4/15 - Batch: 5400/7933 - Learning rate: 0.001 - Loss: 1.1269
Epoch: 4/15 - Batch: 5500/7933 - Learning rate: 0.001 - Loss: 1.1981992
Epoch: 4/15 - Batch: 5600/7933 - Learning rate: 0.001 - Loss: 0.9433788
Epoch: 4/15 - Batch: 5700/7933 - Learning rate: 0.001 - Loss: 1.1141626
Epoch: 4/15 - Batch: 5800/7933 - Learning rate: 0.001 - Loss: 1.1258007
Epoch: 4/15 - Batch: 5900/7933 - Learning rate: 0.001 - Loss: 0.83272904
Epoch: 4/15 - Batch: 6000/7933 - Learning rate: 0.001 - Loss: 1.1722498 - Dev BLEU: 0.17006187775194215
Epoch: 4/15 - Batch: 6100/7933 - Learning rate: 0.001 - Loss: 1.1751001
Epoch: 4/15 - Batch: 6200/7933 - Learning rate: 0.001 - Loss: 1.0041215
Epoch: 4/15 - Batch: 6300/7933 - Learning rate: 0.001 - Loss: 0.9721417
Epoch: 4/15 - Batch: 6400/7933 - Learning rate: 0.001 - Loss: 0.85041493
Epoch: 4/15 - Batch: 6500/7933 - Learning rate: 0.001 - Loss: 0.96086127
Epoch: 4/15 - Batch: 6600/7933 - Learning rate: 0.001 - Loss: 0.9759113
Epoch: 4/15 - Batch: 6700/7933 - Learning rate: 0.001 - Loss: 0.9041327
Epoch: 4/15 - Batch: 6800/7933 - Learning rate: 0.001 - Loss: 0.8700691
Epoch: 4/15 - Batch: 6900/7933 - Learning rate: 0.001 - Loss: 0.61927253
Epoch: 4/15 - Batch: 7000/7933 - Learning rate: 0.001 - Loss: 1.3020424 - Dev BLEU: 0.20267156203607192
Epoch: 4/15 - Batch: 7100/7933 - Learning rate: 0.001 - Loss: 0.98327297
Epoch: 4/15 - Batch: 7200/7933 - Learning rate: 0.001 - Loss: 0.7750886
Epoch: 4/15 - Batch: 7300/7933 - Learning rate: 0.001 - Loss: 0.96544373
Epoch: 4/15 - Batch: 7400/7933 - Learning rate: 0.001 - Loss: 1.0323317
Epoch: 4/15 - Batch: 7500/7933 - Learning rate: 0.001 - Loss: 0.72617173
Epoch: 4/15 - Batch: 7600/7933 - Learning rate: 0.001 - Loss: 1.3299464
Epoch: 4/15 - Batch: 7700/7933 - Learning rate: 0.001 - Loss: 1.4482778
Epoch: 4/15 - Batch: 7800/7933 - Learning rate: 0.001 - Loss: 1.3804299
Epoch: 4/15 - Batch: 7900/7933 - Learning rate: 0.001 - Loss: 1.0914319
Epoch: 4/15 - Batch: 7933/7933 - Learning rate: 0.001 - Loss: 1.4074771 - Dev BLEU: 0.18480762219281127
Epoch: 5/15 - Batch: 100/7933 - Learning rate: 0.001 - Loss: 0.8524739
Epoch: 5/15 - Batch: 200/7933 - Learning rate: 0.001 - Loss: 0.8857629
Epoch: 5/15 - Batch: 300/7933 - Learning rate: 0.001 - Loss: 0.58324903
Epoch: 5/15 - Batch: 400/7933 - Learning rate: 0.001 - Loss: 0.97791296
Epoch: 5/15 - Batch: 500/7933 - Learning rate: 0.001 - Loss: 0.7549829
Epoch: 5/15 - Batch: 600/7933 - Learning rate: 0.001 - Loss: 0.44358012
Epoch: 5/15 - Batch: 700/7933 - Learning rate: 0.001 - Loss: 0.73546034
Epoch: 5/15 - Batch: 800/7933 - Learning rate: 0.001 - Loss: 0.71618056
Epoch: 5/15 - Batch: 900/7933 - Learning rate: 0.001 - Loss: 0.4657211
Epoch: 5/15 - Batch: 1000/7933 - Learning rate: 0.001 - Loss: 0.7977272 - Dev BLEU: 0.16377931005701196
Epoch: 5/15 - Batch: 1100/7933 - Learning rate: 0.001 - Loss: 0.6913844
Epoch: 5/15 - Batch: 1200/7933 - Learning rate: 0.001 - Loss: 0.96689963
Epoch: 5/15 - Batch: 1300/7933 - Learning rate: 0.001 - Loss: 0.87119997
Epoch: 5/15 - Batch: 1400/7933 - Learning rate: 0.001 - Loss: 0.9176003
Epoch: 5/15 - Batch: 1500/7933 - Learning rate: 0.001 - Loss: 0.63455236
Epoch: 5/15 - Batch: 1600/7933 - Learning rate: 0.001 - Loss: 1.2346574
Epoch: 5/15 - Batch: 1700/7933 - Learning rate: 0.001 - Loss: 0.9042503
Epoch: 5/15 - Batch: 1800/7933 - Learning rate: 0.001 - Loss: 0.5059861
Epoch: 5/15 - Batch: 1900/7933 - Learning rate: 0.001 - Loss: 0.7433667
Epoch: 5/15 - Batch: 2000/7933 - Learning rate: 0.001 - Loss: 0.7801875 - Dev BLEU: 0.15076643676530227
Epoch: 5/15 - Batch: 2100/7933 - Learning rate: 0.001 - Loss: 0.6536319
Epoch: 5/15 - Batch: 2200/7933 - Learning rate: 0.001 - Loss: 0.6696824
Epoch: 5/15 - Batch: 2300/7933 - Learning rate: 0.001 - Loss: 0.8345813
Epoch: 5/15 - Batch: 2400/7933 - Learning rate: 0.001 - Loss: 0.7021016
Epoch: 5/15 - Batch: 2500/7933 - Learning rate: 0.001 - Loss: 0.6798561
Epoch: 5/15 - Batch: 2600/7933 - Learning rate: 0.001 - Loss: 0.52401876
Epoch: 5/15 - Batch: 2700/7933 - Learning rate: 0.001 - Loss: 0.30944556
Epoch: 5/15 - Batch: 2800/7933 - Learning rate: 0.001 - Loss: 0.8689487
Epoch: 5/15 - Batch: 2900/7933 - Learning rate: 0.001 - Loss: 0.9752188
Epoch: 5/15 - Batch: 3000/7933 - Learning rate: 0.001 - Loss: 0.8704302 - Dev BLEU: 0.16000325347008137
Epoch: 5/15 - Batch: 3100/7933 - Learning rate: 0.001 - Loss: 0.89617854
Epoch: 5/15 - Batch: 3200/7933 - Learning rate: 0.001 - Loss: 0.8202226
Epoch: 5/15 - Batch: 3300/7933 - Learning rate: 0.001 - Loss: 0.6759426
Epoch: 5/15 - Batch: 3400/7933 - Learning rate: 0.001 - Loss: 0.67967284
Epoch: 5/15 - Batch: 3500/7933 - Learning rate: 0.001 - Loss: 0.90479964
Epoch: 5/15 - Batch: 3600/7933 - Learning rate: 0.001 - Loss: 0.88152033
Epoch: 5/15 - Batch: 3700/7933 - Learning rate: 0.001 - Loss: 0.8926968
Epoch: 5/15 - Batch: 3800/7933 - Learning rate: 0.001 - Loss: 0.8205672
Epoch: 5/15 - Batch: 3900/7933 - Learning rate: 0.001 - Loss: 0.96577364
Epoch: 5/15 - Batch: 4000/7933 - Learning rate: 0.001 - Loss: 0.55127525 - Dev BLEU: 0.1656983791516142
Epoch: 5/15 - Batch: 4100/7933 - Learning rate: 0.001 - Loss: 0.7206455
Epoch: 5/15 - Batch: 4200/7933 - Learning rate: 0.001 - Loss: 0.643203
Epoch: 5/15 - Batch: 4300/7933 - Learning rate: 0.001 - Loss: 0.73883456
Epoch: 5/15 - Batch: 4400/7933 - Learning rate: 0.001 - Loss: 0.6682111
Epoch: 5/15 - Batch: 4500/7933 - Learning rate: 0.001 - Loss: 0.80045885
Epoch: 5/15 - Batch: 4600/7933 - Learning rate: 0.001 - Loss: 1.4197302
Epoch: 5/15 - Batch: 4700/7933 - Learning rate: 0.001 - Loss: 1.0528238
Epoch: 5/15 - Batch: 4800/7933 - Learning rate: 0.001 - Loss: 1.0044235
Epoch: 5/15 - Batch: 4900/7933 - Learning rate: 0.001 - Loss: 1.1745164
Epoch: 5/15 - Batch: 5000/7933 - Learning rate: 0.001 - Loss: 1.1863737 - Dev BLEU: 0.19097323570760552
Epoch: 5/15 - Batch: 5100/7933 - Learning rate: 0.001 - Loss: 1.2176983
Epoch: 5/15 - Batch: 5200/7933 - Learning rate: 0.001 - Loss: 1.1529998
Epoch: 5/15 - Batch: 5300/7933 - Learning rate: 0.001 - Loss: 1.1366161
Epoch: 5/15 - Batch: 5400/7933 - Learning rate: 0.001 - Loss: 1.086536
Epoch: 5/15 - Batch: 5500/7933 - Learning rate: 0.001 - Loss: 1.1411453
Epoch: 5/15 - Batch: 5600/7933 - Learning rate: 0.001 - Loss: 0.9117132
Epoch: 5/15 - Batch: 5700/7933 - Learning rate: 0.001 - Loss: 1.0632565
Epoch: 5/15 - Batch: 5800/7933 - Learning rate: 0.001 - Loss: 1.0697154
Epoch: 5/15 - Batch: 5900/7933 - Learning rate: 0.001 - Loss: 0.79665846
Epoch: 5/15 - Batch: 6000/7933 - Learning rate: 0.001 - Loss: 1.1179734 - Dev BLEU: 0.1835823630078539
Epoch: 5/15 - Batch: 6100/7933 - Learning rate: 0.001 - Loss: 1.1214302
Epoch: 5/15 - Batch: 6200/7933 - Learning rate: 0.001 - Loss: 0.94893605
Epoch: 5/15 - Batch: 6300/7933 - Learning rate: 0.001 - Loss: 0.90000755
Epoch: 5/15 - Batch: 6400/7933 - Learning rate: 0.001 - Loss: 0.8009104
Epoch: 5/15 - Batch: 6500/7933 - Learning rate: 0.001 - Loss: 0.9066116
Epoch: 5/15 - Batch: 6600/7933 - Learning rate: 0.001 - Loss: 0.9241381
Epoch: 5/15 - Batch: 6700/7933 - Learning rate: 0.001 - Loss: 0.8583821
Epoch: 5/15 - Batch: 6800/7933 - Learning rate: 0.001 - Loss: 0.8497521
Epoch: 5/15 - Batch: 6900/7933 - Learning rate: 0.001 - Loss: 0.59560263
Epoch: 5/15 - Batch: 7000/7933 - Learning rate: 0.001 - Loss: 1.2518572 - Dev BLEU: 0.21500317536871016
Epoch: 5/15 - Batch: 7100/7933 - Learning rate: 0.001 - Loss: 0.9316096
Epoch: 5/15 - Batch: 7200/7933 - Learning rate: 0.001 - Loss: 0.7457626
Epoch: 5/15 - Batch: 7300/7933 - Learning rate: 0.001 - Loss: 0.94396234
Epoch: 5/15 - Batch: 7400/7933 - Learning rate: 0.001 - Loss: 0.99015516
Epoch: 5/15 - Batch: 7500/7933 - Learning rate: 0.001 - Loss: 0.7048733
Epoch: 5/15 - Batch: 7600/7933 - Learning rate: 0.001 - Loss: 1.2663444
Epoch: 5/15 - Batch: 7700/7933 - Learning rate: 0.001 - Loss: 1.4026366
Epoch: 5/15 - Batch: 7800/7933 - Learning rate: 0.001 - Loss: 1.3226501
Epoch: 5/15 - Batch: 7900/7933 - Learning rate: 0.001 - Loss: 1.043167
Epoch: 5/15 - Batch: 7933/7933 - Learning rate: 0.001 - Loss: 1.3422484 - Dev BLEU: 0.1934404873954418
Epoch: 6/15 - Batch: 100/7933 - Learning rate: 0.001 - Loss: 0.8271192
Epoch: 6/15 - Batch: 200/7933 - Learning rate: 0.001 - Loss: 0.8297148
Epoch: 6/15 - Batch: 300/7933 - Learning rate: 0.001 - Loss: 0.5717996
Epoch: 6/15 - Batch: 400/7933 - Learning rate: 0.001 - Loss: 0.93745637
Epoch: 6/15 - Batch: 500/7933 - Learning rate: 0.001 - Loss: 0.70230776
Epoch: 6/15 - Batch: 600/7933 - Learning rate: 0.001 - Loss: 0.43252158
Epoch: 6/15 - Batch: 700/7933 - Learning rate: 0.001 - Loss: 0.70721406
Epoch: 6/15 - Batch: 800/7933 - Learning rate: 0.001 - Loss: 0.6968408
Epoch: 6/15 - Batch: 900/7933 - Learning rate: 0.001 - Loss: 0.4503948
Epoch: 6/15 - Batch: 1000/7933 - Learning rate: 0.001 - Loss: 0.75766814 - Dev BLEU: 0.171645533547947
Epoch: 6/15 - Batch: 1100/7933 - Learning rate: 0.001 - Loss: 0.662887
Epoch: 6/15 - Batch: 1200/7933 - Learning rate: 0.001 - Loss: 0.91477376
Epoch: 6/15 - Batch: 1300/7933 - Learning rate: 0.001 - Loss: 0.8309108
Epoch: 6/15 - Batch: 1400/7933 - Learning rate: 0.001 - Loss: 0.87684464
Epoch: 6/15 - Batch: 1500/7933 - Learning rate: 0.001 - Loss: 0.61421084
Epoch: 6/15 - Batch: 1600/7933 - Learning rate: 0.001 - Loss: 1.1805716
Epoch: 6/15 - Batch: 1700/7933 - Learning rate: 0.001 - Loss: 0.8763004
Epoch: 6/15 - Batch: 1800/7933 - Learning rate: 0.001 - Loss: 0.47771645
Epoch: 6/15 - Batch: 1900/7933 - Learning rate: 0.001 - Loss: 0.71489435
Epoch: 6/15 - Batch: 2000/7933 - Learning rate: 0.001 - Loss: 0.7489696 - Dev BLEU: 0.15713913726881618
Epoch: 6/15 - Batch: 2100/7933 - Learning rate: 0.001 - Loss: 0.6384089
Epoch: 6/15 - Batch: 2200/7933 - Learning rate: 0.001 - Loss: 0.6526696
Epoch: 6/15 - Batch: 2300/7933 - Learning rate: 0.001 - Loss: 0.79929
Epoch: 6/15 - Batch: 2400/7933 - Learning rate: 0.001 - Loss: 0.6715512
Epoch: 6/15 - Batch: 2500/7933 - Learning rate: 0.001 - Loss: 0.6453287
Epoch: 6/15 - Batch: 2600/7933 - Learning rate: 0.001 - Loss: 0.49142668
Epoch: 6/15 - Batch: 2700/7933 - Learning rate: 0.001 - Loss: 0.29181552
Epoch: 6/15 - Batch: 2800/7933 - Learning rate: 0.001 - Loss: 0.82690156
Epoch: 6/15 - Batch: 2900/7933 - Learning rate: 0.001 - Loss: 0.9397409
Epoch: 6/15 - Batch: 3000/7933 - Learning rate: 0.001 - Loss: 0.84188634 - Dev BLEU: 0.16450980473098617
Epoch: 6/15 - Batch: 3100/7933 - Learning rate: 0.001 - Loss: 0.86303186
Epoch: 6/15 - Batch: 3200/7933 - Learning rate: 0.001 - Loss: 0.79633003
Epoch: 6/15 - Batch: 3300/7933 - Learning rate: 0.001 - Loss: 0.6545466
Epoch: 6/15 - Batch: 3400/7933 - Learning rate: 0.001 - Loss: 0.64719325
Epoch: 6/15 - Batch: 3500/7933 - Learning rate: 0.001 - Loss: 0.86267734
Epoch: 6/15 - Batch: 3600/7933 - Learning rate: 0.001 - Loss: 0.84841514
Epoch: 6/15 - Batch: 3700/7933 - Learning rate: 0.001 - Loss: 0.85968983
Epoch: 6/15 - Batch: 3800/7933 - Learning rate: 0.001 - Loss: 0.77383655
Epoch: 6/15 - Batch: 3900/7933 - Learning rate: 0.001 - Loss: 0.92740977
Epoch: 6/15 - Batch: 4000/7933 - Learning rate: 0.001 - Loss: 0.5295705 - Dev BLEU: 0.17068405176037033
Epoch: 6/15 - Batch: 4100/7933 - Learning rate: 0.001 - Loss: 0.7005793
Epoch: 6/15 - Batch: 4200/7933 - Learning rate: 0.001 - Loss: 0.620162
Epoch: 6/15 - Batch: 4300/7933 - Learning rate: 0.001 - Loss: 0.71302164
Epoch: 6/15 - Batch: 4400/7933 - Learning rate: 0.001 - Loss: 0.6586975
Epoch: 6/15 - Batch: 4500/7933 - Learning rate: 0.001 - Loss: 0.76376826
Epoch: 6/15 - Batch: 4600/7933 - Learning rate: 0.001 - Loss: 1.3581774
Epoch: 6/15 - Batch: 4700/7933 - Learning rate: 0.001 - Loss: 0.98896
Epoch: 6/15 - Batch: 4800/7933 - Learning rate: 0.001 - Loss: 0.9625827
Epoch: 6/15 - Batch: 4900/7933 - Learning rate: 0.001 - Loss: 1.0919375
Epoch: 6/15 - Batch: 5000/7933 - Learning rate: 0.001 - Loss: 1.1531098 - Dev BLEU: 0.19739694346215314
Epoch: 6/15 - Batch: 5100/7933 - Learning rate: 0.001 - Loss: 1.1725322
Epoch: 6/15 - Batch: 5200/7933 - Learning rate: 0.001 - Loss: 1.1254401
Epoch: 6/15 - Batch: 5300/7933 - Learning rate: 0.001 - Loss: 1.1043674
Epoch: 6/15 - Batch: 5400/7933 - Learning rate: 0.001 - Loss: 1.0527679
Epoch: 6/15 - Batch: 5500/7933 - Learning rate: 0.001 - Loss: 1.0718523
Epoch: 6/15 - Batch: 5600/7933 - Learning rate: 0.001 - Loss: 0.8541575
Epoch: 6/15 - Batch: 5700/7933 - Learning rate: 0.001 - Loss: 1.0201678
Epoch: 6/15 - Batch: 5800/7933 - Learning rate: 0.001 - Loss: 1.0226647
Epoch: 6/15 - Batch: 5900/7933 - Learning rate: 0.001 - Loss: 0.7510791
Epoch: 6/15 - Batch: 6000/7933 - Learning rate: 0.001 - Loss: 1.0701135 - Dev BLEU: 0.1882472174483629
Epoch: 6/15 - Batch: 6100/7933 - Learning rate: 0.001 - Loss: 1.0544053
Epoch: 6/15 - Batch: 6200/7933 - Learning rate: 0.001 - Loss: 0.9252539
Epoch: 6/15 - Batch: 6300/7933 - Learning rate: 0.001 - Loss: 0.85867465
Epoch: 6/15 - Batch: 6400/7933 - Learning rate: 0.001 - Loss: 0.7824428
Epoch: 6/15 - Batch: 6500/7933 - Learning rate: 0.001 - Loss: 0.8952651
Epoch: 6/15 - Batch: 6600/7933 - Learning rate: 0.001 - Loss: 0.89508206
Epoch: 6/15 - Batch: 6700/7933 - Learning rate: 0.001 - Loss: 0.8457314
Epoch: 6/15 - Batch: 6800/7933 - Learning rate: 0.001 - Loss: 0.8294983
Epoch: 6/15 - Batch: 6900/7933 - Learning rate: 0.001 - Loss: 0.5715995
Epoch: 6/15 - Batch: 7000/7933 - Learning rate: 0.001 - Loss: 1.2146733 - Dev BLEU: 0.21871907476553756
Epoch: 6/15 - Batch: 7100/7933 - Learning rate: 0.001 - Loss: 0.9100111
Epoch: 6/15 - Batch: 7200/7933 - Learning rate: 0.001 - Loss: 0.7228157
Epoch: 6/15 - Batch: 7300/7933 - Learning rate: 0.001 - Loss: 0.8904906
Epoch: 6/15 - Batch: 7400/7933 - Learning rate: 0.001 - Loss: 0.9652682
Epoch: 6/15 - Batch: 7500/7933 - Learning rate: 0.001 - Loss: 0.69202596
Epoch: 6/15 - Batch: 7600/7933 - Learning rate: 0.001 - Loss: 1.2257128
Epoch: 6/15 - Batch: 7700/7933 - Learning rate: 0.001 - Loss: 1.3697486
Epoch: 6/15 - Batch: 7800/7933 - Learning rate: 0.001 - Loss: 1.291543
Epoch: 6/15 - Batch: 7900/7933 - Learning rate: 0.001 - Loss: 1.0152072
Epoch: 6/15 - Batch: 7933/7933 - Learning rate: 0.001 - Loss: 1.2745086 - Dev BLEU: 0.1993870189715976
Epoch: 7/15 - Batch: 100/7933 - Learning rate: 0.001 - Loss: 0.81856793
Epoch: 7/15 - Batch: 200/7933 - Learning rate: 0.001 - Loss: 0.7964068
Epoch: 7/15 - Batch: 300/7933 - Learning rate: 0.001 - Loss: 0.5484655
Epoch: 7/15 - Batch: 400/7933 - Learning rate: 0.001 - Loss: 0.90066534
Epoch: 7/15 - Batch: 500/7933 - Learning rate: 0.001 - Loss: 0.6698889
Epoch: 7/15 - Batch: 600/7933 - Learning rate: 0.001 - Loss: 0.42013064
Epoch: 7/15 - Batch: 700/7933 - Learning rate: 0.001 - Loss: 0.6678908
Epoch: 7/15 - Batch: 800/7933 - Learning rate: 0.001 - Loss: 0.6658326
Epoch: 7/15 - Batch: 900/7933 - Learning rate: 0.001 - Loss: 0.44070217
Epoch: 7/15 - Batch: 1000/7933 - Learning rate: 0.001 - Loss: 0.73415345 - Dev BLEU: 0.1749990799964131
Epoch: 7/15 - Batch: 1100/7933 - Learning rate: 0.001 - Loss: 0.63893086
Epoch: 7/15 - Batch: 1200/7933 - Learning rate: 0.001 - Loss: 0.89079744
Epoch: 7/15 - Batch: 1300/7933 - Learning rate: 0.001 - Loss: 0.79574037
Epoch: 7/15 - Batch: 1400/7933 - Learning rate: 0.001 - Loss: 0.84714586
Epoch: 7/15 - Batch: 1500/7933 - Learning rate: 0.001 - Loss: 0.5927705
Epoch: 7/15 - Batch: 1600/7933 - Learning rate: 0.001 - Loss: 1.1362523
Epoch: 7/15 - Batch: 1700/7933 - Learning rate: 0.001 - Loss: 0.85352075
Epoch: 7/15 - Batch: 1800/7933 - Learning rate: 0.001 - Loss: 0.46499538
Epoch: 7/15 - Batch: 1900/7933 - Learning rate: 0.001 - Loss: 0.7005121
Epoch: 7/15 - Batch: 2000/7933 - Learning rate: 0.001 - Loss: 0.7194502 - Dev BLEU: 0.1599936681847434
Epoch: 7/15 - Batch: 2100/7933 - Learning rate: 0.001 - Loss: 0.61217743
Epoch: 7/15 - Batch: 2200/7933 - Learning rate: 0.001 - Loss: 0.63329583
Epoch: 7/15 - Batch: 2300/7933 - Learning rate: 0.001 - Loss: 0.78293973
Epoch: 7/15 - Batch: 2400/7933 - Learning rate: 0.001 - Loss: 0.64675856
Epoch: 7/15 - Batch: 2500/7933 - Learning rate: 0.001 - Loss: 0.6245494
Epoch: 7/15 - Batch: 2600/7933 - Learning rate: 0.001 - Loss: 0.48179618
Epoch: 7/15 - Batch: 2700/7933 - Learning rate: 0.001 - Loss: 0.28436226
Epoch: 7/15 - Batch: 2800/7933 - Learning rate: 0.001 - Loss: 0.77794063
Epoch: 7/15 - Batch: 2900/7933 - Learning rate: 0.001 - Loss: 0.90735346
Epoch: 7/15 - Batch: 3000/7933 - Learning rate: 0.001 - Loss: 0.8009234 - Dev BLEU: 0.17061085070443854
Epoch: 7/15 - Batch: 3100/7933 - Learning rate: 0.001 - Loss: 0.83898866
Epoch: 7/15 - Batch: 3200/7933 - Learning rate: 0.001 - Loss: 0.78380793
Epoch: 7/15 - Batch: 3300/7933 - Learning rate: 0.001 - Loss: 0.6403829
Epoch: 7/15 - Batch: 3400/7933 - Learning rate: 0.001 - Loss: 0.63796926
Epoch: 7/15 - Batch: 3500/7933 - Learning rate: 0.001 - Loss: 0.8462877
Epoch: 7/15 - Batch: 3600/7933 - Learning rate: 0.001 - Loss: 0.8299403
Epoch: 7/15 - Batch: 3700/7933 - Learning rate: 0.001 - Loss: 0.8282521
Epoch: 7/15 - Batch: 3800/7933 - Learning rate: 0.001 - Loss: 0.754323
Epoch: 7/15 - Batch: 3900/7933 - Learning rate: 0.001 - Loss: 0.9022409
Epoch: 7/15 - Batch: 4000/7933 - Learning rate: 0.001 - Loss: 0.52313954 - Dev BLEU: 0.1781935379107697
Epoch: 7/15 - Batch: 4100/7933 - Learning rate: 0.001 - Loss: 0.6680814
Epoch: 7/15 - Batch: 4200/7933 - Learning rate: 0.001 - Loss: 0.59891725
Epoch: 7/15 - Batch: 4300/7933 - Learning rate: 0.001 - Loss: 0.68681115
Epoch: 7/15 - Batch: 4400/7933 - Learning rate: 0.001 - Loss: 0.62420774
Epoch: 7/15 - Batch: 4500/7933 - Learning rate: 0.001 - Loss: 0.75311
Epoch: 7/15 - Batch: 4600/7933 - Learning rate: 0.001 - Loss: 1.2917625
Epoch: 7/15 - Batch: 4700/7933 - Learning rate: 0.001 - Loss: 0.95289767
Epoch: 7/15 - Batch: 4800/7933 - Learning rate: 0.001 - Loss: 0.92865807
Epoch: 7/15 - Batch: 4900/7933 - Learning rate: 0.001 - Loss: 1.07156
Epoch: 7/15 - Batch: 5000/7933 - Learning rate: 0.001 - Loss: 1.1071733 - Dev BLEU: 0.2013049428265865
Epoch: 7/15 - Batch: 5100/7933 - Learning rate: 0.001 - Loss: 1.1265446
Epoch: 7/15 - Batch: 5200/7933 - Learning rate: 0.001 - Loss: 1.0897775
Epoch: 7/15 - Batch: 5300/7933 - Learning rate: 0.001 - Loss: 1.0714679
Epoch: 7/15 - Batch: 5400/7933 - Learning rate: 0.001 - Loss: 1.0182315
Epoch: 7/15 - Batch: 5500/7933 - Learning rate: 0.001 - Loss: 1.044399
Epoch: 7/15 - Batch: 5600/7933 - Learning rate: 0.001 - Loss: 0.8516453
Epoch: 7/15 - Batch: 5700/7933 - Learning rate: 0.001 - Loss: 0.97606134
Epoch: 7/15 - Batch: 5800/7933 - Learning rate: 0.001 - Loss: 0.98524624
Epoch: 7/15 - Batch: 5900/7933 - Learning rate: 0.001 - Loss: 0.728546
Epoch: 7/15 - Batch: 6000/7933 - Learning rate: 0.001 - Loss: 1.035296 - Dev BLEU: 0.19231633319912225
Epoch: 7/15 - Batch: 6100/7933 - Learning rate: 0.001 - Loss: 1.0570523
Epoch: 7/15 - Batch: 6200/7933 - Learning rate: 0.001 - Loss: 0.89237446
Epoch: 7/15 - Batch: 6300/7933 - Learning rate: 0.001 - Loss: 0.8415702
Epoch: 7/15 - Batch: 6400/7933 - Learning rate: 0.001 - Loss: 0.7594608
Epoch: 7/15 - Batch: 6500/7933 - Learning rate: 0.001 - Loss: 0.8640825
Epoch: 7/15 - Batch: 6600/7933 - Learning rate: 0.001 - Loss: 0.87110794
Epoch: 7/15 - Batch: 6700/7933 - Learning rate: 0.001 - Loss: 0.82469654
Epoch: 7/15 - Batch: 6800/7933 - Learning rate: 0.001 - Loss: 0.8226159
Epoch: 7/15 - Batch: 6900/7933 - Learning rate: 0.001 - Loss: 0.5572611
Epoch: 7/15 - Batch: 7000/7933 - Learning rate: 0.001 - Loss: 1.1992816 - Dev BLEU: 0.22345567136194072
Epoch: 7/15 - Batch: 7100/7933 - Learning rate: 0.001 - Loss: 0.8886024
Epoch: 7/15 - Batch: 7200/7933 - Learning rate: 0.001 - Loss: 0.69960415
Epoch: 7/15 - Batch: 7300/7933 - Learning rate: 0.001 - Loss: 0.8736677
Epoch: 7/15 - Batch: 7400/7933 - Learning rate: 0.001 - Loss: 0.9505657
Epoch: 7/15 - Batch: 7500/7933 - Learning rate: 0.001 - Loss: 0.6744501
Epoch: 7/15 - Batch: 7600/7933 - Learning rate: 0.001 - Loss: 1.1970776
Epoch: 7/15 - Batch: 7700/7933 - Learning rate: 0.001 - Loss: 1.3397113
Epoch: 7/15 - Batch: 7800/7933 - Learning rate: 0.001 - Loss: 1.2405286
Epoch: 7/15 - Batch: 7900/7933 - Learning rate: 0.001 - Loss: 0.99129176
Epoch: 7/15 - Batch: 7933/7933 - Learning rate: 0.001 - Loss: 1.22131 - Dev BLEU: 0.20046768619922622
Epoch: 8/15 - Batch: 100/7933 - Learning rate: 0.0005 - Loss: 0.80144614
Epoch: 8/15 - Batch: 200/7933 - Learning rate: 0.0005 - Loss: 0.7759571
Epoch: 8/15 - Batch: 300/7933 - Learning rate: 0.0005 - Loss: 0.54948676
Epoch: 8/15 - Batch: 400/7933 - Learning rate: 0.0005 - Loss: 0.8610706
Epoch: 8/15 - Batch: 500/7933 - Learning rate: 0.0005 - Loss: 0.6425177
Epoch: 8/15 - Batch: 600/7933 - Learning rate: 0.0005 - Loss: 0.40733626
Epoch: 8/15 - Batch: 700/7933 - Learning rate: 0.0005 - Loss: 0.6491314
Epoch: 8/15 - Batch: 800/7933 - Learning rate: 0.0005 - Loss: 0.6301812
Epoch: 8/15 - Batch: 900/7933 - Learning rate: 0.0005 - Loss: 0.42582104
Epoch: 8/15 - Batch: 1000/7933 - Learning rate: 0.0005 - Loss: 0.69248384 - Dev BLEU: 0.18906506344762905
Epoch: 8/15 - Batch: 1100/7933 - Learning rate: 0.0005 - Loss: 0.6240628
Epoch: 8/15 - Batch: 1200/7933 - Learning rate: 0.0005 - Loss: 0.8331539
Epoch: 8/15 - Batch: 1300/7933 - Learning rate: 0.0005 - Loss: 0.77483267
Epoch: 8/15 - Batch: 1400/7933 - Learning rate: 0.0005 - Loss: 0.81799406
Epoch: 8/15 - Batch: 1500/7933 - Learning rate: 0.0005 - Loss: 0.5575886
Epoch: 8/15 - Batch: 1600/7933 - Learning rate: 0.0005 - Loss: 1.0893666
Epoch: 8/15 - Batch: 1700/7933 - Learning rate: 0.0005 - Loss: 0.8070118
Epoch: 8/15 - Batch: 1800/7933 - Learning rate: 0.0005 - Loss: 0.43235037
Epoch: 8/15 - Batch: 1900/7933 - Learning rate: 0.0005 - Loss: 0.6688717
Epoch: 8/15 - Batch: 2000/7933 - Learning rate: 0.0005 - Loss: 0.6884403 - Dev BLEU: 0.18128427706730763
Epoch: 8/15 - Batch: 2100/7933 - Learning rate: 0.0005 - Loss: 0.5680947
Epoch: 8/15 - Batch: 2200/7933 - Learning rate: 0.0005 - Loss: 0.5923845
Epoch: 8/15 - Batch: 2300/7933 - Learning rate: 0.0005 - Loss: 0.7158212
Epoch: 8/15 - Batch: 2400/7933 - Learning rate: 0.0005 - Loss: 0.6198645
Epoch: 8/15 - Batch: 2500/7933 - Learning rate: 0.0005 - Loss: 0.5937361
Epoch: 8/15 - Batch: 2600/7933 - Learning rate: 0.0005 - Loss: 0.4576833
Epoch: 8/15 - Batch: 2700/7933 - Learning rate: 0.0005 - Loss: 0.27685434
Epoch: 8/15 - Batch: 2800/7933 - Learning rate: 0.0005 - Loss: 0.7294052
Epoch: 8/15 - Batch: 2900/7933 - Learning rate: 0.0005 - Loss: 0.8746308
Epoch: 8/15 - Batch: 3000/7933 - Learning rate: 0.0005 - Loss: 0.76088977 - Dev BLEU: 0.17412777033181728
Epoch: 8/15 - Batch: 3100/7933 - Learning rate: 0.0005 - Loss: 0.79798424
Epoch: 8/15 - Batch: 3200/7933 - Learning rate: 0.0005 - Loss: 0.7267931
Epoch: 8/15 - Batch: 3300/7933 - Learning rate: 0.0005 - Loss: 0.6154288
Epoch: 8/15 - Batch: 3400/7933 - Learning rate: 0.0005 - Loss: 0.6003203
Epoch: 8/15 - Batch: 3500/7933 - Learning rate: 0.0005 - Loss: 0.76774883
Epoch: 8/15 - Batch: 3600/7933 - Learning rate: 0.0005 - Loss: 0.7699838
Epoch: 8/15 - Batch: 3700/7933 - Learning rate: 0.0005 - Loss: 0.79011136
Epoch: 8/15 - Batch: 3800/7933 - Learning rate: 0.0005 - Loss: 0.7100625
Epoch: 8/15 - Batch: 3900/7933 - Learning rate: 0.0005 - Loss: 0.84718364
Epoch: 8/15 - Batch: 4000/7933 - Learning rate: 0.0005 - Loss: 0.49377662 - Dev BLEU: 0.19519051325625647
Epoch: 8/15 - Batch: 4100/7933 - Learning rate: 0.0005 - Loss: 0.6399406
Epoch: 8/15 - Batch: 4200/7933 - Learning rate: 0.0005 - Loss: 0.5694158
Epoch: 8/15 - Batch: 4300/7933 - Learning rate: 0.0005 - Loss: 0.666223
Epoch: 8/15 - Batch: 4400/7933 - Learning rate: 0.0005 - Loss: 0.59911615
Epoch: 8/15 - Batch: 4500/7933 - Learning rate: 0.0005 - Loss: 0.7117349
Epoch: 8/15 - Batch: 4600/7933 - Learning rate: 0.0005 - Loss: 1.1515627
Epoch: 8/15 - Batch: 4700/7933 - Learning rate: 0.0005 - Loss: 0.839733
Epoch: 8/15 - Batch: 4800/7933 - Learning rate: 0.0005 - Loss: 0.8034626
Epoch: 8/15 - Batch: 4900/7933 - Learning rate: 0.0005 - Loss: 0.9720988
Epoch: 8/15 - Batch: 5000/7933 - Learning rate: 0.0005 - Loss: 1.0199468 - Dev BLEU: 0.21830375061927354
Epoch: 8/15 - Batch: 5100/7933 - Learning rate: 0.0005 - Loss: 1.0655475
Epoch: 8/15 - Batch: 5200/7933 - Learning rate: 0.0005 - Loss: 1.0019436
Epoch: 8/15 - Batch: 5300/7933 - Learning rate: 0.0005 - Loss: 0.98483104
Epoch: 8/15 - Batch: 5400/7933 - Learning rate: 0.0005 - Loss: 0.92056215
Epoch: 8/15 - Batch: 5500/7933 - Learning rate: 0.0005 - Loss: 0.95291317
Epoch: 8/15 - Batch: 5600/7933 - Learning rate: 0.0005 - Loss: 0.7724662
Epoch: 8/15 - Batch: 5700/7933 - Learning rate: 0.0005 - Loss: 0.88791037
Epoch: 8/15 - Batch: 5800/7933 - Learning rate: 0.0005 - Loss: 0.89502984
Epoch: 8/15 - Batch: 5900/7933 - Learning rate: 0.0005 - Loss: 0.64666945
Epoch: 8/15 - Batch: 6000/7933 - Learning rate: 0.0005 - Loss: 0.9583909 - Dev BLEU: 0.21317767464502071
Epoch: 8/15 - Batch: 6100/7933 - Learning rate: 0.0005 - Loss: 0.8940899
Epoch: 8/15 - Batch: 6200/7933 - Learning rate: 0.0005 - Loss: 0.8084478
Epoch: 8/15 - Batch: 6300/7933 - Learning rate: 0.0005 - Loss: 0.7667704
Epoch: 8/15 - Batch: 6400/7933 - Learning rate: 0.0005 - Loss: 0.7036209
Epoch: 8/15 - Batch: 6500/7933 - Learning rate: 0.0005 - Loss: 0.81559074
Epoch: 8/15 - Batch: 6600/7933 - Learning rate: 0.0005 - Loss: 0.82967603
Epoch: 8/15 - Batch: 6700/7933 - Learning rate: 0.0005 - Loss: 0.7978575
Epoch: 8/15 - Batch: 6800/7933 - Learning rate: 0.0005 - Loss: 0.79762113
Epoch: 8/15 - Batch: 6900/7933 - Learning rate: 0.0005 - Loss: 0.52925175
Epoch: 8/15 - Batch: 7000/7933 - Learning rate: 0.0005 - Loss: 1.1237327 - Dev BLEU: 0.2335711129726138
Epoch: 8/15 - Batch: 7100/7933 - Learning rate: 0.0005 - Loss: 0.83360004
Epoch: 8/15 - Batch: 7200/7933 - Learning rate: 0.0005 - Loss: 0.6792948
Epoch: 8/15 - Batch: 7300/7933 - Learning rate: 0.0005 - Loss: 0.8329464
Epoch: 8/15 - Batch: 7400/7933 - Learning rate: 0.0005 - Loss: 0.91035235
Epoch: 8/15 - Batch: 7500/7933 - Learning rate: 0.0005 - Loss: 0.65113884
Epoch: 8/15 - Batch: 7600/7933 - Learning rate: 0.0005 - Loss: 1.1499014
Epoch: 8/15 - Batch: 7700/7933 - Learning rate: 0.0005 - Loss: 1.2787585
Epoch: 8/15 - Batch: 7800/7933 - Learning rate: 0.0005 - Loss: 1.166433
Epoch: 8/15 - Batch: 7900/7933 - Learning rate: 0.0005 - Loss: 0.96129173
Epoch: 8/15 - Batch: 7933/7933 - Learning rate: 0.0005 - Loss: 1.1669145 - Dev BLEU: 0.2162444708394719
Epoch: 9/15 - Batch: 100/7933 - Learning rate: 0.00025 - Loss: 0.775646
Epoch: 9/15 - Batch: 200/7933 - Learning rate: 0.00025 - Loss: 0.7413087
Epoch: 9/15 - Batch: 300/7933 - Learning rate: 0.00025 - Loss: 0.52725387
Epoch: 9/15 - Batch: 400/7933 - Learning rate: 0.00025 - Loss: 0.84098
Epoch: 9/15 - Batch: 500/7933 - Learning rate: 0.00025 - Loss: 0.6055589
Epoch: 9/15 - Batch: 600/7933 - Learning rate: 0.00025 - Loss: 0.4043105
Epoch: 9/15 - Batch: 700/7933 - Learning rate: 0.00025 - Loss: 0.6313513
Epoch: 9/15 - Batch: 800/7933 - Learning rate: 0.00025 - Loss: 0.6070869
Epoch: 9/15 - Batch: 900/7933 - Learning rate: 0.00025 - Loss: 0.4093247
Epoch: 9/15 - Batch: 1000/7933 - Learning rate: 0.00025 - Loss: 0.666821 - Dev BLEU: 0.20222193064970068
Epoch: 9/15 - Batch: 1100/7933 - Learning rate: 0.00025 - Loss: 0.6043268
Epoch: 9/15 - Batch: 1200/7933 - Learning rate: 0.00025 - Loss: 0.809243
Epoch: 9/15 - Batch: 1300/7933 - Learning rate: 0.00025 - Loss: 0.7353281
Epoch: 9/15 - Batch: 1400/7933 - Learning rate: 0.00025 - Loss: 0.7763002
Epoch: 9/15 - Batch: 1500/7933 - Learning rate: 0.00025 - Loss: 0.54890203
Epoch: 9/15 - Batch: 1600/7933 - Learning rate: 0.00025 - Loss: 1.051023
Epoch: 9/15 - Batch: 1700/7933 - Learning rate: 0.00025 - Loss: 0.78287905
Epoch: 9/15 - Batch: 1800/7933 - Learning rate: 0.00025 - Loss: 0.4200288
Epoch: 9/15 - Batch: 1900/7933 - Learning rate: 0.00025 - Loss: 0.6469798
Epoch: 9/15 - Batch: 2000/7933 - Learning rate: 0.00025 - Loss: 0.6557546 - Dev BLEU: 0.19343234798421172
Epoch: 9/15 - Batch: 2100/7933 - Learning rate: 0.00025 - Loss: 0.5316288
Epoch: 9/15 - Batch: 2200/7933 - Learning rate: 0.00025 - Loss: 0.5602668
Epoch: 9/15 - Batch: 2300/7933 - Learning rate: 0.00025 - Loss: 0.697989
Epoch: 9/15 - Batch: 2400/7933 - Learning rate: 0.00025 - Loss: 0.59946936
Epoch: 9/15 - Batch: 2500/7933 - Learning rate: 0.00025 - Loss: 0.5713102
Epoch: 9/15 - Batch: 2600/7933 - Learning rate: 0.00025 - Loss: 0.43717924
Epoch: 9/15 - Batch: 2700/7933 - Learning rate: 0.00025 - Loss: 0.2711547
Epoch: 9/15 - Batch: 2800/7933 - Learning rate: 0.00025 - Loss: 0.69736487
Epoch: 9/15 - Batch: 2900/7933 - Learning rate: 0.00025 - Loss: 0.8532607
Epoch: 9/15 - Batch: 3000/7933 - Learning rate: 0.00025 - Loss: 0.72676545 - Dev BLEU: 0.19520923968466536
Epoch: 9/15 - Batch: 3100/7933 - Learning rate: 0.00025 - Loss: 0.77037925
Epoch: 9/15 - Batch: 3200/7933 - Learning rate: 0.00025 - Loss: 0.70769364
Epoch: 9/15 - Batch: 3300/7933 - Learning rate: 0.00025 - Loss: 0.58387905
Epoch: 9/15 - Batch: 3400/7933 - Learning rate: 0.00025 - Loss: 0.57926387
Epoch: 9/15 - Batch: 3500/7933 - Learning rate: 0.00025 - Loss: 0.7307834
Epoch: 9/15 - Batch: 3600/7933 - Learning rate: 0.00025 - Loss: 0.74660677
Epoch: 9/15 - Batch: 3700/7933 - Learning rate: 0.00025 - Loss: 0.7695537
Epoch: 9/15 - Batch: 3800/7933 - Learning rate: 0.00025 - Loss: 0.66888976
Epoch: 9/15 - Batch: 3900/7933 - Learning rate: 0.00025 - Loss: 0.8116988
Epoch: 9/15 - Batch: 4000/7933 - Learning rate: 0.00025 - Loss: 0.47386828 - Dev BLEU: 0.2042492651092011
Epoch: 9/15 - Batch: 4100/7933 - Learning rate: 0.00025 - Loss: 0.61843514
Epoch: 9/15 - Batch: 4200/7933 - Learning rate: 0.00025 - Loss: 0.54628277
Epoch: 9/15 - Batch: 4300/7933 - Learning rate: 0.00025 - Loss: 0.64685297
Epoch: 9/15 - Batch: 4400/7933 - Learning rate: 0.00025 - Loss: 0.57950884
Epoch: 9/15 - Batch: 4500/7933 - Learning rate: 0.00025 - Loss: 0.6791607
Epoch: 9/15 - Batch: 4600/7933 - Learning rate: 0.00025 - Loss: 1.0749112
Epoch: 9/15 - Batch: 4700/7933 - Learning rate: 0.00025 - Loss: 0.77195936
Epoch: 9/15 - Batch: 4800/7933 - Learning rate: 0.00025 - Loss: 0.76365674
Epoch: 9/15 - Batch: 4900/7933 - Learning rate: 0.00025 - Loss: 0.895091
Epoch: 9/15 - Batch: 5000/7933 - Learning rate: 0.00025 - Loss: 0.95718706 - Dev BLEU: 0.22353521250870423
Epoch: 9/15 - Batch: 5100/7933 - Learning rate: 0.00025 - Loss: 0.9900017
Epoch: 9/15 - Batch: 5200/7933 - Learning rate: 0.00025 - Loss: 0.95076203
Epoch: 9/15 - Batch: 5300/7933 - Learning rate: 0.00025 - Loss: 0.92206734
Epoch: 9/15 - Batch: 5400/7933 - Learning rate: 0.00025 - Loss: 0.8736208
Epoch: 9/15 - Batch: 5500/7933 - Learning rate: 0.00025 - Loss: 0.9051095
Epoch: 9/15 - Batch: 5600/7933 - Learning rate: 0.00025 - Loss: 0.72519374
Epoch: 9/15 - Batch: 5700/7933 - Learning rate: 0.00025 - Loss: 0.8495909
Epoch: 9/15 - Batch: 5800/7933 - Learning rate: 0.00025 - Loss: 0.83774453
Epoch: 9/15 - Batch: 5900/7933 - Learning rate: 0.00025 - Loss: 0.6202527
Epoch: 9/15 - Batch: 6000/7933 - Learning rate: 0.00025 - Loss: 0.91376424 - Dev BLEU: 0.2219858489440904
Epoch: 9/15 - Batch: 6100/7933 - Learning rate: 0.00025 - Loss: 0.84880257
Epoch: 9/15 - Batch: 6200/7933 - Learning rate: 0.00025 - Loss: 0.7620602
Epoch: 9/15 - Batch: 6300/7933 - Learning rate: 0.00025 - Loss: 0.7139367
Epoch: 9/15 - Batch: 6400/7933 - Learning rate: 0.00025 - Loss: 0.6701632
Epoch: 9/15 - Batch: 6500/7933 - Learning rate: 0.00025 - Loss: 0.79773605
Epoch: 9/15 - Batch: 6600/7933 - Learning rate: 0.00025 - Loss: 0.80755055
Epoch: 9/15 - Batch: 6700/7933 - Learning rate: 0.00025 - Loss: 0.77809757
Epoch: 9/15 - Batch: 6800/7933 - Learning rate: 0.00025 - Loss: 0.7778438
Epoch: 9/15 - Batch: 6900/7933 - Learning rate: 0.00025 - Loss: 0.51452583
Epoch: 9/15 - Batch: 7000/7933 - Learning rate: 0.00025 - Loss: 1.1072509 - Dev BLEU: 0.23982497745697773
Epoch: 9/15 - Batch: 7100/7933 - Learning rate: 0.00025 - Loss: 0.81335413
Epoch: 9/15 - Batch: 7200/7933 - Learning rate: 0.00025 - Loss: 0.6644295
Epoch: 9/15 - Batch: 7300/7933 - Learning rate: 0.00025 - Loss: 0.8090786
Epoch: 9/15 - Batch: 7400/7933 - Learning rate: 0.00025 - Loss: 0.87825096
Epoch: 9/15 - Batch: 7500/7933 - Learning rate: 0.00025 - Loss: 0.6353335
Epoch: 9/15 - Batch: 7600/7933 - Learning rate: 0.00025 - Loss: 1.101638
Epoch: 9/15 - Batch: 7700/7933 - Learning rate: 0.00025 - Loss: 1.2415955
Epoch: 9/15 - Batch: 7800/7933 - Learning rate: 0.00025 - Loss: 1.1325848
Epoch: 9/15 - Batch: 7900/7933 - Learning rate: 0.00025 - Loss: 0.9357561
Epoch: 9/15 - Batch: 7933/7933 - Learning rate: 0.00025 - Loss: 1.1180787 - Dev BLEU: 0.22110474569744282
Epoch: 10/15 - Batch: 100/7933 - Learning rate: 0.000125 - Loss: 0.75782496
Epoch: 10/15 - Batch: 200/7933 - Learning rate: 0.000125 - Loss: 0.7141085
Epoch: 10/15 - Batch: 300/7933 - Learning rate: 0.000125 - Loss: 0.5162258
Epoch: 10/15 - Batch: 400/7933 - Learning rate: 0.000125 - Loss: 0.8134547
Epoch: 10/15 - Batch: 500/7933 - Learning rate: 0.000125 - Loss: 0.5842196
Epoch: 10/15 - Batch: 600/7933 - Learning rate: 0.000125 - Loss: 0.3962039
Epoch: 10/15 - Batch: 700/7933 - Learning rate: 0.000125 - Loss: 0.6105933
Epoch: 10/15 - Batch: 800/7933 - Learning rate: 0.000125 - Loss: 0.58679444
Epoch: 10/15 - Batch: 900/7933 - Learning rate: 0.000125 - Loss: 0.39873153
Epoch: 10/15 - Batch: 1000/7933 - Learning rate: 0.000125 - Loss: 0.6441011 - Dev BLEU: 0.2059096625578638
Epoch: 10/15 - Batch: 1100/7933 - Learning rate: 0.000125 - Loss: 0.59900796
Epoch: 10/15 - Batch: 1200/7933 - Learning rate: 0.000125 - Loss: 0.7713744
Epoch: 10/15 - Batch: 1300/7933 - Learning rate: 0.000125 - Loss: 0.7200463
Epoch: 10/15 - Batch: 1400/7933 - Learning rate: 0.000125 - Loss: 0.7755992
Epoch: 10/15 - Batch: 1500/7933 - Learning rate: 0.000125 - Loss: 0.5421482
Epoch: 10/15 - Batch: 1600/7933 - Learning rate: 0.000125 - Loss: 1.0335541
Epoch: 10/15 - Batch: 1700/7933 - Learning rate: 0.000125 - Loss: 0.7615786
Epoch: 10/15 - Batch: 1800/7933 - Learning rate: 0.000125 - Loss: 0.41171917
Epoch: 10/15 - Batch: 1900/7933 - Learning rate: 0.000125 - Loss: 0.6383771
Epoch: 10/15 - Batch: 2000/7933 - Learning rate: 0.000125 - Loss: 0.64375657 - Dev BLEU: 0.2047064589952748
Epoch: 10/15 - Batch: 2100/7933 - Learning rate: 0.000125 - Loss: 0.52468824
Epoch: 10/15 - Batch: 2200/7933 - Learning rate: 0.000125 - Loss: 0.55221486
Epoch: 10/15 - Batch: 2300/7933 - Learning rate: 0.000125 - Loss: 0.67834496
Epoch: 10/15 - Batch: 2400/7933 - Learning rate: 0.000125 - Loss: 0.5758925
Epoch: 10/15 - Batch: 2500/7933 - Learning rate: 0.000125 - Loss: 0.5395309
Epoch: 10/15 - Batch: 2600/7933 - Learning rate: 0.000125 - Loss: 0.43844652
Epoch: 10/15 - Batch: 2700/7933 - Learning rate: 0.000125 - Loss: 0.2702117
Epoch: 10/15 - Batch: 2800/7933 - Learning rate: 0.000125 - Loss: 0.69386685
Epoch: 10/15 - Batch: 2900/7933 - Learning rate: 0.000125 - Loss: 0.83632356
Epoch: 10/15 - Batch: 3000/7933 - Learning rate: 0.000125 - Loss: 0.7258148 - Dev BLEU: 0.20582737213024496
Epoch: 10/15 - Batch: 3100/7933 - Learning rate: 0.000125 - Loss: 0.76505554
Epoch: 10/15 - Batch: 3200/7933 - Learning rate: 0.000125 - Loss: 0.6865243
Epoch: 10/15 - Batch: 3300/7933 - Learning rate: 0.000125 - Loss: 0.5755223
Epoch: 10/15 - Batch: 3400/7933 - Learning rate: 0.000125 - Loss: 0.5694243
Epoch: 10/15 - Batch: 3500/7933 - Learning rate: 0.000125 - Loss: 0.7088077
Epoch: 10/15 - Batch: 3600/7933 - Learning rate: 0.000125 - Loss: 0.7249371
Epoch: 10/15 - Batch: 3700/7933 - Learning rate: 0.000125 - Loss: 0.74471456
Epoch: 10/15 - Batch: 3800/7933 - Learning rate: 0.000125 - Loss: 0.6629091
Epoch: 10/15 - Batch: 3900/7933 - Learning rate: 0.000125 - Loss: 0.8012559
Epoch: 10/15 - Batch: 4000/7933 - Learning rate: 0.000125 - Loss: 0.47399727 - Dev BLEU: 0.2079504414311887
Epoch: 10/15 - Batch: 4100/7933 - Learning rate: 0.000125 - Loss: 0.6140068
Epoch: 10/15 - Batch: 4200/7933 - Learning rate: 0.000125 - Loss: 0.53067046
Epoch: 10/15 - Batch: 4300/7933 - Learning rate: 0.000125 - Loss: 0.6304508
Epoch: 10/15 - Batch: 4400/7933 - Learning rate: 0.000125 - Loss: 0.5514741
Epoch: 10/15 - Batch: 4500/7933 - Learning rate: 0.000125 - Loss: 0.66602564
Epoch: 10/15 - Batch: 4600/7933 - Learning rate: 0.000125 - Loss: 1.0178802
Epoch: 10/15 - Batch: 4700/7933 - Learning rate: 0.000125 - Loss: 0.74836886
Epoch: 10/15 - Batch: 4800/7933 - Learning rate: 0.000125 - Loss: 0.72035265
Epoch: 10/15 - Batch: 4900/7933 - Learning rate: 0.000125 - Loss: 0.8817231
Epoch: 10/15 - Batch: 5000/7933 - Learning rate: 0.000125 - Loss: 0.92350954 - Dev BLEU: 0.2274030435942823
Epoch: 10/15 - Batch: 5100/7933 - Learning rate: 0.000125 - Loss: 0.96203655
Epoch: 10/15 - Batch: 5200/7933 - Learning rate: 0.000125 - Loss: 0.90831566
Epoch: 10/15 - Batch: 5300/7933 - Learning rate: 0.000125 - Loss: 0.9153539
Epoch: 10/15 - Batch: 5400/7933 - Learning rate: 0.000125 - Loss: 0.8423805
Epoch: 10/15 - Batch: 5500/7933 - Learning rate: 0.000125 - Loss: 0.8698613
Epoch: 10/15 - Batch: 5600/7933 - Learning rate: 0.000125 - Loss: 0.70956695
Epoch: 10/15 - Batch: 5700/7933 - Learning rate: 0.000125 - Loss: 0.8088497
Epoch: 10/15 - Batch: 5800/7933 - Learning rate: 0.000125 - Loss: 0.80780154
Epoch: 10/15 - Batch: 5900/7933 - Learning rate: 0.000125 - Loss: 0.5966057
Epoch: 10/15 - Batch: 6000/7933 - Learning rate: 0.000125 - Loss: 0.8615085 - Dev BLEU: 0.2300686222744579
Epoch: 10/15 - Batch: 6100/7933 - Learning rate: 0.000125 - Loss: 0.8298536
Epoch: 10/15 - Batch: 6200/7933 - Learning rate: 0.000125 - Loss: 0.76182854
Epoch: 10/15 - Batch: 6300/7933 - Learning rate: 0.000125 - Loss: 0.6890082
Epoch: 10/15 - Batch: 6400/7933 - Learning rate: 0.000125 - Loss: 0.66917366
Epoch: 10/15 - Batch: 6500/7933 - Learning rate: 0.000125 - Loss: 0.7787348
Epoch: 10/15 - Batch: 6600/7933 - Learning rate: 0.000125 - Loss: 0.8032264
Epoch: 10/15 - Batch: 6700/7933 - Learning rate: 0.000125 - Loss: 0.77126247
Epoch: 10/15 - Batch: 6800/7933 - Learning rate: 0.000125 - Loss: 0.7691347
Epoch: 10/15 - Batch: 6900/7933 - Learning rate: 0.000125 - Loss: 0.5177162
Epoch: 10/15 - Batch: 7000/7933 - Learning rate: 0.000125 - Loss: 1.087953 - Dev BLEU: 0.24048286433726906
Epoch: 10/15 - Batch: 7100/7933 - Learning rate: 0.000125 - Loss: 0.82403785
Epoch: 10/15 - Batch: 7200/7933 - Learning rate: 0.000125 - Loss: 0.6586038
Epoch: 10/15 - Batch: 7300/7933 - Learning rate: 0.000125 - Loss: 0.79579234
Epoch: 10/15 - Batch: 7400/7933 - Learning rate: 0.000125 - Loss: 0.86934596
Epoch: 10/15 - Batch: 7500/7933 - Learning rate: 0.000125 - Loss: 0.6304025
Epoch: 10/15 - Batch: 7600/7933 - Learning rate: 0.000125 - Loss: 1.0881051
Epoch: 10/15 - Batch: 7700/7933 - Learning rate: 0.000125 - Loss: 1.2279906
Epoch: 10/15 - Batch: 7800/7933 - Learning rate: 0.000125 - Loss: 1.1087427
Epoch: 10/15 - Batch: 7900/7933 - Learning rate: 0.000125 - Loss: 0.9290982
Epoch: 10/15 - Batch: 7933/7933 - Learning rate: 0.000125 - Loss: 1.131343 - Dev BLEU: 0.227037450318346
Epoch: 11/15 - Batch: 100/7933 - Learning rate: 6.25e-05 - Loss: 0.7568604
Epoch: 11/15 - Batch: 200/7933 - Learning rate: 6.25e-05 - Loss: 0.70843893
Epoch: 11/15 - Batch: 300/7933 - Learning rate: 6.25e-05 - Loss: 0.50142795
Epoch: 11/15 - Batch: 400/7933 - Learning rate: 6.25e-05 - Loss: 0.8049013
Epoch: 11/15 - Batch: 500/7933 - Learning rate: 6.25e-05 - Loss: 0.56250006
Epoch: 11/15 - Batch: 600/7933 - Learning rate: 6.25e-05 - Loss: 0.3873714
Epoch: 11/15 - Batch: 700/7933 - Learning rate: 6.25e-05 - Loss: 0.60481125
Epoch: 11/15 - Batch: 800/7933 - Learning rate: 6.25e-05 - Loss: 0.5713484
Epoch: 11/15 - Batch: 900/7933 - Learning rate: 6.25e-05 - Loss: 0.39761817
Epoch: 11/15 - Batch: 1000/7933 - Learning rate: 6.25e-05 - Loss: 0.6436573 - Dev BLEU: 0.20902451628675586
Epoch: 11/15 - Batch: 1100/7933 - Learning rate: 6.25e-05 - Loss: 0.5987047
Epoch: 11/15 - Batch: 1200/7933 - Learning rate: 6.25e-05 - Loss: 0.76832366
Epoch: 11/15 - Batch: 1300/7933 - Learning rate: 6.25e-05 - Loss: 0.7129212
Epoch: 11/15 - Batch: 1400/7933 - Learning rate: 6.25e-05 - Loss: 0.76911485
Epoch: 11/15 - Batch: 1500/7933 - Learning rate: 6.25e-05 - Loss: 0.5423763
Epoch: 11/15 - Batch: 1600/7933 - Learning rate: 6.25e-05 - Loss: 1.0259588
Epoch: 11/15 - Batch: 1700/7933 - Learning rate: 6.25e-05 - Loss: 0.75541604
Epoch: 11/15 - Batch: 1800/7933 - Learning rate: 6.25e-05 - Loss: 0.4063932
Epoch: 11/15 - Batch: 1900/7933 - Learning rate: 6.25e-05 - Loss: 0.641917
Epoch: 11/15 - Batch: 2000/7933 - Learning rate: 6.25e-05 - Loss: 0.6461218 - Dev BLEU: 0.21012988719243558
Epoch: 11/15 - Batch: 2100/7933 - Learning rate: 6.25e-05 - Loss: 0.5136865
Epoch: 11/15 - Batch: 2200/7933 - Learning rate: 6.25e-05 - Loss: 0.53648806
Epoch: 11/15 - Batch: 2300/7933 - Learning rate: 6.25e-05 - Loss: 0.6856852
Epoch: 11/15 - Batch: 2400/7933 - Learning rate: 6.25e-05 - Loss: 0.5870604
Epoch: 11/15 - Batch: 2500/7933 - Learning rate: 6.25e-05 - Loss: 0.5451868
Epoch: 11/15 - Batch: 2600/7933 - Learning rate: 6.25e-05 - Loss: 0.42858955
Epoch: 11/15 - Batch: 2700/7933 - Learning rate: 6.25e-05 - Loss: 0.26850167
Epoch: 11/15 - Batch: 2800/7933 - Learning rate: 6.25e-05 - Loss: 0.6958594
Epoch: 11/15 - Batch: 2900/7933 - Learning rate: 6.25e-05 - Loss: 0.81865233
Epoch: 11/15 - Batch: 3000/7933 - Learning rate: 6.25e-05 - Loss: 0.71855927 - Dev BLEU: 0.2060185283302028
Epoch: 11/15 - Batch: 3100/7933 - Learning rate: 6.25e-05 - Loss: 0.753703
Epoch: 11/15 - Batch: 3200/7933 - Learning rate: 6.25e-05 - Loss: 0.68357074
Epoch: 11/15 - Batch: 3300/7933 - Learning rate: 6.25e-05 - Loss: 0.5723684
Epoch: 11/15 - Batch: 3400/7933 - Learning rate: 6.25e-05 - Loss: 0.5673376
Epoch: 11/15 - Batch: 3500/7933 - Learning rate: 6.25e-05 - Loss: 0.6993615
Epoch: 11/15 - Batch: 3600/7933 - Learning rate: 6.25e-05 - Loss: 0.72156155
Epoch: 11/15 - Batch: 3700/7933 - Learning rate: 6.25e-05 - Loss: 0.7446501
Epoch: 11/15 - Batch: 3800/7933 - Learning rate: 6.25e-05 - Loss: 0.66023135
Epoch: 11/15 - Batch: 3900/7933 - Learning rate: 6.25e-05 - Loss: 0.78411514
Epoch: 11/15 - Batch: 4000/7933 - Learning rate: 6.25e-05 - Loss: 0.46826702 - Dev BLEU: 0.21031051079492238
Epoch: 11/15 - Batch: 4100/7933 - Learning rate: 6.25e-05 - Loss: 0.59929925
Epoch: 11/15 - Batch: 4200/7933 - Learning rate: 6.25e-05 - Loss: 0.5167688
Epoch: 11/15 - Batch: 4300/7933 - Learning rate: 6.25e-05 - Loss: 0.62867814
Epoch: 11/15 - Batch: 4400/7933 - Learning rate: 6.25e-05 - Loss: 0.5521981
Epoch: 11/15 - Batch: 4500/7933 - Learning rate: 6.25e-05 - Loss: 0.6554385
Epoch: 11/15 - Batch: 4600/7933 - Learning rate: 6.25e-05 - Loss: 0.9944814
Epoch: 11/15 - Batch: 4700/7933 - Learning rate: 6.25e-05 - Loss: 0.7278311
Epoch: 11/15 - Batch: 4800/7933 - Learning rate: 6.25e-05 - Loss: 0.70055664
Epoch: 11/15 - Batch: 4900/7933 - Learning rate: 6.25e-05 - Loss: 0.83934355
Epoch: 11/15 - Batch: 5000/7933 - Learning rate: 6.25e-05 - Loss: 0.9027229 - Dev BLEU: 0.23037197124944586
Epoch: 11/15 - Batch: 5100/7933 - Learning rate: 6.25e-05 - Loss: 0.9415011
Epoch: 11/15 - Batch: 5200/7933 - Learning rate: 6.25e-05 - Loss: 0.8981627
Epoch: 11/15 - Batch: 5300/7933 - Learning rate: 6.25e-05 - Loss: 0.88923854
Epoch: 11/15 - Batch: 5400/7933 - Learning rate: 6.25e-05 - Loss: 0.8330069
Epoch: 11/15 - Batch: 5500/7933 - Learning rate: 6.25e-05 - Loss: 0.86210704
Epoch: 11/15 - Batch: 5600/7933 - Learning rate: 6.25e-05 - Loss: 0.6941187
Epoch: 11/15 - Batch: 5700/7933 - Learning rate: 6.25e-05 - Loss: 0.7935937
Epoch: 11/15 - Batch: 5800/7933 - Learning rate: 6.25e-05 - Loss: 0.7765523
Epoch: 11/15 - Batch: 5900/7933 - Learning rate: 6.25e-05 - Loss: 0.575716
Epoch: 11/15 - Batch: 6000/7933 - Learning rate: 6.25e-05 - Loss: 0.8672636 - Dev BLEU: 0.23397608358172442
Epoch: 11/15 - Batch: 6100/7933 - Learning rate: 6.25e-05 - Loss: 0.8069472
Epoch: 11/15 - Batch: 6200/7933 - Learning rate: 6.25e-05 - Loss: 0.74952435
Epoch: 11/15 - Batch: 6300/7933 - Learning rate: 6.25e-05 - Loss: 0.6855568
Epoch: 11/15 - Batch: 6400/7933 - Learning rate: 6.25e-05 - Loss: 0.66041875
Epoch: 11/15 - Batch: 6500/7933 - Learning rate: 6.25e-05 - Loss: 0.77660924
Epoch: 11/15 - Batch: 6600/7933 - Learning rate: 6.25e-05 - Loss: 0.8061299
Epoch: 11/15 - Batch: 6700/7933 - Learning rate: 6.25e-05 - Loss: 0.770821
Epoch: 11/15 - Batch: 6800/7933 - Learning rate: 6.25e-05 - Loss: 0.77375615
Epoch: 11/15 - Batch: 6900/7933 - Learning rate: 6.25e-05 - Loss: 0.5106742
Epoch: 11/15 - Batch: 7000/7933 - Learning rate: 6.25e-05 - Loss: 1.0839103 - Dev BLEU: 0.2401317534575647
Epoch: 11/15 - Batch: 7100/7933 - Learning rate: 6.25e-05 - Loss: 0.8037006
Epoch: 11/15 - Batch: 7200/7933 - Learning rate: 6.25e-05 - Loss: 0.662111
Epoch: 11/15 - Batch: 7300/7933 - Learning rate: 6.25e-05 - Loss: 0.7895849
Epoch: 11/15 - Batch: 7400/7933 - Learning rate: 6.25e-05 - Loss: 0.87310576
Epoch: 11/15 - Batch: 7500/7933 - Learning rate: 6.25e-05 - Loss: 0.6292496
Epoch: 11/15 - Batch: 7600/7933 - Learning rate: 6.25e-05 - Loss: 1.0806335
Epoch: 11/15 - Batch: 7700/7933 - Learning rate: 6.25e-05 - Loss: 1.2223499
Epoch: 11/15 - Batch: 7800/7933 - Learning rate: 6.25e-05 - Loss: 1.1034862
Epoch: 11/15 - Batch: 7900/7933 - Learning rate: 6.25e-05 - Loss: 0.9101639
Epoch: 11/15 - Batch: 7933/7933 - Learning rate: 6.25e-05 - Loss: 1.1032382 - Dev BLEU: 0.22703207155581637
Epoch: 12/15 - Batch: 100/7933 - Learning rate: 3.125e-05 - Loss: 0.7617181
Epoch: 12/15 - Batch: 200/7933 - Learning rate: 3.125e-05 - Loss: 0.6880186
Epoch: 12/15 - Batch: 300/7933 - Learning rate: 3.125e-05 - Loss: 0.51256233
Epoch: 12/15 - Batch: 400/7933 - Learning rate: 3.125e-05 - Loss: 0.79948294
Epoch: 12/15 - Batch: 500/7933 - Learning rate: 3.125e-05 - Loss: 0.5651467
Epoch: 12/15 - Batch: 600/7933 - Learning rate: 3.125e-05 - Loss: 0.38817117
Epoch: 12/15 - Batch: 700/7933 - Learning rate: 3.125e-05 - Loss: 0.60367453
Epoch: 12/15 - Batch: 800/7933 - Learning rate: 3.125e-05 - Loss: 0.5703691
Epoch: 12/15 - Batch: 900/7933 - Learning rate: 3.125e-05 - Loss: 0.3940313
Epoch: 12/15 - Batch: 1000/7933 - Learning rate: 3.125e-05 - Loss: 0.6369448 - Dev BLEU: 0.21338010699666357
Epoch: 12/15 - Batch: 1100/7933 - Learning rate: 3.125e-05 - Loss: 0.5881324
Epoch: 12/15 - Batch: 1200/7933 - Learning rate: 3.125e-05 - Loss: 0.7635716
Epoch: 12/15 - Batch: 1300/7933 - Learning rate: 3.125e-05 - Loss: 0.708969
Epoch: 12/15 - Batch: 1400/7933 - Learning rate: 3.125e-05 - Loss: 0.76482356
Epoch: 12/15 - Batch: 1500/7933 - Learning rate: 3.125e-05 - Loss: 0.54087985
Epoch: 12/15 - Batch: 1600/7933 - Learning rate: 3.125e-05 - Loss: 1.0240775
Epoch: 12/15 - Batch: 1700/7933 - Learning rate: 3.125e-05 - Loss: 0.75604004
Epoch: 12/15 - Batch: 1800/7933 - Learning rate: 3.125e-05 - Loss: 0.4120514
Epoch: 12/15 - Batch: 1900/7933 - Learning rate: 3.125e-05 - Loss: 0.6328763
Epoch: 12/15 - Batch: 2000/7933 - Learning rate: 3.125e-05 - Loss: 0.65136194 - Dev BLEU: 0.21529860565314052
Epoch: 12/15 - Batch: 2100/7933 - Learning rate: 3.125e-05 - Loss: 0.505762
Epoch: 12/15 - Batch: 2200/7933 - Learning rate: 3.125e-05 - Loss: 0.55095935
Epoch: 12/15 - Batch: 2300/7933 - Learning rate: 3.125e-05 - Loss: 0.6778512
Epoch: 12/15 - Batch: 2400/7933 - Learning rate: 3.125e-05 - Loss: 0.5925028
Epoch: 12/15 - Batch: 2500/7933 - Learning rate: 3.125e-05 - Loss: 0.5348707
Epoch: 12/15 - Batch: 2600/7933 - Learning rate: 3.125e-05 - Loss: 0.43705037
Epoch: 12/15 - Batch: 2700/7933 - Learning rate: 3.125e-05 - Loss: 0.25950906
Epoch: 12/15 - Batch: 2800/7933 - Learning rate: 3.125e-05 - Loss: 0.68514276
Epoch: 12/15 - Batch: 2900/7933 - Learning rate: 3.125e-05 - Loss: 0.81202114
Epoch: 12/15 - Batch: 3000/7933 - Learning rate: 3.125e-05 - Loss: 0.7143976 - Dev BLEU: 0.21071898515064402
Epoch: 12/15 - Batch: 3100/7933 - Learning rate: 3.125e-05 - Loss: 0.74617296
Epoch: 12/15 - Batch: 3200/7933 - Learning rate: 3.125e-05 - Loss: 0.67514455
Epoch: 12/15 - Batch: 3300/7933 - Learning rate: 3.125e-05 - Loss: 0.56779134
Epoch: 12/15 - Batch: 3400/7933 - Learning rate: 3.125e-05 - Loss: 0.566222
Epoch: 12/15 - Batch: 3500/7933 - Learning rate: 3.125e-05 - Loss: 0.6807562
Epoch: 12/15 - Batch: 3600/7933 - Learning rate: 3.125e-05 - Loss: 0.7276272
Epoch: 12/15 - Batch: 3700/7933 - Learning rate: 3.125e-05 - Loss: 0.74935234
Epoch: 12/15 - Batch: 3800/7933 - Learning rate: 3.125e-05 - Loss: 0.66152066
Epoch: 12/15 - Batch: 3900/7933 - Learning rate: 3.125e-05 - Loss: 0.79342085
Epoch: 12/15 - Batch: 4000/7933 - Learning rate: 3.125e-05 - Loss: 0.46131715 - Dev BLEU: 0.2128407558107743
Epoch: 12/15 - Batch: 4100/7933 - Learning rate: 3.125e-05 - Loss: 0.59827536
Epoch: 12/15 - Batch: 4200/7933 - Learning rate: 3.125e-05 - Loss: 0.51954913
Epoch: 12/15 - Batch: 4300/7933 - Learning rate: 3.125e-05 - Loss: 0.62736523
Epoch: 12/15 - Batch: 4400/7933 - Learning rate: 3.125e-05 - Loss: 0.5518083
Epoch: 12/15 - Batch: 4500/7933 - Learning rate: 3.125e-05 - Loss: 0.6481317
Epoch: 12/15 - Batch: 4600/7933 - Learning rate: 3.125e-05 - Loss: 1.0003101
Epoch: 12/15 - Batch: 4700/7933 - Learning rate: 3.125e-05 - Loss: 0.7222309
Epoch: 12/15 - Batch: 4800/7933 - Learning rate: 3.125e-05 - Loss: 0.68942714
Epoch: 12/15 - Batch: 4900/7933 - Learning rate: 3.125e-05 - Loss: 0.84862447
Epoch: 12/15 - Batch: 5000/7933 - Learning rate: 3.125e-05 - Loss: 0.9066856 - Dev BLEU: 0.23164054636878198
Epoch: 12/15 - Batch: 5100/7933 - Learning rate: 3.125e-05 - Loss: 0.9289924
Epoch: 12/15 - Batch: 5200/7933 - Learning rate: 3.125e-05 - Loss: 0.90917957
Epoch: 12/15 - Batch: 5300/7933 - Learning rate: 3.125e-05 - Loss: 0.8797207
Epoch: 12/15 - Batch: 5400/7933 - Learning rate: 3.125e-05 - Loss: 0.8258554
Epoch: 12/15 - Batch: 5500/7933 - Learning rate: 3.125e-05 - Loss: 0.8410356
Epoch: 12/15 - Batch: 5600/7933 - Learning rate: 3.125e-05 - Loss: 0.67682683
Epoch: 12/15 - Batch: 5700/7933 - Learning rate: 3.125e-05 - Loss: 0.7880367
Epoch: 12/15 - Batch: 5800/7933 - Learning rate: 3.125e-05 - Loss: 0.7833786
Epoch: 12/15 - Batch: 5900/7933 - Learning rate: 3.125e-05 - Loss: 0.5716289
Epoch: 12/15 - Batch: 6000/7933 - Learning rate: 3.125e-05 - Loss: 0.8483171 - Dev BLEU: 0.23219130783121267
Epoch: 12/15 - Batch: 6100/7933 - Learning rate: 3.125e-05 - Loss: 0.8066676
Epoch: 12/15 - Batch: 6200/7933 - Learning rate: 3.125e-05 - Loss: 0.7437427
Epoch: 12/15 - Batch: 6300/7933 - Learning rate: 3.125e-05 - Loss: 0.6715163
Epoch: 12/15 - Batch: 6400/7933 - Learning rate: 3.125e-05 - Loss: 0.662873
Epoch: 12/15 - Batch: 6500/7933 - Learning rate: 3.125e-05 - Loss: 0.77283794
Epoch: 12/15 - Batch: 6600/7933 - Learning rate: 3.125e-05 - Loss: 0.7962778
Epoch: 12/15 - Batch: 6700/7933 - Learning rate: 3.125e-05 - Loss: 0.7747411
Epoch: 12/15 - Batch: 6800/7933 - Learning rate: 3.125e-05 - Loss: 0.764026
Epoch: 12/15 - Batch: 6900/7933 - Learning rate: 3.125e-05 - Loss: 0.50485724
Epoch: 12/15 - Batch: 7000/7933 - Learning rate: 3.125e-05 - Loss: 1.0876027 - Dev BLEU: 0.24001767651890718
Epoch: 12/15 - Batch: 7100/7933 - Learning rate: 3.125e-05 - Loss: 0.8045362
Epoch: 12/15 - Batch: 7200/7933 - Learning rate: 3.125e-05 - Loss: 0.65401334
Epoch: 12/15 - Batch: 7300/7933 - Learning rate: 3.125e-05 - Loss: 0.79257333
Epoch: 12/15 - Batch: 7400/7933 - Learning rate: 3.125e-05 - Loss: 0.8654203
Epoch: 12/15 - Batch: 7500/7933 - Learning rate: 3.125e-05 - Loss: 0.6265996
Epoch: 12/15 - Batch: 7600/7933 - Learning rate: 3.125e-05 - Loss: 1.0884053
Epoch: 12/15 - Batch: 7700/7933 - Learning rate: 3.125e-05 - Loss: 1.2119414
Epoch: 12/15 - Batch: 7800/7933 - Learning rate: 3.125e-05 - Loss: 1.102249
Epoch: 12/15 - Batch: 7900/7933 - Learning rate: 3.125e-05 - Loss: 0.9150209
Epoch: 12/15 - Batch: 7933/7933 - Learning rate: 3.125e-05 - Loss: 1.1289275 - Dev BLEU: 0.2321441275784858
Epoch: 13/15 - Batch: 100/7933 - Learning rate: 1.5625e-05 - Loss: 0.75254756
Epoch: 13/15 - Batch: 200/7933 - Learning rate: 1.5625e-05 - Loss: 0.68875873
Epoch: 13/15 - Batch: 300/7933 - Learning rate: 1.5625e-05 - Loss: 0.5119423
Epoch: 13/15 - Batch: 400/7933 - Learning rate: 1.5625e-05 - Loss: 0.8075239
Epoch: 13/15 - Batch: 500/7933 - Learning rate: 1.5625e-05 - Loss: 0.56197375
Epoch: 13/15 - Batch: 600/7933 - Learning rate: 1.5625e-05 - Loss: 0.3863484
Epoch: 13/15 - Batch: 700/7933 - Learning rate: 1.5625e-05 - Loss: 0.6018127
Epoch: 13/15 - Batch: 800/7933 - Learning rate: 1.5625e-05 - Loss: 0.5783539
Epoch: 13/15 - Batch: 900/7933 - Learning rate: 1.5625e-05 - Loss: 0.39914334
Epoch: 13/15 - Batch: 1000/7933 - Learning rate: 1.5625e-05 - Loss: 0.6438509 - Dev BLEU: 0.21979807828994577
Epoch: 13/15 - Batch: 1100/7933 - Learning rate: 1.5625e-05 - Loss: 0.59186184
Epoch: 13/15 - Batch: 1200/7933 - Learning rate: 1.5625e-05 - Loss: 0.7466736
Epoch: 13/15 - Batch: 1300/7933 - Learning rate: 1.5625e-05 - Loss: 0.71114403
Epoch: 13/15 - Batch: 1400/7933 - Learning rate: 1.5625e-05 - Loss: 0.76207674
Epoch: 13/15 - Batch: 1500/7933 - Learning rate: 1.5625e-05 - Loss: 0.5393248
Epoch: 13/15 - Batch: 1600/7933 - Learning rate: 1.5625e-05 - Loss: 1.0018504
Epoch: 13/15 - Batch: 1700/7933 - Learning rate: 1.5625e-05 - Loss: 0.7514207
Epoch: 13/15 - Batch: 1800/7933 - Learning rate: 1.5625e-05 - Loss: 0.4120177
Epoch: 13/15 - Batch: 1900/7933 - Learning rate: 1.5625e-05 - Loss: 0.62974876
Epoch: 13/15 - Batch: 2000/7933 - Learning rate: 1.5625e-05 - Loss: 0.64949226 - Dev BLEU: 0.2176074987321775
Epoch: 13/15 - Batch: 2100/7933 - Learning rate: 1.5625e-05 - Loss: 0.5065326
Epoch: 13/15 - Batch: 2200/7933 - Learning rate: 1.5625e-05 - Loss: 0.5438669
Epoch: 13/15 - Batch: 2300/7933 - Learning rate: 1.5625e-05 - Loss: 0.69339025
Epoch: 13/15 - Batch: 2400/7933 - Learning rate: 1.5625e-05 - Loss: 0.58234316
Epoch: 13/15 - Batch: 2500/7933 - Learning rate: 1.5625e-05 - Loss: 0.5523084
Epoch: 13/15 - Batch: 2600/7933 - Learning rate: 1.5625e-05 - Loss: 0.42735022
Epoch: 13/15 - Batch: 2700/7933 - Learning rate: 1.5625e-05 - Loss: 0.27206075
Epoch: 13/15 - Batch: 2800/7933 - Learning rate: 1.5625e-05 - Loss: 0.7015495
Epoch: 13/15 - Batch: 2900/7933 - Learning rate: 1.5625e-05 - Loss: 0.8139903
Epoch: 13/15 - Batch: 3000/7933 - Learning rate: 1.5625e-05 - Loss: 0.7102702 - Dev BLEU: 0.21391305303790104
Epoch: 13/15 - Batch: 3100/7933 - Learning rate: 1.5625e-05 - Loss: 0.7340144
Epoch: 13/15 - Batch: 3200/7933 - Learning rate: 1.5625e-05 - Loss: 0.6776566
Epoch: 13/15 - Batch: 3300/7933 - Learning rate: 1.5625e-05 - Loss: 0.55727124
Epoch: 13/15 - Batch: 3400/7933 - Learning rate: 1.5625e-05 - Loss: 0.5624965
Epoch: 13/15 - Batch: 3500/7933 - Learning rate: 1.5625e-05 - Loss: 0.7013892
Epoch: 13/15 - Batch: 3600/7933 - Learning rate: 1.5625e-05 - Loss: 0.7196146
Epoch: 13/15 - Batch: 3700/7933 - Learning rate: 1.5625e-05 - Loss: 0.7197496
Epoch: 13/15 - Batch: 3800/7933 - Learning rate: 1.5625e-05 - Loss: 0.64702034
Epoch: 13/15 - Batch: 3900/7933 - Learning rate: 1.5625e-05 - Loss: 0.7859889
Epoch: 13/15 - Batch: 4000/7933 - Learning rate: 1.5625e-05 - Loss: 0.46636683 - Dev BLEU: 0.21449700179784384
Epoch: 13/15 - Batch: 4100/7933 - Learning rate: 1.5625e-05 - Loss: 0.6104329
Epoch: 13/15 - Batch: 4200/7933 - Learning rate: 1.5625e-05 - Loss: 0.51140344
Epoch: 13/15 - Batch: 4300/7933 - Learning rate: 1.5625e-05 - Loss: 0.62509876
Epoch: 13/15 - Batch: 4400/7933 - Learning rate: 1.5625e-05 - Loss: 0.5553709
Epoch: 13/15 - Batch: 4500/7933 - Learning rate: 1.5625e-05 - Loss: 0.6561798
Epoch: 13/15 - Batch: 4600/7933 - Learning rate: 1.5625e-05 - Loss: 0.9988031
Epoch: 13/15 - Batch: 4700/7933 - Learning rate: 1.5625e-05 - Loss: 0.7212274
Epoch: 13/15 - Batch: 4800/7933 - Learning rate: 1.5625e-05 - Loss: 0.7066837
Epoch: 13/15 - Batch: 4900/7933 - Learning rate: 1.5625e-05 - Loss: 0.8663043
Epoch: 13/15 - Batch: 5000/7933 - Learning rate: 1.5625e-05 - Loss: 0.9048101 - Dev BLEU: 0.22904059630205303
Epoch: 13/15 - Batch: 5100/7933 - Learning rate: 1.5625e-05 - Loss: 0.9256789
Epoch: 13/15 - Batch: 5200/7933 - Learning rate: 1.5625e-05 - Loss: 0.9221346
Epoch: 13/15 - Batch: 5300/7933 - Learning rate: 1.5625e-05 - Loss: 0.869068
Epoch: 13/15 - Batch: 5400/7933 - Learning rate: 1.5625e-05 - Loss: 0.8367946
Epoch: 13/15 - Batch: 5500/7933 - Learning rate: 1.5625e-05 - Loss: 0.837534
Epoch: 13/15 - Batch: 5600/7933 - Learning rate: 1.5625e-05 - Loss: 0.68438643
Epoch: 13/15 - Batch: 5700/7933 - Learning rate: 1.5625e-05 - Loss: 0.7968276
Epoch: 13/15 - Batch: 5800/7933 - Learning rate: 1.5625e-05 - Loss: 0.79136574
Epoch: 13/15 - Batch: 5900/7933 - Learning rate: 1.5625e-05 - Loss: 0.57747716
Epoch: 13/15 - Batch: 6000/7933 - Learning rate: 1.5625e-05 - Loss: 0.8483965 - Dev BLEU: 0.23350862941224285
Epoch: 13/15 - Batch: 6100/7933 - Learning rate: 1.5625e-05 - Loss: 0.7900596
Epoch: 13/15 - Batch: 6200/7933 - Learning rate: 1.5625e-05 - Loss: 0.75676817
Epoch: 13/15 - Batch: 6300/7933 - Learning rate: 1.5625e-05 - Loss: 0.67178017
Epoch: 13/15 - Batch: 6400/7933 - Learning rate: 1.5625e-05 - Loss: 0.6508742
Epoch: 13/15 - Batch: 6500/7933 - Learning rate: 1.5625e-05 - Loss: 0.7744096
Epoch: 13/15 - Batch: 6600/7933 - Learning rate: 1.5625e-05 - Loss: 0.8135098
Epoch: 13/15 - Batch: 6700/7933 - Learning rate: 1.5625e-05 - Loss: 0.7730307
Epoch: 13/15 - Batch: 6800/7933 - Learning rate: 1.5625e-05 - Loss: 0.7636558
Epoch: 13/15 - Batch: 6900/7933 - Learning rate: 1.5625e-05 - Loss: 0.5097007
Epoch: 13/15 - Batch: 7000/7933 - Learning rate: 1.5625e-05 - Loss: 1.0970656 - Dev BLEU: 0.2380050287220993
Epoch: 13/15 - Batch: 7100/7933 - Learning rate: 1.5625e-05 - Loss: 0.7913322
Epoch: 13/15 - Batch: 7200/7933 - Learning rate: 1.5625e-05 - Loss: 0.6529207
Epoch: 13/15 - Batch: 7300/7933 - Learning rate: 1.5625e-05 - Loss: 0.801081
Epoch: 13/15 - Batch: 7400/7933 - Learning rate: 1.5625e-05 - Loss: 0.8616943
Epoch: 13/15 - Batch: 7500/7933 - Learning rate: 1.5625e-05 - Loss: 0.63622254
Epoch: 13/15 - Batch: 7600/7933 - Learning rate: 1.5625e-05 - Loss: 1.0805112
Epoch: 13/15 - Batch: 7700/7933 - Learning rate: 1.5625e-05 - Loss: 1.2146965
Epoch: 13/15 - Batch: 7800/7933 - Learning rate: 1.5625e-05 - Loss: 1.0976897
Epoch: 13/15 - Batch: 7900/7933 - Learning rate: 1.5625e-05 - Loss: 0.9210311
Epoch: 13/15 - Batch: 7933/7933 - Learning rate: 1.5625e-05 - Loss: 1.1299102 - Dev BLEU: 0.23483277345284415
Epoch: 14/15 - Batch: 100/7933 - Learning rate: 7.8125e-06 - Loss: 0.75329304
Epoch: 14/15 - Batch: 200/7933 - Learning rate: 7.8125e-06 - Loss: 0.69838494
Epoch: 14/15 - Batch: 300/7933 - Learning rate: 7.8125e-06 - Loss: 0.50547075
Epoch: 14/15 - Batch: 400/7933 - Learning rate: 7.8125e-06 - Loss: 0.8128621
Epoch: 14/15 - Batch: 500/7933 - Learning rate: 7.8125e-06 - Loss: 0.56242627
Epoch: 14/15 - Batch: 600/7933 - Learning rate: 7.8125e-06 - Loss: 0.38599494
Epoch: 14/15 - Batch: 700/7933 - Learning rate: 7.8125e-06 - Loss: 0.59756005
Epoch: 14/15 - Batch: 800/7933 - Learning rate: 7.8125e-06 - Loss: 0.5807093
Epoch: 14/15 - Batch: 900/7933 - Learning rate: 7.8125e-06 - Loss: 0.39663336
Epoch: 14/15 - Batch: 1000/7933 - Learning rate: 7.8125e-06 - Loss: 0.65278196 - Dev BLEU: 0.2243167282624588
Epoch: 14/15 - Batch: 1100/7933 - Learning rate: 7.8125e-06 - Loss: 0.5888603
Epoch: 14/15 - Batch: 1200/7933 - Learning rate: 7.8125e-06 - Loss: 0.75556284
Epoch: 14/15 - Batch: 1300/7933 - Learning rate: 7.8125e-06 - Loss: 0.70386726
Epoch: 14/15 - Batch: 1400/7933 - Learning rate: 7.8125e-06 - Loss: 0.7592519
Epoch: 14/15 - Batch: 1500/7933 - Learning rate: 7.8125e-06 - Loss: 0.5359943
Epoch: 14/15 - Batch: 1600/7933 - Learning rate: 7.8125e-06 - Loss: 1.0283989
Epoch: 14/15 - Batch: 1700/7933 - Learning rate: 7.8125e-06 - Loss: 0.75175124
Epoch: 14/15 - Batch: 1800/7933 - Learning rate: 7.8125e-06 - Loss: 0.41004878
Epoch: 14/15 - Batch: 1900/7933 - Learning rate: 7.8125e-06 - Loss: 0.6250323
Epoch: 14/15 - Batch: 2000/7933 - Learning rate: 7.8125e-06 - Loss: 0.65075994 - Dev BLEU: 0.2214542836616467
Epoch: 14/15 - Batch: 2100/7933 - Learning rate: 7.8125e-06 - Loss: 0.50165206
Epoch: 14/15 - Batch: 2200/7933 - Learning rate: 7.8125e-06 - Loss: 0.55496836
Epoch: 14/15 - Batch: 2300/7933 - Learning rate: 7.8125e-06 - Loss: 0.68335253
Epoch: 14/15 - Batch: 2400/7933 - Learning rate: 7.8125e-06 - Loss: 0.5806711
Epoch: 14/15 - Batch: 2500/7933 - Learning rate: 7.8125e-06 - Loss: 0.56644887
Epoch: 14/15 - Batch: 2600/7933 - Learning rate: 7.8125e-06 - Loss: 0.4413358
Epoch: 14/15 - Batch: 2700/7933 - Learning rate: 7.8125e-06 - Loss: 0.27220127
Epoch: 14/15 - Batch: 2800/7933 - Learning rate: 7.8125e-06 - Loss: 0.7060859
Epoch: 14/15 - Batch: 2900/7933 - Learning rate: 7.8125e-06 - Loss: 0.7973837
Epoch: 14/15 - Batch: 3000/7933 - Learning rate: 7.8125e-06 - Loss: 0.70444006 - Dev BLEU: 0.22145120280621106
Epoch: 14/15 - Batch: 3100/7933 - Learning rate: 7.8125e-06 - Loss: 0.73461825
Epoch: 14/15 - Batch: 3200/7933 - Learning rate: 7.8125e-06 - Loss: 0.6793182
Epoch: 14/15 - Batch: 3300/7933 - Learning rate: 7.8125e-06 - Loss: 0.56075346
Epoch: 14/15 - Batch: 3400/7933 - Learning rate: 7.8125e-06 - Loss: 0.5723232
Epoch: 14/15 - Batch: 3500/7933 - Learning rate: 7.8125e-06 - Loss: 0.7032895
Epoch: 14/15 - Batch: 3600/7933 - Learning rate: 7.8125e-06 - Loss: 0.7220679
Epoch: 14/15 - Batch: 3700/7933 - Learning rate: 7.8125e-06 - Loss: 0.7294431
Epoch: 14/15 - Batch: 3800/7933 - Learning rate: 7.8125e-06 - Loss: 0.6641029
Epoch: 14/15 - Batch: 3900/7933 - Learning rate: 7.8125e-06 - Loss: 0.7884352
Epoch: 14/15 - Batch: 4000/7933 - Learning rate: 7.8125e-06 - Loss: 0.4624165 - Dev BLEU: 0.2205456324099045
Epoch: 14/15 - Batch: 4100/7933 - Learning rate: 7.8125e-06 - Loss: 0.6033399
Epoch: 14/15 - Batch: 4200/7933 - Learning rate: 7.8125e-06 - Loss: 0.51584905
Epoch: 14/15 - Batch: 4300/7933 - Learning rate: 7.8125e-06 - Loss: 0.62317234
Epoch: 14/15 - Batch: 4400/7933 - Learning rate: 7.8125e-06 - Loss: 0.5567012
Epoch: 14/15 - Batch: 4500/7933 - Learning rate: 7.8125e-06 - Loss: 0.65629095
Epoch: 14/15 - Batch: 4600/7933 - Learning rate: 7.8125e-06 - Loss: 0.9809334
Epoch: 14/15 - Batch: 4700/7933 - Learning rate: 7.8125e-06 - Loss: 0.73536897
Epoch: 14/15 - Batch: 4800/7933 - Learning rate: 7.8125e-06 - Loss: 0.71251786
Epoch: 14/15 - Batch: 4900/7933 - Learning rate: 7.8125e-06 - Loss: 0.865333
Epoch: 14/15 - Batch: 5000/7933 - Learning rate: 7.8125e-06 - Loss: 0.9135859 - Dev BLEU: 0.22750739593048672
Epoch: 14/15 - Batch: 5100/7933 - Learning rate: 7.8125e-06 - Loss: 0.9230957
Epoch: 14/15 - Batch: 5200/7933 - Learning rate: 7.8125e-06 - Loss: 0.92212665
Epoch: 14/15 - Batch: 5300/7933 - Learning rate: 7.8125e-06 - Loss: 0.86900187
Epoch: 14/15 - Batch: 5400/7933 - Learning rate: 7.8125e-06 - Loss: 0.82934046
Epoch: 14/15 - Batch: 5500/7933 - Learning rate: 7.8125e-06 - Loss: 0.8488909
Epoch: 14/15 - Batch: 5600/7933 - Learning rate: 7.8125e-06 - Loss: 0.6976961
Epoch: 14/15 - Batch: 5700/7933 - Learning rate: 7.8125e-06 - Loss: 0.78536475
Epoch: 14/15 - Batch: 5800/7933 - Learning rate: 7.8125e-06 - Loss: 0.7946232
Epoch: 14/15 - Batch: 5900/7933 - Learning rate: 7.8125e-06 - Loss: 0.5772975
Epoch: 14/15 - Batch: 6000/7933 - Learning rate: 7.8125e-06 - Loss: 0.8527356 - Dev BLEU: 0.23336102428050756
Epoch: 14/15 - Batch: 6100/7933 - Learning rate: 7.8125e-06 - Loss: 0.8117325
Epoch: 14/15 - Batch: 6200/7933 - Learning rate: 7.8125e-06 - Loss: 0.75092125
Epoch: 14/15 - Batch: 6300/7933 - Learning rate: 7.8125e-06 - Loss: 0.6910282
Epoch: 14/15 - Batch: 6400/7933 - Learning rate: 7.8125e-06 - Loss: 0.65121067
Epoch: 14/15 - Batch: 6500/7933 - Learning rate: 7.8125e-06 - Loss: 0.7728677
Epoch: 14/15 - Batch: 6600/7933 - Learning rate: 7.8125e-06 - Loss: 0.7997069
Epoch: 14/15 - Batch: 6700/7933 - Learning rate: 7.8125e-06 - Loss: 0.768915
Epoch: 14/15 - Batch: 6800/7933 - Learning rate: 7.8125e-06 - Loss: 0.7702169
Epoch: 14/15 - Batch: 6900/7933 - Learning rate: 7.8125e-06 - Loss: 0.50834066
Epoch: 14/15 - Batch: 7000/7933 - Learning rate: 7.8125e-06 - Loss: 1.1113598 - Dev BLEU: 0.23673538604990135
Epoch: 14/15 - Batch: 7100/7933 - Learning rate: 7.8125e-06 - Loss: 0.8040589
Epoch: 14/15 - Batch: 7200/7933 - Learning rate: 7.8125e-06 - Loss: 0.6646723
Epoch: 14/15 - Batch: 7300/7933 - Learning rate: 7.8125e-06 - Loss: 0.7920809
Epoch: 14/15 - Batch: 7400/7933 - Learning rate: 7.8125e-06 - Loss: 0.8675353
Epoch: 14/15 - Batch: 7500/7933 - Learning rate: 7.8125e-06 - Loss: 0.63138425
Epoch: 14/15 - Batch: 7600/7933 - Learning rate: 7.8125e-06 - Loss: 1.0836481
Epoch: 14/15 - Batch: 7700/7933 - Learning rate: 7.8125e-06 - Loss: 1.2104963
Epoch: 14/15 - Batch: 7800/7933 - Learning rate: 7.8125e-06 - Loss: 1.1040951
Epoch: 14/15 - Batch: 7900/7933 - Learning rate: 7.8125e-06 - Loss: 0.9299746
Epoch: 14/15 - Batch: 7933/7933 - Learning rate: 7.8125e-06 - Loss: 1.1218224 - Dev BLEU: 0.2364703673959798
Epoch: 15/15 - Batch: 100/7933 - Learning rate: 3.90625e-06 - Loss: 0.7501926
Epoch: 15/15 - Batch: 200/7933 - Learning rate: 3.90625e-06 - Loss: 0.6903436
Epoch: 15/15 - Batch: 300/7933 - Learning rate: 3.90625e-06 - Loss: 0.5064382
Epoch: 15/15 - Batch: 400/7933 - Learning rate: 3.90625e-06 - Loss: 0.8113274
Epoch: 15/15 - Batch: 500/7933 - Learning rate: 3.90625e-06 - Loss: 0.5719866
Epoch: 15/15 - Batch: 600/7933 - Learning rate: 3.90625e-06 - Loss: 0.38718575
Epoch: 15/15 - Batch: 700/7933 - Learning rate: 3.90625e-06 - Loss: 0.5878825
Epoch: 15/15 - Batch: 800/7933 - Learning rate: 3.90625e-06 - Loss: 0.57693046
Epoch: 15/15 - Batch: 900/7933 - Learning rate: 3.90625e-06 - Loss: 0.39287564
Epoch: 15/15 - Batch: 1000/7933 - Learning rate: 3.90625e-06 - Loss: 0.6505703 - Dev BLEU: 0.23084873564887726
Epoch: 15/15 - Batch: 1100/7933 - Learning rate: 3.90625e-06 - Loss: 0.5909056
Epoch: 15/15 - Batch: 1200/7933 - Learning rate: 3.90625e-06 - Loss: 0.7602245
Epoch: 15/15 - Batch: 1300/7933 - Learning rate: 3.90625e-06 - Loss: 0.70752054
Epoch: 15/15 - Batch: 1400/7933 - Learning rate: 3.90625e-06 - Loss: 0.7621816
Epoch: 15/15 - Batch: 1500/7933 - Learning rate: 3.90625e-06 - Loss: 0.5318624
Epoch: 15/15 - Batch: 1600/7933 - Learning rate: 3.90625e-06 - Loss: 1.0270948
Epoch: 15/15 - Batch: 1700/7933 - Learning rate: 3.90625e-06 - Loss: 0.7505799
Epoch: 15/15 - Batch: 1800/7933 - Learning rate: 3.90625e-06 - Loss: 0.40752053
Epoch: 15/15 - Batch: 1900/7933 - Learning rate: 3.90625e-06 - Loss: 0.6298223
Epoch: 15/15 - Batch: 2000/7933 - Learning rate: 3.90625e-06 - Loss: 0.6594979 - Dev BLEU: 0.22506719803948605
Epoch: 15/15 - Batch: 2100/7933 - Learning rate: 3.90625e-06 - Loss: 0.49449265
Epoch: 15/15 - Batch: 2200/7933 - Learning rate: 3.90625e-06 - Loss: 0.55124235
Epoch: 15/15 - Batch: 2300/7933 - Learning rate: 3.90625e-06 - Loss: 0.69012743
Epoch: 15/15 - Batch: 2400/7933 - Learning rate: 3.90625e-06 - Loss: 0.5946368
Epoch: 15/15 - Batch: 2500/7933 - Learning rate: 3.90625e-06 - Loss: 0.5563904
Epoch: 15/15 - Batch: 2600/7933 - Learning rate: 3.90625e-06 - Loss: 0.44931728
Epoch: 15/15 - Batch: 2700/7933 - Learning rate: 3.90625e-06 - Loss: 0.27723676
Epoch: 15/15 - Batch: 2800/7933 - Learning rate: 3.90625e-06 - Loss: 0.7105885
Epoch: 15/15 - Batch: 2900/7933 - Learning rate: 3.90625e-06 - Loss: 0.7984703
Epoch: 15/15 - Batch: 3000/7933 - Learning rate: 3.90625e-06 - Loss: 0.70558137 - Dev BLEU: 0.22524064105213237
Epoch: 15/15 - Batch: 3100/7933 - Learning rate: 3.90625e-06 - Loss: 0.73005724
Epoch: 15/15 - Batch: 3200/7933 - Learning rate: 3.90625e-06 - Loss: 0.6817589
Epoch: 15/15 - Batch: 3300/7933 - Learning rate: 3.90625e-06 - Loss: 0.55914766
Epoch: 15/15 - Batch: 3400/7933 - Learning rate: 3.90625e-06 - Loss: 0.57837653
Epoch: 15/15 - Batch: 3500/7933 - Learning rate: 3.90625e-06 - Loss: 0.6970114
Epoch: 15/15 - Batch: 3600/7933 - Learning rate: 3.90625e-06 - Loss: 0.7181114
Epoch: 15/15 - Batch: 3700/7933 - Learning rate: 3.90625e-06 - Loss: 0.74436396
Epoch: 15/15 - Batch: 3800/7933 - Learning rate: 3.90625e-06 - Loss: 0.6587954
Epoch: 15/15 - Batch: 3900/7933 - Learning rate: 3.90625e-06 - Loss: 0.7908226
Epoch: 15/15 - Batch: 4000/7933 - Learning rate: 3.90625e-06 - Loss: 0.4723189 - Dev BLEU: 0.2240988904206608
Epoch: 15/15 - Batch: 4100/7933 - Learning rate: 3.90625e-06 - Loss: 0.60514337
Epoch: 15/15 - Batch: 4200/7933 - Learning rate: 3.90625e-06 - Loss: 0.52133846
Epoch: 15/15 - Batch: 4300/7933 - Learning rate: 3.90625e-06 - Loss: 0.6221971
Epoch: 15/15 - Batch: 4400/7933 - Learning rate: 3.90625e-06 - Loss: 0.5533862
Epoch: 15/15 - Batch: 4500/7933 - Learning rate: 3.90625e-06 - Loss: 0.6600916
Epoch: 15/15 - Batch: 4600/7933 - Learning rate: 3.90625e-06 - Loss: 0.9875648
Epoch: 15/15 - Batch: 4700/7933 - Learning rate: 3.90625e-06 - Loss: 0.73041224
Epoch: 15/15 - Batch: 4800/7933 - Learning rate: 3.90625e-06 - Loss: 0.70851517
Epoch: 15/15 - Batch: 4900/7933 - Learning rate: 3.90625e-06 - Loss: 0.8609879
Epoch: 15/15 - Batch: 5000/7933 - Learning rate: 3.90625e-06 - Loss: 0.90184337 - Dev BLEU: 0.22934691731585183
Epoch: 15/15 - Batch: 5100/7933 - Learning rate: 3.90625e-06 - Loss: 0.92735916
Epoch: 15/15 - Batch: 5200/7933 - Learning rate: 3.90625e-06 - Loss: 0.9238314
Epoch: 15/15 - Batch: 5300/7933 - Learning rate: 3.90625e-06 - Loss: 0.86343384
Epoch: 15/15 - Batch: 5400/7933 - Learning rate: 3.90625e-06 - Loss: 0.82767254
Epoch: 15/15 - Batch: 5500/7933 - Learning rate: 3.90625e-06 - Loss: 0.8419091
Epoch: 15/15 - Batch: 5600/7933 - Learning rate: 3.90625e-06 - Loss: 0.6876481
Epoch: 15/15 - Batch: 5700/7933 - Learning rate: 3.90625e-06 - Loss: 0.7838044
Epoch: 15/15 - Batch: 5800/7933 - Learning rate: 3.90625e-06 - Loss: 0.7768999
Epoch: 15/15 - Batch: 5900/7933 - Learning rate: 3.90625e-06 - Loss: 0.5682637
Epoch: 15/15 - Batch: 6000/7933 - Learning rate: 3.90625e-06 - Loss: 0.8499062 - Dev BLEU: 0.2324146871774887
Epoch: 15/15 - Batch: 6100/7933 - Learning rate: 3.90625e-06 - Loss: 0.7909383
Epoch: 15/15 - Batch: 6200/7933 - Learning rate: 3.90625e-06 - Loss: 0.74065787
Epoch: 15/15 - Batch: 6300/7933 - Learning rate: 3.90625e-06 - Loss: 0.6945078
Epoch: 15/15 - Batch: 6400/7933 - Learning rate: 3.90625e-06 - Loss: 0.6634523
Epoch: 15/15 - Batch: 6500/7933 - Learning rate: 3.90625e-06 - Loss: 0.7707874
Epoch: 15/15 - Batch: 6600/7933 - Learning rate: 3.90625e-06 - Loss: 0.8052812
Epoch: 15/15 - Batch: 6700/7933 - Learning rate: 3.90625e-06 - Loss: 0.77801824
Epoch: 15/15 - Batch: 6800/7933 - Learning rate: 3.90625e-06 - Loss: 0.7700589
Epoch: 15/15 - Batch: 6900/7933 - Learning rate: 3.90625e-06 - Loss: 0.50886023
Epoch: 15/15 - Batch: 7000/7933 - Learning rate: 3.90625e-06 - Loss: 1.1000068 - Dev BLEU: 0.23534772970906467
Epoch: 15/15 - Batch: 7100/7933 - Learning rate: 3.90625e-06 - Loss: 0.80887455
Epoch: 15/15 - Batch: 7200/7933 - Learning rate: 3.90625e-06 - Loss: 0.6593191
Epoch: 15/15 - Batch: 7300/7933 - Learning rate: 3.90625e-06 - Loss: 0.80846214
Epoch: 15/15 - Batch: 7400/7933 - Learning rate: 3.90625e-06 - Loss: 0.8602814
Epoch: 15/15 - Batch: 7500/7933 - Learning rate: 3.90625e-06 - Loss: 0.636214
Epoch: 15/15 - Batch: 7600/7933 - Learning rate: 3.90625e-06 - Loss: 1.0758239
Epoch: 15/15 - Batch: 7700/7933 - Learning rate: 3.90625e-06 - Loss: 1.2110012
Epoch: 15/15 - Batch: 7800/7933 - Learning rate: 3.90625e-06 - Loss: 1.0918056
Epoch: 15/15 - Batch: 7900/7933 - Learning rate: 3.90625e-06 - Loss: 0.9186981
Epoch: 15/15 - Batch: 7933/7933 - Learning rate: 3.90625e-06 - Loss: 1.1439904 - Dev BLEU: 0.23778598269105553 - Test BLEU: 0.25867896483008795
