Epoch: 1/15 - Batch: 100/7933 - Learning rate: 0.001 - Loss: 1.8873119
Epoch: 1/15 - Batch: 200/7933 - Learning rate: 0.001 - Loss: 2.3062289
Epoch: 1/15 - Batch: 300/7933 - Learning rate: 0.001 - Loss: 1.2163726
Epoch: 1/15 - Batch: 400/7933 - Learning rate: 0.001 - Loss: 2.2314198
Epoch: 1/15 - Batch: 500/7933 - Learning rate: 0.001 - Loss: 2.0414152
Epoch: 1/15 - Batch: 600/7933 - Learning rate: 0.001 - Loss: 0.86162376
Epoch: 1/15 - Batch: 700/7933 - Learning rate: 0.001 - Loss: 1.8168838
Epoch: 1/15 - Batch: 800/7933 - Learning rate: 0.001 - Loss: 1.522435
Epoch: 1/15 - Batch: 900/7933 - Learning rate: 0.001 - Loss: 1.0214016
Epoch: 1/15 - Batch: 1000/7933 - Learning rate: 0.001 - Loss: 1.7599912 - Dev BLEU: 0.0037074974318106746
Epoch: 1/15 - Batch: 1100/7933 - Learning rate: 0.001 - Loss: 1.4076724
Epoch: 1/15 - Batch: 1200/7933 - Learning rate: 0.001 - Loss: 1.9194959
Epoch: 1/15 - Batch: 1300/7933 - Learning rate: 0.001 - Loss: 1.7604847
Epoch: 1/15 - Batch: 1400/7933 - Learning rate: 0.001 - Loss: 1.8773754
Epoch: 1/15 - Batch: 1500/7933 - Learning rate: 0.001 - Loss: 1.3219564
Epoch: 1/15 - Batch: 1600/7933 - Learning rate: 0.001 - Loss: 2.3222852
Epoch: 1/15 - Batch: 1700/7933 - Learning rate: 0.001 - Loss: 1.7631698
Epoch: 1/15 - Batch: 1800/7933 - Learning rate: 0.001 - Loss: 1.1640971
Epoch: 1/15 - Batch: 1900/7933 - Learning rate: 0.001 - Loss: 1.3740574
Epoch: 1/15 - Batch: 2000/7933 - Learning rate: 0.001 - Loss: 1.5083779 - Dev BLEU: 0.00852696436556812
Epoch: 1/15 - Batch: 2100/7933 - Learning rate: 0.001 - Loss: 1.2690974
Epoch: 1/15 - Batch: 2200/7933 - Learning rate: 0.001 - Loss: 1.4528222
Epoch: 1/15 - Batch: 2300/7933 - Learning rate: 0.001 - Loss: 1.6342874
Epoch: 1/15 - Batch: 2400/7933 - Learning rate: 0.001 - Loss: 1.3555151
Epoch: 1/15 - Batch: 2500/7933 - Learning rate: 0.001 - Loss: 1.530125
Epoch: 1/15 - Batch: 2600/7933 - Learning rate: 0.001 - Loss: 1.057471
Epoch: 1/15 - Batch: 2700/7933 - Learning rate: 0.001 - Loss: 0.64560556
Epoch: 1/15 - Batch: 2800/7933 - Learning rate: 0.001 - Loss: 1.6491308
Epoch: 1/15 - Batch: 2900/7933 - Learning rate: 0.001 - Loss: 1.5982394
Epoch: 1/15 - Batch: 3000/7933 - Learning rate: 0.001 - Loss: 1.5331833 - Dev BLEU: 0.0220322831227005
Epoch: 1/15 - Batch: 3100/7933 - Learning rate: 0.001 - Loss: 1.3229696
Epoch: 1/15 - Batch: 3200/7933 - Learning rate: 0.001 - Loss: 1.3601907
Epoch: 1/15 - Batch: 3300/7933 - Learning rate: 0.001 - Loss: 1.2088408
Epoch: 1/15 - Batch: 3400/7933 - Learning rate: 0.001 - Loss: 1.1364046
Epoch: 1/15 - Batch: 3500/7933 - Learning rate: 0.001 - Loss: 1.5955495
Epoch: 1/15 - Batch: 3600/7933 - Learning rate: 0.001 - Loss: 1.4044763
Epoch: 1/15 - Batch: 3700/7933 - Learning rate: 0.001 - Loss: 1.4671245
Epoch: 1/15 - Batch: 3800/7933 - Learning rate: 0.001 - Loss: 1.4392986
Epoch: 1/15 - Batch: 3900/7933 - Learning rate: 0.001 - Loss: 1.5559341
Epoch: 1/15 - Batch: 4000/7933 - Learning rate: 0.001 - Loss: 0.8780587 - Dev BLEU: 0.037476508347959146
Epoch: 1/15 - Batch: 4100/7933 - Learning rate: 0.001 - Loss: 1.1105905
Epoch: 1/15 - Batch: 4200/7933 - Learning rate: 0.001 - Loss: 1.0504569
Epoch: 1/15 - Batch: 4300/7933 - Learning rate: 0.001 - Loss: 1.1523911
Epoch: 1/15 - Batch: 4400/7933 - Learning rate: 0.001 - Loss: 1.1305507
Epoch: 1/15 - Batch: 4500/7933 - Learning rate: 0.001 - Loss: 1.2341832
Epoch: 1/15 - Batch: 4600/7933 - Learning rate: 0.001 - Loss: 2.330352
Epoch: 1/15 - Batch: 4700/7933 - Learning rate: 0.001 - Loss: 1.7367673
Epoch: 1/15 - Batch: 4800/7933 - Learning rate: 0.001 - Loss: 1.7595873
Epoch: 1/15 - Batch: 4900/7933 - Learning rate: 0.001 - Loss: 1.9353484
Epoch: 1/15 - Batch: 5000/7933 - Learning rate: 0.001 - Loss: 1.7849351 - Dev BLEU: 0.07306874706894426
Epoch: 1/15 - Batch: 5100/7933 - Learning rate: 0.001 - Loss: 1.7459487
Epoch: 1/15 - Batch: 5200/7933 - Learning rate: 0.001 - Loss: 1.7368542
Epoch: 1/15 - Batch: 5300/7933 - Learning rate: 0.001 - Loss: 1.6990525
Epoch: 1/15 - Batch: 5400/7933 - Learning rate: 0.001 - Loss: 1.7066666
Epoch: 1/15 - Batch: 5500/7933 - Learning rate: 0.001 - Loss: 1.7251854
Epoch: 1/15 - Batch: 5600/7933 - Learning rate: 0.001 - Loss: 1.3876003
Epoch: 1/15 - Batch: 5700/7933 - Learning rate: 0.001 - Loss: 1.6800326
Epoch: 1/15 - Batch: 5800/7933 - Learning rate: 0.001 - Loss: 1.6305393
Epoch: 1/15 - Batch: 5900/7933 - Learning rate: 0.001 - Loss: 1.2696934
Epoch: 1/15 - Batch: 6000/7933 - Learning rate: 0.001 - Loss: 1.6352557 - Dev BLEU: 0.08209637860134696
Epoch: 1/15 - Batch: 6100/7933 - Learning rate: 0.001 - Loss: 1.7494582
Epoch: 1/15 - Batch: 6200/7933 - Learning rate: 0.001 - Loss: 1.3767447
Epoch: 1/15 - Batch: 6300/7933 - Learning rate: 0.001 - Loss: 1.3724961
Epoch: 1/15 - Batch: 6400/7933 - Learning rate: 0.001 - Loss: 1.1281598
Epoch: 1/15 - Batch: 6500/7933 - Learning rate: 0.001 - Loss: 1.2671888
Epoch: 1/15 - Batch: 6600/7933 - Learning rate: 0.001 - Loss: 1.3523229
Epoch: 1/15 - Batch: 6700/7933 - Learning rate: 0.001 - Loss: 1.16813
Epoch: 1/15 - Batch: 6800/7933 - Learning rate: 0.001 - Loss: 1.0958136
Epoch: 1/15 - Batch: 6900/7933 - Learning rate: 0.001 - Loss: 0.85269314
Epoch: 1/15 - Batch: 7000/7933 - Learning rate: 0.001 - Loss: 1.651493 - Dev BLEU: 0.13670514479183307
Epoch: 1/15 - Batch: 7100/7933 - Learning rate: 0.001 - Loss: 1.2862854
Epoch: 1/15 - Batch: 7200/7933 - Learning rate: 0.001 - Loss: 0.9901713
Epoch: 1/15 - Batch: 7300/7933 - Learning rate: 0.001 - Loss: 1.2058992
Epoch: 1/15 - Batch: 7400/7933 - Learning rate: 0.001 - Loss: 1.276706
Epoch: 1/15 - Batch: 7500/7933 - Learning rate: 0.001 - Loss: 0.91740763
Epoch: 1/15 - Batch: 7600/7933 - Learning rate: 0.001 - Loss: 1.6430587
Epoch: 1/15 - Batch: 7700/7933 - Learning rate: 0.001 - Loss: 1.790569
Epoch: 1/15 - Batch: 7800/7933 - Learning rate: 0.001 - Loss: 1.6367238
Epoch: 1/15 - Batch: 7900/7933 - Learning rate: 0.001 - Loss: 1.2792449
Epoch: 1/15 - Batch: 7933/7933 - Learning rate: 0.001 - Loss: 1.776818 - Dev BLEU: 0.12943803763245895
Epoch: 2/15 - Batch: 100/7933 - Learning rate: 0.001 - Loss: 1.0196776
Epoch: 2/15 - Batch: 200/7933 - Learning rate: 0.001 - Loss: 1.1384158
Epoch: 2/15 - Batch: 300/7933 - Learning rate: 0.001 - Loss: 0.7136126
Epoch: 2/15 - Batch: 400/7933 - Learning rate: 0.001 - Loss: 1.2365217
Epoch: 2/15 - Batch: 500/7933 - Learning rate: 0.001 - Loss: 1.0169703
Epoch: 2/15 - Batch: 600/7933 - Learning rate: 0.001 - Loss: 0.5140778
Epoch: 2/15 - Batch: 700/7933 - Learning rate: 0.001 - Loss: 0.9169164
Epoch: 2/15 - Batch: 800/7933 - Learning rate: 0.001 - Loss: 0.8800648
Epoch: 2/15 - Batch: 900/7933 - Learning rate: 0.001 - Loss: 0.57329535
Epoch: 2/15 - Batch: 1000/7933 - Learning rate: 0.001 - Loss: 1.0017138 - Dev BLEU: 0.11355914583028075
Epoch: 2/15 - Batch: 1100/7933 - Learning rate: 0.001 - Loss: 0.83722615
Epoch: 2/15 - Batch: 1200/7933 - Learning rate: 0.001 - Loss: 1.1824856
Epoch: 2/15 - Batch: 1300/7933 - Learning rate: 0.001 - Loss: 1.0517905
Epoch: 2/15 - Batch: 1400/7933 - Learning rate: 0.001 - Loss: 1.0907315
Epoch: 2/15 - Batch: 1500/7933 - Learning rate: 0.001 - Loss: 0.7618289
Epoch: 2/15 - Batch: 1600/7933 - Learning rate: 0.001 - Loss: 1.4669305
Epoch: 2/15 - Batch: 1700/7933 - Learning rate: 0.001 - Loss: 1.0648406
Epoch: 2/15 - Batch: 1800/7933 - Learning rate: 0.001 - Loss: 0.611698
Epoch: 2/15 - Batch: 1900/7933 - Learning rate: 0.001 - Loss: 0.88566005
Epoch: 2/15 - Batch: 2000/7933 - Learning rate: 0.001 - Loss: 0.9478226 - Dev BLEU: 0.10807451207192555
Epoch: 2/15 - Batch: 2100/7933 - Learning rate: 0.001 - Loss: 0.78367174
Epoch: 2/15 - Batch: 2200/7933 - Learning rate: 0.001 - Loss: 0.8449093
Epoch: 2/15 - Batch: 2300/7933 - Learning rate: 0.001 - Loss: 1.0005263
Epoch: 2/15 - Batch: 2400/7933 - Learning rate: 0.001 - Loss: 0.8273975
Epoch: 2/15 - Batch: 2500/7933 - Learning rate: 0.001 - Loss: 0.8504177
Epoch: 2/15 - Batch: 2600/7933 - Learning rate: 0.001 - Loss: 0.64622205
Epoch: 2/15 - Batch: 2700/7933 - Learning rate: 0.001 - Loss: 0.36502597
Epoch: 2/15 - Batch: 2800/7933 - Learning rate: 0.001 - Loss: 1.053444
Epoch: 2/15 - Batch: 2900/7933 - Learning rate: 0.001 - Loss: 1.1346732
Epoch: 2/15 - Batch: 3000/7933 - Learning rate: 0.001 - Loss: 1.0636883 - Dev BLEU: 0.11532001091574029
Epoch: 2/15 - Batch: 3100/7933 - Learning rate: 0.001 - Loss: 1.027943
Epoch: 2/15 - Batch: 3200/7933 - Learning rate: 0.001 - Loss: 0.95359856
Epoch: 2/15 - Batch: 3300/7933 - Learning rate: 0.001 - Loss: 0.77545667
Epoch: 2/15 - Batch: 3400/7933 - Learning rate: 0.001 - Loss: 0.7931807
Epoch: 2/15 - Batch: 3500/7933 - Learning rate: 0.001 - Loss: 1.0484781
Epoch: 2/15 - Batch: 3600/7933 - Learning rate: 0.001 - Loss: 1.0005133
Epoch: 2/15 - Batch: 3700/7933 - Learning rate: 0.001 - Loss: 1.021628
Epoch: 2/15 - Batch: 3800/7933 - Learning rate: 0.001 - Loss: 0.9510685
Epoch: 2/15 - Batch: 3900/7933 - Learning rate: 0.001 - Loss: 1.1169817
Epoch: 2/15 - Batch: 4000/7933 - Learning rate: 0.001 - Loss: 0.62223524 - Dev BLEU: 0.11968779044784189
Epoch: 2/15 - Batch: 4100/7933 - Learning rate: 0.001 - Loss: 0.812124
Epoch: 2/15 - Batch: 4200/7933 - Learning rate: 0.001 - Loss: 0.7371791
Epoch: 2/15 - Batch: 4300/7933 - Learning rate: 0.001 - Loss: 0.8318006
Epoch: 2/15 - Batch: 4400/7933 - Learning rate: 0.001 - Loss: 0.79318106
Epoch: 2/15 - Batch: 4500/7933 - Learning rate: 0.001 - Loss: 0.9095327
Epoch: 2/15 - Batch: 4600/7933 - Learning rate: 0.001 - Loss: 1.6882391
Epoch: 2/15 - Batch: 4700/7933 - Learning rate: 0.001 - Loss: 1.2177901
Epoch: 2/15 - Batch: 4800/7933 - Learning rate: 0.001 - Loss: 1.2168235
Epoch: 2/15 - Batch: 4900/7933 - Learning rate: 0.001 - Loss: 1.3514024
Epoch: 2/15 - Batch: 5000/7933 - Learning rate: 0.001 - Loss: 1.3357192 - Dev BLEU: 0.1524744575707104
Epoch: 2/15 - Batch: 5100/7933 - Learning rate: 0.001 - Loss: 1.3640424
Epoch: 2/15 - Batch: 5200/7933 - Learning rate: 0.001 - Loss: 1.3070352
Epoch: 2/15 - Batch: 5300/7933 - Learning rate: 0.001 - Loss: 1.2984631
Epoch: 2/15 - Batch: 5400/7933 - Learning rate: 0.001 - Loss: 1.2515137
Epoch: 2/15 - Batch: 5500/7933 - Learning rate: 0.001 - Loss: 1.2586418
Epoch: 2/15 - Batch: 5600/7933 - Learning rate: 0.001 - Loss: 1.0071009
Epoch: 2/15 - Batch: 5700/7933 - Learning rate: 0.001 - Loss: 1.2668114
Epoch: 2/15 - Batch: 5800/7933 - Learning rate: 0.001 - Loss: 1.2135872
Epoch: 2/15 - Batch: 5900/7933 - Learning rate: 0.001 - Loss: 0.9229957
Epoch: 2/15 - Batch: 6000/7933 - Learning rate: 0.001 - Loss: 1.2181511 - Dev BLEU: 0.13723720834424188
Epoch: 2/15 - Batch: 6100/7933 - Learning rate: 0.001 - Loss: 1.2546699
Epoch: 2/15 - Batch: 6200/7933 - Learning rate: 0.001 - Loss: 1.0341686
Epoch: 2/15 - Batch: 6300/7933 - Learning rate: 0.001 - Loss: 1.0294541
Epoch: 2/15 - Batch: 6400/7933 - Learning rate: 0.001 - Loss: 0.8905973
Epoch: 2/15 - Batch: 6500/7933 - Learning rate: 0.001 - Loss: 1.0018857
Epoch: 2/15 - Batch: 6600/7933 - Learning rate: 0.001 - Loss: 1.0287821
Epoch: 2/15 - Batch: 6700/7933 - Learning rate: 0.001 - Loss: 0.93828505
Epoch: 2/15 - Batch: 6800/7933 - Learning rate: 0.001 - Loss: 0.8905745
Epoch: 2/15 - Batch: 6900/7933 - Learning rate: 0.001 - Loss: 0.6592608
Epoch: 2/15 - Batch: 7000/7933 - Learning rate: 0.001 - Loss: 1.3554517 - Dev BLEU: 0.19457151044273402
Epoch: 2/15 - Batch: 7100/7933 - Learning rate: 0.001 - Loss: 1.0198227
Epoch: 2/15 - Batch: 7200/7933 - Learning rate: 0.001 - Loss: 0.8077059
Epoch: 2/15 - Batch: 7300/7933 - Learning rate: 0.001 - Loss: 0.98225486
Epoch: 2/15 - Batch: 7400/7933 - Learning rate: 0.001 - Loss: 1.0502588
Epoch: 2/15 - Batch: 7500/7933 - Learning rate: 0.001 - Loss: 0.7511908
Epoch: 2/15 - Batch: 7600/7933 - Learning rate: 0.001 - Loss: 1.3623458
Epoch: 2/15 - Batch: 7700/7933 - Learning rate: 0.001 - Loss: 1.5230559
Epoch: 2/15 - Batch: 7800/7933 - Learning rate: 0.001 - Loss: 1.403291
Epoch: 2/15 - Batch: 7900/7933 - Learning rate: 0.001 - Loss: 1.0395523
Epoch: 2/15 - Batch: 7933/7933 - Learning rate: 0.001 - Loss: 1.4760987 - Dev BLEU: 0.17974009780088077
Epoch: 3/15 - Batch: 100/7933 - Learning rate: 0.001 - Loss: 0.91178715
Epoch: 3/15 - Batch: 200/7933 - Learning rate: 0.001 - Loss: 0.9007735
Epoch: 3/15 - Batch: 300/7933 - Learning rate: 0.001 - Loss: 0.61568314
Epoch: 3/15 - Batch: 400/7933 - Learning rate: 0.001 - Loss: 1.0615745
Epoch: 3/15 - Batch: 500/7933 - Learning rate: 0.001 - Loss: 0.8106022
Epoch: 3/15 - Batch: 600/7933 - Learning rate: 0.001 - Loss: 0.45660508
Epoch: 3/15 - Batch: 700/7933 - Learning rate: 0.001 - Loss: 0.7617337
Epoch: 3/15 - Batch: 800/7933 - Learning rate: 0.001 - Loss: 0.762131
Epoch: 3/15 - Batch: 900/7933 - Learning rate: 0.001 - Loss: 0.491324
Epoch: 3/15 - Batch: 1000/7933 - Learning rate: 0.001 - Loss: 0.83596194 - Dev BLEU: 0.1582361227283546
Epoch: 3/15 - Batch: 1100/7933 - Learning rate: 0.001 - Loss: 0.7075684
Epoch: 3/15 - Batch: 1200/7933 - Learning rate: 0.001 - Loss: 0.9982371
Epoch: 3/15 - Batch: 1300/7933 - Learning rate: 0.001 - Loss: 0.88377106
Epoch: 3/15 - Batch: 1400/7933 - Learning rate: 0.001 - Loss: 0.9334685
Epoch: 3/15 - Batch: 1500/7933 - Learning rate: 0.001 - Loss: 0.6626358
Epoch: 3/15 - Batch: 1600/7933 - Learning rate: 0.001 - Loss: 1.2628917
Epoch: 3/15 - Batch: 1700/7933 - Learning rate: 0.001 - Loss: 0.9346682
Epoch: 3/15 - Batch: 1800/7933 - Learning rate: 0.001 - Loss: 0.50665534
Epoch: 3/15 - Batch: 1900/7933 - Learning rate: 0.001 - Loss: 0.7725276
Epoch: 3/15 - Batch: 2000/7933 - Learning rate: 0.001 - Loss: 0.82580453 - Dev BLEU: 0.14377371120829477
Epoch: 3/15 - Batch: 2100/7933 - Learning rate: 0.001 - Loss: 0.6893312
Epoch: 3/15 - Batch: 2200/7933 - Learning rate: 0.001 - Loss: 0.70933735
Epoch: 3/15 - Batch: 2300/7933 - Learning rate: 0.001 - Loss: 0.87934244
Epoch: 3/15 - Batch: 2400/7933 - Learning rate: 0.001 - Loss: 0.69198245
Epoch: 3/15 - Batch: 2500/7933 - Learning rate: 0.001 - Loss: 0.7009238
Epoch: 3/15 - Batch: 2600/7933 - Learning rate: 0.001 - Loss: 0.56186634
Epoch: 3/15 - Batch: 2700/7933 - Learning rate: 0.001 - Loss: 0.31847736
Epoch: 3/15 - Batch: 2800/7933 - Learning rate: 0.001 - Loss: 0.9090694
Epoch: 3/15 - Batch: 2900/7933 - Learning rate: 0.001 - Loss: 1.006416
Epoch: 3/15 - Batch: 3000/7933 - Learning rate: 0.001 - Loss: 0.94067955 - Dev BLEU: 0.1466316877021635
Epoch: 3/15 - Batch: 3100/7933 - Learning rate: 0.001 - Loss: 0.93598664
Epoch: 3/15 - Batch: 3200/7933 - Learning rate: 0.001 - Loss: 0.86404264
Epoch: 3/15 - Batch: 3300/7933 - Learning rate: 0.001 - Loss: 0.69315124
Epoch: 3/15 - Batch: 3400/7933 - Learning rate: 0.001 - Loss: 0.71586967
Epoch: 3/15 - Batch: 3500/7933 - Learning rate: 0.001 - Loss: 0.9366576
Epoch: 3/15 - Batch: 3600/7933 - Learning rate: 0.001 - Loss: 0.90115696
Epoch: 3/15 - Batch: 3700/7933 - Learning rate: 0.001 - Loss: 0.8917833
Epoch: 3/15 - Batch: 3800/7933 - Learning rate: 0.001 - Loss: 0.83466625
Epoch: 3/15 - Batch: 3900/7933 - Learning rate: 0.001 - Loss: 0.96348614
Epoch: 3/15 - Batch: 4000/7933 - Learning rate: 0.001 - Loss: 0.54041773 - Dev BLEU: 0.15489493998616358
Epoch: 3/15 - Batch: 4100/7933 - Learning rate: 0.001 - Loss: 0.72055334
Epoch: 3/15 - Batch: 4200/7933 - Learning rate: 0.001 - Loss: 0.6650567
Epoch: 3/15 - Batch: 4300/7933 - Learning rate: 0.001 - Loss: 0.7527232
Epoch: 3/15 - Batch: 4400/7933 - Learning rate: 0.001 - Loss: 0.70510685
Epoch: 3/15 - Batch: 4500/7933 - Learning rate: 0.001 - Loss: 0.8285554
Epoch: 3/15 - Batch: 4600/7933 - Learning rate: 0.001 - Loss: 1.4707091
Epoch: 3/15 - Batch: 4700/7933 - Learning rate: 0.001 - Loss: 1.0601596
Epoch: 3/15 - Batch: 4800/7933 - Learning rate: 0.001 - Loss: 1.029464
Epoch: 3/15 - Batch: 4900/7933 - Learning rate: 0.001 - Loss: 1.1528252
Epoch: 3/15 - Batch: 5000/7933 - Learning rate: 0.001 - Loss: 1.1895796 - Dev BLEU: 0.18314394590356498
Epoch: 3/15 - Batch: 5100/7933 - Learning rate: 0.001 - Loss: 1.2301677
Epoch: 3/15 - Batch: 5200/7933 - Learning rate: 0.001 - Loss: 1.1673768
Epoch: 3/15 - Batch: 5300/7933 - Learning rate: 0.001 - Loss: 1.1631496
Epoch: 3/15 - Batch: 5400/7933 - Learning rate: 0.001 - Loss: 1.113978
Epoch: 3/15 - Batch: 5500/7933 - Learning rate: 0.001 - Loss: 1.1261744
Epoch: 3/15 - Batch: 5600/7933 - Learning rate: 0.001 - Loss: 0.88536215
Epoch: 3/15 - Batch: 5700/7933 - Learning rate: 0.001 - Loss: 1.1004394
Epoch: 3/15 - Batch: 5800/7933 - Learning rate: 0.001 - Loss: 1.0936112
Epoch: 3/15 - Batch: 5900/7933 - Learning rate: 0.001 - Loss: 0.7922821
Epoch: 3/15 - Batch: 6000/7933 - Learning rate: 0.001 - Loss: 1.1055409 - Dev BLEU: 0.1672341874492154
Epoch: 3/15 - Batch: 6100/7933 - Learning rate: 0.001 - Loss: 1.0961586
Epoch: 3/15 - Batch: 6200/7933 - Learning rate: 0.001 - Loss: 0.94760144
Epoch: 3/15 - Batch: 6300/7933 - Learning rate: 0.001 - Loss: 0.9285666
Epoch: 3/15 - Batch: 6400/7933 - Learning rate: 0.001 - Loss: 0.8135409
Epoch: 3/15 - Batch: 6500/7933 - Learning rate: 0.001 - Loss: 0.90769684
Epoch: 3/15 - Batch: 6600/7933 - Learning rate: 0.001 - Loss: 0.90597737
Epoch: 3/15 - Batch: 6700/7933 - Learning rate: 0.001 - Loss: 0.8518497
Epoch: 3/15 - Batch: 6800/7933 - Learning rate: 0.001 - Loss: 0.8135786
Epoch: 3/15 - Batch: 6900/7933 - Learning rate: 0.001 - Loss: 0.5907887
Epoch: 3/15 - Batch: 7000/7933 - Learning rate: 0.001 - Loss: 1.2492867 - Dev BLEU: 0.21639137605607586
Epoch: 3/15 - Batch: 7100/7933 - Learning rate: 0.001 - Loss: 0.93124074
Epoch: 3/15 - Batch: 7200/7933 - Learning rate: 0.001 - Loss: 0.7362191
Epoch: 3/15 - Batch: 7300/7933 - Learning rate: 0.001 - Loss: 0.90191853
Epoch: 3/15 - Batch: 7400/7933 - Learning rate: 0.001 - Loss: 0.965195
Epoch: 3/15 - Batch: 7500/7933 - Learning rate: 0.001 - Loss: 0.69022036
Epoch: 3/15 - Batch: 7600/7933 - Learning rate: 0.001 - Loss: 1.2422417
Epoch: 3/15 - Batch: 7700/7933 - Learning rate: 0.001 - Loss: 1.3904244
Epoch: 3/15 - Batch: 7800/7933 - Learning rate: 0.001 - Loss: 1.2785816
Epoch: 3/15 - Batch: 7900/7933 - Learning rate: 0.001 - Loss: 0.9377089
Epoch: 3/15 - Batch: 7933/7933 - Learning rate: 0.001 - Loss: 1.3193004 - Dev BLEU: 0.19429895310704887
Epoch: 4/15 - Batch: 100/7933 - Learning rate: 0.001 - Loss: 0.85991013
Epoch: 4/15 - Batch: 200/7933 - Learning rate: 0.001 - Loss: 0.79517883
Epoch: 4/15 - Batch: 300/7933 - Learning rate: 0.001 - Loss: 0.5653333
Epoch: 4/15 - Batch: 400/7933 - Learning rate: 0.001 - Loss: 0.9737583
Epoch: 4/15 - Batch: 500/7933 - Learning rate: 0.001 - Loss: 0.72379196
Epoch: 4/15 - Batch: 600/7933 - Learning rate: 0.001 - Loss: 0.42571
Epoch: 4/15 - Batch: 700/7933 - Learning rate: 0.001 - Loss: 0.7054245
Epoch: 4/15 - Batch: 800/7933 - Learning rate: 0.001 - Loss: 0.70666206
Epoch: 4/15 - Batch: 900/7933 - Learning rate: 0.001 - Loss: 0.4573811
Epoch: 4/15 - Batch: 1000/7933 - Learning rate: 0.001 - Loss: 0.77428687 - Dev BLEU: 0.17737930350316664
Epoch: 4/15 - Batch: 1100/7933 - Learning rate: 0.001 - Loss: 0.6603331
Epoch: 4/15 - Batch: 1200/7933 - Learning rate: 0.001 - Loss: 0.9299159
Epoch: 4/15 - Batch: 1300/7933 - Learning rate: 0.001 - Loss: 0.82673585
Epoch: 4/15 - Batch: 1400/7933 - Learning rate: 0.001 - Loss: 0.850931
Epoch: 4/15 - Batch: 1500/7933 - Learning rate: 0.001 - Loss: 0.6110671
Epoch: 4/15 - Batch: 1600/7933 - Learning rate: 0.001 - Loss: 1.1702363
Epoch: 4/15 - Batch: 1700/7933 - Learning rate: 0.001 - Loss: 0.86298716
Epoch: 4/15 - Batch: 1800/7933 - Learning rate: 0.001 - Loss: 0.45832434
Epoch: 4/15 - Batch: 1900/7933 - Learning rate: 0.001 - Loss: 0.72025126
Epoch: 4/15 - Batch: 2000/7933 - Learning rate: 0.001 - Loss: 0.7591697 - Dev BLEU: 0.1584420895113239
Epoch: 4/15 - Batch: 2100/7933 - Learning rate: 0.001 - Loss: 0.63940275
Epoch: 4/15 - Batch: 2200/7933 - Learning rate: 0.001 - Loss: 0.6525378
Epoch: 4/15 - Batch: 2300/7933 - Learning rate: 0.001 - Loss: 0.8097199
Epoch: 4/15 - Batch: 2400/7933 - Learning rate: 0.001 - Loss: 0.6500609
Epoch: 4/15 - Batch: 2500/7933 - Learning rate: 0.001 - Loss: 0.6430624
Epoch: 4/15 - Batch: 2600/7933 - Learning rate: 0.001 - Loss: 0.5182794
Epoch: 4/15 - Batch: 2700/7933 - Learning rate: 0.001 - Loss: 0.2892668
Epoch: 4/15 - Batch: 2800/7933 - Learning rate: 0.001 - Loss: 0.84481335
Epoch: 4/15 - Batch: 2900/7933 - Learning rate: 0.001 - Loss: 0.9480852
Epoch: 4/15 - Batch: 3000/7933 - Learning rate: 0.001 - Loss: 0.8739305 - Dev BLEU: 0.16424791490598747
Epoch: 4/15 - Batch: 3100/7933 - Learning rate: 0.001 - Loss: 0.8690074
Epoch: 4/15 - Batch: 3200/7933 - Learning rate: 0.001 - Loss: 0.8163936
Epoch: 4/15 - Batch: 3300/7933 - Learning rate: 0.001 - Loss: 0.6642515
Epoch: 4/15 - Batch: 3400/7933 - Learning rate: 0.001 - Loss: 0.66533977
Epoch: 4/15 - Batch: 3500/7933 - Learning rate: 0.001 - Loss: 0.8653325
Epoch: 4/15 - Batch: 3600/7933 - Learning rate: 0.001 - Loss: 0.8574141
Epoch: 4/15 - Batch: 3700/7933 - Learning rate: 0.001 - Loss: 0.8261134
Epoch: 4/15 - Batch: 3800/7933 - Learning rate: 0.001 - Loss: 0.79082006
Epoch: 4/15 - Batch: 3900/7933 - Learning rate: 0.001 - Loss: 0.9071421
Epoch: 4/15 - Batch: 4000/7933 - Learning rate: 0.001 - Loss: 0.5175405 - Dev BLEU: 0.17363941828468565
Epoch: 4/15 - Batch: 4100/7933 - Learning rate: 0.001 - Loss: 0.6686851
Epoch: 4/15 - Batch: 4200/7933 - Learning rate: 0.001 - Loss: 0.6263764
Epoch: 4/15 - Batch: 4300/7933 - Learning rate: 0.001 - Loss: 0.70649403
Epoch: 4/15 - Batch: 4400/7933 - Learning rate: 0.001 - Loss: 0.6599919
Epoch: 4/15 - Batch: 4500/7933 - Learning rate: 0.001 - Loss: 0.79417926
Epoch: 4/15 - Batch: 4600/7933 - Learning rate: 0.001 - Loss: 1.3500582
Epoch: 4/15 - Batch: 4700/7933 - Learning rate: 0.001 - Loss: 0.9726571
Epoch: 4/15 - Batch: 4800/7933 - Learning rate: 0.001 - Loss: 0.9478505
Epoch: 4/15 - Batch: 4900/7933 - Learning rate: 0.001 - Loss: 1.078725
Epoch: 4/15 - Batch: 5000/7933 - Learning rate: 0.001 - Loss: 1.0917721 - Dev BLEU: 0.2003983039687905
Epoch: 4/15 - Batch: 5100/7933 - Learning rate: 0.001 - Loss: 1.1512535
Epoch: 4/15 - Batch: 5200/7933 - Learning rate: 0.001 - Loss: 1.1110408
Epoch: 4/15 - Batch: 5300/7933 - Learning rate: 0.001 - Loss: 1.0908735
Epoch: 4/15 - Batch: 5400/7933 - Learning rate: 0.001 - Loss: 1.0175222
Epoch: 4/15 - Batch: 5500/7933 - Learning rate: 0.001 - Loss: 1.0474132
Epoch: 4/15 - Batch: 5600/7933 - Learning rate: 0.001 - Loss: 0.8045401
Epoch: 4/15 - Batch: 5700/7933 - Learning rate: 0.001 - Loss: 1.0513241
Epoch: 4/15 - Batch: 5800/7933 - Learning rate: 0.001 - Loss: 1.0184441
Epoch: 4/15 - Batch: 5900/7933 - Learning rate: 0.001 - Loss: 0.71935856
Epoch: 4/15 - Batch: 6000/7933 - Learning rate: 0.001 - Loss: 1.0315181 - Dev BLEU: 0.1836584530202359
Epoch: 4/15 - Batch: 6100/7933 - Learning rate: 0.001 - Loss: 1.0271776
Epoch: 4/15 - Batch: 6200/7933 - Learning rate: 0.001 - Loss: 0.8754307
Epoch: 4/15 - Batch: 6300/7933 - Learning rate: 0.001 - Loss: 0.8760832
Epoch: 4/15 - Batch: 6400/7933 - Learning rate: 0.001 - Loss: 0.7664211
Epoch: 4/15 - Batch: 6500/7933 - Learning rate: 0.001 - Loss: 0.86607677
Epoch: 4/15 - Batch: 6600/7933 - Learning rate: 0.001 - Loss: 0.85241145
Epoch: 4/15 - Batch: 6700/7933 - Learning rate: 0.001 - Loss: 0.81644934
Epoch: 4/15 - Batch: 6800/7933 - Learning rate: 0.001 - Loss: 0.78646487
Epoch: 4/15 - Batch: 6900/7933 - Learning rate: 0.001 - Loss: 0.55875444
Epoch: 4/15 - Batch: 7000/7933 - Learning rate: 0.001 - Loss: 1.187619 - Dev BLEU: 0.22719097608882372
Epoch: 4/15 - Batch: 7100/7933 - Learning rate: 0.001 - Loss: 0.8827296
Epoch: 4/15 - Batch: 7200/7933 - Learning rate: 0.001 - Loss: 0.6957711
Epoch: 4/15 - Batch: 7300/7933 - Learning rate: 0.001 - Loss: 0.8618833
Epoch: 4/15 - Batch: 7400/7933 - Learning rate: 0.001 - Loss: 0.9156322
Epoch: 4/15 - Batch: 7500/7933 - Learning rate: 0.001 - Loss: 0.659783
Epoch: 4/15 - Batch: 7600/7933 - Learning rate: 0.001 - Loss: 1.1777633
Epoch: 4/15 - Batch: 7700/7933 - Learning rate: 0.001 - Loss: 1.3281993
Epoch: 4/15 - Batch: 7800/7933 - Learning rate: 0.001 - Loss: 1.1996366
Epoch: 4/15 - Batch: 7900/7933 - Learning rate: 0.001 - Loss: 0.88691056
Epoch: 4/15 - Batch: 7933/7933 - Learning rate: 0.001 - Loss: 1.2302873 - Dev BLEU: 0.20955824406594303
Epoch: 5/15 - Batch: 100/7933 - Learning rate: 0.001 - Loss: 0.8233359
Epoch: 5/15 - Batch: 200/7933 - Learning rate: 0.001 - Loss: 0.73607045
Epoch: 5/15 - Batch: 300/7933 - Learning rate: 0.001 - Loss: 0.54681695
Epoch: 5/15 - Batch: 400/7933 - Learning rate: 0.001 - Loss: 0.93480587
Epoch: 5/15 - Batch: 500/7933 - Learning rate: 0.001 - Loss: 0.65164465
Epoch: 5/15 - Batch: 600/7933 - Learning rate: 0.001 - Loss: 0.41946927
Epoch: 5/15 - Batch: 700/7933 - Learning rate: 0.001 - Loss: 0.6819267
Epoch: 5/15 - Batch: 800/7933 - Learning rate: 0.001 - Loss: 0.6613643
Epoch: 5/15 - Batch: 900/7933 - Learning rate: 0.001 - Loss: 0.4353249
Epoch: 5/15 - Batch: 1000/7933 - Learning rate: 0.001 - Loss: 0.73683846 - Dev BLEU: 0.18602309043923684
Epoch: 5/15 - Batch: 1100/7933 - Learning rate: 0.001 - Loss: 0.6218771
Epoch: 5/15 - Batch: 1200/7933 - Learning rate: 0.001 - Loss: 0.8845212
Epoch: 5/15 - Batch: 1300/7933 - Learning rate: 0.001 - Loss: 0.76001126
Epoch: 5/15 - Batch: 1400/7933 - Learning rate: 0.001 - Loss: 0.8250401
Epoch: 5/15 - Batch: 1500/7933 - Learning rate: 0.001 - Loss: 0.57803196
Epoch: 5/15 - Batch: 1600/7933 - Learning rate: 0.001 - Loss: 1.1115416
Epoch: 5/15 - Batch: 1700/7933 - Learning rate: 0.001 - Loss: 0.83157164
Epoch: 5/15 - Batch: 1800/7933 - Learning rate: 0.001 - Loss: 0.43960765
Epoch: 5/15 - Batch: 1900/7933 - Learning rate: 0.001 - Loss: 0.6833075
Epoch: 5/15 - Batch: 2000/7933 - Learning rate: 0.001 - Loss: 0.72404635 - Dev BLEU: 0.1676704919130951
Epoch: 5/15 - Batch: 2100/7933 - Learning rate: 0.001 - Loss: 0.6069675
Epoch: 5/15 - Batch: 2200/7933 - Learning rate: 0.001 - Loss: 0.61103195
Epoch: 5/15 - Batch: 2300/7933 - Learning rate: 0.001 - Loss: 0.7587256
Epoch: 5/15 - Batch: 2400/7933 - Learning rate: 0.001 - Loss: 0.5992069
Epoch: 5/15 - Batch: 2500/7933 - Learning rate: 0.001 - Loss: 0.591869
Epoch: 5/15 - Batch: 2600/7933 - Learning rate: 0.001 - Loss: 0.48283657
Epoch: 5/15 - Batch: 2700/7933 - Learning rate: 0.001 - Loss: 0.27790058
Epoch: 5/15 - Batch: 2800/7933 - Learning rate: 0.001 - Loss: 0.8121357
Epoch: 5/15 - Batch: 2900/7933 - Learning rate: 0.001 - Loss: 0.91052103
Epoch: 5/15 - Batch: 3000/7933 - Learning rate: 0.001 - Loss: 0.82819647 - Dev BLEU: 0.17527841177512973
Epoch: 5/15 - Batch: 3100/7933 - Learning rate: 0.001 - Loss: 0.8314756
Epoch: 5/15 - Batch: 3200/7933 - Learning rate: 0.001 - Loss: 0.7789103
Epoch: 5/15 - Batch: 3300/7933 - Learning rate: 0.001 - Loss: 0.6396474
Epoch: 5/15 - Batch: 3400/7933 - Learning rate: 0.001 - Loss: 0.6366838
Epoch: 5/15 - Batch: 3500/7933 - Learning rate: 0.001 - Loss: 0.82581604
Epoch: 5/15 - Batch: 3600/7933 - Learning rate: 0.001 - Loss: 0.80586034
Epoch: 5/15 - Batch: 3700/7933 - Learning rate: 0.001 - Loss: 0.79709846
Epoch: 5/15 - Batch: 3800/7933 - Learning rate: 0.001 - Loss: 0.7622648
Epoch: 5/15 - Batch: 3900/7933 - Learning rate: 0.001 - Loss: 0.87007743
Epoch: 5/15 - Batch: 4000/7933 - Learning rate: 0.001 - Loss: 0.48435315 - Dev BLEU: 0.18239075849462455
Epoch: 5/15 - Batch: 4100/7933 - Learning rate: 0.001 - Loss: 0.6398396
Epoch: 5/15 - Batch: 4200/7933 - Learning rate: 0.001 - Loss: 0.612574
Epoch: 5/15 - Batch: 4300/7933 - Learning rate: 0.001 - Loss: 0.6825239
Epoch: 5/15 - Batch: 4400/7933 - Learning rate: 0.001 - Loss: 0.63654965
Epoch: 5/15 - Batch: 4500/7933 - Learning rate: 0.001 - Loss: 0.75637084
Epoch: 5/15 - Batch: 4600/7933 - Learning rate: 0.001 - Loss: 1.2706976
Epoch: 5/15 - Batch: 4700/7933 - Learning rate: 0.001 - Loss: 0.88770753
Epoch: 5/15 - Batch: 4800/7933 - Learning rate: 0.001 - Loss: 0.8965976
Epoch: 5/15 - Batch: 4900/7933 - Learning rate: 0.001 - Loss: 0.9938287
Epoch: 5/15 - Batch: 5000/7933 - Learning rate: 0.001 - Loss: 1.0451026 - Dev BLEU: 0.20946147392729095
Epoch: 5/15 - Batch: 5100/7933 - Learning rate: 0.001 - Loss: 1.0928177
Epoch: 5/15 - Batch: 5200/7933 - Learning rate: 0.001 - Loss: 1.0505688
Epoch: 5/15 - Batch: 5300/7933 - Learning rate: 0.001 - Loss: 1.0390118
Epoch: 5/15 - Batch: 5400/7933 - Learning rate: 0.001 - Loss: 0.99388933
Epoch: 5/15 - Batch: 5500/7933 - Learning rate: 0.001 - Loss: 0.9856527
Epoch: 5/15 - Batch: 5600/7933 - Learning rate: 0.001 - Loss: 0.7775543
Epoch: 5/15 - Batch: 5700/7933 - Learning rate: 0.001 - Loss: 0.9696904
Epoch: 5/15 - Batch: 5800/7933 - Learning rate: 0.001 - Loss: 0.95879465
Epoch: 5/15 - Batch: 5900/7933 - Learning rate: 0.001 - Loss: 0.67099404
Epoch: 5/15 - Batch: 6000/7933 - Learning rate: 0.001 - Loss: 0.97838634 - Dev BLEU: 0.19329092798986552
Epoch: 5/15 - Batch: 6100/7933 - Learning rate: 0.001 - Loss: 0.96898806
Epoch: 5/15 - Batch: 6200/7933 - Learning rate: 0.001 - Loss: 0.84916496
Epoch: 5/15 - Batch: 6300/7933 - Learning rate: 0.001 - Loss: 0.84827334
Epoch: 5/15 - Batch: 6400/7933 - Learning rate: 0.001 - Loss: 0.7228861
Epoch: 5/15 - Batch: 6500/7933 - Learning rate: 0.001 - Loss: 0.8248848
Epoch: 5/15 - Batch: 6600/7933 - Learning rate: 0.001 - Loss: 0.82170266
Epoch: 5/15 - Batch: 6700/7933 - Learning rate: 0.001 - Loss: 0.7920525
Epoch: 5/15 - Batch: 6800/7933 - Learning rate: 0.001 - Loss: 0.7665061
Epoch: 5/15 - Batch: 6900/7933 - Learning rate: 0.001 - Loss: 0.5383564
Epoch: 5/15 - Batch: 7000/7933 - Learning rate: 0.001 - Loss: 1.1500859 - Dev BLEU: 0.23746399398651682
Epoch: 5/15 - Batch: 7100/7933 - Learning rate: 0.001 - Loss: 0.8467724
Epoch: 5/15 - Batch: 7200/7933 - Learning rate: 0.001 - Loss: 0.67573243
Epoch: 5/15 - Batch: 7300/7933 - Learning rate: 0.001 - Loss: 0.8286901
Epoch: 5/15 - Batch: 7400/7933 - Learning rate: 0.001 - Loss: 0.88003045
Epoch: 5/15 - Batch: 7500/7933 - Learning rate: 0.001 - Loss: 0.6380841
Epoch: 5/15 - Batch: 7600/7933 - Learning rate: 0.001 - Loss: 1.1334584
Epoch: 5/15 - Batch: 7700/7933 - Learning rate: 0.001 - Loss: 1.2756699
Epoch: 5/15 - Batch: 7800/7933 - Learning rate: 0.001 - Loss: 1.1524199
Epoch: 5/15 - Batch: 7900/7933 - Learning rate: 0.001 - Loss: 0.8576944
Epoch: 5/15 - Batch: 7933/7933 - Learning rate: 0.001 - Loss: 1.1367528 - Dev BLEU: 0.2169947288539985
Epoch: 6/15 - Batch: 100/7933 - Learning rate: 0.001 - Loss: 0.7974479
Epoch: 6/15 - Batch: 200/7933 - Learning rate: 0.001 - Loss: 0.7000813
Epoch: 6/15 - Batch: 300/7933 - Learning rate: 0.001 - Loss: 0.53399855
Epoch: 6/15 - Batch: 400/7933 - Learning rate: 0.001 - Loss: 0.88523424
Epoch: 6/15 - Batch: 500/7933 - Learning rate: 0.001 - Loss: 0.6114399
Epoch: 6/15 - Batch: 600/7933 - Learning rate: 0.001 - Loss: 0.40677258
Epoch: 6/15 - Batch: 700/7933 - Learning rate: 0.001 - Loss: 0.6478503
Epoch: 6/15 - Batch: 800/7933 - Learning rate: 0.001 - Loss: 0.6420346
Epoch: 6/15 - Batch: 900/7933 - Learning rate: 0.001 - Loss: 0.41755548
Epoch: 6/15 - Batch: 1000/7933 - Learning rate: 0.001 - Loss: 0.7107833 - Dev BLEU: 0.1947186455372875
Epoch: 6/15 - Batch: 1100/7933 - Learning rate: 0.001 - Loss: 0.5955033
Epoch: 6/15 - Batch: 1200/7933 - Learning rate: 0.001 - Loss: 0.86020684
Epoch: 6/15 - Batch: 1300/7933 - Learning rate: 0.001 - Loss: 0.7294672
Epoch: 6/15 - Batch: 1400/7933 - Learning rate: 0.001 - Loss: 0.79418325
Epoch: 6/15 - Batch: 1500/7933 - Learning rate: 0.001 - Loss: 0.56196576
Epoch: 6/15 - Batch: 1600/7933 - Learning rate: 0.001 - Loss: 1.0630867
Epoch: 6/15 - Batch: 1700/7933 - Learning rate: 0.001 - Loss: 0.78917766
Epoch: 6/15 - Batch: 1800/7933 - Learning rate: 0.001 - Loss: 0.41254103
Epoch: 6/15 - Batch: 1900/7933 - Learning rate: 0.001 - Loss: 0.6561966
Epoch: 6/15 - Batch: 2000/7933 - Learning rate: 0.001 - Loss: 0.6851197 - Dev BLEU: 0.17956952334709125
Epoch: 6/15 - Batch: 2100/7933 - Learning rate: 0.001 - Loss: 0.5834264
Epoch: 6/15 - Batch: 2200/7933 - Learning rate: 0.001 - Loss: 0.580828
Epoch: 6/15 - Batch: 2300/7933 - Learning rate: 0.001 - Loss: 0.7392486
Epoch: 6/15 - Batch: 2400/7933 - Learning rate: 0.001 - Loss: 0.5738925
Epoch: 6/15 - Batch: 2500/7933 - Learning rate: 0.001 - Loss: 0.5771866
Epoch: 6/15 - Batch: 2600/7933 - Learning rate: 0.001 - Loss: 0.45888302
Epoch: 6/15 - Batch: 2700/7933 - Learning rate: 0.001 - Loss: 0.27208668
Epoch: 6/15 - Batch: 2800/7933 - Learning rate: 0.001 - Loss: 0.7801234
Epoch: 6/15 - Batch: 2900/7933 - Learning rate: 0.001 - Loss: 0.8677906
Epoch: 6/15 - Batch: 3000/7933 - Learning rate: 0.001 - Loss: 0.77731806 - Dev BLEU: 0.1801603666876577
Epoch: 6/15 - Batch: 3100/7933 - Learning rate: 0.001 - Loss: 0.8043772
Epoch: 6/15 - Batch: 3200/7933 - Learning rate: 0.001 - Loss: 0.7583122
Epoch: 6/15 - Batch: 3300/7933 - Learning rate: 0.001 - Loss: 0.6218652
Epoch: 6/15 - Batch: 3400/7933 - Learning rate: 0.001 - Loss: 0.6167146
Epoch: 6/15 - Batch: 3500/7933 - Learning rate: 0.001 - Loss: 0.7841756
Epoch: 6/15 - Batch: 3600/7933 - Learning rate: 0.001 - Loss: 0.7763598
Epoch: 6/15 - Batch: 3700/7933 - Learning rate: 0.001 - Loss: 0.75746495
Epoch: 6/15 - Batch: 3800/7933 - Learning rate: 0.001 - Loss: 0.7262531
Epoch: 6/15 - Batch: 3900/7933 - Learning rate: 0.001 - Loss: 0.83839715
Epoch: 6/15 - Batch: 4000/7933 - Learning rate: 0.001 - Loss: 0.46790352 - Dev BLEU: 0.19131222976268666
Epoch: 6/15 - Batch: 4100/7933 - Learning rate: 0.001 - Loss: 0.61616206
Epoch: 6/15 - Batch: 4200/7933 - Learning rate: 0.001 - Loss: 0.58949673
Epoch: 6/15 - Batch: 4300/7933 - Learning rate: 0.001 - Loss: 0.665327
Epoch: 6/15 - Batch: 4400/7933 - Learning rate: 0.001 - Loss: 0.6251418
Epoch: 6/15 - Batch: 4500/7933 - Learning rate: 0.001 - Loss: 0.720783
Epoch: 6/15 - Batch: 4600/7933 - Learning rate: 0.001 - Loss: 1.1901965
Epoch: 6/15 - Batch: 4700/7933 - Learning rate: 0.001 - Loss: 0.87236404
Epoch: 6/15 - Batch: 4800/7933 - Learning rate: 0.001 - Loss: 0.85887176
Epoch: 6/15 - Batch: 4900/7933 - Learning rate: 0.001 - Loss: 0.97623956
Epoch: 6/15 - Batch: 5000/7933 - Learning rate: 0.001 - Loss: 1.0200479 - Dev BLEU: 0.21710955774456672
Epoch: 6/15 - Batch: 5100/7933 - Learning rate: 0.001 - Loss: 1.0784667
Epoch: 6/15 - Batch: 5200/7933 - Learning rate: 0.001 - Loss: 1.0058638
Epoch: 6/15 - Batch: 5300/7933 - Learning rate: 0.001 - Loss: 1.0116209
Epoch: 6/15 - Batch: 5400/7933 - Learning rate: 0.001 - Loss: 0.95679563
Epoch: 6/15 - Batch: 5500/7933 - Learning rate: 0.001 - Loss: 0.9760469
Epoch: 6/15 - Batch: 5600/7933 - Learning rate: 0.001 - Loss: 0.75611585
Epoch: 6/15 - Batch: 5700/7933 - Learning rate: 0.001 - Loss: 0.9523532
Epoch: 6/15 - Batch: 5800/7933 - Learning rate: 0.001 - Loss: 0.9236903
Epoch: 6/15 - Batch: 5900/7933 - Learning rate: 0.001 - Loss: 0.66223425
Epoch: 6/15 - Batch: 6000/7933 - Learning rate: 0.001 - Loss: 0.95561016 - Dev BLEU: 0.201600056201928
Epoch: 6/15 - Batch: 6100/7933 - Learning rate: 0.001 - Loss: 0.92642623
Epoch: 6/15 - Batch: 6200/7933 - Learning rate: 0.001 - Loss: 0.8341349
Epoch: 6/15 - Batch: 6300/7933 - Learning rate: 0.001 - Loss: 0.7920662
Epoch: 6/15 - Batch: 6400/7933 - Learning rate: 0.001 - Loss: 0.7240184
Epoch: 6/15 - Batch: 6500/7933 - Learning rate: 0.001 - Loss: 1.2157356
Epoch: 6/15 - Batch: 6600/7933 - Learning rate: 0.001 - Loss: 1.2120613
Epoch: 6/15 - Batch: 6700/7933 - Learning rate: 0.001 - Loss: 0.9858552
Epoch: 6/15 - Batch: 6800/7933 - Learning rate: 0.001 - Loss: 0.92744
Epoch: 6/15 - Batch: 6900/7933 - Learning rate: 0.001 - Loss: 0.6892495
Epoch: 6/15 - Batch: 7000/7933 - Learning rate: 0.001 - Loss: 1.4027017 - Dev BLEU: 0.19678822841595703
Epoch: 6/15 - Batch: 7100/7933 - Learning rate: 0.001 - Loss: 1.013408
Epoch: 6/15 - Batch: 7200/7933 - Learning rate: 0.001 - Loss: 0.81813824
Epoch: 6/15 - Batch: 7300/7933 - Learning rate: 0.001 - Loss: 0.9787434
Epoch: 6/15 - Batch: 7400/7933 - Learning rate: 0.001 - Loss: 1.0353183
Epoch: 6/15 - Batch: 7500/7933 - Learning rate: 0.001 - Loss: 0.7424865
Epoch: 6/15 - Batch: 7600/7933 - Learning rate: 0.001 - Loss: 1.3248814
Epoch: 6/15 - Batch: 7700/7933 - Learning rate: 0.001 - Loss: 1.4535388
Epoch: 6/15 - Batch: 7800/7933 - Learning rate: 0.001 - Loss: 1.3542087
Epoch: 6/15 - Batch: 7900/7933 - Learning rate: 0.001 - Loss: 1.011
Epoch: 6/15 - Batch: 7933/7933 - Learning rate: 0.001 - Loss: 1.4152184 - Dev BLEU: 0.1948807795231858
Epoch: 7/15 - Batch: 100/7933 - Learning rate: 0.001 - Loss: 0.8760742
Epoch: 7/15 - Batch: 200/7933 - Learning rate: 0.001 - Loss: 0.84646624
Epoch: 7/15 - Batch: 300/7933 - Learning rate: 0.001 - Loss: 0.5630236
Epoch: 7/15 - Batch: 400/7933 - Learning rate: 0.001 - Loss: 0.9721433
Epoch: 7/15 - Batch: 500/7933 - Learning rate: 0.001 - Loss: 0.6851621
Epoch: 7/15 - Batch: 600/7933 - Learning rate: 0.001 - Loss: 0.43196148
Epoch: 7/15 - Batch: 700/7933 - Learning rate: 0.001 - Loss: 0.6953035
Epoch: 7/15 - Batch: 800/7933 - Learning rate: 0.001 - Loss: 0.6928918
Epoch: 7/15 - Batch: 900/7933 - Learning rate: 0.001 - Loss: 0.4469347
Epoch: 7/15 - Batch: 1000/7933 - Learning rate: 0.001 - Loss: 0.7579904 - Dev BLEU: 0.18422904569634582
Epoch: 7/15 - Batch: 1100/7933 - Learning rate: 0.001 - Loss: 0.6618168
Epoch: 7/15 - Batch: 1200/7933 - Learning rate: 0.001 - Loss: 0.8957555
Epoch: 7/15 - Batch: 1300/7933 - Learning rate: 0.001 - Loss: 0.7679703
Epoch: 7/15 - Batch: 1400/7933 - Learning rate: 0.001 - Loss: 0.8307731
Epoch: 7/15 - Batch: 1500/7933 - Learning rate: 0.001 - Loss: 0.6106365
Epoch: 7/15 - Batch: 1600/7933 - Learning rate: 0.001 - Loss: 1.1383764
Epoch: 7/15 - Batch: 1700/7933 - Learning rate: 0.001 - Loss: 0.824051
Epoch: 7/15 - Batch: 1800/7933 - Learning rate: 0.001 - Loss: 0.45073175
Epoch: 7/15 - Batch: 1900/7933 - Learning rate: 0.001 - Loss: 0.7045999
Epoch: 7/15 - Batch: 2000/7933 - Learning rate: 0.001 - Loss: 0.7323934 - Dev BLEU: 0.1757515796337728
Epoch: 7/15 - Batch: 2100/7933 - Learning rate: 0.001 - Loss: 0.608139
Epoch: 7/15 - Batch: 2200/7933 - Learning rate: 0.001 - Loss: 0.60924006
Epoch: 7/15 - Batch: 2300/7933 - Learning rate: 0.001 - Loss: 0.76259035
Epoch: 7/15 - Batch: 2400/7933 - Learning rate: 0.001 - Loss: 0.59696645
Epoch: 7/15 - Batch: 2500/7933 - Learning rate: 0.001 - Loss: 0.6061745
Epoch: 7/15 - Batch: 2600/7933 - Learning rate: 0.001 - Loss: 0.49970928
Epoch: 7/15 - Batch: 2700/7933 - Learning rate: 0.001 - Loss: 0.28210008
Epoch: 7/15 - Batch: 2800/7933 - Learning rate: 0.001 - Loss: 0.814061
Epoch: 7/15 - Batch: 2900/7933 - Learning rate: 0.001 - Loss: 0.8947944
Epoch: 7/15 - Batch: 3000/7933 - Learning rate: 0.001 - Loss: 0.8048861 - Dev BLEU: 0.18343507482122703
Epoch: 7/15 - Batch: 3100/7933 - Learning rate: 0.001 - Loss: 0.7992351
Epoch: 7/15 - Batch: 3200/7933 - Learning rate: 0.001 - Loss: 0.76005816
Epoch: 7/15 - Batch: 3300/7933 - Learning rate: 0.001 - Loss: 0.6177402
Epoch: 7/15 - Batch: 3400/7933 - Learning rate: 0.001 - Loss: 0.6204004
Epoch: 7/15 - Batch: 3500/7933 - Learning rate: 0.001 - Loss: 0.8048022
Epoch: 7/15 - Batch: 3600/7933 - Learning rate: 0.001 - Loss: 0.7915016
Epoch: 7/15 - Batch: 3700/7933 - Learning rate: 0.001 - Loss: 0.7647354
Epoch: 7/15 - Batch: 3800/7933 - Learning rate: 0.001 - Loss: 0.7159693
Epoch: 7/15 - Batch: 3900/7933 - Learning rate: 0.001 - Loss: 0.8357166
Epoch: 7/15 - Batch: 4000/7933 - Learning rate: 0.001 - Loss: 0.4876569 - Dev BLEU: 0.1929268940106603
Epoch: 7/15 - Batch: 4100/7933 - Learning rate: 0.001 - Loss: 0.63206303
Epoch: 7/15 - Batch: 4200/7933 - Learning rate: 0.001 - Loss: 0.5838763
Epoch: 7/15 - Batch: 4300/7933 - Learning rate: 0.001 - Loss: 0.6668504
Epoch: 7/15 - Batch: 4400/7933 - Learning rate: 0.001 - Loss: 0.6259124
Epoch: 7/15 - Batch: 4500/7933 - Learning rate: 0.001 - Loss: 0.7146208
Epoch: 7/15 - Batch: 4600/7933 - Learning rate: 0.001 - Loss: 1.1559167
Epoch: 7/15 - Batch: 4700/7933 - Learning rate: 0.001 - Loss: 0.81645316
Epoch: 7/15 - Batch: 4800/7933 - Learning rate: 0.001 - Loss: 0.74568063
Epoch: 7/15 - Batch: 4900/7933 - Learning rate: 0.001 - Loss: 0.89877963
Epoch: 7/15 - Batch: 5000/7933 - Learning rate: 0.001 - Loss: 0.9600237 - Dev BLEU: 0.2222229327442313
Epoch: 7/15 - Batch: 5100/7933 - Learning rate: 0.001 - Loss: 0.9967577
Epoch: 7/15 - Batch: 5200/7933 - Learning rate: 0.001 - Loss: 0.9663561
Epoch: 7/15 - Batch: 5300/7933 - Learning rate: 0.001 - Loss: 0.9496766
Epoch: 7/15 - Batch: 5400/7933 - Learning rate: 0.001 - Loss: 0.85496074
Epoch: 7/15 - Batch: 5500/7933 - Learning rate: 0.001 - Loss: 0.89069474
Epoch: 7/15 - Batch: 5600/7933 - Learning rate: 0.001 - Loss: 0.6873555
Epoch: 7/15 - Batch: 5700/7933 - Learning rate: 0.001 - Loss: 0.8556335
Epoch: 7/15 - Batch: 5800/7933 - Learning rate: 0.001 - Loss: 0.8518339
Epoch: 7/15 - Batch: 5900/7933 - Learning rate: 0.001 - Loss: 0.6143308
Epoch: 7/15 - Batch: 6000/7933 - Learning rate: 0.001 - Loss: 0.8983176 - Dev BLEU: 0.2167176397295851
Epoch: 7/15 - Batch: 6100/7933 - Learning rate: 0.001 - Loss: 0.84831256
Epoch: 7/15 - Batch: 6200/7933 - Learning rate: 0.001 - Loss: 0.78025156
Epoch: 7/15 - Batch: 6300/7933 - Learning rate: 0.001 - Loss: 0.7172978
Epoch: 7/15 - Batch: 6400/7933 - Learning rate: 0.001 - Loss: 0.69399554
Epoch: 7/15 - Batch: 6500/7933 - Learning rate: 0.001 - Loss: 0.80324525
Epoch: 7/15 - Batch: 6600/7933 - Learning rate: 0.001 - Loss: 0.8035275
Epoch: 7/15 - Batch: 6700/7933 - Learning rate: 0.001 - Loss: 0.76887864
Epoch: 7/15 - Batch: 6800/7933 - Learning rate: 0.001 - Loss: 0.770386
Epoch: 7/15 - Batch: 6900/7933 - Learning rate: 0.001 - Loss: 0.5276079
Epoch: 7/15 - Batch: 7000/7933 - Learning rate: 0.001 - Loss: 1.1288494 - Dev BLEU: 0.2413555687693573
Epoch: 7/15 - Batch: 7100/7933 - Learning rate: 0.001 - Loss: 0.83744246
Epoch: 7/15 - Batch: 7200/7933 - Learning rate: 0.001 - Loss: 0.67063314
Epoch: 7/15 - Batch: 7300/7933 - Learning rate: 0.001 - Loss: 0.81657815
Epoch: 7/15 - Batch: 7400/7933 - Learning rate: 0.001 - Loss: 0.8768895
Epoch: 7/15 - Batch: 7500/7933 - Learning rate: 0.001 - Loss: 0.63982964
Epoch: 7/15 - Batch: 7600/7933 - Learning rate: 0.001 - Loss: 1.1184094
Epoch: 7/15 - Batch: 7700/7933 - Learning rate: 0.001 - Loss: 1.2963071
Epoch: 7/15 - Batch: 7800/7933 - Learning rate: 0.001 - Loss: 1.1496682
Epoch: 7/15 - Batch: 7900/7933 - Learning rate: 0.001 - Loss: 0.85474956
Epoch: 7/15 - Batch: 7933/7933 - Learning rate: 0.001 - Loss: 1.1418676 - Dev BLEU: 0.2212023529050985
Epoch: 8/15 - Batch: 100/7933 - Learning rate: 0.0005 - Loss: 0.7880419
Epoch: 8/15 - Batch: 200/7933 - Learning rate: 0.0005 - Loss: 0.68341106
Epoch: 8/15 - Batch: 300/7933 - Learning rate: 0.0005 - Loss: 0.5130611
Epoch: 8/15 - Batch: 400/7933 - Learning rate: 0.0005 - Loss: 0.8439877
Epoch: 8/15 - Batch: 500/7933 - Learning rate: 0.0005 - Loss: 0.5860625
Epoch: 8/15 - Batch: 600/7933 - Learning rate: 0.0005 - Loss: 0.39262748
Epoch: 8/15 - Batch: 700/7933 - Learning rate: 0.0005 - Loss: 0.6197411
Epoch: 8/15 - Batch: 800/7933 - Learning rate: 0.0005 - Loss: 0.6145383
Epoch: 8/15 - Batch: 900/7933 - Learning rate: 0.0005 - Loss: 0.4025154
Epoch: 8/15 - Batch: 1000/7933 - Learning rate: 0.0005 - Loss: 0.6952417 - Dev BLEU: 0.2084299880208163
Epoch: 8/15 - Batch: 1100/7933 - Learning rate: 0.0005 - Loss: 0.58525753
Epoch: 8/15 - Batch: 1200/7933 - Learning rate: 0.0005 - Loss: 0.80129826
Epoch: 8/15 - Batch: 1300/7933 - Learning rate: 0.0005 - Loss: 0.6870084
Epoch: 8/15 - Batch: 1400/7933 - Learning rate: 0.0005 - Loss: 0.75863826
Epoch: 8/15 - Batch: 1500/7933 - Learning rate: 0.0005 - Loss: 0.5344537
Epoch: 8/15 - Batch: 1600/7933 - Learning rate: 0.0005 - Loss: 1.0241905
Epoch: 8/15 - Batch: 1700/7933 - Learning rate: 0.0005 - Loss: 0.7535126
Epoch: 8/15 - Batch: 1800/7933 - Learning rate: 0.0005 - Loss: 0.39753526
Epoch: 8/15 - Batch: 1900/7933 - Learning rate: 0.0005 - Loss: 0.6268278
Epoch: 8/15 - Batch: 2000/7933 - Learning rate: 0.0005 - Loss: 0.6463687 - Dev BLEU: 0.20242313447413868
Epoch: 8/15 - Batch: 2100/7933 - Learning rate: 0.0005 - Loss: 0.53564215
Epoch: 8/15 - Batch: 2200/7933 - Learning rate: 0.0005 - Loss: 0.54021233
Epoch: 8/15 - Batch: 2300/7933 - Learning rate: 0.0005 - Loss: 0.68260324
Epoch: 8/15 - Batch: 2400/7933 - Learning rate: 0.0005 - Loss: 0.5472815
Epoch: 8/15 - Batch: 2500/7933 - Learning rate: 0.0005 - Loss: 0.55137324
Epoch: 8/15 - Batch: 2600/7933 - Learning rate: 0.0005 - Loss: 0.44218493
Epoch: 8/15 - Batch: 2700/7933 - Learning rate: 0.0005 - Loss: 0.25263777
Epoch: 8/15 - Batch: 2800/7933 - Learning rate: 0.0005 - Loss: 0.7244654
Epoch: 8/15 - Batch: 2900/7933 - Learning rate: 0.0005 - Loss: 0.8178728
Epoch: 8/15 - Batch: 3000/7933 - Learning rate: 0.0005 - Loss: 0.7380118 - Dev BLEU: 0.20000445511460524
Epoch: 8/15 - Batch: 3100/7933 - Learning rate: 0.0005 - Loss: 0.751805
Epoch: 8/15 - Batch: 3200/7933 - Learning rate: 0.0005 - Loss: 0.71323615
Epoch: 8/15 - Batch: 3300/7933 - Learning rate: 0.0005 - Loss: 0.58744574
Epoch: 8/15 - Batch: 3400/7933 - Learning rate: 0.0005 - Loss: 0.58155864
Epoch: 8/15 - Batch: 3500/7933 - Learning rate: 0.0005 - Loss: 0.74013007
Epoch: 8/15 - Batch: 3600/7933 - Learning rate: 0.0005 - Loss: 0.73262733
Epoch: 8/15 - Batch: 3700/7933 - Learning rate: 0.0005 - Loss: 0.70137715
Epoch: 8/15 - Batch: 3800/7933 - Learning rate: 0.0005 - Loss: 0.673683
Epoch: 8/15 - Batch: 3900/7933 - Learning rate: 0.0005 - Loss: 0.7587851
Epoch: 8/15 - Batch: 4000/7933 - Learning rate: 0.0005 - Loss: 0.44649497 - Dev BLEU: 0.21264525058445594
Epoch: 8/15 - Batch: 4100/7933 - Learning rate: 0.0005 - Loss: 0.5801872
Epoch: 8/15 - Batch: 4200/7933 - Learning rate: 0.0005 - Loss: 0.5508932
Epoch: 8/15 - Batch: 4300/7933 - Learning rate: 0.0005 - Loss: 0.6307914
Epoch: 8/15 - Batch: 4400/7933 - Learning rate: 0.0005 - Loss: 0.5893718
Epoch: 8/15 - Batch: 4500/7933 - Learning rate: 0.0005 - Loss: 0.66982585
Epoch: 8/15 - Batch: 4600/7933 - Learning rate: 0.0005 - Loss: 1.0502391
Epoch: 8/15 - Batch: 4700/7933 - Learning rate: 0.0005 - Loss: 0.7486808
Epoch: 8/15 - Batch: 4800/7933 - Learning rate: 0.0005 - Loss: 0.73534477
Epoch: 8/15 - Batch: 4900/7933 - Learning rate: 0.0005 - Loss: 0.8414702
Epoch: 8/15 - Batch: 5000/7933 - Learning rate: 0.0005 - Loss: 0.89820856 - Dev BLEU: 0.23266204413903532
Epoch: 8/15 - Batch: 5100/7933 - Learning rate: 0.0005 - Loss: 0.9610033
Epoch: 8/15 - Batch: 5200/7933 - Learning rate: 0.0005 - Loss: 0.9178474
Epoch: 8/15 - Batch: 5300/7933 - Learning rate: 0.0005 - Loss: 0.91252
Epoch: 8/15 - Batch: 5400/7933 - Learning rate: 0.0005 - Loss: 0.8410682
Epoch: 8/15 - Batch: 5500/7933 - Learning rate: 0.0005 - Loss: 0.8563267
Epoch: 8/15 - Batch: 5600/7933 - Learning rate: 0.0005 - Loss: 0.66701615
Epoch: 8/15 - Batch: 5700/7933 - Learning rate: 0.0005 - Loss: 0.8283123
Epoch: 8/15 - Batch: 5800/7933 - Learning rate: 0.0005 - Loss: 0.8271653
Epoch: 8/15 - Batch: 5900/7933 - Learning rate: 0.0005 - Loss: 0.5530408
Epoch: 8/15 - Batch: 6000/7933 - Learning rate: 0.0005 - Loss: 0.8808319 - Dev BLEU: 0.226988418743057
Epoch: 8/15 - Batch: 6100/7933 - Learning rate: 0.0005 - Loss: 0.83461785
Epoch: 8/15 - Batch: 6200/7933 - Learning rate: 0.0005 - Loss: 0.7425755
Epoch: 8/15 - Batch: 6300/7933 - Learning rate: 0.0005 - Loss: 0.6971639
Epoch: 8/15 - Batch: 6400/7933 - Learning rate: 0.0005 - Loss: 0.6639372
Epoch: 8/15 - Batch: 6500/7933 - Learning rate: 0.0005 - Loss: 0.7738967
Epoch: 8/15 - Batch: 6600/7933 - Learning rate: 0.0005 - Loss: 0.7562065
Epoch: 8/15 - Batch: 6700/7933 - Learning rate: 0.0005 - Loss: 0.73163754
Epoch: 8/15 - Batch: 6800/7933 - Learning rate: 0.0005 - Loss: 0.74640745
Epoch: 8/15 - Batch: 6900/7933 - Learning rate: 0.0005 - Loss: 0.49746844
Epoch: 8/15 - Batch: 7000/7933 - Learning rate: 0.0005 - Loss: 1.0614308 - Dev BLEU: 0.248136592471363
Epoch: 8/15 - Batch: 7100/7933 - Learning rate: 0.0005 - Loss: 0.80815876
Epoch: 8/15 - Batch: 7200/7933 - Learning rate: 0.0005 - Loss: 0.6336401
Epoch: 8/15 - Batch: 7300/7933 - Learning rate: 0.0005 - Loss: 0.7793248
Epoch: 8/15 - Batch: 7400/7933 - Learning rate: 0.0005 - Loss: 0.83720124
Epoch: 8/15 - Batch: 7500/7933 - Learning rate: 0.0005 - Loss: 0.608572
Epoch: 8/15 - Batch: 7600/7933 - Learning rate: 0.0005 - Loss: 1.0663639
Epoch: 8/15 - Batch: 7700/7933 - Learning rate: 0.0005 - Loss: 1.2206345
Epoch: 8/15 - Batch: 7800/7933 - Learning rate: 0.0005 - Loss: 1.0724612
Epoch: 8/15 - Batch: 7900/7933 - Learning rate: 0.0005 - Loss: 0.8079059
Epoch: 8/15 - Batch: 7933/7933 - Learning rate: 0.0005 - Loss: 1.041914 - Dev BLEU: 0.23027360602719618
Epoch: 9/15 - Batch: 100/7933 - Learning rate: 0.00025 - Loss: 0.7641314
Epoch: 9/15 - Batch: 200/7933 - Learning rate: 0.00025 - Loss: 0.6617299
Epoch: 9/15 - Batch: 300/7933 - Learning rate: 0.00025 - Loss: 0.50730515
Epoch: 9/15 - Batch: 400/7933 - Learning rate: 0.00025 - Loss: 0.804325
Epoch: 9/15 - Batch: 500/7933 - Learning rate: 0.00025 - Loss: 0.54311675
Epoch: 9/15 - Batch: 600/7933 - Learning rate: 0.00025 - Loss: 0.38619056
Epoch: 9/15 - Batch: 700/7933 - Learning rate: 0.00025 - Loss: 0.6195325
Epoch: 9/15 - Batch: 800/7933 - Learning rate: 0.00025 - Loss: 0.5852936
Epoch: 9/15 - Batch: 900/7933 - Learning rate: 0.00025 - Loss: 0.38170016
Epoch: 9/15 - Batch: 1000/7933 - Learning rate: 0.00025 - Loss: 0.65084743 - Dev BLEU: 0.22124961361142342
Epoch: 9/15 - Batch: 1100/7933 - Learning rate: 0.00025 - Loss: 0.5649813
Epoch: 9/15 - Batch: 1200/7933 - Learning rate: 0.00025 - Loss: 0.77466244
Epoch: 9/15 - Batch: 1300/7933 - Learning rate: 0.00025 - Loss: 0.65698206
Epoch: 9/15 - Batch: 1400/7933 - Learning rate: 0.00025 - Loss: 0.7367068
Epoch: 9/15 - Batch: 1500/7933 - Learning rate: 0.00025 - Loss: 0.5275565
Epoch: 9/15 - Batch: 1600/7933 - Learning rate: 0.00025 - Loss: 1.0026124
Epoch: 9/15 - Batch: 1700/7933 - Learning rate: 0.00025 - Loss: 0.7286503
Epoch: 9/15 - Batch: 1800/7933 - Learning rate: 0.00025 - Loss: 0.3813218
Epoch: 9/15 - Batch: 1900/7933 - Learning rate: 0.00025 - Loss: 0.605089
Epoch: 9/15 - Batch: 2000/7933 - Learning rate: 0.00025 - Loss: 0.6425193 - Dev BLEU: 0.21153966253989426
Epoch: 9/15 - Batch: 2100/7933 - Learning rate: 0.00025 - Loss: 0.523039
Epoch: 9/15 - Batch: 2200/7933 - Learning rate: 0.00025 - Loss: 0.521455
Epoch: 9/15 - Batch: 2300/7933 - Learning rate: 0.00025 - Loss: 0.6652311
Epoch: 9/15 - Batch: 2400/7933 - Learning rate: 0.00025 - Loss: 0.5090882
Epoch: 9/15 - Batch: 2500/7933 - Learning rate: 0.00025 - Loss: 0.5272958
Epoch: 9/15 - Batch: 2600/7933 - Learning rate: 0.00025 - Loss: 0.4295937
Epoch: 9/15 - Batch: 2700/7933 - Learning rate: 0.00025 - Loss: 0.25069693
Epoch: 9/15 - Batch: 2800/7933 - Learning rate: 0.00025 - Loss: 0.7022664
Epoch: 9/15 - Batch: 2900/7933 - Learning rate: 0.00025 - Loss: 0.7993916
Epoch: 9/15 - Batch: 3000/7933 - Learning rate: 0.00025 - Loss: 0.69905263 - Dev BLEU: 0.2149919151038471
Epoch: 9/15 - Batch: 3100/7933 - Learning rate: 0.00025 - Loss: 0.72139424
Epoch: 9/15 - Batch: 3200/7933 - Learning rate: 0.00025 - Loss: 0.68263465
Epoch: 9/15 - Batch: 3300/7933 - Learning rate: 0.00025 - Loss: 0.5736519
Epoch: 9/15 - Batch: 3400/7933 - Learning rate: 0.00025 - Loss: 0.56518924
Epoch: 9/15 - Batch: 3500/7933 - Learning rate: 0.00025 - Loss: 0.69420683
Epoch: 9/15 - Batch: 3600/7933 - Learning rate: 0.00025 - Loss: 0.70087695
Epoch: 9/15 - Batch: 3700/7933 - Learning rate: 0.00025 - Loss: 0.68361837
Epoch: 9/15 - Batch: 3800/7933 - Learning rate: 0.00025 - Loss: 0.63583577
Epoch: 9/15 - Batch: 3900/7933 - Learning rate: 0.00025 - Loss: 0.7261789
Epoch: 9/15 - Batch: 4000/7933 - Learning rate: 0.00025 - Loss: 0.43379727 - Dev BLEU: 0.22130177280273264
Epoch: 9/15 - Batch: 4100/7933 - Learning rate: 0.00025 - Loss: 0.56261265
Epoch: 9/15 - Batch: 4200/7933 - Learning rate: 0.00025 - Loss: 0.5284706
Epoch: 9/15 - Batch: 4300/7933 - Learning rate: 0.00025 - Loss: 0.6051148
Epoch: 9/15 - Batch: 4400/7933 - Learning rate: 0.00025 - Loss: 0.55934715
Epoch: 9/15 - Batch: 4500/7933 - Learning rate: 0.00025 - Loss: 0.6513677
Epoch: 9/15 - Batch: 4600/7933 - Learning rate: 0.00025 - Loss: 0.970906
Epoch: 9/15 - Batch: 4700/7933 - Learning rate: 0.00025 - Loss: 0.7086668
Epoch: 9/15 - Batch: 4800/7933 - Learning rate: 0.00025 - Loss: 0.6842243
Epoch: 9/15 - Batch: 4900/7933 - Learning rate: 0.00025 - Loss: 0.7864782
Epoch: 9/15 - Batch: 5000/7933 - Learning rate: 0.00025 - Loss: 0.8610196 - Dev BLEU: 0.2402172782738917
Epoch: 9/15 - Batch: 5100/7933 - Learning rate: 0.00025 - Loss: 0.90503615
Epoch: 9/15 - Batch: 5200/7933 - Learning rate: 0.00025 - Loss: 0.89109945
Epoch: 9/15 - Batch: 5300/7933 - Learning rate: 0.00025 - Loss: 0.8730732
Epoch: 9/15 - Batch: 5400/7933 - Learning rate: 0.00025 - Loss: 0.8044093
Epoch: 9/15 - Batch: 5500/7933 - Learning rate: 0.00025 - Loss: 0.80505294
Epoch: 9/15 - Batch: 5600/7933 - Learning rate: 0.00025 - Loss: 0.629247
Epoch: 9/15 - Batch: 5700/7933 - Learning rate: 0.00025 - Loss: 0.7756983
Epoch: 9/15 - Batch: 5800/7933 - Learning rate: 0.00025 - Loss: 0.76078385
Epoch: 9/15 - Batch: 5900/7933 - Learning rate: 0.00025 - Loss: 0.533173
Epoch: 9/15 - Batch: 6000/7933 - Learning rate: 0.00025 - Loss: 0.8233269 - Dev BLEU: 0.24119999193949743
Epoch: 9/15 - Batch: 6100/7933 - Learning rate: 0.00025 - Loss: 0.7669868
Epoch: 9/15 - Batch: 6200/7933 - Learning rate: 0.00025 - Loss: 0.71264374
Epoch: 9/15 - Batch: 6300/7933 - Learning rate: 0.00025 - Loss: 0.68061036
Epoch: 9/15 - Batch: 6400/7933 - Learning rate: 0.00025 - Loss: 0.6268738
Epoch: 9/15 - Batch: 6500/7933 - Learning rate: 0.00025 - Loss: 0.7491233
Epoch: 9/15 - Batch: 6600/7933 - Learning rate: 0.00025 - Loss: 0.7299108
Epoch: 9/15 - Batch: 6700/7933 - Learning rate: 0.00025 - Loss: 0.7171226
Epoch: 9/15 - Batch: 6800/7933 - Learning rate: 0.00025 - Loss: 0.7220964
Epoch: 9/15 - Batch: 6900/7933 - Learning rate: 0.00025 - Loss: 0.48952425
Epoch: 9/15 - Batch: 7000/7933 - Learning rate: 0.00025 - Loss: 1.0524937 - Dev BLEU: 0.25538279661974816
Epoch: 9/15 - Batch: 7100/7933 - Learning rate: 0.00025 - Loss: 0.78197664
Epoch: 9/15 - Batch: 7200/7933 - Learning rate: 0.00025 - Loss: 0.61249286
Epoch: 9/15 - Batch: 7300/7933 - Learning rate: 0.00025 - Loss: 0.7558837
Epoch: 9/15 - Batch: 7400/7933 - Learning rate: 0.00025 - Loss: 0.8165835
Epoch: 9/15 - Batch: 7500/7933 - Learning rate: 0.00025 - Loss: 0.598561
Epoch: 9/15 - Batch: 7600/7933 - Learning rate: 0.00025 - Loss: 1.0312537
Epoch: 9/15 - Batch: 7700/7933 - Learning rate: 0.00025 - Loss: 1.183858
Epoch: 9/15 - Batch: 7800/7933 - Learning rate: 0.00025 - Loss: 1.0380309
Epoch: 9/15 - Batch: 7900/7933 - Learning rate: 0.00025 - Loss: 0.77981454
Epoch: 9/15 - Batch: 7933/7933 - Learning rate: 0.00025 - Loss: 1.0196556 - Dev BLEU: 0.23760197662063054
Epoch: 10/15 - Batch: 100/7933 - Learning rate: 0.000125 - Loss: 0.7550049
Epoch: 10/15 - Batch: 200/7933 - Learning rate: 0.000125 - Loss: 0.6501898
Epoch: 10/15 - Batch: 300/7933 - Learning rate: 0.000125 - Loss: 0.4928339
Epoch: 10/15 - Batch: 400/7933 - Learning rate: 0.000125 - Loss: 0.7891376
Epoch: 10/15 - Batch: 500/7933 - Learning rate: 0.000125 - Loss: 0.5354651
Epoch: 10/15 - Batch: 600/7933 - Learning rate: 0.000125 - Loss: 0.37436733
Epoch: 10/15 - Batch: 700/7933 - Learning rate: 0.000125 - Loss: 0.5809682
Epoch: 10/15 - Batch: 800/7933 - Learning rate: 0.000125 - Loss: 0.5767684
Epoch: 10/15 - Batch: 900/7933 - Learning rate: 0.000125 - Loss: 0.3797544
Epoch: 10/15 - Batch: 1000/7933 - Learning rate: 0.000125 - Loss: 0.6348067 - Dev BLEU: 0.22682340859872058
Epoch: 10/15 - Batch: 1100/7933 - Learning rate: 0.000125 - Loss: 0.5577062
Epoch: 10/15 - Batch: 1200/7933 - Learning rate: 0.000125 - Loss: 0.74438906
Epoch: 10/15 - Batch: 1300/7933 - Learning rate: 0.000125 - Loss: 0.6507316
Epoch: 10/15 - Batch: 1400/7933 - Learning rate: 0.000125 - Loss: 0.713695
Epoch: 10/15 - Batch: 1500/7933 - Learning rate: 0.000125 - Loss: 0.5253975
Epoch: 10/15 - Batch: 1600/7933 - Learning rate: 0.000125 - Loss: 0.9816184
Epoch: 10/15 - Batch: 1700/7933 - Learning rate: 0.000125 - Loss: 0.72192264
Epoch: 10/15 - Batch: 1800/7933 - Learning rate: 0.000125 - Loss: 0.3707451
Epoch: 10/15 - Batch: 1900/7933 - Learning rate: 0.000125 - Loss: 0.59374064
Epoch: 10/15 - Batch: 2000/7933 - Learning rate: 0.000125 - Loss: 0.6183944 - Dev BLEU: 0.22166400975534958
Epoch: 10/15 - Batch: 2100/7933 - Learning rate: 0.000125 - Loss: 0.49481985
Epoch: 10/15 - Batch: 2200/7933 - Learning rate: 0.000125 - Loss: 0.5057566
Epoch: 10/15 - Batch: 2300/7933 - Learning rate: 0.000125 - Loss: 0.6471794
Epoch: 10/15 - Batch: 2400/7933 - Learning rate: 0.000125 - Loss: 0.49656433
Epoch: 10/15 - Batch: 2500/7933 - Learning rate: 0.000125 - Loss: 0.5028991
Epoch: 10/15 - Batch: 2600/7933 - Learning rate: 0.000125 - Loss: 0.42000356
Epoch: 10/15 - Batch: 2700/7933 - Learning rate: 0.000125 - Loss: 0.24866676
Epoch: 10/15 - Batch: 2800/7933 - Learning rate: 0.000125 - Loss: 0.66830134
Epoch: 10/15 - Batch: 2900/7933 - Learning rate: 0.000125 - Loss: 0.7770901
Epoch: 10/15 - Batch: 3000/7933 - Learning rate: 0.000125 - Loss: 0.68792605 - Dev BLEU: 0.22252051272928222
Epoch: 10/15 - Batch: 3100/7933 - Learning rate: 0.000125 - Loss: 0.7102819
Epoch: 10/15 - Batch: 3200/7933 - Learning rate: 0.000125 - Loss: 0.6720669
Epoch: 10/15 - Batch: 3300/7933 - Learning rate: 0.000125 - Loss: 0.55595094
Epoch: 10/15 - Batch: 3400/7933 - Learning rate: 0.000125 - Loss: 0.5427768
Epoch: 10/15 - Batch: 3500/7933 - Learning rate: 0.000125 - Loss: 0.68889487
Epoch: 10/15 - Batch: 3600/7933 - Learning rate: 0.000125 - Loss: 0.68064207
Epoch: 10/15 - Batch: 3700/7933 - Learning rate: 0.000125 - Loss: 0.66463095
Epoch: 10/15 - Batch: 3800/7933 - Learning rate: 0.000125 - Loss: 0.6186584
Epoch: 10/15 - Batch: 3900/7933 - Learning rate: 0.000125 - Loss: 0.7090254
Epoch: 10/15 - Batch: 4000/7933 - Learning rate: 0.000125 - Loss: 0.41853285 - Dev BLEU: 0.2277822792875701
Epoch: 10/15 - Batch: 4100/7933 - Learning rate: 0.000125 - Loss: 0.5554291
Epoch: 10/15 - Batch: 4200/7933 - Learning rate: 0.000125 - Loss: 0.50253373
Epoch: 10/15 - Batch: 4300/7933 - Learning rate: 0.000125 - Loss: 0.59127486
Epoch: 10/15 - Batch: 4400/7933 - Learning rate: 0.000125 - Loss: 0.56204325
Epoch: 10/15 - Batch: 4500/7933 - Learning rate: 0.000125 - Loss: 0.6324227
Epoch: 10/15 - Batch: 4600/7933 - Learning rate: 0.000125 - Loss: 0.9170044
Epoch: 10/15 - Batch: 4700/7933 - Learning rate: 0.000125 - Loss: 0.65893346
Epoch: 10/15 - Batch: 4800/7933 - Learning rate: 0.000125 - Loss: 0.63307804
Epoch: 10/15 - Batch: 4900/7933 - Learning rate: 0.000125 - Loss: 0.78152305
Epoch: 10/15 - Batch: 5000/7933 - Learning rate: 0.000125 - Loss: 0.8390296 - Dev BLEU: 0.24427846517334784
Epoch: 10/15 - Batch: 5100/7933 - Learning rate: 0.000125 - Loss: 0.8747078
Epoch: 10/15 - Batch: 5200/7933 - Learning rate: 0.000125 - Loss: 0.8677282
Epoch: 10/15 - Batch: 5300/7933 - Learning rate: 0.000125 - Loss: 0.84273595
Epoch: 10/15 - Batch: 5400/7933 - Learning rate: 0.000125 - Loss: 0.78742945
Epoch: 10/15 - Batch: 5500/7933 - Learning rate: 0.000125 - Loss: 0.7707388
Epoch: 10/15 - Batch: 5600/7933 - Learning rate: 0.000125 - Loss: 0.61387384
Epoch: 10/15 - Batch: 5700/7933 - Learning rate: 0.000125 - Loss: 0.74519974
Epoch: 10/15 - Batch: 5800/7933 - Learning rate: 0.000125 - Loss: 0.7356965
Epoch: 10/15 - Batch: 5900/7933 - Learning rate: 0.000125 - Loss: 0.51327145
Epoch: 10/15 - Batch: 6000/7933 - Learning rate: 0.000125 - Loss: 0.8006121 - Dev BLEU: 0.24680815945533158
Epoch: 10/15 - Batch: 6100/7933 - Learning rate: 0.000125 - Loss: 0.7253036
Epoch: 10/15 - Batch: 6200/7933 - Learning rate: 0.000125 - Loss: 0.68277276
Epoch: 10/15 - Batch: 6300/7933 - Learning rate: 0.000125 - Loss: 0.6721067
Epoch: 10/15 - Batch: 6400/7933 - Learning rate: 0.000125 - Loss: 0.61964875
Epoch: 10/15 - Batch: 6500/7933 - Learning rate: 0.000125 - Loss: 0.74090636
Epoch: 10/15 - Batch: 6600/7933 - Learning rate: 0.000125 - Loss: 0.72499776
Epoch: 10/15 - Batch: 6700/7933 - Learning rate: 0.000125 - Loss: 0.70753276
Epoch: 10/15 - Batch: 6800/7933 - Learning rate: 0.000125 - Loss: 0.7133896
Epoch: 10/15 - Batch: 6900/7933 - Learning rate: 0.000125 - Loss: 0.47805664
Epoch: 10/15 - Batch: 7000/7933 - Learning rate: 0.000125 - Loss: 1.0307992 - Dev BLEU: 0.2560422219775648
Epoch: 10/15 - Batch: 7100/7933 - Learning rate: 0.000125 - Loss: 0.7566923
Epoch: 10/15 - Batch: 7200/7933 - Learning rate: 0.000125 - Loss: 0.6054921
Epoch: 10/15 - Batch: 7300/7933 - Learning rate: 0.000125 - Loss: 0.7444595
Epoch: 10/15 - Batch: 7400/7933 - Learning rate: 0.000125 - Loss: 0.80701566
Epoch: 10/15 - Batch: 7500/7933 - Learning rate: 0.000125 - Loss: 0.58862394
Epoch: 10/15 - Batch: 7600/7933 - Learning rate: 0.000125 - Loss: 1.0018233
Epoch: 10/15 - Batch: 7700/7933 - Learning rate: 0.000125 - Loss: 1.1561687
Epoch: 10/15 - Batch: 7800/7933 - Learning rate: 0.000125 - Loss: 1.0163682
Epoch: 10/15 - Batch: 7900/7933 - Learning rate: 0.000125 - Loss: 0.77825725
Epoch: 10/15 - Batch: 7933/7933 - Learning rate: 0.000125 - Loss: 0.98897445 - Dev BLEU: 0.24254760659132912
Epoch: 11/15 - Batch: 100/7933 - Learning rate: 6.25e-05 - Loss: 0.7348639
Epoch: 11/15 - Batch: 200/7933 - Learning rate: 6.25e-05 - Loss: 0.6239189
Epoch: 11/15 - Batch: 300/7933 - Learning rate: 6.25e-05 - Loss: 0.49266684
Epoch: 11/15 - Batch: 400/7933 - Learning rate: 6.25e-05 - Loss: 0.7779996
Epoch: 11/15 - Batch: 500/7933 - Learning rate: 6.25e-05 - Loss: 0.5289882
Epoch: 11/15 - Batch: 600/7933 - Learning rate: 6.25e-05 - Loss: 0.37421772
Epoch: 11/15 - Batch: 700/7933 - Learning rate: 6.25e-05 - Loss: 0.5752216
Epoch: 11/15 - Batch: 800/7933 - Learning rate: 6.25e-05 - Loss: 0.57255995
Epoch: 11/15 - Batch: 900/7933 - Learning rate: 6.25e-05 - Loss: 0.37166655
Epoch: 11/15 - Batch: 1000/7933 - Learning rate: 6.25e-05 - Loss: 0.617414 - Dev BLEU: 0.23086342929849976
Epoch: 11/15 - Batch: 1100/7933 - Learning rate: 6.25e-05 - Loss: 0.5552201
Epoch: 11/15 - Batch: 1200/7933 - Learning rate: 6.25e-05 - Loss: 0.73586184
Epoch: 11/15 - Batch: 1300/7933 - Learning rate: 6.25e-05 - Loss: 0.63004494
Epoch: 11/15 - Batch: 1400/7933 - Learning rate: 6.25e-05 - Loss: 0.7064012
Epoch: 11/15 - Batch: 1500/7933 - Learning rate: 6.25e-05 - Loss: 0.513667
Epoch: 11/15 - Batch: 1600/7933 - Learning rate: 6.25e-05 - Loss: 0.9659468
Epoch: 11/15 - Batch: 1700/7933 - Learning rate: 6.25e-05 - Loss: 0.7141925
Epoch: 11/15 - Batch: 1800/7933 - Learning rate: 6.25e-05 - Loss: 0.37124965
Epoch: 11/15 - Batch: 1900/7933 - Learning rate: 6.25e-05 - Loss: 0.5935772
Epoch: 11/15 - Batch: 2000/7933 - Learning rate: 6.25e-05 - Loss: 0.6251453 - Dev BLEU: 0.22654217593672715
Epoch: 11/15 - Batch: 2100/7933 - Learning rate: 6.25e-05 - Loss: 0.4931128
Epoch: 11/15 - Batch: 2200/7933 - Learning rate: 6.25e-05 - Loss: 0.49501047
Epoch: 11/15 - Batch: 2300/7933 - Learning rate: 6.25e-05 - Loss: 0.6470702
Epoch: 11/15 - Batch: 2400/7933 - Learning rate: 6.25e-05 - Loss: 0.50904703
Epoch: 11/15 - Batch: 2500/7933 - Learning rate: 6.25e-05 - Loss: 0.50497246
Epoch: 11/15 - Batch: 2600/7933 - Learning rate: 6.25e-05 - Loss: 0.4313773
Epoch: 11/15 - Batch: 2700/7933 - Learning rate: 6.25e-05 - Loss: 0.25012776
Epoch: 11/15 - Batch: 2800/7933 - Learning rate: 6.25e-05 - Loss: 0.66396844
Epoch: 11/15 - Batch: 2900/7933 - Learning rate: 6.25e-05 - Loss: 0.77631116
Epoch: 11/15 - Batch: 3000/7933 - Learning rate: 6.25e-05 - Loss: 0.6787808 - Dev BLEU: 0.22662219823183483
Epoch: 11/15 - Batch: 3100/7933 - Learning rate: 6.25e-05 - Loss: 0.70223665
Epoch: 11/15 - Batch: 3200/7933 - Learning rate: 6.25e-05 - Loss: 0.66112787
Epoch: 11/15 - Batch: 3300/7933 - Learning rate: 6.25e-05 - Loss: 0.5480946
Epoch: 11/15 - Batch: 3400/7933 - Learning rate: 6.25e-05 - Loss: 0.54021096
Epoch: 11/15 - Batch: 3500/7933 - Learning rate: 6.25e-05 - Loss: 0.6737931
Epoch: 11/15 - Batch: 3600/7933 - Learning rate: 6.25e-05 - Loss: 0.68161833
Epoch: 11/15 - Batch: 3700/7933 - Learning rate: 6.25e-05 - Loss: 0.66783965
Epoch: 11/15 - Batch: 3800/7933 - Learning rate: 6.25e-05 - Loss: 0.6231897
Epoch: 11/15 - Batch: 3900/7933 - Learning rate: 6.25e-05 - Loss: 0.70551634
Epoch: 11/15 - Batch: 4000/7933 - Learning rate: 6.25e-05 - Loss: 0.42337427 - Dev BLEU: 0.23019410037745924
Epoch: 11/15 - Batch: 4100/7933 - Learning rate: 6.25e-05 - Loss: 0.5587158
Epoch: 11/15 - Batch: 4200/7933 - Learning rate: 6.25e-05 - Loss: 0.5073521
Epoch: 11/15 - Batch: 4300/7933 - Learning rate: 6.25e-05 - Loss: 0.58883196
Epoch: 11/15 - Batch: 4400/7933 - Learning rate: 6.25e-05 - Loss: 0.551525
Epoch: 11/15 - Batch: 4500/7933 - Learning rate: 6.25e-05 - Loss: 0.62337947
Epoch: 11/15 - Batch: 4600/7933 - Learning rate: 6.25e-05 - Loss: 0.92053556
Epoch: 11/15 - Batch: 4700/7933 - Learning rate: 6.25e-05 - Loss: 0.64476484
Epoch: 11/15 - Batch: 4800/7933 - Learning rate: 6.25e-05 - Loss: 0.6271499
Epoch: 11/15 - Batch: 4900/7933 - Learning rate: 6.25e-05 - Loss: 0.7548206
Epoch: 11/15 - Batch: 5000/7933 - Learning rate: 6.25e-05 - Loss: 0.8000324 - Dev BLEU: 0.24584915925038073
Epoch: 11/15 - Batch: 5100/7933 - Learning rate: 6.25e-05 - Loss: 0.8669807
Epoch: 11/15 - Batch: 5200/7933 - Learning rate: 6.25e-05 - Loss: 0.8411423
Epoch: 11/15 - Batch: 5300/7933 - Learning rate: 6.25e-05 - Loss: 0.81681997
Epoch: 11/15 - Batch: 5400/7933 - Learning rate: 6.25e-05 - Loss: 0.76619804
Epoch: 11/15 - Batch: 5500/7933 - Learning rate: 6.25e-05 - Loss: 0.7710178
Epoch: 11/15 - Batch: 5600/7933 - Learning rate: 6.25e-05 - Loss: 0.5998642
Epoch: 11/15 - Batch: 5700/7933 - Learning rate: 6.25e-05 - Loss: 0.7279022
Epoch: 11/15 - Batch: 5800/7933 - Learning rate: 6.25e-05 - Loss: 0.73570013
Epoch: 11/15 - Batch: 5900/7933 - Learning rate: 6.25e-05 - Loss: 0.505625
Epoch: 11/15 - Batch: 6000/7933 - Learning rate: 6.25e-05 - Loss: 0.78594196 - Dev BLEU: 0.25023925103562045
Epoch: 11/15 - Batch: 6100/7933 - Learning rate: 6.25e-05 - Loss: 0.7254142
Epoch: 11/15 - Batch: 6200/7933 - Learning rate: 6.25e-05 - Loss: 0.66903394
Epoch: 11/15 - Batch: 6300/7933 - Learning rate: 6.25e-05 - Loss: 0.6296617
Epoch: 11/15 - Batch: 6400/7933 - Learning rate: 6.25e-05 - Loss: 0.61313
Epoch: 11/15 - Batch: 6500/7933 - Learning rate: 6.25e-05 - Loss: 0.72839934
Epoch: 11/15 - Batch: 6600/7933 - Learning rate: 6.25e-05 - Loss: 0.7191535
Epoch: 11/15 - Batch: 6700/7933 - Learning rate: 6.25e-05 - Loss: 0.7142059
Epoch: 11/15 - Batch: 6800/7933 - Learning rate: 6.25e-05 - Loss: 0.72470856
Epoch: 11/15 - Batch: 6900/7933 - Learning rate: 6.25e-05 - Loss: 0.47281855
Epoch: 11/15 - Batch: 7000/7933 - Learning rate: 6.25e-05 - Loss: 1.0216677 - Dev BLEU: 0.25484869928793646
Epoch: 11/15 - Batch: 7100/7933 - Learning rate: 6.25e-05 - Loss: 0.741125
Epoch: 11/15 - Batch: 7200/7933 - Learning rate: 6.25e-05 - Loss: 0.6054113
Epoch: 11/15 - Batch: 7300/7933 - Learning rate: 6.25e-05 - Loss: 0.7433279
Epoch: 11/15 - Batch: 7400/7933 - Learning rate: 6.25e-05 - Loss: 0.78814036
Epoch: 11/15 - Batch: 7500/7933 - Learning rate: 6.25e-05 - Loss: 0.58789307
Epoch: 11/15 - Batch: 7600/7933 - Learning rate: 6.25e-05 - Loss: 0.99175596
Epoch: 11/15 - Batch: 7700/7933 - Learning rate: 6.25e-05 - Loss: 1.1440305
Epoch: 11/15 - Batch: 7800/7933 - Learning rate: 6.25e-05 - Loss: 0.99524605
Epoch: 11/15 - Batch: 7900/7933 - Learning rate: 6.25e-05 - Loss: 0.77355427
Epoch: 11/15 - Batch: 7933/7933 - Learning rate: 6.25e-05 - Loss: 0.9804721 - Dev BLEU: 0.24659865568238493
Epoch: 12/15 - Batch: 100/7933 - Learning rate: 3.125e-05 - Loss: 0.74188274
Epoch: 12/15 - Batch: 200/7933 - Learning rate: 3.125e-05 - Loss: 0.6167925
Epoch: 12/15 - Batch: 300/7933 - Learning rate: 3.125e-05 - Loss: 0.47774872
Epoch: 12/15 - Batch: 400/7933 - Learning rate: 3.125e-05 - Loss: 0.7706796
Epoch: 12/15 - Batch: 500/7933 - Learning rate: 3.125e-05 - Loss: 0.522123
Epoch: 12/15 - Batch: 600/7933 - Learning rate: 3.125e-05 - Loss: 0.3660438
Epoch: 12/15 - Batch: 700/7933 - Learning rate: 3.125e-05 - Loss: 0.5770421
Epoch: 12/15 - Batch: 800/7933 - Learning rate: 3.125e-05 - Loss: 0.5492088
Epoch: 12/15 - Batch: 900/7933 - Learning rate: 3.125e-05 - Loss: 0.37044254
Epoch: 12/15 - Batch: 1000/7933 - Learning rate: 3.125e-05 - Loss: 0.633327 - Dev BLEU: 0.23541336280385117
Epoch: 12/15 - Batch: 1100/7933 - Learning rate: 3.125e-05 - Loss: 0.5582638
Epoch: 12/15 - Batch: 1200/7933 - Learning rate: 3.125e-05 - Loss: 0.7345218
Epoch: 12/15 - Batch: 1300/7933 - Learning rate: 3.125e-05 - Loss: 0.6204549
Epoch: 12/15 - Batch: 1400/7933 - Learning rate: 3.125e-05 - Loss: 0.7019083
Epoch: 12/15 - Batch: 1500/7933 - Learning rate: 3.125e-05 - Loss: 0.5177061
Epoch: 12/15 - Batch: 1600/7933 - Learning rate: 3.125e-05 - Loss: 0.96572906
Epoch: 12/15 - Batch: 1700/7933 - Learning rate: 3.125e-05 - Loss: 0.69969726
Epoch: 12/15 - Batch: 1800/7933 - Learning rate: 3.125e-05 - Loss: 0.37079895
Epoch: 12/15 - Batch: 1900/7933 - Learning rate: 3.125e-05 - Loss: 0.5922752
Epoch: 12/15 - Batch: 2000/7933 - Learning rate: 3.125e-05 - Loss: 0.6177648 - Dev BLEU: 0.23220349977206156
Epoch: 12/15 - Batch: 2100/7933 - Learning rate: 3.125e-05 - Loss: 0.4785262
Epoch: 12/15 - Batch: 2200/7933 - Learning rate: 3.125e-05 - Loss: 0.49505645
Epoch: 12/15 - Batch: 2300/7933 - Learning rate: 3.125e-05 - Loss: 0.65318626
Epoch: 12/15 - Batch: 2400/7933 - Learning rate: 3.125e-05 - Loss: 0.51104856
Epoch: 12/15 - Batch: 2500/7933 - Learning rate: 3.125e-05 - Loss: 0.4945033
Epoch: 12/15 - Batch: 2600/7933 - Learning rate: 3.125e-05 - Loss: 0.42179987
Epoch: 12/15 - Batch: 2700/7933 - Learning rate: 3.125e-05 - Loss: 0.24667728
Epoch: 12/15 - Batch: 2800/7933 - Learning rate: 3.125e-05 - Loss: 0.6722324
Epoch: 12/15 - Batch: 2900/7933 - Learning rate: 3.125e-05 - Loss: 0.763379
Epoch: 12/15 - Batch: 3000/7933 - Learning rate: 3.125e-05 - Loss: 0.681352 - Dev BLEU: 0.23022232510525809
Epoch: 12/15 - Batch: 3100/7933 - Learning rate: 3.125e-05 - Loss: 0.7059037
Epoch: 12/15 - Batch: 3200/7933 - Learning rate: 3.125e-05 - Loss: 0.66152346
Epoch: 12/15 - Batch: 3300/7933 - Learning rate: 3.125e-05 - Loss: 0.55051905
Epoch: 12/15 - Batch: 3400/7933 - Learning rate: 3.125e-05 - Loss: 0.53870404
Epoch: 12/15 - Batch: 3500/7933 - Learning rate: 3.125e-05 - Loss: 0.66362864
Epoch: 12/15 - Batch: 3600/7933 - Learning rate: 3.125e-05 - Loss: 0.67500675
Epoch: 12/15 - Batch: 3700/7933 - Learning rate: 3.125e-05 - Loss: 0.66337496
Epoch: 12/15 - Batch: 3800/7933 - Learning rate: 3.125e-05 - Loss: 0.62295705
Epoch: 12/15 - Batch: 3900/7933 - Learning rate: 3.125e-05 - Loss: 0.6934648
Epoch: 12/15 - Batch: 4000/7933 - Learning rate: 3.125e-05 - Loss: 0.41269568 - Dev BLEU: 0.23207686023900964
Epoch: 12/15 - Batch: 4100/7933 - Learning rate: 3.125e-05 - Loss: 0.54491466
Epoch: 12/15 - Batch: 4200/7933 - Learning rate: 3.125e-05 - Loss: 0.49735087
Epoch: 12/15 - Batch: 4300/7933 - Learning rate: 3.125e-05 - Loss: 0.59746224
Epoch: 12/15 - Batch: 4400/7933 - Learning rate: 3.125e-05 - Loss: 0.54737073
Epoch: 12/15 - Batch: 4500/7933 - Learning rate: 3.125e-05 - Loss: 0.609592
Epoch: 12/15 - Batch: 4600/7933 - Learning rate: 3.125e-05 - Loss: 0.9110486
Epoch: 12/15 - Batch: 4700/7933 - Learning rate: 3.125e-05 - Loss: 0.6416443
Epoch: 12/15 - Batch: 4800/7933 - Learning rate: 3.125e-05 - Loss: 0.6170892
Epoch: 12/15 - Batch: 4900/7933 - Learning rate: 3.125e-05 - Loss: 0.7425763
Epoch: 12/15 - Batch: 5000/7933 - Learning rate: 3.125e-05 - Loss: 0.8035806 - Dev BLEU: 0.24724563230107602
Epoch: 12/15 - Batch: 5100/7933 - Learning rate: 3.125e-05 - Loss: 0.857434
Epoch: 12/15 - Batch: 5200/7933 - Learning rate: 3.125e-05 - Loss: 0.8395304
Epoch: 12/15 - Batch: 5300/7933 - Learning rate: 3.125e-05 - Loss: 0.81365144
Epoch: 12/15 - Batch: 5400/7933 - Learning rate: 3.125e-05 - Loss: 0.75237656
Epoch: 12/15 - Batch: 5500/7933 - Learning rate: 3.125e-05 - Loss: 0.76170367
Epoch: 12/15 - Batch: 5600/7933 - Learning rate: 3.125e-05 - Loss: 0.60733616
Epoch: 12/15 - Batch: 5700/7933 - Learning rate: 3.125e-05 - Loss: 0.7209701
Epoch: 12/15 - Batch: 5800/7933 - Learning rate: 3.125e-05 - Loss: 0.71730673
Epoch: 12/15 - Batch: 5900/7933 - Learning rate: 3.125e-05 - Loss: 0.49880424
Epoch: 12/15 - Batch: 6000/7933 - Learning rate: 3.125e-05 - Loss: 0.7760491 - Dev BLEU: 0.24904077730406884
Epoch: 12/15 - Batch: 6100/7933 - Learning rate: 3.125e-05 - Loss: 0.73578155
Epoch: 12/15 - Batch: 6200/7933 - Learning rate: 3.125e-05 - Loss: 0.68327004
Epoch: 12/15 - Batch: 6300/7933 - Learning rate: 3.125e-05 - Loss: 0.64728713
Epoch: 12/15 - Batch: 6400/7933 - Learning rate: 3.125e-05 - Loss: 0.60604703
Epoch: 12/15 - Batch: 6500/7933 - Learning rate: 3.125e-05 - Loss: 0.7146536
Epoch: 12/15 - Batch: 6600/7933 - Learning rate: 3.125e-05 - Loss: 0.71958673
Epoch: 12/15 - Batch: 6700/7933 - Learning rate: 3.125e-05 - Loss: 0.7135373
Epoch: 12/15 - Batch: 6800/7933 - Learning rate: 3.125e-05 - Loss: 0.7094527
Epoch: 12/15 - Batch: 6900/7933 - Learning rate: 3.125e-05 - Loss: 0.47146305
Epoch: 12/15 - Batch: 7000/7933 - Learning rate: 3.125e-05 - Loss: 1.0116678 - Dev BLEU: 0.2523557500788194
Epoch: 12/15 - Batch: 7100/7933 - Learning rate: 3.125e-05 - Loss: 0.74929476
Epoch: 12/15 - Batch: 7200/7933 - Learning rate: 3.125e-05 - Loss: 0.6012652
Epoch: 12/15 - Batch: 7300/7933 - Learning rate: 3.125e-05 - Loss: 0.72943556
Epoch: 12/15 - Batch: 7400/7933 - Learning rate: 3.125e-05 - Loss: 0.7942038
Epoch: 12/15 - Batch: 7500/7933 - Learning rate: 3.125e-05 - Loss: 0.5870427
Epoch: 12/15 - Batch: 7600/7933 - Learning rate: 3.125e-05 - Loss: 1.0061643
Epoch: 12/15 - Batch: 7700/7933 - Learning rate: 3.125e-05 - Loss: 1.1517911
Epoch: 12/15 - Batch: 7800/7933 - Learning rate: 3.125e-05 - Loss: 0.9946165
Epoch: 12/15 - Batch: 7900/7933 - Learning rate: 3.125e-05 - Loss: 0.77052855
Epoch: 12/15 - Batch: 7933/7933 - Learning rate: 3.125e-05 - Loss: 1.0035602 - Dev BLEU: 0.2489407743482509
Epoch: 13/15 - Batch: 100/7933 - Learning rate: 1.5625e-05 - Loss: 0.7352858
Epoch: 13/15 - Batch: 200/7933 - Learning rate: 1.5625e-05 - Loss: 0.6025151
Epoch: 13/15 - Batch: 300/7933 - Learning rate: 1.5625e-05 - Loss: 0.4829401
Epoch: 13/15 - Batch: 400/7933 - Learning rate: 1.5625e-05 - Loss: 0.7699892
Epoch: 13/15 - Batch: 500/7933 - Learning rate: 1.5625e-05 - Loss: 0.5310291
Epoch: 13/15 - Batch: 600/7933 - Learning rate: 1.5625e-05 - Loss: 0.3694591
Epoch: 13/15 - Batch: 700/7933 - Learning rate: 1.5625e-05 - Loss: 0.56861794
Epoch: 13/15 - Batch: 800/7933 - Learning rate: 1.5625e-05 - Loss: 0.5559319
Epoch: 13/15 - Batch: 900/7933 - Learning rate: 1.5625e-05 - Loss: 0.3719365
Epoch: 13/15 - Batch: 1000/7933 - Learning rate: 1.5625e-05 - Loss: 0.6256547 - Dev BLEU: 0.23677169434555784
Epoch: 13/15 - Batch: 1100/7933 - Learning rate: 1.5625e-05 - Loss: 0.5538984
Epoch: 13/15 - Batch: 1200/7933 - Learning rate: 1.5625e-05 - Loss: 0.7270138
Epoch: 13/15 - Batch: 1300/7933 - Learning rate: 1.5625e-05 - Loss: 0.6172327
Epoch: 13/15 - Batch: 1400/7933 - Learning rate: 1.5625e-05 - Loss: 0.7032997
Epoch: 13/15 - Batch: 1500/7933 - Learning rate: 1.5625e-05 - Loss: 0.52054375
Epoch: 13/15 - Batch: 1600/7933 - Learning rate: 1.5625e-05 - Loss: 0.9643925
Epoch: 13/15 - Batch: 1700/7933 - Learning rate: 1.5625e-05 - Loss: 0.7002786
Epoch: 13/15 - Batch: 1800/7933 - Learning rate: 1.5625e-05 - Loss: 0.37204677
Epoch: 13/15 - Batch: 1900/7933 - Learning rate: 1.5625e-05 - Loss: 0.5848147
Epoch: 13/15 - Batch: 2000/7933 - Learning rate: 1.5625e-05 - Loss: 0.620685 - Dev BLEU: 0.23590777327403692
Epoch: 13/15 - Batch: 2100/7933 - Learning rate: 1.5625e-05 - Loss: 0.4811188
Epoch: 13/15 - Batch: 2200/7933 - Learning rate: 1.5625e-05 - Loss: 0.5035712
Epoch: 13/15 - Batch: 2300/7933 - Learning rate: 1.5625e-05 - Loss: 0.6583614
Epoch: 13/15 - Batch: 2400/7933 - Learning rate: 1.5625e-05 - Loss: 0.51347476
Epoch: 13/15 - Batch: 2500/7933 - Learning rate: 1.5625e-05 - Loss: 0.50135607
Epoch: 13/15 - Batch: 2600/7933 - Learning rate: 1.5625e-05 - Loss: 0.43535373
Epoch: 13/15 - Batch: 2700/7933 - Learning rate: 1.5625e-05 - Loss: 0.2500353
Epoch: 13/15 - Batch: 2800/7933 - Learning rate: 1.5625e-05 - Loss: 0.6745717
Epoch: 13/15 - Batch: 2900/7933 - Learning rate: 1.5625e-05 - Loss: 0.75390804
Epoch: 13/15 - Batch: 3000/7933 - Learning rate: 1.5625e-05 - Loss: 0.67389894 - Dev BLEU: 0.23406846537792309
Epoch: 13/15 - Batch: 3100/7933 - Learning rate: 1.5625e-05 - Loss: 0.6943252
Epoch: 13/15 - Batch: 3200/7933 - Learning rate: 1.5625e-05 - Loss: 0.66571367
Epoch: 13/15 - Batch: 3300/7933 - Learning rate: 1.5625e-05 - Loss: 0.5563695
Epoch: 13/15 - Batch: 3400/7933 - Learning rate: 1.5625e-05 - Loss: 0.53662354
Epoch: 13/15 - Batch: 3500/7933 - Learning rate: 1.5625e-05 - Loss: 0.66490704
Epoch: 13/15 - Batch: 3600/7933 - Learning rate: 1.5625e-05 - Loss: 0.6789224
Epoch: 13/15 - Batch: 3700/7933 - Learning rate: 1.5625e-05 - Loss: 0.6689068
Epoch: 13/15 - Batch: 3800/7933 - Learning rate: 1.5625e-05 - Loss: 0.6135899
Epoch: 13/15 - Batch: 3900/7933 - Learning rate: 1.5625e-05 - Loss: 0.7105233
Epoch: 13/15 - Batch: 4000/7933 - Learning rate: 1.5625e-05 - Loss: 0.41406995 - Dev BLEU: 0.2361848913245107
Epoch: 13/15 - Batch: 4100/7933 - Learning rate: 1.5625e-05 - Loss: 0.5466229
Epoch: 13/15 - Batch: 4200/7933 - Learning rate: 1.5625e-05 - Loss: 0.49033216
Epoch: 13/15 - Batch: 4300/7933 - Learning rate: 1.5625e-05 - Loss: 0.58725
Epoch: 13/15 - Batch: 4400/7933 - Learning rate: 1.5625e-05 - Loss: 0.5401005
Epoch: 13/15 - Batch: 4500/7933 - Learning rate: 1.5625e-05 - Loss: 0.62450266
Epoch: 13/15 - Batch: 4600/7933 - Learning rate: 1.5625e-05 - Loss: 0.88994884
Epoch: 13/15 - Batch: 4700/7933 - Learning rate: 1.5625e-05 - Loss: 0.6271654
Epoch: 13/15 - Batch: 4800/7933 - Learning rate: 1.5625e-05 - Loss: 0.6152544
Epoch: 13/15 - Batch: 4900/7933 - Learning rate: 1.5625e-05 - Loss: 0.752852
Epoch: 13/15 - Batch: 5000/7933 - Learning rate: 1.5625e-05 - Loss: 0.80962265 - Dev BLEU: 0.24642406274160505
Epoch: 13/15 - Batch: 5100/7933 - Learning rate: 1.5625e-05 - Loss: 0.85127527
Epoch: 13/15 - Batch: 5200/7933 - Learning rate: 1.5625e-05 - Loss: 0.84508485
Epoch: 13/15 - Batch: 5300/7933 - Learning rate: 1.5625e-05 - Loss: 0.8014265
Epoch: 13/15 - Batch: 5400/7933 - Learning rate: 1.5625e-05 - Loss: 0.7544003
Epoch: 13/15 - Batch: 5500/7933 - Learning rate: 1.5625e-05 - Loss: 0.7607959
Epoch: 13/15 - Batch: 5600/7933 - Learning rate: 1.5625e-05 - Loss: 0.6113514
Epoch: 13/15 - Batch: 5700/7933 - Learning rate: 1.5625e-05 - Loss: 0.7220681
Epoch: 13/15 - Batch: 5800/7933 - Learning rate: 1.5625e-05 - Loss: 0.7130141
Epoch: 13/15 - Batch: 5900/7933 - Learning rate: 1.5625e-05 - Loss: 0.4967198
Epoch: 13/15 - Batch: 6000/7933 - Learning rate: 1.5625e-05 - Loss: 0.7657128 - Dev BLEU: 0.25001941725954857
Epoch: 13/15 - Batch: 6100/7933 - Learning rate: 1.5625e-05 - Loss: 0.70542413
Epoch: 13/15 - Batch: 6200/7933 - Learning rate: 1.5625e-05 - Loss: 0.6764112
Epoch: 13/15 - Batch: 6300/7933 - Learning rate: 1.5625e-05 - Loss: 0.6399916
Epoch: 13/15 - Batch: 6400/7933 - Learning rate: 1.5625e-05 - Loss: 0.60441303
Epoch: 13/15 - Batch: 6500/7933 - Learning rate: 1.5625e-05 - Loss: 0.7201753
Epoch: 13/15 - Batch: 6600/7933 - Learning rate: 1.5625e-05 - Loss: 0.72704023
Epoch: 13/15 - Batch: 6700/7933 - Learning rate: 1.5625e-05 - Loss: 0.70841795
Epoch: 13/15 - Batch: 6800/7933 - Learning rate: 1.5625e-05 - Loss: 0.71340823
Epoch: 13/15 - Batch: 6900/7933 - Learning rate: 1.5625e-05 - Loss: 0.4699189
Epoch: 13/15 - Batch: 7000/7933 - Learning rate: 1.5625e-05 - Loss: 1.0136017 - Dev BLEU: 0.2513778999310471
Epoch: 13/15 - Batch: 7100/7933 - Learning rate: 1.5625e-05 - Loss: 0.7525353
Epoch: 13/15 - Batch: 7200/7933 - Learning rate: 1.5625e-05 - Loss: 0.6112638
Epoch: 13/15 - Batch: 7300/7933 - Learning rate: 1.5625e-05 - Loss: 0.74016786
Epoch: 13/15 - Batch: 7400/7933 - Learning rate: 1.5625e-05 - Loss: 0.7959576
Epoch: 13/15 - Batch: 7500/7933 - Learning rate: 1.5625e-05 - Loss: 0.58685255
Epoch: 13/15 - Batch: 7600/7933 - Learning rate: 1.5625e-05 - Loss: 1.0123742
Epoch: 13/15 - Batch: 7700/7933 - Learning rate: 1.5625e-05 - Loss: 1.156862
Epoch: 13/15 - Batch: 7800/7933 - Learning rate: 1.5625e-05 - Loss: 0.9890903
Epoch: 13/15 - Batch: 7900/7933 - Learning rate: 1.5625e-05 - Loss: 0.7706269
Epoch: 13/15 - Batch: 7933/7933 - Learning rate: 1.5625e-05 - Loss: 0.99671304 - Dev BLEU: 0.2502686243023317
Epoch: 14/15 - Batch: 100/7933 - Learning rate: 7.8125e-06 - Loss: 0.7377699
Epoch: 14/15 - Batch: 200/7933 - Learning rate: 7.8125e-06 - Loss: 0.6070459
Epoch: 14/15 - Batch: 300/7933 - Learning rate: 7.8125e-06 - Loss: 0.49034658
Epoch: 14/15 - Batch: 400/7933 - Learning rate: 7.8125e-06 - Loss: 0.78143114
Epoch: 14/15 - Batch: 500/7933 - Learning rate: 7.8125e-06 - Loss: 0.5145227
Epoch: 14/15 - Batch: 600/7933 - Learning rate: 7.8125e-06 - Loss: 0.36529246
Epoch: 14/15 - Batch: 700/7933 - Learning rate: 7.8125e-06 - Loss: 0.5705436
Epoch: 14/15 - Batch: 800/7933 - Learning rate: 7.8125e-06 - Loss: 0.5544796
Epoch: 14/15 - Batch: 900/7933 - Learning rate: 7.8125e-06 - Loss: 0.36257324
Epoch: 14/15 - Batch: 1000/7933 - Learning rate: 7.8125e-06 - Loss: 0.6248204 - Dev BLEU: 0.24208277931968913
Epoch: 14/15 - Batch: 1100/7933 - Learning rate: 7.8125e-06 - Loss: 0.55071837
Epoch: 14/15 - Batch: 1200/7933 - Learning rate: 7.8125e-06 - Loss: 0.726153
Epoch: 14/15 - Batch: 1300/7933 - Learning rate: 7.8125e-06 - Loss: 0.6157786
Epoch: 14/15 - Batch: 1400/7933 - Learning rate: 7.8125e-06 - Loss: 0.6992399
Epoch: 14/15 - Batch: 1500/7933 - Learning rate: 7.8125e-06 - Loss: 0.51678467
Epoch: 14/15 - Batch: 1600/7933 - Learning rate: 7.8125e-06 - Loss: 0.9601928
Epoch: 14/15 - Batch: 1700/7933 - Learning rate: 7.8125e-06 - Loss: 0.69339603
Epoch: 14/15 - Batch: 1800/7933 - Learning rate: 7.8125e-06 - Loss: 0.36490345
Epoch: 14/15 - Batch: 1900/7933 - Learning rate: 7.8125e-06 - Loss: 0.57714504
Epoch: 14/15 - Batch: 2000/7933 - Learning rate: 7.8125e-06 - Loss: 0.62384266 - Dev BLEU: 0.23766687932054645
Epoch: 14/15 - Batch: 2100/7933 - Learning rate: 7.8125e-06 - Loss: 0.4848823
Epoch: 14/15 - Batch: 2200/7933 - Learning rate: 7.8125e-06 - Loss: 0.51418465
Epoch: 14/15 - Batch: 2300/7933 - Learning rate: 7.8125e-06 - Loss: 0.659417
Epoch: 14/15 - Batch: 2400/7933 - Learning rate: 7.8125e-06 - Loss: 0.51470894
Epoch: 14/15 - Batch: 2500/7933 - Learning rate: 7.8125e-06 - Loss: 0.51518375
Epoch: 14/15 - Batch: 2600/7933 - Learning rate: 7.8125e-06 - Loss: 0.43654934
Epoch: 14/15 - Batch: 2700/7933 - Learning rate: 7.8125e-06 - Loss: 0.25239274
Epoch: 14/15 - Batch: 2800/7933 - Learning rate: 7.8125e-06 - Loss: 0.68447757
Epoch: 14/15 - Batch: 2900/7933 - Learning rate: 7.8125e-06 - Loss: 0.75273186
Epoch: 14/15 - Batch: 3000/7933 - Learning rate: 7.8125e-06 - Loss: 0.66782475 - Dev BLEU: 0.23821570573010448
Epoch: 14/15 - Batch: 3100/7933 - Learning rate: 7.8125e-06 - Loss: 0.69611156
Epoch: 14/15 - Batch: 3200/7933 - Learning rate: 7.8125e-06 - Loss: 0.6581195
Epoch: 14/15 - Batch: 3300/7933 - Learning rate: 7.8125e-06 - Loss: 0.5443116
Epoch: 14/15 - Batch: 3400/7933 - Learning rate: 7.8125e-06 - Loss: 0.5524674
Epoch: 14/15 - Batch: 3500/7933 - Learning rate: 7.8125e-06 - Loss: 0.67200893
Epoch: 14/15 - Batch: 3600/7933 - Learning rate: 7.8125e-06 - Loss: 0.68159413
Epoch: 14/15 - Batch: 3700/7933 - Learning rate: 7.8125e-06 - Loss: 0.66369236
Epoch: 14/15 - Batch: 3800/7933 - Learning rate: 7.8125e-06 - Loss: 0.6146349
Epoch: 14/15 - Batch: 3900/7933 - Learning rate: 7.8125e-06 - Loss: 0.6967685
Epoch: 14/15 - Batch: 4000/7933 - Learning rate: 7.8125e-06 - Loss: 0.41413072 - Dev BLEU: 0.2370205322399234
Epoch: 14/15 - Batch: 4100/7933 - Learning rate: 7.8125e-06 - Loss: 0.55351245
Epoch: 14/15 - Batch: 4200/7933 - Learning rate: 7.8125e-06 - Loss: 0.49119985
Epoch: 14/15 - Batch: 4300/7933 - Learning rate: 7.8125e-06 - Loss: 0.5892163
Epoch: 14/15 - Batch: 4400/7933 - Learning rate: 7.8125e-06 - Loss: 0.5476829
Epoch: 14/15 - Batch: 4500/7933 - Learning rate: 7.8125e-06 - Loss: 0.62000746
Epoch: 14/15 - Batch: 4600/7933 - Learning rate: 7.8125e-06 - Loss: 0.8754319
Epoch: 14/15 - Batch: 4700/7933 - Learning rate: 7.8125e-06 - Loss: 0.64811784
Epoch: 14/15 - Batch: 4800/7933 - Learning rate: 7.8125e-06 - Loss: 0.6218136
Epoch: 14/15 - Batch: 4900/7933 - Learning rate: 7.8125e-06 - Loss: 0.7676419
Epoch: 14/15 - Batch: 5000/7933 - Learning rate: 7.8125e-06 - Loss: 0.7973056 - Dev BLEU: 0.246580650295718
Epoch: 14/15 - Batch: 5100/7933 - Learning rate: 7.8125e-06 - Loss: 0.86858106
Epoch: 14/15 - Batch: 5200/7933 - Learning rate: 7.8125e-06 - Loss: 0.84946126
Epoch: 14/15 - Batch: 5300/7933 - Learning rate: 7.8125e-06 - Loss: 0.802315
Epoch: 14/15 - Batch: 5400/7933 - Learning rate: 7.8125e-06 - Loss: 0.7687517
Epoch: 14/15 - Batch: 5500/7933 - Learning rate: 7.8125e-06 - Loss: 0.76962787
Epoch: 14/15 - Batch: 5600/7933 - Learning rate: 7.8125e-06 - Loss: 0.5995548
Epoch: 14/15 - Batch: 5700/7933 - Learning rate: 7.8125e-06 - Loss: 0.71946895
Epoch: 14/15 - Batch: 5800/7933 - Learning rate: 7.8125e-06 - Loss: 0.71879756
Epoch: 14/15 - Batch: 5900/7933 - Learning rate: 7.8125e-06 - Loss: 0.48266625
Epoch: 14/15 - Batch: 6000/7933 - Learning rate: 7.8125e-06 - Loss: 0.7694312 - Dev BLEU: 0.24953865114041193
Epoch: 14/15 - Batch: 6100/7933 - Learning rate: 7.8125e-06 - Loss: 0.72402364
Epoch: 14/15 - Batch: 6200/7933 - Learning rate: 7.8125e-06 - Loss: 0.683247
Epoch: 14/15 - Batch: 6300/7933 - Learning rate: 7.8125e-06 - Loss: 0.65485317
Epoch: 14/15 - Batch: 6400/7933 - Learning rate: 7.8125e-06 - Loss: 0.6121587
Epoch: 14/15 - Batch: 6500/7933 - Learning rate: 7.8125e-06 - Loss: 0.7271318
Epoch: 14/15 - Batch: 6600/7933 - Learning rate: 7.8125e-06 - Loss: 0.7225417
Epoch: 14/15 - Batch: 6700/7933 - Learning rate: 7.8125e-06 - Loss: 0.7051319
Epoch: 14/15 - Batch: 6800/7933 - Learning rate: 7.8125e-06 - Loss: 0.7139294
Epoch: 14/15 - Batch: 6900/7933 - Learning rate: 7.8125e-06 - Loss: 0.4764032
Epoch: 14/15 - Batch: 7000/7933 - Learning rate: 7.8125e-06 - Loss: 1.0253183 - Dev BLEU: 0.24982552458956575
Epoch: 14/15 - Batch: 7100/7933 - Learning rate: 7.8125e-06 - Loss: 0.74764603
Epoch: 14/15 - Batch: 7200/7933 - Learning rate: 7.8125e-06 - Loss: 0.60758406
Epoch: 14/15 - Batch: 7300/7933 - Learning rate: 7.8125e-06 - Loss: 0.7313806
Epoch: 14/15 - Batch: 7400/7933 - Learning rate: 7.8125e-06 - Loss: 0.79093826
Epoch: 14/15 - Batch: 7500/7933 - Learning rate: 7.8125e-06 - Loss: 0.5863604
Epoch: 14/15 - Batch: 7600/7933 - Learning rate: 7.8125e-06 - Loss: 1.0015677
Epoch: 14/15 - Batch: 7700/7933 - Learning rate: 7.8125e-06 - Loss: 1.1440536
Epoch: 14/15 - Batch: 7800/7933 - Learning rate: 7.8125e-06 - Loss: 0.9895542
Epoch: 14/15 - Batch: 7900/7933 - Learning rate: 7.8125e-06 - Loss: 0.7729979
Epoch: 14/15 - Batch: 7933/7933 - Learning rate: 7.8125e-06 - Loss: 1.0083936 - Dev BLEU: 0.2504795129921229
Epoch: 15/15 - Batch: 100/7933 - Learning rate: 3.90625e-06 - Loss: 0.7434715
Epoch: 15/15 - Batch: 200/7933 - Learning rate: 3.90625e-06 - Loss: 0.59171396
Epoch: 15/15 - Batch: 300/7933 - Learning rate: 3.90625e-06 - Loss: 0.49732572
Epoch: 15/15 - Batch: 400/7933 - Learning rate: 3.90625e-06 - Loss: 0.7785654
Epoch: 15/15 - Batch: 500/7933 - Learning rate: 3.90625e-06 - Loss: 0.52040994
Epoch: 15/15 - Batch: 600/7933 - Learning rate: 3.90625e-06 - Loss: 0.3645495
Epoch: 15/15 - Batch: 700/7933 - Learning rate: 3.90625e-06 - Loss: 0.57773256
Epoch: 15/15 - Batch: 800/7933 - Learning rate: 3.90625e-06 - Loss: 0.55625576
Epoch: 15/15 - Batch: 900/7933 - Learning rate: 3.90625e-06 - Loss: 0.365581
Epoch: 15/15 - Batch: 1000/7933 - Learning rate: 3.90625e-06 - Loss: 0.6336626 - Dev BLEU: 0.24453468484547372
Epoch: 15/15 - Batch: 1100/7933 - Learning rate: 3.90625e-06 - Loss: 0.5636088
Epoch: 15/15 - Batch: 1200/7933 - Learning rate: 3.90625e-06 - Loss: 0.7282692
Epoch: 15/15 - Batch: 1300/7933 - Learning rate: 3.90625e-06 - Loss: 0.6027524
Epoch: 15/15 - Batch: 1400/7933 - Learning rate: 3.90625e-06 - Loss: 0.70566154
Epoch: 15/15 - Batch: 1500/7933 - Learning rate: 3.90625e-06 - Loss: 0.52241564
Epoch: 15/15 - Batch: 1600/7933 - Learning rate: 3.90625e-06 - Loss: 0.96772885
Epoch: 15/15 - Batch: 1700/7933 - Learning rate: 3.90625e-06 - Loss: 0.70313025
Epoch: 15/15 - Batch: 1800/7933 - Learning rate: 3.90625e-06 - Loss: 0.37161654
Epoch: 15/15 - Batch: 1900/7933 - Learning rate: 3.90625e-06 - Loss: 0.5836994
Epoch: 15/15 - Batch: 2000/7933 - Learning rate: 3.90625e-06 - Loss: 0.6105916 - Dev BLEU: 0.24182665604744308
Epoch: 15/15 - Batch: 2100/7933 - Learning rate: 3.90625e-06 - Loss: 0.48861033
Epoch: 15/15 - Batch: 2200/7933 - Learning rate: 3.90625e-06 - Loss: 0.51088244
Epoch: 15/15 - Batch: 2300/7933 - Learning rate: 3.90625e-06 - Loss: 0.6624042
Epoch: 15/15 - Batch: 2400/7933 - Learning rate: 3.90625e-06 - Loss: 0.518535
Epoch: 15/15 - Batch: 2500/7933 - Learning rate: 3.90625e-06 - Loss: 0.5123398
Epoch: 15/15 - Batch: 2600/7933 - Learning rate: 3.90625e-06 - Loss: 0.43978244
Epoch: 15/15 - Batch: 2700/7933 - Learning rate: 3.90625e-06 - Loss: 0.25913858
Epoch: 15/15 - Batch: 2800/7933 - Learning rate: 3.90625e-06 - Loss: 0.7029435
Epoch: 15/15 - Batch: 2900/7933 - Learning rate: 3.90625e-06 - Loss: 0.74722296
Epoch: 15/15 - Batch: 3000/7933 - Learning rate: 3.90625e-06 - Loss: 0.67575735 - Dev BLEU: 0.24107078316030947
Epoch: 15/15 - Batch: 3100/7933 - Learning rate: 3.90625e-06 - Loss: 0.68487394
Epoch: 15/15 - Batch: 3200/7933 - Learning rate: 3.90625e-06 - Loss: 0.66222554
Epoch: 15/15 - Batch: 3300/7933 - Learning rate: 3.90625e-06 - Loss: 0.53797185
Epoch: 15/15 - Batch: 3400/7933 - Learning rate: 3.90625e-06 - Loss: 0.55142176
Epoch: 15/15 - Batch: 3500/7933 - Learning rate: 3.90625e-06 - Loss: 0.6610614
Epoch: 15/15 - Batch: 3600/7933 - Learning rate: 3.90625e-06 - Loss: 0.67809653
Epoch: 15/15 - Batch: 3700/7933 - Learning rate: 3.90625e-06 - Loss: 0.6479415
Epoch: 15/15 - Batch: 3800/7933 - Learning rate: 3.90625e-06 - Loss: 0.6164933
Epoch: 15/15 - Batch: 3900/7933 - Learning rate: 3.90625e-06 - Loss: 0.7086828
Epoch: 15/15 - Batch: 4000/7933 - Learning rate: 3.90625e-06 - Loss: 0.41261554 - Dev BLEU: 0.23984336473953877
Epoch: 15/15 - Batch: 4100/7933 - Learning rate: 3.90625e-06 - Loss: 0.55136245
Epoch: 15/15 - Batch: 4200/7933 - Learning rate: 3.90625e-06 - Loss: 0.50008047
Epoch: 15/15 - Batch: 4300/7933 - Learning rate: 3.90625e-06 - Loss: 0.58276635
Epoch: 15/15 - Batch: 4400/7933 - Learning rate: 3.90625e-06 - Loss: 0.55107266
Epoch: 15/15 - Batch: 4500/7933 - Learning rate: 3.90625e-06 - Loss: 0.62503153
Epoch: 15/15 - Batch: 4600/7933 - Learning rate: 3.90625e-06 - Loss: 0.8880832
Epoch: 15/15 - Batch: 4700/7933 - Learning rate: 3.90625e-06 - Loss: 0.63600385
Epoch: 15/15 - Batch: 4800/7933 - Learning rate: 3.90625e-06 - Loss: 0.605214
Epoch: 15/15 - Batch: 4900/7933 - Learning rate: 3.90625e-06 - Loss: 0.75728816
Epoch: 15/15 - Batch: 5000/7933 - Learning rate: 3.90625e-06 - Loss: 0.8031979 - Dev BLEU: 0.2454763397605683
Epoch: 15/15 - Batch: 5100/7933 - Learning rate: 3.90625e-06 - Loss: 0.85373527
Epoch: 15/15 - Batch: 5200/7933 - Learning rate: 3.90625e-06 - Loss: 0.85591125
Epoch: 15/15 - Batch: 5300/7933 - Learning rate: 3.90625e-06 - Loss: 0.79848355
Epoch: 15/15 - Batch: 5400/7933 - Learning rate: 3.90625e-06 - Loss: 0.7739778
Epoch: 15/15 - Batch: 5500/7933 - Learning rate: 3.90625e-06 - Loss: 0.77992344
Epoch: 15/15 - Batch: 5600/7933 - Learning rate: 3.90625e-06 - Loss: 0.60908455
Epoch: 15/15 - Batch: 5700/7933 - Learning rate: 3.90625e-06 - Loss: 0.72322726
Epoch: 15/15 - Batch: 5800/7933 - Learning rate: 3.90625e-06 - Loss: 0.714793
Epoch: 15/15 - Batch: 5900/7933 - Learning rate: 3.90625e-06 - Loss: 0.49621332
Epoch: 15/15 - Batch: 6000/7933 - Learning rate: 3.90625e-06 - Loss: 0.77910596 - Dev BLEU: 0.24932009739086367
Epoch: 15/15 - Batch: 6100/7933 - Learning rate: 3.90625e-06 - Loss: 0.7237782
Epoch: 15/15 - Batch: 6200/7933 - Learning rate: 3.90625e-06 - Loss: 0.6847988
Epoch: 15/15 - Batch: 6300/7933 - Learning rate: 3.90625e-06 - Loss: 0.6384973
Epoch: 15/15 - Batch: 6400/7933 - Learning rate: 3.90625e-06 - Loss: 0.59308684
Epoch: 15/15 - Batch: 6500/7933 - Learning rate: 3.90625e-06 - Loss: 0.7183585
Epoch: 15/15 - Batch: 6600/7933 - Learning rate: 3.90625e-06 - Loss: 0.72196573
Epoch: 15/15 - Batch: 6700/7933 - Learning rate: 3.90625e-06 - Loss: 0.7043218
Epoch: 15/15 - Batch: 6800/7933 - Learning rate: 3.90625e-06 - Loss: 0.71415347
Epoch: 15/15 - Batch: 6900/7933 - Learning rate: 3.90625e-06 - Loss: 0.48054776
Epoch: 15/15 - Batch: 7000/7933 - Learning rate: 3.90625e-06 - Loss: 1.0295352 - Dev BLEU: 0.2510500016964911
Epoch: 15/15 - Batch: 7100/7933 - Learning rate: 3.90625e-06 - Loss: 0.7641074
Epoch: 15/15 - Batch: 7200/7933 - Learning rate: 3.90625e-06 - Loss: 0.6147492
Epoch: 15/15 - Batch: 7300/7933 - Learning rate: 3.90625e-06 - Loss: 0.7343773
Epoch: 15/15 - Batch: 7400/7933 - Learning rate: 3.90625e-06 - Loss: 0.7998722
Epoch: 15/15 - Batch: 7500/7933 - Learning rate: 3.90625e-06 - Loss: 0.5875515
Epoch: 15/15 - Batch: 7600/7933 - Learning rate: 3.90625e-06 - Loss: 0.9996794
Epoch: 15/15 - Batch: 7700/7933 - Learning rate: 3.90625e-06 - Loss: 1.1545279
Epoch: 15/15 - Batch: 7800/7933 - Learning rate: 3.90625e-06 - Loss: 0.9929494
Epoch: 15/15 - Batch: 7900/7933 - Learning rate: 3.90625e-06 - Loss: 0.77016324
Epoch: 15/15 - Batch: 7933/7933 - Learning rate: 3.90625e-06 - Loss: 1.0019864 - Dev BLEU: 0.25164293314535174 - Test BLEU: 0.2817780724758624
