Epoch: 1/15 - Batch: 100/7933 - Learning rate: 0.001 - Loss: 1.8775479
Epoch: 1/15 - Batch: 200/7933 - Learning rate: 0.001 - Loss: 2.722957
Epoch: 1/15 - Batch: 300/7933 - Learning rate: 0.001 - Loss: 1.5311455
Epoch: 1/15 - Batch: 400/7933 - Learning rate: 0.001 - Loss: 2.7753425
Epoch: 1/15 - Batch: 500/7933 - Learning rate: 0.001 - Loss: 2.470454
Epoch: 1/15 - Batch: 600/7933 - Learning rate: 0.001 - Loss: 0.9056532
Epoch: 1/15 - Batch: 700/7933 - Learning rate: 0.001 - Loss: 1.9420067
Epoch: 1/15 - Batch: 800/7933 - Learning rate: 0.001 - Loss: 1.6209749
Epoch: 1/15 - Batch: 900/7933 - Learning rate: 0.001 - Loss: 1.0962217
Epoch: 1/15 - Batch: 1000/7933 - Learning rate: 0.001 - Loss: 1.9029313 - Dev BLEU: 0.0
Epoch: 1/15 - Batch: 1100/7933 - Learning rate: 0.001 - Loss: 1.50542
Epoch: 1/15 - Batch: 1200/7933 - Learning rate: 0.001 - Loss: 2.0422232
Epoch: 1/15 - Batch: 1300/7933 - Learning rate: 0.001 - Loss: 1.9068518
Epoch: 1/15 - Batch: 1400/7933 - Learning rate: 0.001 - Loss: 2.0566297
Epoch: 1/15 - Batch: 1500/7933 - Learning rate: 0.001 - Loss: 1.4580061
Epoch: 1/15 - Batch: 1600/7933 - Learning rate: 0.001 - Loss: 2.5673094
Epoch: 1/15 - Batch: 1700/7933 - Learning rate: 0.001 - Loss: 1.950275
Epoch: 1/15 - Batch: 1800/7933 - Learning rate: 0.001 - Loss: 1.3493543
Epoch: 1/15 - Batch: 1900/7933 - Learning rate: 0.001 - Loss: 1.5438415
Epoch: 1/15 - Batch: 2000/7933 - Learning rate: 0.001 - Loss: 1.7635531 - Dev BLEU: 0.0
Epoch: 1/15 - Batch: 2100/7933 - Learning rate: 0.001 - Loss: 1.4518565
Epoch: 1/15 - Batch: 2200/7933 - Learning rate: 0.001 - Loss: 1.7479324
Epoch: 1/15 - Batch: 2300/7933 - Learning rate: 0.001 - Loss: 1.9328629
Epoch: 1/15 - Batch: 2400/7933 - Learning rate: 0.001 - Loss: 1.5889791
Epoch: 1/15 - Batch: 2500/7933 - Learning rate: 0.001 - Loss: 1.8749969
Epoch: 1/15 - Batch: 2600/7933 - Learning rate: 0.001 - Loss: 1.2925988
Epoch: 1/15 - Batch: 2700/7933 - Learning rate: 0.001 - Loss: 0.8044901
Epoch: 1/15 - Batch: 2800/7933 - Learning rate: 0.001 - Loss: 1.9756963
Epoch: 1/15 - Batch: 2900/7933 - Learning rate: 0.001 - Loss: 1.84544
Epoch: 1/15 - Batch: 3000/7933 - Learning rate: 0.001 - Loss: 1.7540332 - Dev BLEU: 0.0032648956954509016
Epoch: 1/15 - Batch: 3100/7933 - Learning rate: 0.001 - Loss: 1.4502892
Epoch: 1/15 - Batch: 3200/7933 - Learning rate: 0.001 - Loss: 1.6198589
Epoch: 1/15 - Batch: 3300/7933 - Learning rate: 0.001 - Loss: 1.4698713
Epoch: 1/15 - Batch: 3400/7933 - Learning rate: 0.001 - Loss: 1.3878102
Epoch: 1/15 - Batch: 3500/7933 - Learning rate: 0.001 - Loss: 1.953693
Epoch: 1/15 - Batch: 3600/7933 - Learning rate: 0.001 - Loss: 1.6086857
Epoch: 1/15 - Batch: 3700/7933 - Learning rate: 0.001 - Loss: 1.8175012
Epoch: 1/15 - Batch: 3800/7933 - Learning rate: 0.001 - Loss: 1.7078522
Epoch: 1/15 - Batch: 3900/7933 - Learning rate: 0.001 - Loss: 1.8168714
Epoch: 1/15 - Batch: 4000/7933 - Learning rate: 0.001 - Loss: 1.0658894 - Dev BLEU: 0.011403216815519385
Epoch: 1/15 - Batch: 4100/7933 - Learning rate: 0.001 - Loss: 1.338457
Epoch: 1/15 - Batch: 4200/7933 - Learning rate: 0.001 - Loss: 1.294783
Epoch: 1/15 - Batch: 4300/7933 - Learning rate: 0.001 - Loss: 1.3730522
Epoch: 1/15 - Batch: 4400/7933 - Learning rate: 0.001 - Loss: 1.3868227
Epoch: 1/15 - Batch: 4500/7933 - Learning rate: 0.001 - Loss: 1.4766876
Epoch: 1/15 - Batch: 4600/7933 - Learning rate: 0.001 - Loss: 2.6522276
Epoch: 1/15 - Batch: 4700/7933 - Learning rate: 0.001 - Loss: 2.0588534
Epoch: 1/15 - Batch: 4800/7933 - Learning rate: 0.001 - Loss: 2.094818
Epoch: 1/15 - Batch: 4900/7933 - Learning rate: 0.001 - Loss: 2.3024862
Epoch: 1/15 - Batch: 5000/7933 - Learning rate: 0.001 - Loss: 2.0629036 - Dev BLEU: 0.034982415086445125
Epoch: 1/15 - Batch: 5100/7933 - Learning rate: 0.001 - Loss: 2.0050573
Epoch: 1/15 - Batch: 5200/7933 - Learning rate: 0.001 - Loss: 2.0476937
Epoch: 1/15 - Batch: 5300/7933 - Learning rate: 0.001 - Loss: 1.9716889
Epoch: 1/15 - Batch: 5400/7933 - Learning rate: 0.001 - Loss: 1.9751511
Epoch: 1/15 - Batch: 5500/7933 - Learning rate: 0.001 - Loss: 2.070955
Epoch: 1/15 - Batch: 5600/7933 - Learning rate: 0.001 - Loss: 1.6394484
Epoch: 1/15 - Batch: 5700/7933 - Learning rate: 0.001 - Loss: 1.9859929
Epoch: 1/15 - Batch: 5800/7933 - Learning rate: 0.001 - Loss: 1.9161898
Epoch: 1/15 - Batch: 5900/7933 - Learning rate: 0.001 - Loss: 1.4748678
Epoch: 1/15 - Batch: 6000/7933 - Learning rate: 0.001 - Loss: 1.9187651 - Dev BLEU: 0.05251191030676162
Epoch: 1/15 - Batch: 6100/7933 - Learning rate: 0.001 - Loss: 2.022656
Epoch: 1/15 - Batch: 6200/7933 - Learning rate: 0.001 - Loss: 1.6129562
Epoch: 1/15 - Batch: 6300/7933 - Learning rate: 0.001 - Loss: 1.6121348
Epoch: 1/15 - Batch: 6400/7933 - Learning rate: 0.001 - Loss: 1.3357364
Epoch: 1/15 - Batch: 6500/7933 - Learning rate: 0.001 - Loss: 1.4233267
Epoch: 1/15 - Batch: 6600/7933 - Learning rate: 0.001 - Loss: 1.5443709
Epoch: 1/15 - Batch: 6700/7933 - Learning rate: 0.001 - Loss: 1.2924395
Epoch: 1/15 - Batch: 6800/7933 - Learning rate: 0.001 - Loss: 1.2275081
Epoch: 1/15 - Batch: 6900/7933 - Learning rate: 0.001 - Loss: 0.9815863
Epoch: 1/15 - Batch: 7000/7933 - Learning rate: 0.001 - Loss: 1.8545047 - Dev BLEU: 0.10947061557370846
Epoch: 1/15 - Batch: 7100/7933 - Learning rate: 0.001 - Loss: 1.4143211
Epoch: 1/15 - Batch: 7200/7933 - Learning rate: 0.001 - Loss: 1.1142272
Epoch: 1/15 - Batch: 7300/7933 - Learning rate: 0.001 - Loss: 1.3668497
Epoch: 1/15 - Batch: 7400/7933 - Learning rate: 0.001 - Loss: 1.4411047
Epoch: 1/15 - Batch: 7500/7933 - Learning rate: 0.001 - Loss: 1.0000846
Epoch: 1/15 - Batch: 7600/7933 - Learning rate: 0.001 - Loss: 1.7704444
Epoch: 1/15 - Batch: 7700/7933 - Learning rate: 0.001 - Loss: 1.9669006
Epoch: 1/15 - Batch: 7800/7933 - Learning rate: 0.001 - Loss: 1.7958648
Epoch: 1/15 - Batch: 7900/7933 - Learning rate: 0.001 - Loss: 1.4360422
Epoch: 1/15 - Batch: 7933/7933 - Learning rate: 0.001 - Loss: 1.9652478 - Dev BLEU: 0.11016178640253697
Epoch: 2/15 - Batch: 100/7933 - Learning rate: 0.001 - Loss: 1.0875552
Epoch: 2/15 - Batch: 200/7933 - Learning rate: 0.001 - Loss: 1.2458863
Epoch: 2/15 - Batch: 300/7933 - Learning rate: 0.001 - Loss: 0.7573225
Epoch: 2/15 - Batch: 400/7933 - Learning rate: 0.001 - Loss: 1.3463564
Epoch: 2/15 - Batch: 500/7933 - Learning rate: 0.001 - Loss: 1.1554947
Epoch: 2/15 - Batch: 600/7933 - Learning rate: 0.001 - Loss: 0.5477895
Epoch: 2/15 - Batch: 700/7933 - Learning rate: 0.001 - Loss: 1.038372
Epoch: 2/15 - Batch: 800/7933 - Learning rate: 0.001 - Loss: 0.9623262
Epoch: 2/15 - Batch: 900/7933 - Learning rate: 0.001 - Loss: 0.59842753
Epoch: 2/15 - Batch: 1000/7933 - Learning rate: 0.001 - Loss: 1.04997 - Dev BLEU: 0.10105462211789733
Epoch: 2/15 - Batch: 1100/7933 - Learning rate: 0.001 - Loss: 0.89726096
Epoch: 2/15 - Batch: 1200/7933 - Learning rate: 0.001 - Loss: 1.2652406
Epoch: 2/15 - Batch: 1300/7933 - Learning rate: 0.001 - Loss: 1.1214491
Epoch: 2/15 - Batch: 1400/7933 - Learning rate: 0.001 - Loss: 1.1732694
Epoch: 2/15 - Batch: 1500/7933 - Learning rate: 0.001 - Loss: 0.81374794
Epoch: 2/15 - Batch: 1600/7933 - Learning rate: 0.001 - Loss: 1.5527145
Epoch: 2/15 - Batch: 1700/7933 - Learning rate: 0.001 - Loss: 1.1654812
Epoch: 2/15 - Batch: 1800/7933 - Learning rate: 0.001 - Loss: 0.690814
Epoch: 2/15 - Batch: 1900/7933 - Learning rate: 0.001 - Loss: 0.945001
Epoch: 2/15 - Batch: 2000/7933 - Learning rate: 0.001 - Loss: 0.9944197 - Dev BLEU: 0.09679882682904457
Epoch: 2/15 - Batch: 2100/7933 - Learning rate: 0.001 - Loss: 0.8296785
Epoch: 2/15 - Batch: 2200/7933 - Learning rate: 0.001 - Loss: 0.87993234
Epoch: 2/15 - Batch: 2300/7933 - Learning rate: 0.001 - Loss: 1.0844649
Epoch: 2/15 - Batch: 2400/7933 - Learning rate: 0.001 - Loss: 0.8939919
Epoch: 2/15 - Batch: 2500/7933 - Learning rate: 0.001 - Loss: 0.91196483
Epoch: 2/15 - Batch: 2600/7933 - Learning rate: 0.001 - Loss: 0.6848543
Epoch: 2/15 - Batch: 2700/7933 - Learning rate: 0.001 - Loss: 0.3950945
Epoch: 2/15 - Batch: 2800/7933 - Learning rate: 0.001 - Loss: 1.0930226
Epoch: 2/15 - Batch: 2900/7933 - Learning rate: 0.001 - Loss: 1.2034174
Epoch: 2/15 - Batch: 3000/7933 - Learning rate: 0.001 - Loss: 1.1249963 - Dev BLEU: 0.10755223481538799
Epoch: 2/15 - Batch: 3100/7933 - Learning rate: 0.001 - Loss: 1.0771961
Epoch: 2/15 - Batch: 3200/7933 - Learning rate: 0.001 - Loss: 0.9935931
Epoch: 2/15 - Batch: 3300/7933 - Learning rate: 0.001 - Loss: 0.8445983
Epoch: 2/15 - Batch: 3400/7933 - Learning rate: 0.001 - Loss: 0.8328408
Epoch: 2/15 - Batch: 3500/7933 - Learning rate: 0.001 - Loss: 1.1580652
Epoch: 2/15 - Batch: 3600/7933 - Learning rate: 0.001 - Loss: 1.0583827
Epoch: 2/15 - Batch: 3700/7933 - Learning rate: 0.001 - Loss: 1.088326
Epoch: 2/15 - Batch: 3800/7933 - Learning rate: 0.001 - Loss: 1.0153799
Epoch: 2/15 - Batch: 3900/7933 - Learning rate: 0.001 - Loss: 1.1756731
Epoch: 2/15 - Batch: 4000/7933 - Learning rate: 0.001 - Loss: 0.6572853 - Dev BLEU: 0.11517178941097468
Epoch: 2/15 - Batch: 4100/7933 - Learning rate: 0.001 - Loss: 0.83383477
Epoch: 2/15 - Batch: 4200/7933 - Learning rate: 0.001 - Loss: 0.7881559
Epoch: 2/15 - Batch: 4300/7933 - Learning rate: 0.001 - Loss: 0.8823309
Epoch: 2/15 - Batch: 4400/7933 - Learning rate: 0.001 - Loss: 0.8571865
Epoch: 2/15 - Batch: 4500/7933 - Learning rate: 0.001 - Loss: 0.95148456
Epoch: 2/15 - Batch: 4600/7933 - Learning rate: 0.001 - Loss: 1.8153378
Epoch: 2/15 - Batch: 4700/7933 - Learning rate: 0.001 - Loss: 1.3206323
Epoch: 2/15 - Batch: 4800/7933 - Learning rate: 0.001 - Loss: 1.2901495
Epoch: 2/15 - Batch: 4900/7933 - Learning rate: 0.001 - Loss: 1.4413747
Epoch: 2/15 - Batch: 5000/7933 - Learning rate: 0.001 - Loss: 1.3823514 - Dev BLEU: 0.15058881738351548
Epoch: 2/15 - Batch: 5100/7933 - Learning rate: 0.001 - Loss: 1.4203435
Epoch: 2/15 - Batch: 5200/7933 - Learning rate: 0.001 - Loss: 1.3793235
Epoch: 2/15 - Batch: 5300/7933 - Learning rate: 0.001 - Loss: 1.3562232
Epoch: 2/15 - Batch: 5400/7933 - Learning rate: 0.001 - Loss: 1.3496566
Epoch: 2/15 - Batch: 5500/7933 - Learning rate: 0.001 - Loss: 1.3411019
Epoch: 2/15 - Batch: 5600/7933 - Learning rate: 0.001 - Loss: 1.0597599
Epoch: 2/15 - Batch: 5700/7933 - Learning rate: 0.001 - Loss: 1.3210089
Epoch: 2/15 - Batch: 5800/7933 - Learning rate: 0.001 - Loss: 1.3019981
Epoch: 2/15 - Batch: 5900/7933 - Learning rate: 0.001 - Loss: 0.94786376
Epoch: 2/15 - Batch: 6000/7933 - Learning rate: 0.001 - Loss: 1.306961 - Dev BLEU: 0.13139430418569498
Epoch: 2/15 - Batch: 6100/7933 - Learning rate: 0.001 - Loss: 1.325153
Epoch: 2/15 - Batch: 6200/7933 - Learning rate: 0.001 - Loss: 1.0931591
Epoch: 2/15 - Batch: 6300/7933 - Learning rate: 0.001 - Loss: 1.070159
Epoch: 2/15 - Batch: 6400/7933 - Learning rate: 0.001 - Loss: 0.9219246
Epoch: 2/15 - Batch: 6500/7933 - Learning rate: 0.001 - Loss: 1.043423
Epoch: 2/15 - Batch: 6600/7933 - Learning rate: 0.001 - Loss: 1.0679985
Epoch: 2/15 - Batch: 6700/7933 - Learning rate: 0.001 - Loss: 0.97393125
Epoch: 2/15 - Batch: 6800/7933 - Learning rate: 0.001 - Loss: 0.9310281
Epoch: 2/15 - Batch: 6900/7933 - Learning rate: 0.001 - Loss: 0.6919187
Epoch: 2/15 - Batch: 7000/7933 - Learning rate: 0.001 - Loss: 1.4129717 - Dev BLEU: 0.1929120277083773
Epoch: 2/15 - Batch: 7100/7933 - Learning rate: 0.001 - Loss: 1.0633756
Epoch: 2/15 - Batch: 7200/7933 - Learning rate: 0.001 - Loss: 0.8445477
Epoch: 2/15 - Batch: 7300/7933 - Learning rate: 0.001 - Loss: 1.0422956
Epoch: 2/15 - Batch: 7400/7933 - Learning rate: 0.001 - Loss: 1.0928351
Epoch: 2/15 - Batch: 7500/7933 - Learning rate: 0.001 - Loss: 0.7949057
Epoch: 2/15 - Batch: 7600/7933 - Learning rate: 0.001 - Loss: 1.4291039
Epoch: 2/15 - Batch: 7700/7933 - Learning rate: 0.001 - Loss: 1.5864601
Epoch: 2/15 - Batch: 7800/7933 - Learning rate: 0.001 - Loss: 1.4714726
Epoch: 2/15 - Batch: 7900/7933 - Learning rate: 0.001 - Loss: 1.108111
Epoch: 2/15 - Batch: 7933/7933 - Learning rate: 0.001 - Loss: 1.5445544 - Dev BLEU: 0.17605992472847345
Epoch: 3/15 - Batch: 100/7933 - Learning rate: 0.001 - Loss: 0.9286197
Epoch: 3/15 - Batch: 200/7933 - Learning rate: 0.001 - Loss: 0.9503539
Epoch: 3/15 - Batch: 300/7933 - Learning rate: 0.001 - Loss: 0.6428784
Epoch: 3/15 - Batch: 400/7933 - Learning rate: 0.001 - Loss: 1.1009827
Epoch: 3/15 - Batch: 500/7933 - Learning rate: 0.001 - Loss: 0.8462622
Epoch: 3/15 - Batch: 600/7933 - Learning rate: 0.001 - Loss: 0.46349335
Epoch: 3/15 - Batch: 700/7933 - Learning rate: 0.001 - Loss: 0.80362517
Epoch: 3/15 - Batch: 800/7933 - Learning rate: 0.001 - Loss: 0.7861299
Epoch: 3/15 - Batch: 900/7933 - Learning rate: 0.001 - Loss: 0.49831533
Epoch: 3/15 - Batch: 1000/7933 - Learning rate: 0.001 - Loss: 0.8619667 - Dev BLEU: 0.15465959476731747
Epoch: 3/15 - Batch: 1100/7933 - Learning rate: 0.001 - Loss: 0.74074394
Epoch: 3/15 - Batch: 1200/7933 - Learning rate: 0.001 - Loss: 1.0354049
Epoch: 3/15 - Batch: 1300/7933 - Learning rate: 0.001 - Loss: 0.9142776
Epoch: 3/15 - Batch: 1400/7933 - Learning rate: 0.001 - Loss: 0.9729987
Epoch: 3/15 - Batch: 1500/7933 - Learning rate: 0.001 - Loss: 0.6825967
Epoch: 3/15 - Batch: 1600/7933 - Learning rate: 0.001 - Loss: 1.2916194
Epoch: 3/15 - Batch: 1700/7933 - Learning rate: 0.001 - Loss: 0.9650764
Epoch: 3/15 - Batch: 1800/7933 - Learning rate: 0.001 - Loss: 0.5363243
Epoch: 3/15 - Batch: 1900/7933 - Learning rate: 0.001 - Loss: 0.8007447
Epoch: 3/15 - Batch: 2000/7933 - Learning rate: 0.001 - Loss: 0.8367248 - Dev BLEU: 0.14140218634535695
Epoch: 3/15 - Batch: 2100/7933 - Learning rate: 0.001 - Loss: 0.7037382
Epoch: 3/15 - Batch: 2200/7933 - Learning rate: 0.001 - Loss: 0.7206861
Epoch: 3/15 - Batch: 2300/7933 - Learning rate: 0.001 - Loss: 0.9021679
Epoch: 3/15 - Batch: 2400/7933 - Learning rate: 0.001 - Loss: 0.73160934
Epoch: 3/15 - Batch: 2500/7933 - Learning rate: 0.001 - Loss: 0.7382364
Epoch: 3/15 - Batch: 2600/7933 - Learning rate: 0.001 - Loss: 0.5502891
Epoch: 3/15 - Batch: 2700/7933 - Learning rate: 0.001 - Loss: 0.32397664
Epoch: 3/15 - Batch: 2800/7933 - Learning rate: 0.001 - Loss: 0.91032875
Epoch: 3/15 - Batch: 2900/7933 - Learning rate: 0.001 - Loss: 1.0428537
Epoch: 3/15 - Batch: 3000/7933 - Learning rate: 0.001 - Loss: 0.95265096 - Dev BLEU: 0.14915300818354713
Epoch: 3/15 - Batch: 3100/7933 - Learning rate: 0.001 - Loss: 0.95067143
Epoch: 3/15 - Batch: 3200/7933 - Learning rate: 0.001 - Loss: 0.88146824
Epoch: 3/15 - Batch: 3300/7933 - Learning rate: 0.001 - Loss: 0.72649616
Epoch: 3/15 - Batch: 3400/7933 - Learning rate: 0.001 - Loss: 0.72634023
Epoch: 3/15 - Batch: 3500/7933 - Learning rate: 0.001 - Loss: 0.95933104
Epoch: 3/15 - Batch: 3600/7933 - Learning rate: 0.001 - Loss: 0.92876345
Epoch: 3/15 - Batch: 3700/7933 - Learning rate: 0.001 - Loss: 0.9451331
Epoch: 3/15 - Batch: 3800/7933 - Learning rate: 0.001 - Loss: 0.86634004
Epoch: 3/15 - Batch: 3900/7933 - Learning rate: 0.001 - Loss: 1.0104716
Epoch: 3/15 - Batch: 4000/7933 - Learning rate: 0.001 - Loss: 0.56600183 - Dev BLEU: 0.1574262548257249
Epoch: 3/15 - Batch: 4100/7933 - Learning rate: 0.001 - Loss: 0.7296173
Epoch: 3/15 - Batch: 4200/7933 - Learning rate: 0.001 - Loss: 0.6846472
Epoch: 3/15 - Batch: 4300/7933 - Learning rate: 0.001 - Loss: 0.78431463
Epoch: 3/15 - Batch: 4400/7933 - Learning rate: 0.001 - Loss: 0.7503464
Epoch: 3/15 - Batch: 4500/7933 - Learning rate: 0.001 - Loss: 0.8438729
Epoch: 3/15 - Batch: 4600/7933 - Learning rate: 0.001 - Loss: 1.5372216
Epoch: 3/15 - Batch: 4700/7933 - Learning rate: 0.001 - Loss: 1.0847533
Epoch: 3/15 - Batch: 4800/7933 - Learning rate: 0.001 - Loss: 1.0669793
Epoch: 3/15 - Batch: 4900/7933 - Learning rate: 0.001 - Loss: 1.193518
Epoch: 3/15 - Batch: 5000/7933 - Learning rate: 0.001 - Loss: 1.2147348 - Dev BLEU: 0.17855691926529937
Epoch: 3/15 - Batch: 5100/7933 - Learning rate: 0.001 - Loss: 1.2242775
Epoch: 3/15 - Batch: 5200/7933 - Learning rate: 0.001 - Loss: 1.1720225
Epoch: 3/15 - Batch: 5300/7933 - Learning rate: 0.001 - Loss: 1.1638368
Epoch: 3/15 - Batch: 5400/7933 - Learning rate: 0.001 - Loss: 1.1494914
Epoch: 3/15 - Batch: 5500/7933 - Learning rate: 0.001 - Loss: 1.1447089
Epoch: 3/15 - Batch: 5600/7933 - Learning rate: 0.001 - Loss: 0.91589373
Epoch: 3/15 - Batch: 5700/7933 - Learning rate: 0.001 - Loss: 1.1274259
Epoch: 3/15 - Batch: 5800/7933 - Learning rate: 0.001 - Loss: 1.0998324
Epoch: 3/15 - Batch: 5900/7933 - Learning rate: 0.001 - Loss: 0.8234539
Epoch: 3/15 - Batch: 6000/7933 - Learning rate: 0.001 - Loss: 1.1442676 - Dev BLEU: 0.1623869682768079
Epoch: 3/15 - Batch: 6100/7933 - Learning rate: 0.001 - Loss: 1.1477718
Epoch: 3/15 - Batch: 6200/7933 - Learning rate: 0.001 - Loss: 0.964429
Epoch: 3/15 - Batch: 6300/7933 - Learning rate: 0.001 - Loss: 0.9091297
Epoch: 3/15 - Batch: 6400/7933 - Learning rate: 0.001 - Loss: 0.82328284
Epoch: 3/15 - Batch: 6500/7933 - Learning rate: 0.001 - Loss: 0.926566
Epoch: 3/15 - Batch: 6600/7933 - Learning rate: 0.001 - Loss: 0.911174
Epoch: 3/15 - Batch: 6700/7933 - Learning rate: 0.001 - Loss: 0.8655338
Epoch: 3/15 - Batch: 6800/7933 - Learning rate: 0.001 - Loss: 0.8417876
Epoch: 3/15 - Batch: 6900/7933 - Learning rate: 0.001 - Loss: 0.60896987
Epoch: 3/15 - Batch: 7000/7933 - Learning rate: 0.001 - Loss: 1.2735786 - Dev BLEU: 0.21528278004373633
Epoch: 3/15 - Batch: 7100/7933 - Learning rate: 0.001 - Loss: 0.9489515
Epoch: 3/15 - Batch: 7200/7933 - Learning rate: 0.001 - Loss: 0.74368435
Epoch: 3/15 - Batch: 7300/7933 - Learning rate: 0.001 - Loss: 0.9349417
Epoch: 3/15 - Batch: 7400/7933 - Learning rate: 0.001 - Loss: 0.9882537
Epoch: 3/15 - Batch: 7500/7933 - Learning rate: 0.001 - Loss: 0.7227897
Epoch: 3/15 - Batch: 7600/7933 - Learning rate: 0.001 - Loss: 1.2799791
Epoch: 3/15 - Batch: 7700/7933 - Learning rate: 0.001 - Loss: 1.4458399
Epoch: 3/15 - Batch: 7800/7933 - Learning rate: 0.001 - Loss: 1.338457
Epoch: 3/15 - Batch: 7900/7933 - Learning rate: 0.001 - Loss: 0.9667872
Epoch: 3/15 - Batch: 7933/7933 - Learning rate: 0.001 - Loss: 1.3724161 - Dev BLEU: 0.2009780146567343
Epoch: 4/15 - Batch: 100/7933 - Learning rate: 0.001 - Loss: 0.8699326
Epoch: 4/15 - Batch: 200/7933 - Learning rate: 0.001 - Loss: 0.81568605
Epoch: 4/15 - Batch: 300/7933 - Learning rate: 0.001 - Loss: 0.59601176
Epoch: 4/15 - Batch: 400/7933 - Learning rate: 0.001 - Loss: 1.0169067
Epoch: 4/15 - Batch: 500/7933 - Learning rate: 0.001 - Loss: 0.7387025
Epoch: 4/15 - Batch: 600/7933 - Learning rate: 0.001 - Loss: 0.43797567
Epoch: 4/15 - Batch: 700/7933 - Learning rate: 0.001 - Loss: 0.7217354
Epoch: 4/15 - Batch: 800/7933 - Learning rate: 0.001 - Loss: 0.71715164
Epoch: 4/15 - Batch: 900/7933 - Learning rate: 0.001 - Loss: 0.45267892
Epoch: 4/15 - Batch: 1000/7933 - Learning rate: 0.001 - Loss: 0.78545815 - Dev BLEU: 0.17589789772149964
Epoch: 4/15 - Batch: 1100/7933 - Learning rate: 0.001 - Loss: 0.674444
Epoch: 4/15 - Batch: 1200/7933 - Learning rate: 0.001 - Loss: 0.96361685
Epoch: 4/15 - Batch: 1300/7933 - Learning rate: 0.001 - Loss: 0.8204841
Epoch: 4/15 - Batch: 1400/7933 - Learning rate: 0.001 - Loss: 0.8894524
Epoch: 4/15 - Batch: 1500/7933 - Learning rate: 0.001 - Loss: 0.6344821
Epoch: 4/15 - Batch: 1600/7933 - Learning rate: 0.001 - Loss: 1.169164
Epoch: 4/15 - Batch: 1700/7933 - Learning rate: 0.001 - Loss: 0.8687296
Epoch: 4/15 - Batch: 1800/7933 - Learning rate: 0.001 - Loss: 0.48740107
Epoch: 4/15 - Batch: 1900/7933 - Learning rate: 0.001 - Loss: 0.73234844
Epoch: 4/15 - Batch: 2000/7933 - Learning rate: 0.001 - Loss: 0.753055 - Dev BLEU: 0.1599682179470971
Epoch: 4/15 - Batch: 2100/7933 - Learning rate: 0.001 - Loss: 0.6530605
Epoch: 4/15 - Batch: 2200/7933 - Learning rate: 0.001 - Loss: 0.6538386
Epoch: 4/15 - Batch: 2300/7933 - Learning rate: 0.001 - Loss: 0.82171553
Epoch: 4/15 - Batch: 2400/7933 - Learning rate: 0.001 - Loss: 0.6576381
Epoch: 4/15 - Batch: 2500/7933 - Learning rate: 0.001 - Loss: 0.6550569
Epoch: 4/15 - Batch: 2600/7933 - Learning rate: 0.001 - Loss: 0.50460553
Epoch: 4/15 - Batch: 2700/7933 - Learning rate: 0.001 - Loss: 0.292714
Epoch: 4/15 - Batch: 2800/7933 - Learning rate: 0.001 - Loss: 0.8262458
Epoch: 4/15 - Batch: 2900/7933 - Learning rate: 0.001 - Loss: 0.9682259
Epoch: 4/15 - Batch: 3000/7933 - Learning rate: 0.001 - Loss: 0.86415565 - Dev BLEU: 0.16804342162887806
Epoch: 4/15 - Batch: 3100/7933 - Learning rate: 0.001 - Loss: 0.885546
Epoch: 4/15 - Batch: 3200/7933 - Learning rate: 0.001 - Loss: 0.81952333
Epoch: 4/15 - Batch: 3300/7933 - Learning rate: 0.001 - Loss: 0.6750312
Epoch: 4/15 - Batch: 3400/7933 - Learning rate: 0.001 - Loss: 0.670867
Epoch: 4/15 - Batch: 3500/7933 - Learning rate: 0.001 - Loss: 0.8918268
Epoch: 4/15 - Batch: 3600/7933 - Learning rate: 0.001 - Loss: 0.86648494
Epoch: 4/15 - Batch: 3700/7933 - Learning rate: 0.001 - Loss: 0.8672215
Epoch: 4/15 - Batch: 3800/7933 - Learning rate: 0.001 - Loss: 0.80285484
Epoch: 4/15 - Batch: 3900/7933 - Learning rate: 0.001 - Loss: 0.9201222
Epoch: 4/15 - Batch: 4000/7933 - Learning rate: 0.001 - Loss: 0.5140682 - Dev BLEU: 0.1747450463421296
Epoch: 4/15 - Batch: 4100/7933 - Learning rate: 0.001 - Loss: 0.66319406
Epoch: 4/15 - Batch: 4200/7933 - Learning rate: 0.001 - Loss: 0.6394159
Epoch: 4/15 - Batch: 4300/7933 - Learning rate: 0.001 - Loss: 0.718447
Epoch: 4/15 - Batch: 4400/7933 - Learning rate: 0.001 - Loss: 0.69446105
Epoch: 4/15 - Batch: 4500/7933 - Learning rate: 0.001 - Loss: 0.7749749
Epoch: 4/15 - Batch: 4600/7933 - Learning rate: 0.001 - Loss: 1.3715358
Epoch: 4/15 - Batch: 4700/7933 - Learning rate: 0.001 - Loss: 0.9961864
Epoch: 4/15 - Batch: 4800/7933 - Learning rate: 0.001 - Loss: 0.9462156
Epoch: 4/15 - Batch: 4900/7933 - Learning rate: 0.001 - Loss: 1.089782
Epoch: 4/15 - Batch: 5000/7933 - Learning rate: 0.001 - Loss: 1.1140765 - Dev BLEU: 0.20010544373025255
Epoch: 4/15 - Batch: 5100/7933 - Learning rate: 0.001 - Loss: 1.1549562
Epoch: 4/15 - Batch: 5200/7933 - Learning rate: 0.001 - Loss: 1.104908
Epoch: 4/15 - Batch: 5300/7933 - Learning rate: 0.001 - Loss: 1.0898496
Epoch: 4/15 - Batch: 5400/7933 - Learning rate: 0.001 - Loss: 1.0469508
Epoch: 4/15 - Batch: 5500/7933 - Learning rate: 0.001 - Loss: 1.0392442
Epoch: 4/15 - Batch: 5600/7933 - Learning rate: 0.001 - Loss: 0.8543505
Epoch: 4/15 - Batch: 5700/7933 - Learning rate: 0.001 - Loss: 1.0708222
Epoch: 4/15 - Batch: 5800/7933 - Learning rate: 0.001 - Loss: 1.0231382
Epoch: 4/15 - Batch: 5900/7933 - Learning rate: 0.001 - Loss: 0.71015316
Epoch: 4/15 - Batch: 6000/7933 - Learning rate: 0.001 - Loss: 1.0362535 - Dev BLEU: 0.1850162595432577
Epoch: 4/15 - Batch: 6100/7933 - Learning rate: 0.001 - Loss: 1.0152614
Epoch: 4/15 - Batch: 6200/7933 - Learning rate: 0.001 - Loss: 0.8972469
Epoch: 4/15 - Batch: 6300/7933 - Learning rate: 0.001 - Loss: 0.8561426
Epoch: 4/15 - Batch: 6400/7933 - Learning rate: 0.001 - Loss: 0.75904065
Epoch: 4/15 - Batch: 6500/7933 - Learning rate: 0.001 - Loss: 0.86493313
Epoch: 4/15 - Batch: 6600/7933 - Learning rate: 0.001 - Loss: 0.84308803
Epoch: 4/15 - Batch: 6700/7933 - Learning rate: 0.001 - Loss: 0.81718856
Epoch: 4/15 - Batch: 6800/7933 - Learning rate: 0.001 - Loss: 0.79320496
Epoch: 4/15 - Batch: 6900/7933 - Learning rate: 0.001 - Loss: 0.56650364
Epoch: 4/15 - Batch: 7000/7933 - Learning rate: 0.001 - Loss: 1.1985034 - Dev BLEU: 0.22940011505986382
Epoch: 4/15 - Batch: 7100/7933 - Learning rate: 0.001 - Loss: 0.8840314
Epoch: 4/15 - Batch: 7200/7933 - Learning rate: 0.001 - Loss: 0.6975402
Epoch: 4/15 - Batch: 7300/7933 - Learning rate: 0.001 - Loss: 0.88086104
Epoch: 4/15 - Batch: 7400/7933 - Learning rate: 0.001 - Loss: 0.9336477
Epoch: 4/15 - Batch: 7500/7933 - Learning rate: 0.001 - Loss: 0.6764499
Epoch: 4/15 - Batch: 7600/7933 - Learning rate: 0.001 - Loss: 1.1896639
Epoch: 4/15 - Batch: 7700/7933 - Learning rate: 0.001 - Loss: 1.3622166
Epoch: 4/15 - Batch: 7800/7933 - Learning rate: 0.001 - Loss: 1.2445943
Epoch: 4/15 - Batch: 7900/7933 - Learning rate: 0.001 - Loss: 0.89692336
Epoch: 4/15 - Batch: 7933/7933 - Learning rate: 0.001 - Loss: 1.2586936 - Dev BLEU: 0.21553938192163627
Epoch: 5/15 - Batch: 100/7933 - Learning rate: 0.001 - Loss: 0.84172446
Epoch: 5/15 - Batch: 200/7933 - Learning rate: 0.001 - Loss: 0.7547554
Epoch: 5/15 - Batch: 300/7933 - Learning rate: 0.001 - Loss: 0.57207435
Epoch: 5/15 - Batch: 400/7933 - Learning rate: 0.001 - Loss: 0.9399978
Epoch: 5/15 - Batch: 500/7933 - Learning rate: 0.001 - Loss: 0.6769946
Epoch: 5/15 - Batch: 600/7933 - Learning rate: 0.001 - Loss: 0.419064
Epoch: 5/15 - Batch: 700/7933 - Learning rate: 0.001 - Loss: 0.6853892
Epoch: 5/15 - Batch: 800/7933 - Learning rate: 0.001 - Loss: 0.6671563
Epoch: 5/15 - Batch: 900/7933 - Learning rate: 0.001 - Loss: 0.43615073
Epoch: 5/15 - Batch: 1000/7933 - Learning rate: 0.001 - Loss: 0.72827536 - Dev BLEU: 0.1863002608969024
Epoch: 5/15 - Batch: 1100/7933 - Learning rate: 0.001 - Loss: 0.6400336
Epoch: 5/15 - Batch: 1200/7933 - Learning rate: 0.001 - Loss: 0.89404994
Epoch: 5/15 - Batch: 1300/7933 - Learning rate: 0.001 - Loss: 0.7661839
Epoch: 5/15 - Batch: 1400/7933 - Learning rate: 0.001 - Loss: 0.84501487
Epoch: 5/15 - Batch: 1500/7933 - Learning rate: 0.001 - Loss: 0.5884973
Epoch: 5/15 - Batch: 1600/7933 - Learning rate: 0.001 - Loss: 1.0957547
Epoch: 5/15 - Batch: 1700/7933 - Learning rate: 0.001 - Loss: 0.8201243
Epoch: 5/15 - Batch: 1800/7933 - Learning rate: 0.001 - Loss: 0.46096557
Epoch: 5/15 - Batch: 1900/7933 - Learning rate: 0.001 - Loss: 0.69206864
Epoch: 5/15 - Batch: 2000/7933 - Learning rate: 0.001 - Loss: 0.70726407 - Dev BLEU: 0.17355064669795542
Epoch: 5/15 - Batch: 2100/7933 - Learning rate: 0.001 - Loss: 0.5986399
Epoch: 5/15 - Batch: 2200/7933 - Learning rate: 0.001 - Loss: 0.6159149
Epoch: 5/15 - Batch: 2300/7933 - Learning rate: 0.001 - Loss: 0.75709134
Epoch: 5/15 - Batch: 2400/7933 - Learning rate: 0.001 - Loss: 0.6138698
Epoch: 5/15 - Batch: 2500/7933 - Learning rate: 0.001 - Loss: 0.606135
Epoch: 5/15 - Batch: 2600/7933 - Learning rate: 0.001 - Loss: 0.47397378
Epoch: 5/15 - Batch: 2700/7933 - Learning rate: 0.001 - Loss: 0.27685863
Epoch: 5/15 - Batch: 2800/7933 - Learning rate: 0.001 - Loss: 0.78157645
Epoch: 5/15 - Batch: 2900/7933 - Learning rate: 0.001 - Loss: 0.91059065
Epoch: 5/15 - Batch: 3000/7933 - Learning rate: 0.001 - Loss: 0.80684185 - Dev BLEU: 0.17934689843933263
Epoch: 5/15 - Batch: 3100/7933 - Learning rate: 0.001 - Loss: 0.8275576
Epoch: 5/15 - Batch: 3200/7933 - Learning rate: 0.001 - Loss: 0.77632904
Epoch: 5/15 - Batch: 3300/7933 - Learning rate: 0.001 - Loss: 0.6450093
Epoch: 5/15 - Batch: 3400/7933 - Learning rate: 0.001 - Loss: 0.6344511
Epoch: 5/15 - Batch: 3500/7933 - Learning rate: 0.001 - Loss: 0.84449995
Epoch: 5/15 - Batch: 3600/7933 - Learning rate: 0.001 - Loss: 0.8300536
Epoch: 5/15 - Batch: 3700/7933 - Learning rate: 0.001 - Loss: 0.8202245
Epoch: 5/15 - Batch: 3800/7933 - Learning rate: 0.001 - Loss: 0.7707923
Epoch: 5/15 - Batch: 3900/7933 - Learning rate: 0.001 - Loss: 0.8529064
Epoch: 5/15 - Batch: 4000/7933 - Learning rate: 0.001 - Loss: 0.48439816 - Dev BLEU: 0.18713117820444342
Epoch: 5/15 - Batch: 4100/7933 - Learning rate: 0.001 - Loss: 0.63375884
Epoch: 5/15 - Batch: 4200/7933 - Learning rate: 0.001 - Loss: 0.62099254
Epoch: 5/15 - Batch: 4300/7933 - Learning rate: 0.001 - Loss: 0.6932176
Epoch: 5/15 - Batch: 4400/7933 - Learning rate: 0.001 - Loss: 0.6523289
Epoch: 5/15 - Batch: 4500/7933 - Learning rate: 0.001 - Loss: 0.7465802
Epoch: 5/15 - Batch: 4600/7933 - Learning rate: 0.001 - Loss: 1.2954626
Epoch: 5/15 - Batch: 4700/7933 - Learning rate: 0.001 - Loss: 0.9105288
Epoch: 5/15 - Batch: 4800/7933 - Learning rate: 0.001 - Loss: 0.898823
Epoch: 5/15 - Batch: 4900/7933 - Learning rate: 0.001 - Loss: 1.0352795
Epoch: 5/15 - Batch: 5000/7933 - Learning rate: 0.001 - Loss: 1.0553435 - Dev BLEU: 0.2143318914929506
Epoch: 5/15 - Batch: 5100/7933 - Learning rate: 0.001 - Loss: 1.0949672
Epoch: 5/15 - Batch: 5200/7933 - Learning rate: 0.001 - Loss: 1.0359005
Epoch: 5/15 - Batch: 5300/7933 - Learning rate: 0.001 - Loss: 1.0240093
Epoch: 5/15 - Batch: 5400/7933 - Learning rate: 0.001 - Loss: 0.9689899
Epoch: 5/15 - Batch: 5500/7933 - Learning rate: 0.001 - Loss: 1.0066617
Epoch: 5/15 - Batch: 5600/7933 - Learning rate: 0.001 - Loss: 0.80685616
Epoch: 5/15 - Batch: 5700/7933 - Learning rate: 0.001 - Loss: 0.99801856
Epoch: 5/15 - Batch: 5800/7933 - Learning rate: 0.001 - Loss: 0.969499
Epoch: 5/15 - Batch: 5900/7933 - Learning rate: 0.001 - Loss: 0.6568521
Epoch: 5/15 - Batch: 6000/7933 - Learning rate: 0.001 - Loss: 1.0042576 - Dev BLEU: 0.199040181977467
Epoch: 5/15 - Batch: 6100/7933 - Learning rate: 0.001 - Loss: 0.9544868
Epoch: 5/15 - Batch: 6200/7933 - Learning rate: 0.001 - Loss: 0.854398
Epoch: 5/15 - Batch: 6300/7933 - Learning rate: 0.001 - Loss: 0.8206881
Epoch: 5/15 - Batch: 6400/7933 - Learning rate: 0.001 - Loss: 0.7300478
Epoch: 5/15 - Batch: 6500/7933 - Learning rate: 0.001 - Loss: 0.8226482
Epoch: 5/15 - Batch: 6600/7933 - Learning rate: 0.001 - Loss: 0.80282384
Epoch: 5/15 - Batch: 6700/7933 - Learning rate: 0.001 - Loss: 0.7811992
Epoch: 5/15 - Batch: 6800/7933 - Learning rate: 0.001 - Loss: 0.76564157
Epoch: 5/15 - Batch: 6900/7933 - Learning rate: 0.001 - Loss: 0.5465467
Epoch: 5/15 - Batch: 7000/7933 - Learning rate: 0.001 - Loss: 1.1485332 - Dev BLEU: 0.2377732479189452
Epoch: 5/15 - Batch: 7100/7933 - Learning rate: 0.001 - Loss: 0.8466525
Epoch: 5/15 - Batch: 7200/7933 - Learning rate: 0.001 - Loss: 0.6638097
Epoch: 5/15 - Batch: 7300/7933 - Learning rate: 0.001 - Loss: 0.84005487
Epoch: 5/15 - Batch: 7400/7933 - Learning rate: 0.001 - Loss: 0.9041692
Epoch: 5/15 - Batch: 7500/7933 - Learning rate: 0.001 - Loss: 0.6559073
Epoch: 5/15 - Batch: 7600/7933 - Learning rate: 0.001 - Loss: 1.1339718
Epoch: 5/15 - Batch: 7700/7933 - Learning rate: 0.001 - Loss: 1.3054683
Epoch: 5/15 - Batch: 7800/7933 - Learning rate: 0.001 - Loss: 1.1966571
Epoch: 5/15 - Batch: 7900/7933 - Learning rate: 0.001 - Loss: 0.85893226
Epoch: 5/15 - Batch: 7933/7933 - Learning rate: 0.001 - Loss: 1.1406431 - Dev BLEU: 0.22208855310643433
Epoch: 6/15 - Batch: 100/7933 - Learning rate: 0.001 - Loss: 0.8100088
Epoch: 6/15 - Batch: 200/7933 - Learning rate: 0.001 - Loss: 0.71102977
Epoch: 6/15 - Batch: 300/7933 - Learning rate: 0.001 - Loss: 0.5483869
Epoch: 6/15 - Batch: 400/7933 - Learning rate: 0.001 - Loss: 0.9042094
Epoch: 6/15 - Batch: 500/7933 - Learning rate: 0.001 - Loss: 0.61642164
Epoch: 6/15 - Batch: 600/7933 - Learning rate: 0.001 - Loss: 0.41267034
Epoch: 6/15 - Batch: 700/7933 - Learning rate: 0.001 - Loss: 0.6392076
Epoch: 6/15 - Batch: 800/7933 - Learning rate: 0.001 - Loss: 0.64935905
Epoch: 6/15 - Batch: 900/7933 - Learning rate: 0.001 - Loss: 0.40687072
Epoch: 6/15 - Batch: 1000/7933 - Learning rate: 0.001 - Loss: 0.69957733 - Dev BLEU: 0.19639957469662664
Epoch: 6/15 - Batch: 1100/7933 - Learning rate: 0.001 - Loss: 0.6140908
Epoch: 6/15 - Batch: 1200/7933 - Learning rate: 0.001 - Loss: 0.8676618
Epoch: 6/15 - Batch: 1300/7933 - Learning rate: 0.001 - Loss: 0.7335184
Epoch: 6/15 - Batch: 1400/7933 - Learning rate: 0.001 - Loss: 0.80914575
Epoch: 6/15 - Batch: 1500/7933 - Learning rate: 0.001 - Loss: 0.56769145
Epoch: 6/15 - Batch: 1600/7933 - Learning rate: 0.001 - Loss: 1.0578091
Epoch: 6/15 - Batch: 1700/7933 - Learning rate: 0.001 - Loss: 0.78844213
Epoch: 6/15 - Batch: 1800/7933 - Learning rate: 0.001 - Loss: 0.43314412
Epoch: 6/15 - Batch: 1900/7933 - Learning rate: 0.001 - Loss: 0.66142493
Epoch: 6/15 - Batch: 2000/7933 - Learning rate: 0.001 - Loss: 0.6700465 - Dev BLEU: 0.1817054687126446
Epoch: 6/15 - Batch: 2100/7933 - Learning rate: 0.001 - Loss: 0.57768786
Epoch: 6/15 - Batch: 2200/7933 - Learning rate: 0.001 - Loss: 0.5905901
Epoch: 6/15 - Batch: 2300/7933 - Learning rate: 0.001 - Loss: 0.71327776
Epoch: 6/15 - Batch: 2400/7933 - Learning rate: 0.001 - Loss: 0.58599263
Epoch: 6/15 - Batch: 2500/7933 - Learning rate: 0.001 - Loss: 0.57553065
Epoch: 6/15 - Batch: 2600/7933 - Learning rate: 0.001 - Loss: 0.45087805
Epoch: 6/15 - Batch: 2700/7933 - Learning rate: 0.001 - Loss: 0.26658785
Epoch: 6/15 - Batch: 2800/7933 - Learning rate: 0.001 - Loss: 0.75106204
Epoch: 6/15 - Batch: 2900/7933 - Learning rate: 0.001 - Loss: 0.8778902
Epoch: 6/15 - Batch: 3000/7933 - Learning rate: 0.001 - Loss: 0.76241136 - Dev BLEU: 0.18564797342862094
Epoch: 6/15 - Batch: 3100/7933 - Learning rate: 0.001 - Loss: 0.8002214
Epoch: 6/15 - Batch: 3200/7933 - Learning rate: 0.001 - Loss: 0.7587947
Epoch: 6/15 - Batch: 3300/7933 - Learning rate: 0.001 - Loss: 0.61495996
Epoch: 6/15 - Batch: 3400/7933 - Learning rate: 0.001 - Loss: 0.6160667
Epoch: 6/15 - Batch: 3500/7933 - Learning rate: 0.001 - Loss: 0.7923415
Epoch: 6/15 - Batch: 3600/7933 - Learning rate: 0.001 - Loss: 0.78471935
Epoch: 6/15 - Batch: 3700/7933 - Learning rate: 0.001 - Loss: 0.7816143
Epoch: 6/15 - Batch: 3800/7933 - Learning rate: 0.001 - Loss: 0.73568416
Epoch: 6/15 - Batch: 3900/7933 - Learning rate: 0.001 - Loss: 0.8162119
Epoch: 6/15 - Batch: 4000/7933 - Learning rate: 0.001 - Loss: 0.46760315 - Dev BLEU: 0.19589571566465955
Epoch: 6/15 - Batch: 4100/7933 - Learning rate: 0.001 - Loss: 0.603576
Epoch: 6/15 - Batch: 4200/7933 - Learning rate: 0.001 - Loss: 0.58457994
Epoch: 6/15 - Batch: 4300/7933 - Learning rate: 0.001 - Loss: 0.6696058
Epoch: 6/15 - Batch: 4400/7933 - Learning rate: 0.001 - Loss: 0.61830664
Epoch: 6/15 - Batch: 4500/7933 - Learning rate: 0.001 - Loss: 0.70228374
Epoch: 6/15 - Batch: 4600/7933 - Learning rate: 0.001 - Loss: 1.2158805
Epoch: 6/15 - Batch: 4700/7933 - Learning rate: 0.001 - Loss: 0.85730344
Epoch: 6/15 - Batch: 4800/7933 - Learning rate: 0.001 - Loss: 0.84536207
Epoch: 6/15 - Batch: 4900/7933 - Learning rate: 0.001 - Loss: 0.9781796
Epoch: 6/15 - Batch: 5000/7933 - Learning rate: 0.001 - Loss: 1.011547 - Dev BLEU: 0.22242386158757513
Epoch: 6/15 - Batch: 5100/7933 - Learning rate: 0.001 - Loss: 1.0544673
Epoch: 6/15 - Batch: 5200/7933 - Learning rate: 0.001 - Loss: 1.0187767
Epoch: 6/15 - Batch: 5300/7933 - Learning rate: 0.001 - Loss: 0.9978892
Epoch: 6/15 - Batch: 5400/7933 - Learning rate: 0.001 - Loss: 0.9178719
Epoch: 6/15 - Batch: 5500/7933 - Learning rate: 0.001 - Loss: 0.96054256
Epoch: 6/15 - Batch: 5600/7933 - Learning rate: 0.001 - Loss: 0.76028734
Epoch: 6/15 - Batch: 5700/7933 - Learning rate: 0.001 - Loss: 0.94800925
Epoch: 6/15 - Batch: 5800/7933 - Learning rate: 0.001 - Loss: 0.92626876
Epoch: 6/15 - Batch: 5900/7933 - Learning rate: 0.001 - Loss: 0.65571237
Epoch: 6/15 - Batch: 6000/7933 - Learning rate: 0.001 - Loss: 0.96186787 - Dev BLEU: 0.2035001690444736
Epoch: 6/15 - Batch: 6100/7933 - Learning rate: 0.001 - Loss: 0.9089657
Epoch: 6/15 - Batch: 6200/7933 - Learning rate: 0.001 - Loss: 0.82638085
Epoch: 6/15 - Batch: 6300/7933 - Learning rate: 0.001 - Loss: 0.7727528
Epoch: 6/15 - Batch: 6400/7933 - Learning rate: 0.001 - Loss: 0.69850534
Epoch: 6/15 - Batch: 6500/7933 - Learning rate: 0.001 - Loss: 0.7876223
Epoch: 6/15 - Batch: 6600/7933 - Learning rate: 0.001 - Loss: 0.77101994
Epoch: 6/15 - Batch: 6700/7933 - Learning rate: 0.001 - Loss: 0.7520281
Epoch: 6/15 - Batch: 6800/7933 - Learning rate: 0.001 - Loss: 0.7501358
Epoch: 6/15 - Batch: 6900/7933 - Learning rate: 0.001 - Loss: 0.5262098
Epoch: 6/15 - Batch: 7000/7933 - Learning rate: 0.001 - Loss: 1.101779 - Dev BLEU: 0.2436890388463031
Epoch: 6/15 - Batch: 7100/7933 - Learning rate: 0.001 - Loss: 0.81591284
Epoch: 6/15 - Batch: 7200/7933 - Learning rate: 0.001 - Loss: 0.6496315
Epoch: 6/15 - Batch: 7300/7933 - Learning rate: 0.001 - Loss: 0.804205
Epoch: 6/15 - Batch: 7400/7933 - Learning rate: 0.001 - Loss: 0.8675252
Epoch: 6/15 - Batch: 7500/7933 - Learning rate: 0.001 - Loss: 0.6328082
Epoch: 6/15 - Batch: 7600/7933 - Learning rate: 0.001 - Loss: 1.1087523
Epoch: 6/15 - Batch: 7700/7933 - Learning rate: 0.001 - Loss: 1.2803082
Epoch: 6/15 - Batch: 7800/7933 - Learning rate: 0.001 - Loss: 1.1496258
Epoch: 6/15 - Batch: 7900/7933 - Learning rate: 0.001 - Loss: 0.8241468
Epoch: 6/15 - Batch: 7933/7933 - Learning rate: 0.001 - Loss: 1.0535117 - Dev BLEU: 0.2285909705937922
Epoch: 7/15 - Batch: 100/7933 - Learning rate: 0.001 - Loss: 0.7937418
Epoch: 7/15 - Batch: 200/7933 - Learning rate: 0.001 - Loss: 0.6720185
Epoch: 7/15 - Batch: 300/7933 - Learning rate: 0.001 - Loss: 0.51855284
Epoch: 7/15 - Batch: 400/7933 - Learning rate: 0.001 - Loss: 0.8646851
Epoch: 7/15 - Batch: 500/7933 - Learning rate: 0.001 - Loss: 0.59665304
Epoch: 7/15 - Batch: 600/7933 - Learning rate: 0.001 - Loss: 0.40026706
Epoch: 7/15 - Batch: 700/7933 - Learning rate: 0.001 - Loss: 0.61767954
Epoch: 7/15 - Batch: 800/7933 - Learning rate: 0.001 - Loss: 0.62718153
Epoch: 7/15 - Batch: 900/7933 - Learning rate: 0.001 - Loss: 0.40041474
Epoch: 7/15 - Batch: 1000/7933 - Learning rate: 0.001 - Loss: 0.67018956 - Dev BLEU: 0.20390603184404257
Epoch: 7/15 - Batch: 1100/7933 - Learning rate: 0.001 - Loss: 0.6070041
Epoch: 7/15 - Batch: 1200/7933 - Learning rate: 0.001 - Loss: 0.82609487
Epoch: 7/15 - Batch: 1300/7933 - Learning rate: 0.001 - Loss: 0.7127498
Epoch: 7/15 - Batch: 1400/7933 - Learning rate: 0.001 - Loss: 0.7863155
Epoch: 7/15 - Batch: 1500/7933 - Learning rate: 0.001 - Loss: 0.55371666
Epoch: 7/15 - Batch: 1600/7933 - Learning rate: 0.001 - Loss: 1.0324879
Epoch: 7/15 - Batch: 1700/7933 - Learning rate: 0.001 - Loss: 0.76032716
Epoch: 7/15 - Batch: 1800/7933 - Learning rate: 0.001 - Loss: 0.40873945
Epoch: 7/15 - Batch: 1900/7933 - Learning rate: 0.001 - Loss: 0.6429209
Epoch: 7/15 - Batch: 2000/7933 - Learning rate: 0.001 - Loss: 0.6403582 - Dev BLEU: 0.18636036031687267
Epoch: 7/15 - Batch: 2100/7933 - Learning rate: 0.001 - Loss: 0.5527074
Epoch: 7/15 - Batch: 2200/7933 - Learning rate: 0.001 - Loss: 0.54905003
Epoch: 7/15 - Batch: 2300/7933 - Learning rate: 0.001 - Loss: 0.6935936
Epoch: 7/15 - Batch: 2400/7933 - Learning rate: 0.001 - Loss: 0.5561249
Epoch: 7/15 - Batch: 2500/7933 - Learning rate: 0.001 - Loss: 0.5518817
Epoch: 7/15 - Batch: 2600/7933 - Learning rate: 0.001 - Loss: 0.43358144
Epoch: 7/15 - Batch: 2700/7933 - Learning rate: 0.001 - Loss: 0.25532448
Epoch: 7/15 - Batch: 2800/7933 - Learning rate: 0.001 - Loss: 0.71795756
Epoch: 7/15 - Batch: 2900/7933 - Learning rate: 0.001 - Loss: 0.8486874
Epoch: 7/15 - Batch: 3000/7933 - Learning rate: 0.001 - Loss: 0.73079246 - Dev BLEU: 0.1910274748816343
Epoch: 7/15 - Batch: 3100/7933 - Learning rate: 0.001 - Loss: 0.782942
Epoch: 7/15 - Batch: 3200/7933 - Learning rate: 0.001 - Loss: 0.7325299
Epoch: 7/15 - Batch: 3300/7933 - Learning rate: 0.001 - Loss: 0.6104508
Epoch: 7/15 - Batch: 3400/7933 - Learning rate: 0.001 - Loss: 0.5916562
Epoch: 7/15 - Batch: 3500/7933 - Learning rate: 0.001 - Loss: 0.78323585
Epoch: 7/15 - Batch: 3600/7933 - Learning rate: 0.001 - Loss: 0.76493216
Epoch: 7/15 - Batch: 3700/7933 - Learning rate: 0.001 - Loss: 0.7476527
Epoch: 7/15 - Batch: 3800/7933 - Learning rate: 0.001 - Loss: 0.7128543
Epoch: 7/15 - Batch: 3900/7933 - Learning rate: 0.001 - Loss: 0.776596
Epoch: 7/15 - Batch: 4000/7933 - Learning rate: 0.001 - Loss: 0.4521161 - Dev BLEU: 0.20514371150774832
Epoch: 7/15 - Batch: 4100/7933 - Learning rate: 0.001 - Loss: 0.5615352
Epoch: 7/15 - Batch: 4200/7933 - Learning rate: 0.001 - Loss: 0.5583503
Epoch: 7/15 - Batch: 4300/7933 - Learning rate: 0.001 - Loss: 0.64791286
Epoch: 7/15 - Batch: 4400/7933 - Learning rate: 0.001 - Loss: 0.6121237
Epoch: 7/15 - Batch: 4500/7933 - Learning rate: 0.001 - Loss: 0.7074202
Epoch: 7/15 - Batch: 4600/7933 - Learning rate: 0.001 - Loss: 1.165794
Epoch: 7/15 - Batch: 4700/7933 - Learning rate: 0.001 - Loss: 0.8088673
Epoch: 7/15 - Batch: 4800/7933 - Learning rate: 0.001 - Loss: 0.79898304
Epoch: 7/15 - Batch: 4900/7933 - Learning rate: 0.001 - Loss: 0.9413869
Epoch: 7/15 - Batch: 5000/7933 - Learning rate: 0.001 - Loss: 0.9690855 - Dev BLEU: 0.22738171778709515
Epoch: 7/15 - Batch: 5100/7933 - Learning rate: 0.001 - Loss: 1.0350932
Epoch: 7/15 - Batch: 5200/7933 - Learning rate: 0.001 - Loss: 0.97154826
Epoch: 7/15 - Batch: 5300/7933 - Learning rate: 0.001 - Loss: 0.9591841
Epoch: 7/15 - Batch: 5400/7933 - Learning rate: 0.001 - Loss: 0.89467716
Epoch: 7/15 - Batch: 5500/7933 - Learning rate: 0.001 - Loss: 0.9243142
Epoch: 7/15 - Batch: 5600/7933 - Learning rate: 0.001 - Loss: 0.7249551
Epoch: 7/15 - Batch: 5700/7933 - Learning rate: 0.001 - Loss: 0.92613655
Epoch: 7/15 - Batch: 5800/7933 - Learning rate: 0.001 - Loss: 0.8844422
Epoch: 7/15 - Batch: 5900/7933 - Learning rate: 0.001 - Loss: 0.5921678
Epoch: 7/15 - Batch: 6000/7933 - Learning rate: 0.001 - Loss: 0.9294297 - Dev BLEU: 0.21284346167552518
Epoch: 7/15 - Batch: 6100/7933 - Learning rate: 0.001 - Loss: 0.86623657
Epoch: 7/15 - Batch: 6200/7933 - Learning rate: 0.001 - Loss: 0.80806893
Epoch: 7/15 - Batch: 6300/7933 - Learning rate: 0.001 - Loss: 0.774594
Epoch: 7/15 - Batch: 6400/7933 - Learning rate: 0.001 - Loss: 0.6760101
Epoch: 7/15 - Batch: 6500/7933 - Learning rate: 0.001 - Loss: 0.76737696
Epoch: 7/15 - Batch: 6600/7933 - Learning rate: 0.001 - Loss: 0.75018466
Epoch: 7/15 - Batch: 6700/7933 - Learning rate: 0.001 - Loss: 0.74100643
Epoch: 7/15 - Batch: 6800/7933 - Learning rate: 0.001 - Loss: 0.7348754
Epoch: 7/15 - Batch: 6900/7933 - Learning rate: 0.001 - Loss: 0.50863683
Epoch: 7/15 - Batch: 7000/7933 - Learning rate: 0.001 - Loss: 1.0882667 - Dev BLEU: 0.24649809301316675
Epoch: 7/15 - Batch: 7100/7933 - Learning rate: 0.001 - Loss: 0.7937408
Epoch: 7/15 - Batch: 7200/7933 - Learning rate: 0.001 - Loss: 0.6339537
Epoch: 7/15 - Batch: 7300/7933 - Learning rate: 0.001 - Loss: 0.79685664
Epoch: 7/15 - Batch: 7400/7933 - Learning rate: 0.001 - Loss: 0.85234165
Epoch: 7/15 - Batch: 7500/7933 - Learning rate: 0.001 - Loss: 0.61653805
Epoch: 7/15 - Batch: 7600/7933 - Learning rate: 0.001 - Loss: 1.0652027
Epoch: 7/15 - Batch: 7700/7933 - Learning rate: 0.001 - Loss: 1.2452404
Epoch: 7/15 - Batch: 7800/7933 - Learning rate: 0.001 - Loss: 1.1207079
Epoch: 7/15 - Batch: 7900/7933 - Learning rate: 0.001 - Loss: 0.80158675
Epoch: 7/15 - Batch: 7933/7933 - Learning rate: 0.001 - Loss: 1.0313979 - Dev BLEU: 0.22911426899804418
Epoch: 8/15 - Batch: 100/7933 - Learning rate: 0.0005 - Loss: 0.7737302
Epoch: 8/15 - Batch: 200/7933 - Learning rate: 0.0005 - Loss: 0.6639405
Epoch: 8/15 - Batch: 300/7933 - Learning rate: 0.0005 - Loss: 0.50759387
Epoch: 8/15 - Batch: 400/7933 - Learning rate: 0.0005 - Loss: 0.8361434
Epoch: 8/15 - Batch: 500/7933 - Learning rate: 0.0005 - Loss: 0.5690339
Epoch: 8/15 - Batch: 600/7933 - Learning rate: 0.0005 - Loss: 0.38854352
Epoch: 8/15 - Batch: 700/7933 - Learning rate: 0.0005 - Loss: 0.5857765
Epoch: 8/15 - Batch: 800/7933 - Learning rate: 0.0005 - Loss: 0.59897715
Epoch: 8/15 - Batch: 900/7933 - Learning rate: 0.0005 - Loss: 0.38868383
Epoch: 8/15 - Batch: 1000/7933 - Learning rate: 0.0005 - Loss: 0.6401845 - Dev BLEU: 0.21422909957112246
Epoch: 8/15 - Batch: 1100/7933 - Learning rate: 0.0005 - Loss: 0.57377833
Epoch: 8/15 - Batch: 1200/7933 - Learning rate: 0.0005 - Loss: 0.7790851
Epoch: 8/15 - Batch: 1300/7933 - Learning rate: 0.0005 - Loss: 0.66244906
Epoch: 8/15 - Batch: 1400/7933 - Learning rate: 0.0005 - Loss: 0.7526307
Epoch: 8/15 - Batch: 1500/7933 - Learning rate: 0.0005 - Loss: 0.52823806
Epoch: 8/15 - Batch: 1600/7933 - Learning rate: 0.0005 - Loss: 0.95873326
Epoch: 8/15 - Batch: 1700/7933 - Learning rate: 0.0005 - Loss: 0.73411804
Epoch: 8/15 - Batch: 1800/7933 - Learning rate: 0.0005 - Loss: 0.39312765
Epoch: 8/15 - Batch: 1900/7933 - Learning rate: 0.0005 - Loss: 0.6125125
Epoch: 8/15 - Batch: 2000/7933 - Learning rate: 0.0005 - Loss: 0.5987756 - Dev BLEU: 0.20371057057344127
Epoch: 8/15 - Batch: 2100/7933 - Learning rate: 0.0005 - Loss: 0.518243
Epoch: 8/15 - Batch: 2200/7933 - Learning rate: 0.0005 - Loss: 0.507775
Epoch: 8/15 - Batch: 2300/7933 - Learning rate: 0.0005 - Loss: 0.64488924
Epoch: 8/15 - Batch: 2400/7933 - Learning rate: 0.0005 - Loss: 0.5171798
Epoch: 8/15 - Batch: 2500/7933 - Learning rate: 0.0005 - Loss: 0.51183796
Epoch: 8/15 - Batch: 2600/7933 - Learning rate: 0.0005 - Loss: 0.41042158
Epoch: 8/15 - Batch: 2700/7933 - Learning rate: 0.0005 - Loss: 0.24686271
Epoch: 8/15 - Batch: 2800/7933 - Learning rate: 0.0005 - Loss: 0.6640545
Epoch: 8/15 - Batch: 2900/7933 - Learning rate: 0.0005 - Loss: 0.81728595
Epoch: 8/15 - Batch: 3000/7933 - Learning rate: 0.0005 - Loss: 0.67511946 - Dev BLEU: 0.20780356658099916
Epoch: 8/15 - Batch: 3100/7933 - Learning rate: 0.0005 - Loss: 0.7147917
Epoch: 8/15 - Batch: 3200/7933 - Learning rate: 0.0005 - Loss: 0.6844772
Epoch: 8/15 - Batch: 3300/7933 - Learning rate: 0.0005 - Loss: 0.5811612
Epoch: 8/15 - Batch: 3400/7933 - Learning rate: 0.0005 - Loss: 0.56159544
Epoch: 8/15 - Batch: 3500/7933 - Learning rate: 0.0005 - Loss: 0.7026948
Epoch: 8/15 - Batch: 3600/7933 - Learning rate: 0.0005 - Loss: 0.72577053
Epoch: 8/15 - Batch: 3700/7933 - Learning rate: 0.0005 - Loss: 0.7085549
Epoch: 8/15 - Batch: 3800/7933 - Learning rate: 0.0005 - Loss: 0.6538325
Epoch: 8/15 - Batch: 3900/7933 - Learning rate: 0.0005 - Loss: 0.7286662
Epoch: 8/15 - Batch: 4000/7933 - Learning rate: 0.0005 - Loss: 0.42698923 - Dev BLEU: 0.22224737058640015
Epoch: 8/15 - Batch: 4100/7933 - Learning rate: 0.0005 - Loss: 0.5415935
Epoch: 8/15 - Batch: 4200/7933 - Learning rate: 0.0005 - Loss: 0.5325741
Epoch: 8/15 - Batch: 4300/7933 - Learning rate: 0.0005 - Loss: 0.60591435
Epoch: 8/15 - Batch: 4400/7933 - Learning rate: 0.0005 - Loss: 0.56847274
Epoch: 8/15 - Batch: 4500/7933 - Learning rate: 0.0005 - Loss: 0.6485599
Epoch: 8/15 - Batch: 4600/7933 - Learning rate: 0.0005 - Loss: 1.0345993
Epoch: 8/15 - Batch: 4700/7933 - Learning rate: 0.0005 - Loss: 0.73700106
Epoch: 8/15 - Batch: 4800/7933 - Learning rate: 0.0005 - Loss: 0.7071295
Epoch: 8/15 - Batch: 4900/7933 - Learning rate: 0.0005 - Loss: 0.8333387
Epoch: 8/15 - Batch: 5000/7933 - Learning rate: 0.0005 - Loss: 0.85927004 - Dev BLEU: 0.2404163419479578
Epoch: 8/15 - Batch: 5100/7933 - Learning rate: 0.0005 - Loss: 0.9094752
Epoch: 8/15 - Batch: 5200/7933 - Learning rate: 0.0005 - Loss: 0.8895517
Epoch: 8/15 - Batch: 5300/7933 - Learning rate: 0.0005 - Loss: 0.8829347
Epoch: 8/15 - Batch: 5400/7933 - Learning rate: 0.0005 - Loss: 0.82201254
Epoch: 8/15 - Batch: 5500/7933 - Learning rate: 0.0005 - Loss: 0.8225711
Epoch: 8/15 - Batch: 5600/7933 - Learning rate: 0.0005 - Loss: 0.64659446
Epoch: 8/15 - Batch: 5700/7933 - Learning rate: 0.0005 - Loss: 0.818487
Epoch: 8/15 - Batch: 5800/7933 - Learning rate: 0.0005 - Loss: 0.7846252
Epoch: 8/15 - Batch: 5900/7933 - Learning rate: 0.0005 - Loss: 0.5320256
Epoch: 8/15 - Batch: 6000/7933 - Learning rate: 0.0005 - Loss: 0.83390146 - Dev BLEU: 0.23481950113660396
Epoch: 8/15 - Batch: 6100/7933 - Learning rate: 0.0005 - Loss: 0.7638694
Epoch: 8/15 - Batch: 6200/7933 - Learning rate: 0.0005 - Loss: 0.7438478
Epoch: 8/15 - Batch: 6300/7933 - Learning rate: 0.0005 - Loss: 0.68286145
Epoch: 8/15 - Batch: 6400/7933 - Learning rate: 0.0005 - Loss: 0.6323854
Epoch: 8/15 - Batch: 6500/7933 - Learning rate: 0.0005 - Loss: 0.7247937
Epoch: 8/15 - Batch: 6600/7933 - Learning rate: 0.0005 - Loss: 0.7221971
Epoch: 8/15 - Batch: 6700/7933 - Learning rate: 0.0005 - Loss: 0.7033602
Epoch: 8/15 - Batch: 6800/7933 - Learning rate: 0.0005 - Loss: 0.7066416
Epoch: 8/15 - Batch: 6900/7933 - Learning rate: 0.0005 - Loss: 0.49288914
Epoch: 8/15 - Batch: 7000/7933 - Learning rate: 0.0005 - Loss: 1.011847 - Dev BLEU: 0.25606178643534533
Epoch: 8/15 - Batch: 7100/7933 - Learning rate: 0.0005 - Loss: 0.7599273
Epoch: 8/15 - Batch: 7200/7933 - Learning rate: 0.0005 - Loss: 0.60040957
Epoch: 8/15 - Batch: 7300/7933 - Learning rate: 0.0005 - Loss: 0.7598934
Epoch: 8/15 - Batch: 7400/7933 - Learning rate: 0.0005 - Loss: 0.808111
Epoch: 8/15 - Batch: 7500/7933 - Learning rate: 0.0005 - Loss: 0.598943
Epoch: 8/15 - Batch: 7600/7933 - Learning rate: 0.0005 - Loss: 0.99459153
Epoch: 8/15 - Batch: 7700/7933 - Learning rate: 0.0005 - Loss: 1.1788709
Epoch: 8/15 - Batch: 7800/7933 - Learning rate: 0.0005 - Loss: 1.0399531
Epoch: 8/15 - Batch: 7900/7933 - Learning rate: 0.0005 - Loss: 0.75667036
Epoch: 8/15 - Batch: 7933/7933 - Learning rate: 0.0005 - Loss: 0.978149 - Dev BLEU: 0.24019650007029947
Epoch: 9/15 - Batch: 100/7933 - Learning rate: 0.00025 - Loss: 0.7539201
Epoch: 9/15 - Batch: 200/7933 - Learning rate: 0.00025 - Loss: 0.633888
Epoch: 9/15 - Batch: 300/7933 - Learning rate: 0.00025 - Loss: 0.48788205
Epoch: 9/15 - Batch: 400/7933 - Learning rate: 0.00025 - Loss: 0.79619366
Epoch: 9/15 - Batch: 500/7933 - Learning rate: 0.00025 - Loss: 0.536632
Epoch: 9/15 - Batch: 600/7933 - Learning rate: 0.00025 - Loss: 0.38028255
Epoch: 9/15 - Batch: 700/7933 - Learning rate: 0.00025 - Loss: 0.56680256
Epoch: 9/15 - Batch: 800/7933 - Learning rate: 0.00025 - Loss: 0.5632998
Epoch: 9/15 - Batch: 900/7933 - Learning rate: 0.00025 - Loss: 0.37433413
Epoch: 9/15 - Batch: 1000/7933 - Learning rate: 0.00025 - Loss: 0.61276686 - Dev BLEU: 0.22654242592401616
Epoch: 9/15 - Batch: 1100/7933 - Learning rate: 0.00025 - Loss: 0.56341666
Epoch: 9/15 - Batch: 1200/7933 - Learning rate: 0.00025 - Loss: 0.7453127
Epoch: 9/15 - Batch: 1300/7933 - Learning rate: 0.00025 - Loss: 0.63763785
Epoch: 9/15 - Batch: 1400/7933 - Learning rate: 0.00025 - Loss: 0.71485764
Epoch: 9/15 - Batch: 1500/7933 - Learning rate: 0.00025 - Loss: 0.5125176
Epoch: 9/15 - Batch: 1600/7933 - Learning rate: 0.00025 - Loss: 0.9399296
Epoch: 9/15 - Batch: 1700/7933 - Learning rate: 0.00025 - Loss: 0.6846608
Epoch: 9/15 - Batch: 1800/7933 - Learning rate: 0.00025 - Loss: 0.36784738
Epoch: 9/15 - Batch: 1900/7933 - Learning rate: 0.00025 - Loss: 0.58979875
Epoch: 9/15 - Batch: 2000/7933 - Learning rate: 0.00025 - Loss: 0.5760621 - Dev BLEU: 0.2178522274953634
Epoch: 9/15 - Batch: 2100/7933 - Learning rate: 0.00025 - Loss: 0.49763253
Epoch: 9/15 - Batch: 2200/7933 - Learning rate: 0.00025 - Loss: 0.50017285
Epoch: 9/15 - Batch: 2300/7933 - Learning rate: 0.00025 - Loss: 0.6099578
Epoch: 9/15 - Batch: 2400/7933 - Learning rate: 0.00025 - Loss: 0.48110273
Epoch: 9/15 - Batch: 2500/7933 - Learning rate: 0.00025 - Loss: 0.4974608
Epoch: 9/15 - Batch: 2600/7933 - Learning rate: 0.00025 - Loss: 0.40976313
Epoch: 9/15 - Batch: 2700/7933 - Learning rate: 0.00025 - Loss: 0.23793596
Epoch: 9/15 - Batch: 2800/7933 - Learning rate: 0.00025 - Loss: 0.628673
Epoch: 9/15 - Batch: 2900/7933 - Learning rate: 0.00025 - Loss: 0.7722721
Epoch: 9/15 - Batch: 3000/7933 - Learning rate: 0.00025 - Loss: 0.65874034 - Dev BLEU: 0.22131553379236205
Epoch: 9/15 - Batch: 3100/7933 - Learning rate: 0.00025 - Loss: 0.6803914
Epoch: 9/15 - Batch: 3200/7933 - Learning rate: 0.00025 - Loss: 0.6702926
Epoch: 9/15 - Batch: 3300/7933 - Learning rate: 0.00025 - Loss: 0.55715847
Epoch: 9/15 - Batch: 3400/7933 - Learning rate: 0.00025 - Loss: 0.54021704
Epoch: 9/15 - Batch: 3500/7933 - Learning rate: 0.00025 - Loss: 0.6859718
Epoch: 9/15 - Batch: 3600/7933 - Learning rate: 0.00025 - Loss: 0.69946253
Epoch: 9/15 - Batch: 3700/7933 - Learning rate: 0.00025 - Loss: 0.6903109
Epoch: 9/15 - Batch: 3800/7933 - Learning rate: 0.00025 - Loss: 0.6332618
Epoch: 9/15 - Batch: 3900/7933 - Learning rate: 0.00025 - Loss: 0.6994995
Epoch: 9/15 - Batch: 4000/7933 - Learning rate: 0.00025 - Loss: 0.4086363 - Dev BLEU: 0.22766362887388117
Epoch: 9/15 - Batch: 4100/7933 - Learning rate: 0.00025 - Loss: 0.52856416
Epoch: 9/15 - Batch: 4200/7933 - Learning rate: 0.00025 - Loss: 0.51255804
Epoch: 9/15 - Batch: 4300/7933 - Learning rate: 0.00025 - Loss: 0.5875874
Epoch: 9/15 - Batch: 4400/7933 - Learning rate: 0.00025 - Loss: 0.54905754
Epoch: 9/15 - Batch: 4500/7933 - Learning rate: 0.00025 - Loss: 0.6232128
Epoch: 9/15 - Batch: 4600/7933 - Learning rate: 0.00025 - Loss: 0.9348548
Epoch: 9/15 - Batch: 4700/7933 - Learning rate: 0.00025 - Loss: 0.6888403
Epoch: 9/15 - Batch: 4800/7933 - Learning rate: 0.00025 - Loss: 0.63242763
Epoch: 9/15 - Batch: 4900/7933 - Learning rate: 0.00025 - Loss: 0.80220145
Epoch: 9/15 - Batch: 5000/7933 - Learning rate: 0.00025 - Loss: 0.82310075 - Dev BLEU: 0.24722536023089958
Epoch: 9/15 - Batch: 5100/7933 - Learning rate: 0.00025 - Loss: 0.88221914
Epoch: 9/15 - Batch: 5200/7933 - Learning rate: 0.00025 - Loss: 0.85408384
Epoch: 9/15 - Batch: 5300/7933 - Learning rate: 0.00025 - Loss: 0.8386387
Epoch: 9/15 - Batch: 5400/7933 - Learning rate: 0.00025 - Loss: 0.77801245
Epoch: 9/15 - Batch: 5500/7933 - Learning rate: 0.00025 - Loss: 0.7882091
Epoch: 9/15 - Batch: 5600/7933 - Learning rate: 0.00025 - Loss: 0.61269623
Epoch: 9/15 - Batch: 5700/7933 - Learning rate: 0.00025 - Loss: 0.7648736
Epoch: 9/15 - Batch: 5800/7933 - Learning rate: 0.00025 - Loss: 0.7409547
Epoch: 9/15 - Batch: 5900/7933 - Learning rate: 0.00025 - Loss: 0.5088296
Epoch: 9/15 - Batch: 6000/7933 - Learning rate: 0.00025 - Loss: 0.79370105 - Dev BLEU: 0.24364734531354956
Epoch: 9/15 - Batch: 6100/7933 - Learning rate: 0.00025 - Loss: 0.7227257
Epoch: 9/15 - Batch: 6200/7933 - Learning rate: 0.00025 - Loss: 0.6878916
Epoch: 9/15 - Batch: 6300/7933 - Learning rate: 0.00025 - Loss: 0.6491463
Epoch: 9/15 - Batch: 6400/7933 - Learning rate: 0.00025 - Loss: 0.61555755
Epoch: 9/15 - Batch: 6500/7933 - Learning rate: 0.00025 - Loss: 0.70669234
Epoch: 9/15 - Batch: 6600/7933 - Learning rate: 0.00025 - Loss: 0.7017392
Epoch: 9/15 - Batch: 6700/7933 - Learning rate: 0.00025 - Loss: 0.68794453
Epoch: 9/15 - Batch: 6800/7933 - Learning rate: 0.00025 - Loss: 0.7002274
Epoch: 9/15 - Batch: 6900/7933 - Learning rate: 0.00025 - Loss: 0.4773254
Epoch: 9/15 - Batch: 7000/7933 - Learning rate: 0.00025 - Loss: 0.9939312 - Dev BLEU: 0.2606352333267408
Epoch: 9/15 - Batch: 7100/7933 - Learning rate: 0.00025 - Loss: 0.7371319
Epoch: 9/15 - Batch: 7200/7933 - Learning rate: 0.00025 - Loss: 0.5963928
Epoch: 9/15 - Batch: 7300/7933 - Learning rate: 0.00025 - Loss: 0.7266788
Epoch: 9/15 - Batch: 7400/7933 - Learning rate: 0.00025 - Loss: 0.7816559
Epoch: 9/15 - Batch: 7500/7933 - Learning rate: 0.00025 - Loss: 0.57859963
Epoch: 9/15 - Batch: 7600/7933 - Learning rate: 0.00025 - Loss: 0.9693711
Epoch: 9/15 - Batch: 7700/7933 - Learning rate: 0.00025 - Loss: 1.1594225
Epoch: 9/15 - Batch: 7800/7933 - Learning rate: 0.00025 - Loss: 0.9995558
Epoch: 9/15 - Batch: 7900/7933 - Learning rate: 0.00025 - Loss: 0.7561722
Epoch: 9/15 - Batch: 7933/7933 - Learning rate: 0.00025 - Loss: 0.9397096 - Dev BLEU: 0.24883487596306914
Epoch: 10/15 - Batch: 100/7933 - Learning rate: 0.000125 - Loss: 0.73047745
Epoch: 10/15 - Batch: 200/7933 - Learning rate: 0.000125 - Loss: 0.6068572
Epoch: 10/15 - Batch: 300/7933 - Learning rate: 0.000125 - Loss: 0.48011723
Epoch: 10/15 - Batch: 400/7933 - Learning rate: 0.000125 - Loss: 0.7755433
Epoch: 10/15 - Batch: 500/7933 - Learning rate: 0.000125 - Loss: 0.5286554
Epoch: 10/15 - Batch: 600/7933 - Learning rate: 0.000125 - Loss: 0.36949933
Epoch: 10/15 - Batch: 700/7933 - Learning rate: 0.000125 - Loss: 0.55111015
Epoch: 10/15 - Batch: 800/7933 - Learning rate: 0.000125 - Loss: 0.5447809
Epoch: 10/15 - Batch: 900/7933 - Learning rate: 0.000125 - Loss: 0.3663245
Epoch: 10/15 - Batch: 1000/7933 - Learning rate: 0.000125 - Loss: 0.5832933 - Dev BLEU: 0.23456276696009787
Epoch: 10/15 - Batch: 1100/7933 - Learning rate: 0.000125 - Loss: 0.54725754
Epoch: 10/15 - Batch: 1200/7933 - Learning rate: 0.000125 - Loss: 0.72591317
Epoch: 10/15 - Batch: 1300/7933 - Learning rate: 0.000125 - Loss: 0.62009865
Epoch: 10/15 - Batch: 1400/7933 - Learning rate: 0.000125 - Loss: 0.69716513
Epoch: 10/15 - Batch: 1500/7933 - Learning rate: 0.000125 - Loss: 0.50220525
Epoch: 10/15 - Batch: 1600/7933 - Learning rate: 0.000125 - Loss: 0.91985744
Epoch: 10/15 - Batch: 1700/7933 - Learning rate: 0.000125 - Loss: 0.6831716
Epoch: 10/15 - Batch: 1800/7933 - Learning rate: 0.000125 - Loss: 0.36603463
Epoch: 10/15 - Batch: 1900/7933 - Learning rate: 0.000125 - Loss: 0.59416974
Epoch: 10/15 - Batch: 2000/7933 - Learning rate: 0.000125 - Loss: 0.568514 - Dev BLEU: 0.2263716025867773
Epoch: 10/15 - Batch: 2100/7933 - Learning rate: 0.000125 - Loss: 0.47916013
Epoch: 10/15 - Batch: 2200/7933 - Learning rate: 0.000125 - Loss: 0.4922573
Epoch: 10/15 - Batch: 2300/7933 - Learning rate: 0.000125 - Loss: 0.61504734
Epoch: 10/15 - Batch: 2400/7933 - Learning rate: 0.000125 - Loss: 0.48041615
Epoch: 10/15 - Batch: 2500/7933 - Learning rate: 0.000125 - Loss: 0.48361838
Epoch: 10/15 - Batch: 2600/7933 - Learning rate: 0.000125 - Loss: 0.3976812
Epoch: 10/15 - Batch: 2700/7933 - Learning rate: 0.000125 - Loss: 0.23694007
Epoch: 10/15 - Batch: 2800/7933 - Learning rate: 0.000125 - Loss: 0.6242316
Epoch: 10/15 - Batch: 2900/7933 - Learning rate: 0.000125 - Loss: 0.7646091
Epoch: 10/15 - Batch: 3000/7933 - Learning rate: 0.000125 - Loss: 0.64072007 - Dev BLEU: 0.22959846811043935
Epoch: 10/15 - Batch: 3100/7933 - Learning rate: 0.000125 - Loss: 0.676458
Epoch: 10/15 - Batch: 3200/7933 - Learning rate: 0.000125 - Loss: 0.6529801
Epoch: 10/15 - Batch: 3300/7933 - Learning rate: 0.000125 - Loss: 0.5504177
Epoch: 10/15 - Batch: 3400/7933 - Learning rate: 0.000125 - Loss: 0.52723557
Epoch: 10/15 - Batch: 3500/7933 - Learning rate: 0.000125 - Loss: 0.6587874
Epoch: 10/15 - Batch: 3600/7933 - Learning rate: 0.000125 - Loss: 0.67079216
Epoch: 10/15 - Batch: 3700/7933 - Learning rate: 0.000125 - Loss: 0.658263
Epoch: 10/15 - Batch: 3800/7933 - Learning rate: 0.000125 - Loss: 0.62811196
Epoch: 10/15 - Batch: 3900/7933 - Learning rate: 0.000125 - Loss: 0.6807624
Epoch: 10/15 - Batch: 4000/7933 - Learning rate: 0.000125 - Loss: 0.39692798 - Dev BLEU: 0.23371609551827544
Epoch: 10/15 - Batch: 4100/7933 - Learning rate: 0.000125 - Loss: 0.5112271
Epoch: 10/15 - Batch: 4200/7933 - Learning rate: 0.000125 - Loss: 0.5012479
Epoch: 10/15 - Batch: 4300/7933 - Learning rate: 0.000125 - Loss: 0.58238846
Epoch: 10/15 - Batch: 4400/7933 - Learning rate: 0.000125 - Loss: 0.5293356
Epoch: 10/15 - Batch: 4500/7933 - Learning rate: 0.000125 - Loss: 0.59644127
Epoch: 10/15 - Batch: 4600/7933 - Learning rate: 0.000125 - Loss: 0.87416416
Epoch: 10/15 - Batch: 4700/7933 - Learning rate: 0.000125 - Loss: 0.6318232
Epoch: 10/15 - Batch: 4800/7933 - Learning rate: 0.000125 - Loss: 0.5909542
Epoch: 10/15 - Batch: 4900/7933 - Learning rate: 0.000125 - Loss: 0.77073157
Epoch: 10/15 - Batch: 5000/7933 - Learning rate: 0.000125 - Loss: 0.80013657 - Dev BLEU: 0.2508449988031197
Epoch: 10/15 - Batch: 5100/7933 - Learning rate: 0.000125 - Loss: 0.8378481
Epoch: 10/15 - Batch: 5200/7933 - Learning rate: 0.000125 - Loss: 0.8386839
Epoch: 10/15 - Batch: 5300/7933 - Learning rate: 0.000125 - Loss: 0.8152914
Epoch: 10/15 - Batch: 5400/7933 - Learning rate: 0.000125 - Loss: 0.7610982
Epoch: 10/15 - Batch: 5500/7933 - Learning rate: 0.000125 - Loss: 0.7524488
Epoch: 10/15 - Batch: 5600/7933 - Learning rate: 0.000125 - Loss: 0.59691954
Epoch: 10/15 - Batch: 5700/7933 - Learning rate: 0.000125 - Loss: 0.7388251
Epoch: 10/15 - Batch: 5800/7933 - Learning rate: 0.000125 - Loss: 0.7180724
Epoch: 10/15 - Batch: 5900/7933 - Learning rate: 0.000125 - Loss: 0.49715886
Epoch: 10/15 - Batch: 6000/7933 - Learning rate: 0.000125 - Loss: 0.7640176 - Dev BLEU: 0.25370876405045883
Epoch: 10/15 - Batch: 6100/7933 - Learning rate: 0.000125 - Loss: 0.7022471
Epoch: 10/15 - Batch: 6200/7933 - Learning rate: 0.000125 - Loss: 0.68028563
Epoch: 10/15 - Batch: 6300/7933 - Learning rate: 0.000125 - Loss: 0.63543665
Epoch: 10/15 - Batch: 6400/7933 - Learning rate: 0.000125 - Loss: 0.5974895
Epoch: 10/15 - Batch: 6500/7933 - Learning rate: 0.000125 - Loss: 0.69817775
Epoch: 10/15 - Batch: 6600/7933 - Learning rate: 0.000125 - Loss: 0.6967827
Epoch: 10/15 - Batch: 6700/7933 - Learning rate: 0.000125 - Loss: 0.68733895
Epoch: 10/15 - Batch: 6800/7933 - Learning rate: 0.000125 - Loss: 0.6941946
Epoch: 10/15 - Batch: 6900/7933 - Learning rate: 0.000125 - Loss: 0.47680542
Epoch: 10/15 - Batch: 7000/7933 - Learning rate: 0.000125 - Loss: 0.9818196 - Dev BLEU: 0.26180341452971123
Epoch: 10/15 - Batch: 7100/7933 - Learning rate: 0.000125 - Loss: 0.71825486
Epoch: 10/15 - Batch: 7200/7933 - Learning rate: 0.000125 - Loss: 0.5817097
Epoch: 10/15 - Batch: 7300/7933 - Learning rate: 0.000125 - Loss: 0.7172524
Epoch: 10/15 - Batch: 7400/7933 - Learning rate: 0.000125 - Loss: 0.7746341
Epoch: 10/15 - Batch: 7500/7933 - Learning rate: 0.000125 - Loss: 0.574136
Epoch: 10/15 - Batch: 7600/7933 - Learning rate: 0.000125 - Loss: 0.9550075
Epoch: 10/15 - Batch: 7700/7933 - Learning rate: 0.000125 - Loss: 1.1436466
Epoch: 10/15 - Batch: 7800/7933 - Learning rate: 0.000125 - Loss: 0.9909839
Epoch: 10/15 - Batch: 7900/7933 - Learning rate: 0.000125 - Loss: 0.73733455
Epoch: 10/15 - Batch: 7933/7933 - Learning rate: 0.000125 - Loss: 0.91950035 - Dev BLEU: 0.24994092554853023
Epoch: 11/15 - Batch: 100/7933 - Learning rate: 6.25e-05 - Loss: 0.72633666
Epoch: 11/15 - Batch: 200/7933 - Learning rate: 6.25e-05 - Loss: 0.6076674
Epoch: 11/15 - Batch: 300/7933 - Learning rate: 6.25e-05 - Loss: 0.47464836
Epoch: 11/15 - Batch: 400/7933 - Learning rate: 6.25e-05 - Loss: 0.7647555
Epoch: 11/15 - Batch: 500/7933 - Learning rate: 6.25e-05 - Loss: 0.5181562
Epoch: 11/15 - Batch: 600/7933 - Learning rate: 6.25e-05 - Loss: 0.3700074
Epoch: 11/15 - Batch: 700/7933 - Learning rate: 6.25e-05 - Loss: 0.5454396
Epoch: 11/15 - Batch: 800/7933 - Learning rate: 6.25e-05 - Loss: 0.5429126
Epoch: 11/15 - Batch: 900/7933 - Learning rate: 6.25e-05 - Loss: 0.36406666
Epoch: 11/15 - Batch: 1000/7933 - Learning rate: 6.25e-05 - Loss: 0.5856669 - Dev BLEU: 0.239479768522823
Epoch: 11/15 - Batch: 1100/7933 - Learning rate: 6.25e-05 - Loss: 0.5572377
Epoch: 11/15 - Batch: 1200/7933 - Learning rate: 6.25e-05 - Loss: 0.71747977
Epoch: 11/15 - Batch: 1300/7933 - Learning rate: 6.25e-05 - Loss: 0.6066532
Epoch: 11/15 - Batch: 1400/7933 - Learning rate: 6.25e-05 - Loss: 0.7178015
Epoch: 11/15 - Batch: 1500/7933 - Learning rate: 6.25e-05 - Loss: 0.51373523
Epoch: 11/15 - Batch: 1600/7933 - Learning rate: 6.25e-05 - Loss: 0.9090331
Epoch: 11/15 - Batch: 1700/7933 - Learning rate: 6.25e-05 - Loss: 0.6720649
Epoch: 11/15 - Batch: 1800/7933 - Learning rate: 6.25e-05 - Loss: 0.35793346
Epoch: 11/15 - Batch: 1900/7933 - Learning rate: 6.25e-05 - Loss: 0.586005
Epoch: 11/15 - Batch: 2000/7933 - Learning rate: 6.25e-05 - Loss: 0.5675605 - Dev BLEU: 0.23603379626647894
Epoch: 11/15 - Batch: 2100/7933 - Learning rate: 6.25e-05 - Loss: 0.46294478
Epoch: 11/15 - Batch: 2200/7933 - Learning rate: 6.25e-05 - Loss: 0.478359
Epoch: 11/15 - Batch: 2300/7933 - Learning rate: 6.25e-05 - Loss: 0.60188645
Epoch: 11/15 - Batch: 2400/7933 - Learning rate: 6.25e-05 - Loss: 0.48064503
Epoch: 11/15 - Batch: 2500/7933 - Learning rate: 6.25e-05 - Loss: 0.47285503
Epoch: 11/15 - Batch: 2600/7933 - Learning rate: 6.25e-05 - Loss: 0.40926614
Epoch: 11/15 - Batch: 2700/7933 - Learning rate: 6.25e-05 - Loss: 0.24693288
Epoch: 11/15 - Batch: 2800/7933 - Learning rate: 6.25e-05 - Loss: 0.6137941
Epoch: 11/15 - Batch: 2900/7933 - Learning rate: 6.25e-05 - Loss: 0.74712986
Epoch: 11/15 - Batch: 3000/7933 - Learning rate: 6.25e-05 - Loss: 0.6509639 - Dev BLEU: 0.2328572839910805
Epoch: 11/15 - Batch: 3100/7933 - Learning rate: 6.25e-05 - Loss: 0.67107296
Epoch: 11/15 - Batch: 3200/7933 - Learning rate: 6.25e-05 - Loss: 0.6411726
Epoch: 11/15 - Batch: 3300/7933 - Learning rate: 6.25e-05 - Loss: 0.5464071
Epoch: 11/15 - Batch: 3400/7933 - Learning rate: 6.25e-05 - Loss: 0.5265134
Epoch: 11/15 - Batch: 3500/7933 - Learning rate: 6.25e-05 - Loss: 0.6499297
Epoch: 11/15 - Batch: 3600/7933 - Learning rate: 6.25e-05 - Loss: 0.6752551
Epoch: 11/15 - Batch: 3700/7933 - Learning rate: 6.25e-05 - Loss: 0.6718332
Epoch: 11/15 - Batch: 3800/7933 - Learning rate: 6.25e-05 - Loss: 0.613374
Epoch: 11/15 - Batch: 3900/7933 - Learning rate: 6.25e-05 - Loss: 0.6710116
Epoch: 11/15 - Batch: 4000/7933 - Learning rate: 6.25e-05 - Loss: 0.39638165 - Dev BLEU: 0.23426759969356603
Epoch: 11/15 - Batch: 4100/7933 - Learning rate: 6.25e-05 - Loss: 0.5257646
Epoch: 11/15 - Batch: 4200/7933 - Learning rate: 6.25e-05 - Loss: 0.4945916
Epoch: 11/15 - Batch: 4300/7933 - Learning rate: 6.25e-05 - Loss: 0.5761415
Epoch: 11/15 - Batch: 4400/7933 - Learning rate: 6.25e-05 - Loss: 0.52978015
Epoch: 11/15 - Batch: 4500/7933 - Learning rate: 6.25e-05 - Loss: 0.6102025
Epoch: 11/15 - Batch: 4600/7933 - Learning rate: 6.25e-05 - Loss: 0.86659473
Epoch: 11/15 - Batch: 4700/7933 - Learning rate: 6.25e-05 - Loss: 0.6133949
Epoch: 11/15 - Batch: 4800/7933 - Learning rate: 6.25e-05 - Loss: 0.584914
Epoch: 11/15 - Batch: 4900/7933 - Learning rate: 6.25e-05 - Loss: 0.73356587
Epoch: 11/15 - Batch: 5000/7933 - Learning rate: 6.25e-05 - Loss: 0.7739291 - Dev BLEU: 0.25457588174140666
Epoch: 11/15 - Batch: 5100/7933 - Learning rate: 6.25e-05 - Loss: 0.83639944
Epoch: 11/15 - Batch: 5200/7933 - Learning rate: 6.25e-05 - Loss: 0.8164217
Epoch: 11/15 - Batch: 5300/7933 - Learning rate: 6.25e-05 - Loss: 0.7983912
Epoch: 11/15 - Batch: 5400/7933 - Learning rate: 6.25e-05 - Loss: 0.7518526
Epoch: 11/15 - Batch: 5500/7933 - Learning rate: 6.25e-05 - Loss: 0.7360753
Epoch: 11/15 - Batch: 5600/7933 - Learning rate: 6.25e-05 - Loss: 0.57863665
Epoch: 11/15 - Batch: 5700/7933 - Learning rate: 6.25e-05 - Loss: 0.72569823
Epoch: 11/15 - Batch: 5800/7933 - Learning rate: 6.25e-05 - Loss: 0.6988664
Epoch: 11/15 - Batch: 5900/7933 - Learning rate: 6.25e-05 - Loss: 0.47549325
Epoch: 11/15 - Batch: 6000/7933 - Learning rate: 6.25e-05 - Loss: 0.74786264 - Dev BLEU: 0.2563330746736992
Epoch: 11/15 - Batch: 6100/7933 - Learning rate: 6.25e-05 - Loss: 0.68583345
Epoch: 11/15 - Batch: 6200/7933 - Learning rate: 6.25e-05 - Loss: 0.66635674
Epoch: 11/15 - Batch: 6300/7933 - Learning rate: 6.25e-05 - Loss: 0.6255309
Epoch: 11/15 - Batch: 6400/7933 - Learning rate: 6.25e-05 - Loss: 0.5950674
Epoch: 11/15 - Batch: 6500/7933 - Learning rate: 6.25e-05 - Loss: 0.691039
Epoch: 11/15 - Batch: 6600/7933 - Learning rate: 6.25e-05 - Loss: 0.6990764
Epoch: 11/15 - Batch: 6700/7933 - Learning rate: 6.25e-05 - Loss: 0.67892325
Epoch: 11/15 - Batch: 6800/7933 - Learning rate: 6.25e-05 - Loss: 0.689428
Epoch: 11/15 - Batch: 6900/7933 - Learning rate: 6.25e-05 - Loss: 0.46989632
Epoch: 11/15 - Batch: 7000/7933 - Learning rate: 6.25e-05 - Loss: 0.98054963 - Dev BLEU: 0.2608550160073258
Epoch: 11/15 - Batch: 7100/7933 - Learning rate: 6.25e-05 - Loss: 0.7261365
Epoch: 11/15 - Batch: 7200/7933 - Learning rate: 6.25e-05 - Loss: 0.5868986
Epoch: 11/15 - Batch: 7300/7933 - Learning rate: 6.25e-05 - Loss: 0.71921545
Epoch: 11/15 - Batch: 7400/7933 - Learning rate: 6.25e-05 - Loss: 0.7701341
Epoch: 11/15 - Batch: 7500/7933 - Learning rate: 6.25e-05 - Loss: 0.57754636
Epoch: 11/15 - Batch: 7600/7933 - Learning rate: 6.25e-05 - Loss: 0.93705714
Epoch: 11/15 - Batch: 7700/7933 - Learning rate: 6.25e-05 - Loss: 1.1433644
Epoch: 11/15 - Batch: 7800/7933 - Learning rate: 6.25e-05 - Loss: 0.97803485
Epoch: 11/15 - Batch: 7900/7933 - Learning rate: 6.25e-05 - Loss: 0.73189914
Epoch: 11/15 - Batch: 7933/7933 - Learning rate: 6.25e-05 - Loss: 0.9218802 - Dev BLEU: 0.2551475179536887
Epoch: 12/15 - Batch: 100/7933 - Learning rate: 3.125e-05 - Loss: 0.7369095
Epoch: 12/15 - Batch: 200/7933 - Learning rate: 3.125e-05 - Loss: 0.5950017
Epoch: 12/15 - Batch: 300/7933 - Learning rate: 3.125e-05 - Loss: 0.48113984
Epoch: 12/15 - Batch: 400/7933 - Learning rate: 3.125e-05 - Loss: 0.7562478
Epoch: 12/15 - Batch: 500/7933 - Learning rate: 3.125e-05 - Loss: 0.5041984
Epoch: 12/15 - Batch: 600/7933 - Learning rate: 3.125e-05 - Loss: 0.36626303
Epoch: 12/15 - Batch: 700/7933 - Learning rate: 3.125e-05 - Loss: 0.54271317
Epoch: 12/15 - Batch: 800/7933 - Learning rate: 3.125e-05 - Loss: 0.54024243
Epoch: 12/15 - Batch: 900/7933 - Learning rate: 3.125e-05 - Loss: 0.3589827
Epoch: 12/15 - Batch: 1000/7933 - Learning rate: 3.125e-05 - Loss: 0.5960591 - Dev BLEU: 0.24398033331066338
Epoch: 12/15 - Batch: 1100/7933 - Learning rate: 3.125e-05 - Loss: 0.54781634
Epoch: 12/15 - Batch: 1200/7933 - Learning rate: 3.125e-05 - Loss: 0.7058833
Epoch: 12/15 - Batch: 1300/7933 - Learning rate: 3.125e-05 - Loss: 0.6080148
Epoch: 12/15 - Batch: 1400/7933 - Learning rate: 3.125e-05 - Loss: 0.6916397
Epoch: 12/15 - Batch: 1500/7933 - Learning rate: 3.125e-05 - Loss: 0.50461245
Epoch: 12/15 - Batch: 1600/7933 - Learning rate: 3.125e-05 - Loss: 0.90424883
Epoch: 12/15 - Batch: 1700/7933 - Learning rate: 3.125e-05 - Loss: 0.66163826
Epoch: 12/15 - Batch: 1800/7933 - Learning rate: 3.125e-05 - Loss: 0.3610652
Epoch: 12/15 - Batch: 1900/7933 - Learning rate: 3.125e-05 - Loss: 0.5888748
Epoch: 12/15 - Batch: 2000/7933 - Learning rate: 3.125e-05 - Loss: 0.5639437 - Dev BLEU: 0.24196526324628254
Epoch: 12/15 - Batch: 2100/7933 - Learning rate: 3.125e-05 - Loss: 0.46045113
Epoch: 12/15 - Batch: 2200/7933 - Learning rate: 3.125e-05 - Loss: 0.4819725
Epoch: 12/15 - Batch: 2300/7933 - Learning rate: 3.125e-05 - Loss: 0.6049284
Epoch: 12/15 - Batch: 2400/7933 - Learning rate: 3.125e-05 - Loss: 0.49166915
Epoch: 12/15 - Batch: 2500/7933 - Learning rate: 3.125e-05 - Loss: 0.47409436
Epoch: 12/15 - Batch: 2600/7933 - Learning rate: 3.125e-05 - Loss: 0.40352547
Epoch: 12/15 - Batch: 2700/7933 - Learning rate: 3.125e-05 - Loss: 0.23872659
Epoch: 12/15 - Batch: 2800/7933 - Learning rate: 3.125e-05 - Loss: 0.62465334
Epoch: 12/15 - Batch: 2900/7933 - Learning rate: 3.125e-05 - Loss: 0.75450534
Epoch: 12/15 - Batch: 3000/7933 - Learning rate: 3.125e-05 - Loss: 0.638833 - Dev BLEU: 0.2347257122763396
Epoch: 12/15 - Batch: 3100/7933 - Learning rate: 3.125e-05 - Loss: 0.6714719
Epoch: 12/15 - Batch: 3200/7933 - Learning rate: 3.125e-05 - Loss: 0.6393447
Epoch: 12/15 - Batch: 3300/7933 - Learning rate: 3.125e-05 - Loss: 0.55110544
Epoch: 12/15 - Batch: 3400/7933 - Learning rate: 3.125e-05 - Loss: 0.5230842
Epoch: 12/15 - Batch: 3500/7933 - Learning rate: 3.125e-05 - Loss: 0.643838
Epoch: 12/15 - Batch: 3600/7933 - Learning rate: 3.125e-05 - Loss: 0.69002956
Epoch: 12/15 - Batch: 3700/7933 - Learning rate: 3.125e-05 - Loss: 0.67138875
Epoch: 12/15 - Batch: 3800/7933 - Learning rate: 3.125e-05 - Loss: 0.6098874
Epoch: 12/15 - Batch: 3900/7933 - Learning rate: 3.125e-05 - Loss: 0.67195266
Epoch: 12/15 - Batch: 4000/7933 - Learning rate: 3.125e-05 - Loss: 0.40299186 - Dev BLEU: 0.23789837892841606
Epoch: 12/15 - Batch: 4100/7933 - Learning rate: 3.125e-05 - Loss: 0.51123303
Epoch: 12/15 - Batch: 4200/7933 - Learning rate: 3.125e-05 - Loss: 0.4869594
Epoch: 12/15 - Batch: 4300/7933 - Learning rate: 3.125e-05 - Loss: 0.57776034
Epoch: 12/15 - Batch: 4400/7933 - Learning rate: 3.125e-05 - Loss: 0.52848554
Epoch: 12/15 - Batch: 4500/7933 - Learning rate: 3.125e-05 - Loss: 0.6056555
Epoch: 12/15 - Batch: 4600/7933 - Learning rate: 3.125e-05 - Loss: 0.84846365
Epoch: 12/15 - Batch: 4700/7933 - Learning rate: 3.125e-05 - Loss: 0.594206
Epoch: 12/15 - Batch: 4800/7933 - Learning rate: 3.125e-05 - Loss: 0.57544595
Epoch: 12/15 - Batch: 4900/7933 - Learning rate: 3.125e-05 - Loss: 0.7454937
Epoch: 12/15 - Batch: 5000/7933 - Learning rate: 3.125e-05 - Loss: 0.7776559 - Dev BLEU: 0.25747628336137807
Epoch: 12/15 - Batch: 5100/7933 - Learning rate: 3.125e-05 - Loss: 0.8385586
Epoch: 12/15 - Batch: 5200/7933 - Learning rate: 3.125e-05 - Loss: 0.8068097
Epoch: 12/15 - Batch: 5300/7933 - Learning rate: 3.125e-05 - Loss: 0.7921572
Epoch: 12/15 - Batch: 5400/7933 - Learning rate: 3.125e-05 - Loss: 0.73727846
Epoch: 12/15 - Batch: 5500/7933 - Learning rate: 3.125e-05 - Loss: 0.7407739
Epoch: 12/15 - Batch: 5600/7933 - Learning rate: 3.125e-05 - Loss: 0.57419807
Epoch: 12/15 - Batch: 5700/7933 - Learning rate: 3.125e-05 - Loss: 0.70829856
Epoch: 12/15 - Batch: 5800/7933 - Learning rate: 3.125e-05 - Loss: 0.69333094
Epoch: 12/15 - Batch: 5900/7933 - Learning rate: 3.125e-05 - Loss: 0.47554055
Epoch: 12/15 - Batch: 6000/7933 - Learning rate: 3.125e-05 - Loss: 0.7523528 - Dev BLEU: 0.25778169296650805
Epoch: 12/15 - Batch: 6100/7933 - Learning rate: 3.125e-05 - Loss: 0.6707467
Epoch: 12/15 - Batch: 6200/7933 - Learning rate: 3.125e-05 - Loss: 0.6545541
Epoch: 12/15 - Batch: 6300/7933 - Learning rate: 3.125e-05 - Loss: 0.60887843
Epoch: 12/15 - Batch: 6400/7933 - Learning rate: 3.125e-05 - Loss: 0.58598524
Epoch: 12/15 - Batch: 6500/7933 - Learning rate: 3.125e-05 - Loss: 0.6950184
Epoch: 12/15 - Batch: 6600/7933 - Learning rate: 3.125e-05 - Loss: 0.69036436
Epoch: 12/15 - Batch: 6700/7933 - Learning rate: 3.125e-05 - Loss: 0.68266314
Epoch: 12/15 - Batch: 6800/7933 - Learning rate: 3.125e-05 - Loss: 0.69163114
Epoch: 12/15 - Batch: 6900/7933 - Learning rate: 3.125e-05 - Loss: 0.46971187
Epoch: 12/15 - Batch: 7000/7933 - Learning rate: 3.125e-05 - Loss: 0.97192234 - Dev BLEU: 0.26272864332550533
Epoch: 12/15 - Batch: 7100/7933 - Learning rate: 3.125e-05 - Loss: 0.7162722
Epoch: 12/15 - Batch: 7200/7933 - Learning rate: 3.125e-05 - Loss: 0.58209044
Epoch: 12/15 - Batch: 7300/7933 - Learning rate: 3.125e-05 - Loss: 0.7126887
Epoch: 12/15 - Batch: 7400/7933 - Learning rate: 3.125e-05 - Loss: 0.7629005
Epoch: 12/15 - Batch: 7500/7933 - Learning rate: 3.125e-05 - Loss: 0.57024413
Epoch: 12/15 - Batch: 7600/7933 - Learning rate: 3.125e-05 - Loss: 0.949367
Epoch: 12/15 - Batch: 7700/7933 - Learning rate: 3.125e-05 - Loss: 1.1328231
Epoch: 12/15 - Batch: 7800/7933 - Learning rate: 3.125e-05 - Loss: 0.9769468
Epoch: 12/15 - Batch: 7900/7933 - Learning rate: 3.125e-05 - Loss: 0.7409979
Epoch: 12/15 - Batch: 7933/7933 - Learning rate: 3.125e-05 - Loss: 0.9323859 - Dev BLEU: 0.2589307376145193
Epoch: 13/15 - Batch: 100/7933 - Learning rate: 1.5625e-05 - Loss: 0.7215699
Epoch: 13/15 - Batch: 200/7933 - Learning rate: 1.5625e-05 - Loss: 0.5847621
Epoch: 13/15 - Batch: 300/7933 - Learning rate: 1.5625e-05 - Loss: 0.4831469
Epoch: 13/15 - Batch: 400/7933 - Learning rate: 1.5625e-05 - Loss: 0.75216556
Epoch: 13/15 - Batch: 500/7933 - Learning rate: 1.5625e-05 - Loss: 0.49537423
Epoch: 13/15 - Batch: 600/7933 - Learning rate: 1.5625e-05 - Loss: 0.3583345
Epoch: 13/15 - Batch: 700/7933 - Learning rate: 1.5625e-05 - Loss: 0.5315603
Epoch: 13/15 - Batch: 800/7933 - Learning rate: 1.5625e-05 - Loss: 0.5391915
Epoch: 13/15 - Batch: 900/7933 - Learning rate: 1.5625e-05 - Loss: 0.34918067
Epoch: 13/15 - Batch: 1000/7933 - Learning rate: 1.5625e-05 - Loss: 0.59772456 - Dev BLEU: 0.24685626461506957
Epoch: 13/15 - Batch: 1100/7933 - Learning rate: 1.5625e-05 - Loss: 0.53281164
Epoch: 13/15 - Batch: 1200/7933 - Learning rate: 1.5625e-05 - Loss: 0.7031373
Epoch: 13/15 - Batch: 1300/7933 - Learning rate: 1.5625e-05 - Loss: 0.5981048
Epoch: 13/15 - Batch: 1400/7933 - Learning rate: 1.5625e-05 - Loss: 0.6920092
Epoch: 13/15 - Batch: 1500/7933 - Learning rate: 1.5625e-05 - Loss: 0.50164175
Epoch: 13/15 - Batch: 1600/7933 - Learning rate: 1.5625e-05 - Loss: 0.90724105
Epoch: 13/15 - Batch: 1700/7933 - Learning rate: 1.5625e-05 - Loss: 0.6660364
Epoch: 13/15 - Batch: 1800/7933 - Learning rate: 1.5625e-05 - Loss: 0.36539882
Epoch: 13/15 - Batch: 1900/7933 - Learning rate: 1.5625e-05 - Loss: 0.58168286
Epoch: 13/15 - Batch: 2000/7933 - Learning rate: 1.5625e-05 - Loss: 0.5666145 - Dev BLEU: 0.24575884468812068
Epoch: 13/15 - Batch: 2100/7933 - Learning rate: 1.5625e-05 - Loss: 0.4612266
Epoch: 13/15 - Batch: 2200/7933 - Learning rate: 1.5625e-05 - Loss: 0.47814026
Epoch: 13/15 - Batch: 2300/7933 - Learning rate: 1.5625e-05 - Loss: 0.6145436
Epoch: 13/15 - Batch: 2400/7933 - Learning rate: 1.5625e-05 - Loss: 0.4831577
Epoch: 13/15 - Batch: 2500/7933 - Learning rate: 1.5625e-05 - Loss: 0.47626856
Epoch: 13/15 - Batch: 2600/7933 - Learning rate: 1.5625e-05 - Loss: 0.40167886
Epoch: 13/15 - Batch: 2700/7933 - Learning rate: 1.5625e-05 - Loss: 0.24293569
Epoch: 13/15 - Batch: 2800/7933 - Learning rate: 1.5625e-05 - Loss: 0.6350263
Epoch: 13/15 - Batch: 2900/7933 - Learning rate: 1.5625e-05 - Loss: 0.7392446
Epoch: 13/15 - Batch: 3000/7933 - Learning rate: 1.5625e-05 - Loss: 0.63488114 - Dev BLEU: 0.2411559894274047
Epoch: 13/15 - Batch: 3100/7933 - Learning rate: 1.5625e-05 - Loss: 0.6587398
Epoch: 13/15 - Batch: 3200/7933 - Learning rate: 1.5625e-05 - Loss: 0.64015746
Epoch: 13/15 - Batch: 3300/7933 - Learning rate: 1.5625e-05 - Loss: 0.54332894
Epoch: 13/15 - Batch: 3400/7933 - Learning rate: 1.5625e-05 - Loss: 0.5266521
Epoch: 13/15 - Batch: 3500/7933 - Learning rate: 1.5625e-05 - Loss: 0.6482546
Epoch: 13/15 - Batch: 3600/7933 - Learning rate: 1.5625e-05 - Loss: 0.6797493
Epoch: 13/15 - Batch: 3700/7933 - Learning rate: 1.5625e-05 - Loss: 0.669161
Epoch: 13/15 - Batch: 3800/7933 - Learning rate: 1.5625e-05 - Loss: 0.6166029
Epoch: 13/15 - Batch: 3900/7933 - Learning rate: 1.5625e-05 - Loss: 0.67269903
Epoch: 13/15 - Batch: 4000/7933 - Learning rate: 1.5625e-05 - Loss: 0.40042597 - Dev BLEU: 0.24079840759868373
Epoch: 13/15 - Batch: 4100/7933 - Learning rate: 1.5625e-05 - Loss: 0.51106715
Epoch: 13/15 - Batch: 4200/7933 - Learning rate: 1.5625e-05 - Loss: 0.4834323
Epoch: 13/15 - Batch: 4300/7933 - Learning rate: 1.5625e-05 - Loss: 0.5728625
Epoch: 13/15 - Batch: 4400/7933 - Learning rate: 1.5625e-05 - Loss: 0.53321534
Epoch: 13/15 - Batch: 4500/7933 - Learning rate: 1.5625e-05 - Loss: 0.5952996
Epoch: 13/15 - Batch: 4600/7933 - Learning rate: 1.5625e-05 - Loss: 0.8494637
Epoch: 13/15 - Batch: 4700/7933 - Learning rate: 1.5625e-05 - Loss: 0.6108211
Epoch: 13/15 - Batch: 4800/7933 - Learning rate: 1.5625e-05 - Loss: 0.56582445
Epoch: 13/15 - Batch: 4900/7933 - Learning rate: 1.5625e-05 - Loss: 0.7390049
Epoch: 13/15 - Batch: 5000/7933 - Learning rate: 1.5625e-05 - Loss: 0.7535163 - Dev BLEU: 0.25732695417617224
Epoch: 13/15 - Batch: 5100/7933 - Learning rate: 1.5625e-05 - Loss: 0.84090954
Epoch: 13/15 - Batch: 5200/7933 - Learning rate: 1.5625e-05 - Loss: 0.82322353
Epoch: 13/15 - Batch: 5300/7933 - Learning rate: 1.5625e-05 - Loss: 0.7847406
Epoch: 13/15 - Batch: 5400/7933 - Learning rate: 1.5625e-05 - Loss: 0.73435307
Epoch: 13/15 - Batch: 5500/7933 - Learning rate: 1.5625e-05 - Loss: 0.73494107
Epoch: 13/15 - Batch: 5600/7933 - Learning rate: 1.5625e-05 - Loss: 0.5879661
Epoch: 13/15 - Batch: 5700/7933 - Learning rate: 1.5625e-05 - Loss: 0.7152546
Epoch: 13/15 - Batch: 5800/7933 - Learning rate: 1.5625e-05 - Loss: 0.69432294
Epoch: 13/15 - Batch: 5900/7933 - Learning rate: 1.5625e-05 - Loss: 0.4785486
Epoch: 13/15 - Batch: 6000/7933 - Learning rate: 1.5625e-05 - Loss: 0.7428759 - Dev BLEU: 0.25804561335147963
Epoch: 13/15 - Batch: 6100/7933 - Learning rate: 1.5625e-05 - Loss: 0.6640408
Epoch: 13/15 - Batch: 6200/7933 - Learning rate: 1.5625e-05 - Loss: 0.65471727
Epoch: 13/15 - Batch: 6300/7933 - Learning rate: 1.5625e-05 - Loss: 0.616939
Epoch: 13/15 - Batch: 6400/7933 - Learning rate: 1.5625e-05 - Loss: 0.5940004
Epoch: 13/15 - Batch: 6500/7933 - Learning rate: 1.5625e-05 - Loss: 0.6817611
Epoch: 13/15 - Batch: 6600/7933 - Learning rate: 1.5625e-05 - Loss: 0.70696473
Epoch: 13/15 - Batch: 6700/7933 - Learning rate: 1.5625e-05 - Loss: 0.6772993
Epoch: 13/15 - Batch: 6800/7933 - Learning rate: 1.5625e-05 - Loss: 0.6880201
Epoch: 13/15 - Batch: 6900/7933 - Learning rate: 1.5625e-05 - Loss: 0.47743726
Epoch: 13/15 - Batch: 7000/7933 - Learning rate: 1.5625e-05 - Loss: 0.9681393 - Dev BLEU: 0.2629013903313081
Epoch: 13/15 - Batch: 7100/7933 - Learning rate: 1.5625e-05 - Loss: 0.71460485
Epoch: 13/15 - Batch: 7200/7933 - Learning rate: 1.5625e-05 - Loss: 0.5888779
Epoch: 13/15 - Batch: 7300/7933 - Learning rate: 1.5625e-05 - Loss: 0.72012705
Epoch: 13/15 - Batch: 7400/7933 - Learning rate: 1.5625e-05 - Loss: 0.7621282
Epoch: 13/15 - Batch: 7500/7933 - Learning rate: 1.5625e-05 - Loss: 0.5685846
Epoch: 13/15 - Batch: 7600/7933 - Learning rate: 1.5625e-05 - Loss: 0.94826263
Epoch: 13/15 - Batch: 7700/7933 - Learning rate: 1.5625e-05 - Loss: 1.1367806
Epoch: 13/15 - Batch: 7800/7933 - Learning rate: 1.5625e-05 - Loss: 0.9722918
Epoch: 13/15 - Batch: 7900/7933 - Learning rate: 1.5625e-05 - Loss: 0.73800945
Epoch: 13/15 - Batch: 7933/7933 - Learning rate: 1.5625e-05 - Loss: 0.9297357 - Dev BLEU: 0.26173697009858354
Epoch: 14/15 - Batch: 100/7933 - Learning rate: 7.8125e-06 - Loss: 0.73588675
Epoch: 14/15 - Batch: 200/7933 - Learning rate: 7.8125e-06 - Loss: 0.60302126
Epoch: 14/15 - Batch: 300/7933 - Learning rate: 7.8125e-06 - Loss: 0.4832946
Epoch: 14/15 - Batch: 400/7933 - Learning rate: 7.8125e-06 - Loss: 0.7416803
Epoch: 14/15 - Batch: 500/7933 - Learning rate: 7.8125e-06 - Loss: 0.5133524
Epoch: 14/15 - Batch: 600/7933 - Learning rate: 7.8125e-06 - Loss: 0.36482772
Epoch: 14/15 - Batch: 700/7933 - Learning rate: 7.8125e-06 - Loss: 0.54204947
Epoch: 14/15 - Batch: 800/7933 - Learning rate: 7.8125e-06 - Loss: 0.54264283
Epoch: 14/15 - Batch: 900/7933 - Learning rate: 7.8125e-06 - Loss: 0.3516604
Epoch: 14/15 - Batch: 1000/7933 - Learning rate: 7.8125e-06 - Loss: 0.59396905 - Dev BLEU: 0.25204189135289823
Epoch: 14/15 - Batch: 1100/7933 - Learning rate: 7.8125e-06 - Loss: 0.53946185
Epoch: 14/15 - Batch: 1200/7933 - Learning rate: 7.8125e-06 - Loss: 0.71051913
Epoch: 14/15 - Batch: 1300/7933 - Learning rate: 7.8125e-06 - Loss: 0.5867419
Epoch: 14/15 - Batch: 1400/7933 - Learning rate: 7.8125e-06 - Loss: 0.6975083
Epoch: 14/15 - Batch: 1500/7933 - Learning rate: 7.8125e-06 - Loss: 0.5086307
Epoch: 14/15 - Batch: 1600/7933 - Learning rate: 7.8125e-06 - Loss: 0.90858084
Epoch: 14/15 - Batch: 1700/7933 - Learning rate: 7.8125e-06 - Loss: 0.6692353
Epoch: 14/15 - Batch: 1800/7933 - Learning rate: 7.8125e-06 - Loss: 0.36288208
Epoch: 14/15 - Batch: 1900/7933 - Learning rate: 7.8125e-06 - Loss: 0.582322
Epoch: 14/15 - Batch: 2000/7933 - Learning rate: 7.8125e-06 - Loss: 0.5695226 - Dev BLEU: 0.24777894565110434
Epoch: 14/15 - Batch: 2100/7933 - Learning rate: 7.8125e-06 - Loss: 0.4554946
Epoch: 14/15 - Batch: 2200/7933 - Learning rate: 7.8125e-06 - Loss: 0.4902199
Epoch: 14/15 - Batch: 2300/7933 - Learning rate: 7.8125e-06 - Loss: 0.620356
Epoch: 14/15 - Batch: 2400/7933 - Learning rate: 7.8125e-06 - Loss: 0.47815597
Epoch: 14/15 - Batch: 2500/7933 - Learning rate: 7.8125e-06 - Loss: 0.4788351
Epoch: 14/15 - Batch: 2600/7933 - Learning rate: 7.8125e-06 - Loss: 0.41544175
Epoch: 14/15 - Batch: 2700/7933 - Learning rate: 7.8125e-06 - Loss: 0.25036016
Epoch: 14/15 - Batch: 2800/7933 - Learning rate: 7.8125e-06 - Loss: 0.6264767
Epoch: 14/15 - Batch: 2900/7933 - Learning rate: 7.8125e-06 - Loss: 0.7401561
Epoch: 14/15 - Batch: 3000/7933 - Learning rate: 7.8125e-06 - Loss: 0.6368471 - Dev BLEU: 0.2450513812917697
Epoch: 14/15 - Batch: 3100/7933 - Learning rate: 7.8125e-06 - Loss: 0.6544022
Epoch: 14/15 - Batch: 3200/7933 - Learning rate: 7.8125e-06 - Loss: 0.64079285
Epoch: 14/15 - Batch: 3300/7933 - Learning rate: 7.8125e-06 - Loss: 0.5438544
Epoch: 14/15 - Batch: 3400/7933 - Learning rate: 7.8125e-06 - Loss: 0.52571046
Epoch: 14/15 - Batch: 3500/7933 - Learning rate: 7.8125e-06 - Loss: 0.6490379
Epoch: 14/15 - Batch: 3600/7933 - Learning rate: 7.8125e-06 - Loss: 0.6798947
Epoch: 14/15 - Batch: 3700/7933 - Learning rate: 7.8125e-06 - Loss: 0.6613456
Epoch: 14/15 - Batch: 3800/7933 - Learning rate: 7.8125e-06 - Loss: 0.62051713
Epoch: 14/15 - Batch: 3900/7933 - Learning rate: 7.8125e-06 - Loss: 0.6655207
Epoch: 14/15 - Batch: 4000/7933 - Learning rate: 7.8125e-06 - Loss: 0.39825413 - Dev BLEU: 0.24400292007628402
Epoch: 14/15 - Batch: 4100/7933 - Learning rate: 7.8125e-06 - Loss: 0.5177561
Epoch: 14/15 - Batch: 4200/7933 - Learning rate: 7.8125e-06 - Loss: 0.48917246
Epoch: 14/15 - Batch: 4300/7933 - Learning rate: 7.8125e-06 - Loss: 0.5759573
Epoch: 14/15 - Batch: 4400/7933 - Learning rate: 7.8125e-06 - Loss: 0.534023
Epoch: 14/15 - Batch: 4500/7933 - Learning rate: 7.8125e-06 - Loss: 0.6102396
Epoch: 14/15 - Batch: 4600/7933 - Learning rate: 7.8125e-06 - Loss: 0.85048044
Epoch: 14/15 - Batch: 4700/7933 - Learning rate: 7.8125e-06 - Loss: 0.62281156
Epoch: 14/15 - Batch: 4800/7933 - Learning rate: 7.8125e-06 - Loss: 0.5756138
Epoch: 14/15 - Batch: 4900/7933 - Learning rate: 7.8125e-06 - Loss: 0.761639
Epoch: 14/15 - Batch: 5000/7933 - Learning rate: 7.8125e-06 - Loss: 0.7663648 - Dev BLEU: 0.25340777388630176
Epoch: 14/15 - Batch: 5100/7933 - Learning rate: 7.8125e-06 - Loss: 0.8076543
Epoch: 14/15 - Batch: 5200/7933 - Learning rate: 7.8125e-06 - Loss: 0.8244224
Epoch: 14/15 - Batch: 5300/7933 - Learning rate: 7.8125e-06 - Loss: 0.76119137
Epoch: 14/15 - Batch: 5400/7933 - Learning rate: 7.8125e-06 - Loss: 0.7341831
Epoch: 14/15 - Batch: 5500/7933 - Learning rate: 7.8125e-06 - Loss: 0.73809946
Epoch: 14/15 - Batch: 5600/7933 - Learning rate: 7.8125e-06 - Loss: 0.5921864
Epoch: 14/15 - Batch: 5700/7933 - Learning rate: 7.8125e-06 - Loss: 0.7056852
Epoch: 14/15 - Batch: 5800/7933 - Learning rate: 7.8125e-06 - Loss: 0.70781535
Epoch: 14/15 - Batch: 5900/7933 - Learning rate: 7.8125e-06 - Loss: 0.46629488
Epoch: 14/15 - Batch: 6000/7933 - Learning rate: 7.8125e-06 - Loss: 0.75020945 - Dev BLEU: 0.25893688595573944
Epoch: 14/15 - Batch: 6100/7933 - Learning rate: 7.8125e-06 - Loss: 0.6629877
Epoch: 14/15 - Batch: 6200/7933 - Learning rate: 7.8125e-06 - Loss: 0.6547167
Epoch: 14/15 - Batch: 6300/7933 - Learning rate: 7.8125e-06 - Loss: 0.6153703
Epoch: 14/15 - Batch: 6400/7933 - Learning rate: 7.8125e-06 - Loss: 0.5959045
Epoch: 14/15 - Batch: 6500/7933 - Learning rate: 7.8125e-06 - Loss: 0.6871662
Epoch: 14/15 - Batch: 6600/7933 - Learning rate: 7.8125e-06 - Loss: 0.70547044
Epoch: 14/15 - Batch: 6700/7933 - Learning rate: 7.8125e-06 - Loss: 0.68247473
Epoch: 14/15 - Batch: 6800/7933 - Learning rate: 7.8125e-06 - Loss: 0.69288605
Epoch: 14/15 - Batch: 6900/7933 - Learning rate: 7.8125e-06 - Loss: 0.47227114
Epoch: 14/15 - Batch: 7000/7933 - Learning rate: 7.8125e-06 - Loss: 0.9828561 - Dev BLEU: 0.26271982902185637
Epoch: 14/15 - Batch: 7100/7933 - Learning rate: 7.8125e-06 - Loss: 0.7186312
Epoch: 14/15 - Batch: 7200/7933 - Learning rate: 7.8125e-06 - Loss: 0.5866257
Epoch: 14/15 - Batch: 7300/7933 - Learning rate: 7.8125e-06 - Loss: 0.7165557
Epoch: 14/15 - Batch: 7400/7933 - Learning rate: 7.8125e-06 - Loss: 0.7659082
Epoch: 14/15 - Batch: 7500/7933 - Learning rate: 7.8125e-06 - Loss: 0.57451624
Epoch: 14/15 - Batch: 7600/7933 - Learning rate: 7.8125e-06 - Loss: 0.93417335
Epoch: 14/15 - Batch: 7700/7933 - Learning rate: 7.8125e-06 - Loss: 1.1327262
Epoch: 14/15 - Batch: 7800/7933 - Learning rate: 7.8125e-06 - Loss: 0.97475976
Epoch: 14/15 - Batch: 7900/7933 - Learning rate: 7.8125e-06 - Loss: 0.74464405
Epoch: 14/15 - Batch: 7933/7933 - Learning rate: 7.8125e-06 - Loss: 0.9310062 - Dev BLEU: 0.2614030499608428
Epoch: 15/15 - Batch: 100/7933 - Learning rate: 3.90625e-06 - Loss: 0.72522926
Epoch: 15/15 - Batch: 200/7933 - Learning rate: 3.90625e-06 - Loss: 0.5823183
Epoch: 15/15 - Batch: 300/7933 - Learning rate: 3.90625e-06 - Loss: 0.478846
Epoch: 15/15 - Batch: 400/7933 - Learning rate: 3.90625e-06 - Loss: 0.7508176
Epoch: 15/15 - Batch: 500/7933 - Learning rate: 3.90625e-06 - Loss: 0.51082146
Epoch: 15/15 - Batch: 600/7933 - Learning rate: 3.90625e-06 - Loss: 0.37144524
Epoch: 15/15 - Batch: 700/7933 - Learning rate: 3.90625e-06 - Loss: 0.54714024
Epoch: 15/15 - Batch: 800/7933 - Learning rate: 3.90625e-06 - Loss: 0.5371626
Epoch: 15/15 - Batch: 900/7933 - Learning rate: 3.90625e-06 - Loss: 0.34754887
Epoch: 15/15 - Batch: 1000/7933 - Learning rate: 3.90625e-06 - Loss: 0.597617 - Dev BLEU: 0.2556133377852322
Epoch: 15/15 - Batch: 1100/7933 - Learning rate: 3.90625e-06 - Loss: 0.54689986
Epoch: 15/15 - Batch: 1200/7933 - Learning rate: 3.90625e-06 - Loss: 0.7156757
Epoch: 15/15 - Batch: 1300/7933 - Learning rate: 3.90625e-06 - Loss: 0.6047154
Epoch: 15/15 - Batch: 1400/7933 - Learning rate: 3.90625e-06 - Loss: 0.6917909
Epoch: 15/15 - Batch: 1500/7933 - Learning rate: 3.90625e-06 - Loss: 0.5014713
Epoch: 15/15 - Batch: 1600/7933 - Learning rate: 3.90625e-06 - Loss: 0.90991396
Epoch: 15/15 - Batch: 1700/7933 - Learning rate: 3.90625e-06 - Loss: 0.6562465
Epoch: 15/15 - Batch: 1800/7933 - Learning rate: 3.90625e-06 - Loss: 0.3637634
Epoch: 15/15 - Batch: 1900/7933 - Learning rate: 3.90625e-06 - Loss: 0.5818912
Epoch: 15/15 - Batch: 2000/7933 - Learning rate: 3.90625e-06 - Loss: 0.555964 - Dev BLEU: 0.25223569341505264
Epoch: 15/15 - Batch: 2100/7933 - Learning rate: 3.90625e-06 - Loss: 0.45721176
Epoch: 15/15 - Batch: 2200/7933 - Learning rate: 3.90625e-06 - Loss: 0.48225874
Epoch: 15/15 - Batch: 2300/7933 - Learning rate: 3.90625e-06 - Loss: 0.62998456
Epoch: 15/15 - Batch: 2400/7933 - Learning rate: 3.90625e-06 - Loss: 0.5028246
Epoch: 15/15 - Batch: 2500/7933 - Learning rate: 3.90625e-06 - Loss: 0.47283876
Epoch: 15/15 - Batch: 2600/7933 - Learning rate: 3.90625e-06 - Loss: 0.41642362
Epoch: 15/15 - Batch: 2700/7933 - Learning rate: 3.90625e-06 - Loss: 0.25195614
Epoch: 15/15 - Batch: 2800/7933 - Learning rate: 3.90625e-06 - Loss: 0.6432454
Epoch: 15/15 - Batch: 2900/7933 - Learning rate: 3.90625e-06 - Loss: 0.7337302
Epoch: 15/15 - Batch: 3000/7933 - Learning rate: 3.90625e-06 - Loss: 0.6372794 - Dev BLEU: 0.2502276259177388
Epoch: 15/15 - Batch: 3100/7933 - Learning rate: 3.90625e-06 - Loss: 0.65980333
Epoch: 15/15 - Batch: 3200/7933 - Learning rate: 3.90625e-06 - Loss: 0.65377665
Epoch: 15/15 - Batch: 3300/7933 - Learning rate: 3.90625e-06 - Loss: 0.53721184
Epoch: 15/15 - Batch: 3400/7933 - Learning rate: 3.90625e-06 - Loss: 0.52783597
Epoch: 15/15 - Batch: 3500/7933 - Learning rate: 3.90625e-06 - Loss: 0.6358244
Epoch: 15/15 - Batch: 3600/7933 - Learning rate: 3.90625e-06 - Loss: 0.68152434
Epoch: 15/15 - Batch: 3700/7933 - Learning rate: 3.90625e-06 - Loss: 0.6582956
Epoch: 15/15 - Batch: 3800/7933 - Learning rate: 3.90625e-06 - Loss: 0.60460037
Epoch: 15/15 - Batch: 3900/7933 - Learning rate: 3.90625e-06 - Loss: 0.6752824
Epoch: 15/15 - Batch: 4000/7933 - Learning rate: 3.90625e-06 - Loss: 0.39592484 - Dev BLEU: 0.25014639113642345
Epoch: 15/15 - Batch: 4100/7933 - Learning rate: 3.90625e-06 - Loss: 0.5217837
Epoch: 15/15 - Batch: 4200/7933 - Learning rate: 3.90625e-06 - Loss: 0.4799217
Epoch: 15/15 - Batch: 4300/7933 - Learning rate: 3.90625e-06 - Loss: 0.5707021
Epoch: 15/15 - Batch: 4400/7933 - Learning rate: 3.90625e-06 - Loss: 0.5397785
Epoch: 15/15 - Batch: 4500/7933 - Learning rate: 3.90625e-06 - Loss: 0.6010925
Epoch: 15/15 - Batch: 4600/7933 - Learning rate: 3.90625e-06 - Loss: 0.8694889
Epoch: 15/15 - Batch: 4700/7933 - Learning rate: 3.90625e-06 - Loss: 0.60084283
Epoch: 15/15 - Batch: 4800/7933 - Learning rate: 3.90625e-06 - Loss: 0.58860546
Epoch: 15/15 - Batch: 4900/7933 - Learning rate: 3.90625e-06 - Loss: 0.75150937
Epoch: 15/15 - Batch: 5000/7933 - Learning rate: 3.90625e-06 - Loss: 0.7651162 - Dev BLEU: 0.25440009351046566
Epoch: 15/15 - Batch: 5100/7933 - Learning rate: 3.90625e-06 - Loss: 0.83250576
Epoch: 15/15 - Batch: 5200/7933 - Learning rate: 3.90625e-06 - Loss: 0.82312757
Epoch: 15/15 - Batch: 5300/7933 - Learning rate: 3.90625e-06 - Loss: 0.78236204
Epoch: 15/15 - Batch: 5400/7933 - Learning rate: 3.90625e-06 - Loss: 0.7465968
Epoch: 15/15 - Batch: 5500/7933 - Learning rate: 3.90625e-06 - Loss: 0.75382036
Epoch: 15/15 - Batch: 5600/7933 - Learning rate: 3.90625e-06 - Loss: 0.59927094
Epoch: 15/15 - Batch: 5700/7933 - Learning rate: 3.90625e-06 - Loss: 0.71861947
Epoch: 15/15 - Batch: 5800/7933 - Learning rate: 3.90625e-06 - Loss: 0.7073518
Epoch: 15/15 - Batch: 5900/7933 - Learning rate: 3.90625e-06 - Loss: 0.47781685
Epoch: 15/15 - Batch: 6000/7933 - Learning rate: 3.90625e-06 - Loss: 0.74534386 - Dev BLEU: 0.25862715396331626
Epoch: 15/15 - Batch: 6100/7933 - Learning rate: 3.90625e-06 - Loss: 0.6608857
Epoch: 15/15 - Batch: 6200/7933 - Learning rate: 3.90625e-06 - Loss: 0.66675454
Epoch: 15/15 - Batch: 6300/7933 - Learning rate: 3.90625e-06 - Loss: 0.62021583
Epoch: 15/15 - Batch: 6400/7933 - Learning rate: 3.90625e-06 - Loss: 0.5828544
Epoch: 15/15 - Batch: 6500/7933 - Learning rate: 3.90625e-06 - Loss: 0.6896281
Epoch: 15/15 - Batch: 6600/7933 - Learning rate: 3.90625e-06 - Loss: 0.6990028
Epoch: 15/15 - Batch: 6700/7933 - Learning rate: 3.90625e-06 - Loss: 0.68096024
Epoch: 15/15 - Batch: 6800/7933 - Learning rate: 3.90625e-06 - Loss: 0.6885811
Epoch: 15/15 - Batch: 6900/7933 - Learning rate: 3.90625e-06 - Loss: 0.47184896
Epoch: 15/15 - Batch: 7000/7933 - Learning rate: 3.90625e-06 - Loss: 0.9915835 - Dev BLEU: 0.2613733991744462
Epoch: 15/15 - Batch: 7100/7933 - Learning rate: 3.90625e-06 - Loss: 0.7204784
Epoch: 15/15 - Batch: 7200/7933 - Learning rate: 3.90625e-06 - Loss: 0.58984464
Epoch: 15/15 - Batch: 7300/7933 - Learning rate: 3.90625e-06 - Loss: 0.72433627
Epoch: 15/15 - Batch: 7400/7933 - Learning rate: 3.90625e-06 - Loss: 0.7598852
Epoch: 15/15 - Batch: 7500/7933 - Learning rate: 3.90625e-06 - Loss: 0.5772422
Epoch: 15/15 - Batch: 7600/7933 - Learning rate: 3.90625e-06 - Loss: 0.9459449
Epoch: 15/15 - Batch: 7700/7933 - Learning rate: 3.90625e-06 - Loss: 1.146315
Epoch: 15/15 - Batch: 7800/7933 - Learning rate: 3.90625e-06 - Loss: 0.9783869
Epoch: 15/15 - Batch: 7900/7933 - Learning rate: 3.90625e-06 - Loss: 0.72884554
Epoch: 15/15 - Batch: 7933/7933 - Learning rate: 3.90625e-06 - Loss: 0.93937266 - Dev BLEU: 0.26062428153420814 - Test BLEU: 0.28893789740149567
