Epoch: 1/15 - Batch: 100/7933 - Learning rate: 0.001 - Loss: 1.8825797
Epoch: 1/15 - Batch: 200/7933 - Learning rate: 0.001 - Loss: 2.7500029
Epoch: 1/15 - Batch: 300/7933 - Learning rate: 0.001 - Loss: 1.5271709
Epoch: 1/15 - Batch: 400/7933 - Learning rate: 0.001 - Loss: 2.8195865
Epoch: 1/15 - Batch: 500/7933 - Learning rate: 0.001 - Loss: 2.5201128
Epoch: 1/15 - Batch: 600/7933 - Learning rate: 0.001 - Loss: 1.1226175
Epoch: 1/15 - Batch: 700/7933 - Learning rate: 0.001 - Loss: 2.3328774
Epoch: 1/15 - Batch: 800/7933 - Learning rate: 0.001 - Loss: 1.9295393
Epoch: 1/15 - Batch: 900/7933 - Learning rate: 0.001 - Loss: 1.3464445
Epoch: 1/15 - Batch: 1000/7933 - Learning rate: 0.001 - Loss: 2.3753834 - Dev BLEU: 0.0
Epoch: 1/15 - Batch: 1100/7933 - Learning rate: 0.001 - Loss: 1.7303588
Epoch: 1/15 - Batch: 1200/7933 - Learning rate: 0.001 - Loss: 2.0854611
Epoch: 1/15 - Batch: 1300/7933 - Learning rate: 0.001 - Loss: 1.9421583
Epoch: 1/15 - Batch: 1400/7933 - Learning rate: 0.001 - Loss: 2.0767815
Epoch: 1/15 - Batch: 1500/7933 - Learning rate: 0.001 - Loss: 1.4834294
Epoch: 1/15 - Batch: 1600/7933 - Learning rate: 0.001 - Loss: 2.5850334
Epoch: 1/15 - Batch: 1700/7933 - Learning rate: 0.001 - Loss: 1.9692606
Epoch: 1/15 - Batch: 1800/7933 - Learning rate: 0.001 - Loss: 1.3738527
Epoch: 1/15 - Batch: 1900/7933 - Learning rate: 0.001 - Loss: 1.563687
Epoch: 1/15 - Batch: 2000/7933 - Learning rate: 0.001 - Loss: 1.7644472 - Dev BLEU: 0.0
Epoch: 1/15 - Batch: 2100/7933 - Learning rate: 0.001 - Loss: 1.4455172
Epoch: 1/15 - Batch: 2200/7933 - Learning rate: 0.001 - Loss: 1.7658412
Epoch: 1/15 - Batch: 2300/7933 - Learning rate: 0.001 - Loss: 1.9507914
Epoch: 1/15 - Batch: 2400/7933 - Learning rate: 0.001 - Loss: 1.5898657
Epoch: 1/15 - Batch: 2500/7933 - Learning rate: 0.001 - Loss: 1.8823968
Epoch: 1/15 - Batch: 2600/7933 - Learning rate: 0.001 - Loss: 1.2846093
Epoch: 1/15 - Batch: 2700/7933 - Learning rate: 0.001 - Loss: 0.8156073
Epoch: 1/15 - Batch: 2800/7933 - Learning rate: 0.001 - Loss: 1.9848877
Epoch: 1/15 - Batch: 2900/7933 - Learning rate: 0.001 - Loss: 1.9070848
Epoch: 1/15 - Batch: 3000/7933 - Learning rate: 0.001 - Loss: 1.8038123 - Dev BLEU: 0.005304834597164971
Epoch: 1/15 - Batch: 3100/7933 - Learning rate: 0.001 - Loss: 1.5146229
Epoch: 1/15 - Batch: 3200/7933 - Learning rate: 0.001 - Loss: 1.655941
Epoch: 1/15 - Batch: 3300/7933 - Learning rate: 0.001 - Loss: 1.5370871
Epoch: 1/15 - Batch: 3400/7933 - Learning rate: 0.001 - Loss: 1.4179993
Epoch: 1/15 - Batch: 3500/7933 - Learning rate: 0.001 - Loss: 2.046191
Epoch: 1/15 - Batch: 3600/7933 - Learning rate: 0.001 - Loss: 1.6727246
Epoch: 1/15 - Batch: 3700/7933 - Learning rate: 0.001 - Loss: 1.9149524
Epoch: 1/15 - Batch: 3800/7933 - Learning rate: 0.001 - Loss: 1.810587
Epoch: 1/15 - Batch: 3900/7933 - Learning rate: 0.001 - Loss: 1.895374
Epoch: 1/15 - Batch: 4000/7933 - Learning rate: 0.001 - Loss: 1.125233 - Dev BLEU: 0.01022582655426389
Epoch: 1/15 - Batch: 4100/7933 - Learning rate: 0.001 - Loss: 1.4055691
Epoch: 1/15 - Batch: 4200/7933 - Learning rate: 0.001 - Loss: 1.3811208
Epoch: 1/15 - Batch: 4300/7933 - Learning rate: 0.001 - Loss: 1.4869702
Epoch: 1/15 - Batch: 4400/7933 - Learning rate: 0.001 - Loss: 1.48015
Epoch: 1/15 - Batch: 4500/7933 - Learning rate: 0.001 - Loss: 1.620257
Epoch: 1/15 - Batch: 4600/7933 - Learning rate: 0.001 - Loss: 2.9532616
Epoch: 1/15 - Batch: 4700/7933 - Learning rate: 0.001 - Loss: 2.311906
Epoch: 1/15 - Batch: 4800/7933 - Learning rate: 0.001 - Loss: 2.3935115
Epoch: 1/15 - Batch: 4900/7933 - Learning rate: 0.001 - Loss: 2.6027155
Epoch: 1/15 - Batch: 5000/7933 - Learning rate: 0.001 - Loss: 2.3508215 - Dev BLEU: 0.021791800986742712
Epoch: 1/15 - Batch: 5100/7933 - Learning rate: 0.001 - Loss: 2.2104802
Epoch: 1/15 - Batch: 5200/7933 - Learning rate: 0.001 - Loss: 2.447318
Epoch: 1/15 - Batch: 5300/7933 - Learning rate: 0.001 - Loss: 2.2845411
Epoch: 1/15 - Batch: 5400/7933 - Learning rate: 0.001 - Loss: 2.2887962
Epoch: 1/15 - Batch: 5500/7933 - Learning rate: 0.001 - Loss: 2.4518394
Epoch: 1/15 - Batch: 5600/7933 - Learning rate: 0.001 - Loss: 1.8985562
Epoch: 1/15 - Batch: 5700/7933 - Learning rate: 0.001 - Loss: 2.3856127
Epoch: 1/15 - Batch: 5800/7933 - Learning rate: 0.001 - Loss: 2.3188365
Epoch: 1/15 - Batch: 5900/7933 - Learning rate: 0.001 - Loss: 1.8661693
Epoch: 1/15 - Batch: 6000/7933 - Learning rate: 0.001 - Loss: 2.3181455 - Dev BLEU: 0.024131232532225804
Epoch: 1/15 - Batch: 6100/7933 - Learning rate: 0.001 - Loss: 2.4759264
Epoch: 1/15 - Batch: 6200/7933 - Learning rate: 0.001 - Loss: 2.0085225
Epoch: 1/15 - Batch: 6300/7933 - Learning rate: 0.001 - Loss: 2.0935438
Epoch: 1/15 - Batch: 6400/7933 - Learning rate: 0.001 - Loss: 1.634143
Epoch: 1/15 - Batch: 6500/7933 - Learning rate: 0.001 - Loss: 1.6703722
Epoch: 1/15 - Batch: 6600/7933 - Learning rate: 0.001 - Loss: 1.9190452
Epoch: 1/15 - Batch: 6700/7933 - Learning rate: 0.001 - Loss: 1.5849495
Epoch: 1/15 - Batch: 6800/7933 - Learning rate: 0.001 - Loss: 1.4678463
Epoch: 1/15 - Batch: 6900/7933 - Learning rate: 0.001 - Loss: 1.1998696
Epoch: 1/15 - Batch: 7000/7933 - Learning rate: 0.001 - Loss: 2.2517402 - Dev BLEU: 0.054604858569813404
Epoch: 1/15 - Batch: 7100/7933 - Learning rate: 0.001 - Loss: 1.7517148
Epoch: 1/15 - Batch: 7200/7933 - Learning rate: 0.001 - Loss: 1.4080247
Epoch: 1/15 - Batch: 7300/7933 - Learning rate: 0.001 - Loss: 1.6458892
Epoch: 1/15 - Batch: 7400/7933 - Learning rate: 0.001 - Loss: 1.743842
Epoch: 1/15 - Batch: 7500/7933 - Learning rate: 0.001 - Loss: 1.2020077
Epoch: 1/15 - Batch: 7600/7933 - Learning rate: 0.001 - Loss: 2.0719922
Epoch: 1/15 - Batch: 7700/7933 - Learning rate: 0.001 - Loss: 2.363966
Epoch: 1/15 - Batch: 7800/7933 - Learning rate: 0.001 - Loss: 2.101873
Epoch: 1/15 - Batch: 7900/7933 - Learning rate: 0.001 - Loss: 1.8034852
Epoch: 1/15 - Batch: 7933/7933 - Learning rate: 0.001 - Loss: 2.3525975 - Dev BLEU: 0.05233566485835803
Epoch: 2/15 - Batch: 100/7933 - Learning rate: 0.001 - Loss: 1.1971172
Epoch: 2/15 - Batch: 200/7933 - Learning rate: 0.001 - Loss: 1.5472213
Epoch: 2/15 - Batch: 300/7933 - Learning rate: 0.001 - Loss: 0.8696236
Epoch: 2/15 - Batch: 400/7933 - Learning rate: 0.001 - Loss: 1.5543838
Epoch: 2/15 - Batch: 500/7933 - Learning rate: 0.001 - Loss: 1.4193176
Epoch: 2/15 - Batch: 600/7933 - Learning rate: 0.001 - Loss: 0.63281107
Epoch: 2/15 - Batch: 700/7933 - Learning rate: 0.001 - Loss: 1.2509925
Epoch: 2/15 - Batch: 800/7933 - Learning rate: 0.001 - Loss: 1.1334949
Epoch: 2/15 - Batch: 900/7933 - Learning rate: 0.001 - Loss: 0.71770144
Epoch: 2/15 - Batch: 1000/7933 - Learning rate: 0.001 - Loss: 1.270957 - Dev BLEU: 0.05255087833466207
Epoch: 2/15 - Batch: 1100/7933 - Learning rate: 0.001 - Loss: 1.0905071
Epoch: 2/15 - Batch: 1200/7933 - Learning rate: 0.001 - Loss: 1.4952543
Epoch: 2/15 - Batch: 1300/7933 - Learning rate: 0.001 - Loss: 1.3748422
Epoch: 2/15 - Batch: 1400/7933 - Learning rate: 0.001 - Loss: 1.4190803
Epoch: 2/15 - Batch: 1500/7933 - Learning rate: 0.001 - Loss: 0.97830266
Epoch: 2/15 - Batch: 1600/7933 - Learning rate: 0.001 - Loss: 1.8612832
Epoch: 2/15 - Batch: 1700/7933 - Learning rate: 0.001 - Loss: 1.3768908
Epoch: 2/15 - Batch: 1800/7933 - Learning rate: 0.001 - Loss: 0.85956067
Epoch: 2/15 - Batch: 1900/7933 - Learning rate: 0.001 - Loss: 1.1197039
Epoch: 2/15 - Batch: 2000/7933 - Learning rate: 0.001 - Loss: 1.2078817 - Dev BLEU: 0.05374635167445065
Epoch: 2/15 - Batch: 2100/7933 - Learning rate: 0.001 - Loss: 0.99987465
Epoch: 2/15 - Batch: 2200/7933 - Learning rate: 0.001 - Loss: 1.1111253
Epoch: 2/15 - Batch: 2300/7933 - Learning rate: 0.001 - Loss: 1.2919468
Epoch: 2/15 - Batch: 2400/7933 - Learning rate: 0.001 - Loss: 1.1020964
Epoch: 2/15 - Batch: 2500/7933 - Learning rate: 0.001 - Loss: 1.2193879
Epoch: 2/15 - Batch: 2600/7933 - Learning rate: 0.001 - Loss: 0.83436376
Epoch: 2/15 - Batch: 2700/7933 - Learning rate: 0.001 - Loss: 0.50669277
Epoch: 2/15 - Batch: 2800/7933 - Learning rate: 0.001 - Loss: 1.376963
Epoch: 2/15 - Batch: 2900/7933 - Learning rate: 0.001 - Loss: 1.3974222
Epoch: 2/15 - Batch: 3000/7933 - Learning rate: 0.001 - Loss: 1.3142091 - Dev BLEU: 0.05859360856630948
Epoch: 2/15 - Batch: 3100/7933 - Learning rate: 0.001 - Loss: 1.2074964
Epoch: 2/15 - Batch: 3200/7933 - Learning rate: 0.001 - Loss: 1.2041061
Epoch: 2/15 - Batch: 3300/7933 - Learning rate: 0.001 - Loss: 1.0186595
Epoch: 2/15 - Batch: 3400/7933 - Learning rate: 0.001 - Loss: 0.99897766
Epoch: 2/15 - Batch: 3500/7933 - Learning rate: 0.001 - Loss: 1.4328831
Epoch: 2/15 - Batch: 3600/7933 - Learning rate: 0.001 - Loss: 1.2795465
Epoch: 2/15 - Batch: 3700/7933 - Learning rate: 0.001 - Loss: 1.315493
Epoch: 2/15 - Batch: 3800/7933 - Learning rate: 0.001 - Loss: 1.2784575
Epoch: 2/15 - Batch: 3900/7933 - Learning rate: 0.001 - Loss: 1.3975058
Epoch: 2/15 - Batch: 4000/7933 - Learning rate: 0.001 - Loss: 0.80539846 - Dev BLEU: 0.06576968930250959
Epoch: 2/15 - Batch: 4100/7933 - Learning rate: 0.001 - Loss: 1.0322058
Epoch: 2/15 - Batch: 4200/7933 - Learning rate: 0.001 - Loss: 0.9456474
Epoch: 2/15 - Batch: 4300/7933 - Learning rate: 0.001 - Loss: 1.0650522
Epoch: 2/15 - Batch: 4400/7933 - Learning rate: 0.001 - Loss: 1.0198922
Epoch: 2/15 - Batch: 4500/7933 - Learning rate: 0.001 - Loss: 1.1464665
Epoch: 2/15 - Batch: 4600/7933 - Learning rate: 0.001 - Loss: 2.193229
Epoch: 2/15 - Batch: 4700/7933 - Learning rate: 0.001 - Loss: 1.715839
Epoch: 2/15 - Batch: 4800/7933 - Learning rate: 0.001 - Loss: 1.6911434
Epoch: 2/15 - Batch: 4900/7933 - Learning rate: 0.001 - Loss: 1.8216448
Epoch: 2/15 - Batch: 5000/7933 - Learning rate: 0.001 - Loss: 1.7515721 - Dev BLEU: 0.08959219440198715
Epoch: 2/15 - Batch: 5100/7933 - Learning rate: 0.001 - Loss: 1.6992735
Epoch: 2/15 - Batch: 5200/7933 - Learning rate: 0.001 - Loss: 1.6862204
Epoch: 2/15 - Batch: 5300/7933 - Learning rate: 0.001 - Loss: 1.667253
Epoch: 2/15 - Batch: 5400/7933 - Learning rate: 0.001 - Loss: 1.6368022
Epoch: 2/15 - Batch: 5500/7933 - Learning rate: 0.001 - Loss: 1.7631543
Epoch: 2/15 - Batch: 5600/7933 - Learning rate: 0.001 - Loss: 1.3968692
Epoch: 2/15 - Batch: 5700/7933 - Learning rate: 0.001 - Loss: 1.7115297
Epoch: 2/15 - Batch: 5800/7933 - Learning rate: 0.001 - Loss: 1.6529423
Epoch: 2/15 - Batch: 5900/7933 - Learning rate: 0.001 - Loss: 1.3409538
Epoch: 2/15 - Batch: 6000/7933 - Learning rate: 0.001 - Loss: 1.6861104 - Dev BLEU: 0.08469072057028575
Epoch: 2/15 - Batch: 6100/7933 - Learning rate: 0.001 - Loss: 1.8025614
Epoch: 2/15 - Batch: 6200/7933 - Learning rate: 0.001 - Loss: 1.4650613
Epoch: 2/15 - Batch: 6300/7933 - Learning rate: 0.001 - Loss: 1.4890982
Epoch: 2/15 - Batch: 6400/7933 - Learning rate: 0.001 - Loss: 1.2096901
Epoch: 2/15 - Batch: 6500/7933 - Learning rate: 0.001 - Loss: 1.2821561
Epoch: 2/15 - Batch: 6600/7933 - Learning rate: 0.001 - Loss: 1.4272449
Epoch: 2/15 - Batch: 6700/7933 - Learning rate: 0.001 - Loss: 1.2225459
Epoch: 2/15 - Batch: 6800/7933 - Learning rate: 0.001 - Loss: 1.1425147
Epoch: 2/15 - Batch: 6900/7933 - Learning rate: 0.001 - Loss: 0.881921
Epoch: 2/15 - Batch: 7000/7933 - Learning rate: 0.001 - Loss: 1.7625059 - Dev BLEU: 0.11522596199029908
Epoch: 2/15 - Batch: 7100/7933 - Learning rate: 0.001 - Loss: 1.349289
Epoch: 2/15 - Batch: 7200/7933 - Learning rate: 0.001 - Loss: 1.0788329
Epoch: 2/15 - Batch: 7300/7933 - Learning rate: 0.001 - Loss: 1.2790728
Epoch: 2/15 - Batch: 7400/7933 - Learning rate: 0.001 - Loss: 1.3867875
Epoch: 2/15 - Batch: 7500/7933 - Learning rate: 0.001 - Loss: 0.97467935
Epoch: 2/15 - Batch: 7600/7933 - Learning rate: 0.001 - Loss: 1.7634219
Epoch: 2/15 - Batch: 7700/7933 - Learning rate: 0.001 - Loss: 1.9174811
Epoch: 2/15 - Batch: 7800/7933 - Learning rate: 0.001 - Loss: 1.8036902
Epoch: 2/15 - Batch: 7900/7933 - Learning rate: 0.001 - Loss: 1.5069212
Epoch: 2/15 - Batch: 7933/7933 - Learning rate: 0.001 - Loss: 1.9722582 - Dev BLEU: 0.10196846354832015
Epoch: 3/15 - Batch: 100/7933 - Learning rate: 0.001 - Loss: 1.0085146
Epoch: 3/15 - Batch: 200/7933 - Learning rate: 0.001 - Loss: 1.2024322
Epoch: 3/15 - Batch: 300/7933 - Learning rate: 0.001 - Loss: 0.7376895
Epoch: 3/15 - Batch: 400/7933 - Learning rate: 0.001 - Loss: 1.2617793
Epoch: 3/15 - Batch: 500/7933 - Learning rate: 0.001 - Loss: 1.1071277
Epoch: 3/15 - Batch: 600/7933 - Learning rate: 0.001 - Loss: 0.5360207
Epoch: 3/15 - Batch: 700/7933 - Learning rate: 0.001 - Loss: 0.99206233
Epoch: 3/15 - Batch: 800/7933 - Learning rate: 0.001 - Loss: 0.93744546
Epoch: 3/15 - Batch: 900/7933 - Learning rate: 0.001 - Loss: 0.58309376
Epoch: 3/15 - Batch: 1000/7933 - Learning rate: 0.001 - Loss: 1.028928 - Dev BLEU: 0.09379916530582363
Epoch: 3/15 - Batch: 1100/7933 - Learning rate: 0.001 - Loss: 0.89264107
Epoch: 3/15 - Batch: 1200/7933 - Learning rate: 0.001 - Loss: 1.2613257
Epoch: 3/15 - Batch: 1300/7933 - Learning rate: 0.001 - Loss: 1.1572107
Epoch: 3/15 - Batch: 1400/7933 - Learning rate: 0.001 - Loss: 1.1705931
Epoch: 3/15 - Batch: 1500/7933 - Learning rate: 0.001 - Loss: 0.82965213
Epoch: 3/15 - Batch: 1600/7933 - Learning rate: 0.001 - Loss: 1.5801659
Epoch: 3/15 - Batch: 1700/7933 - Learning rate: 0.001 - Loss: 1.1724242
Epoch: 3/15 - Batch: 1800/7933 - Learning rate: 0.001 - Loss: 0.69202274
Epoch: 3/15 - Batch: 1900/7933 - Learning rate: 0.001 - Loss: 0.962389
Epoch: 3/15 - Batch: 2000/7933 - Learning rate: 0.001 - Loss: 1.0028056 - Dev BLEU: 0.08868576269298233
Epoch: 3/15 - Batch: 2100/7933 - Learning rate: 0.001 - Loss: 0.86194295
Epoch: 3/15 - Batch: 2200/7933 - Learning rate: 0.001 - Loss: 0.9041454
Epoch: 3/15 - Batch: 2300/7933 - Learning rate: 0.001 - Loss: 1.0800748
Epoch: 3/15 - Batch: 2400/7933 - Learning rate: 0.001 - Loss: 0.9443698
Epoch: 3/15 - Batch: 2500/7933 - Learning rate: 0.001 - Loss: 0.9809107
Epoch: 3/15 - Batch: 2600/7933 - Learning rate: 0.001 - Loss: 0.7034436
Epoch: 3/15 - Batch: 2700/7933 - Learning rate: 0.001 - Loss: 0.41479746
Epoch: 3/15 - Batch: 2800/7933 - Learning rate: 0.001 - Loss: 1.164931
Epoch: 3/15 - Batch: 2900/7933 - Learning rate: 0.001 - Loss: 1.2162731
Epoch: 3/15 - Batch: 3000/7933 - Learning rate: 0.001 - Loss: 1.1551371 - Dev BLEU: 0.09220651591870387
Epoch: 3/15 - Batch: 3100/7933 - Learning rate: 0.001 - Loss: 1.0799764
Epoch: 3/15 - Batch: 3200/7933 - Learning rate: 0.001 - Loss: 1.0571727
Epoch: 3/15 - Batch: 3300/7933 - Learning rate: 0.001 - Loss: 0.8629884
Epoch: 3/15 - Batch: 3400/7933 - Learning rate: 0.001 - Loss: 0.86146677
Epoch: 3/15 - Batch: 3500/7933 - Learning rate: 0.001 - Loss: 1.2032808
Epoch: 3/15 - Batch: 3600/7933 - Learning rate: 0.001 - Loss: 1.1125445
Epoch: 3/15 - Batch: 3700/7933 - Learning rate: 0.001 - Loss: 1.1440076
Epoch: 3/15 - Batch: 3800/7933 - Learning rate: 0.001 - Loss: 1.0719486
Epoch: 3/15 - Batch: 3900/7933 - Learning rate: 0.001 - Loss: 1.1977838
Epoch: 3/15 - Batch: 4000/7933 - Learning rate: 0.001 - Loss: 0.6988402 - Dev BLEU: 0.0918982663837635
Epoch: 3/15 - Batch: 4100/7933 - Learning rate: 0.001 - Loss: 0.9049279
Epoch: 3/15 - Batch: 4200/7933 - Learning rate: 0.001 - Loss: 0.826935
Epoch: 3/15 - Batch: 4300/7933 - Learning rate: 0.001 - Loss: 0.93239295
Epoch: 3/15 - Batch: 4400/7933 - Learning rate: 0.001 - Loss: 0.8542543
Epoch: 3/15 - Batch: 4500/7933 - Learning rate: 0.001 - Loss: 1.0174209
Epoch: 3/15 - Batch: 4600/7933 - Learning rate: 0.001 - Loss: 1.8938198
Epoch: 3/15 - Batch: 4700/7933 - Learning rate: 0.001 - Loss: 1.4677849
Epoch: 3/15 - Batch: 4800/7933 - Learning rate: 0.001 - Loss: 1.4192245
Epoch: 3/15 - Batch: 4900/7933 - Learning rate: 0.001 - Loss: 1.5731231
Epoch: 3/15 - Batch: 5000/7933 - Learning rate: 0.001 - Loss: 1.5056489 - Dev BLEU: 0.12115454243696004
Epoch: 3/15 - Batch: 5100/7933 - Learning rate: 0.001 - Loss: 1.4930037
Epoch: 3/15 - Batch: 5200/7933 - Learning rate: 0.001 - Loss: 1.4432974
Epoch: 3/15 - Batch: 5300/7933 - Learning rate: 0.001 - Loss: 1.4513142
Epoch: 3/15 - Batch: 5400/7933 - Learning rate: 0.001 - Loss: 1.4327707
Epoch: 3/15 - Batch: 5500/7933 - Learning rate: 0.001 - Loss: 1.4785916
Epoch: 3/15 - Batch: 5600/7933 - Learning rate: 0.001 - Loss: 1.2139577
Epoch: 3/15 - Batch: 5700/7933 - Learning rate: 0.001 - Loss: 1.4676571
Epoch: 3/15 - Batch: 5800/7933 - Learning rate: 0.001 - Loss: 1.4210802
Epoch: 3/15 - Batch: 5900/7933 - Learning rate: 0.001 - Loss: 1.1211249
Epoch: 3/15 - Batch: 6000/7933 - Learning rate: 0.001 - Loss: 1.4570136 - Dev BLEU: 0.11169681106041464
Epoch: 3/15 - Batch: 6100/7933 - Learning rate: 0.001 - Loss: 1.554738
Epoch: 3/15 - Batch: 6200/7933 - Learning rate: 0.001 - Loss: 1.2781667
Epoch: 3/15 - Batch: 6300/7933 - Learning rate: 0.001 - Loss: 1.2507557
Epoch: 3/15 - Batch: 6400/7933 - Learning rate: 0.001 - Loss: 1.0446758
Epoch: 3/15 - Batch: 6500/7933 - Learning rate: 0.001 - Loss: 1.134055
Epoch: 3/15 - Batch: 6600/7933 - Learning rate: 0.001 - Loss: 1.2399461
Epoch: 3/15 - Batch: 6700/7933 - Learning rate: 0.001 - Loss: 1.0830106
Epoch: 3/15 - Batch: 6800/7933 - Learning rate: 0.001 - Loss: 1.0285232
Epoch: 3/15 - Batch: 6900/7933 - Learning rate: 0.001 - Loss: 0.7674784
Epoch: 3/15 - Batch: 7000/7933 - Learning rate: 0.001 - Loss: 1.5549611 - Dev BLEU: 0.15131528268791586
Epoch: 3/15 - Batch: 7100/7933 - Learning rate: 0.001 - Loss: 1.1809444
Epoch: 3/15 - Batch: 7200/7933 - Learning rate: 0.001 - Loss: 0.94218546
Epoch: 3/15 - Batch: 7300/7933 - Learning rate: 0.001 - Loss: 1.1335645
Epoch: 3/15 - Batch: 7400/7933 - Learning rate: 0.001 - Loss: 1.2498161
Epoch: 3/15 - Batch: 7500/7933 - Learning rate: 0.001 - Loss: 0.87404966
Epoch: 3/15 - Batch: 7600/7933 - Learning rate: 0.001 - Loss: 1.6030583
Epoch: 3/15 - Batch: 7700/7933 - Learning rate: 0.001 - Loss: 1.7387822
Epoch: 3/15 - Batch: 7800/7933 - Learning rate: 0.001 - Loss: 1.610608
Epoch: 3/15 - Batch: 7900/7933 - Learning rate: 0.001 - Loss: 1.3510156
Epoch: 3/15 - Batch: 7933/7933 - Learning rate: 0.001 - Loss: 1.7695438 - Dev BLEU: 0.13027815219393343
Epoch: 4/15 - Batch: 100/7933 - Learning rate: 0.001 - Loss: 0.94149405
Epoch: 4/15 - Batch: 200/7933 - Learning rate: 0.001 - Loss: 1.079585
Epoch: 4/15 - Batch: 300/7933 - Learning rate: 0.001 - Loss: 0.672956
Epoch: 4/15 - Batch: 400/7933 - Learning rate: 0.001 - Loss: 1.118354
Epoch: 4/15 - Batch: 500/7933 - Learning rate: 0.001 - Loss: 0.96255106
Epoch: 4/15 - Batch: 600/7933 - Learning rate: 0.001 - Loss: 0.49381158
Epoch: 4/15 - Batch: 700/7933 - Learning rate: 0.001 - Loss: 0.8676099
Epoch: 4/15 - Batch: 800/7933 - Learning rate: 0.001 - Loss: 0.8407258
Epoch: 4/15 - Batch: 900/7933 - Learning rate: 0.001 - Loss: 0.52974224
Epoch: 4/15 - Batch: 1000/7933 - Learning rate: 0.001 - Loss: 0.9460893 - Dev BLEU: 0.11792334120038243
Epoch: 4/15 - Batch: 1100/7933 - Learning rate: 0.001 - Loss: 0.80529946
Epoch: 4/15 - Batch: 1200/7933 - Learning rate: 0.001 - Loss: 1.1283245
Epoch: 4/15 - Batch: 1300/7933 - Learning rate: 0.001 - Loss: 1.0446692
Epoch: 4/15 - Batch: 1400/7933 - Learning rate: 0.001 - Loss: 1.0466636
Epoch: 4/15 - Batch: 1500/7933 - Learning rate: 0.001 - Loss: 0.7308283
Epoch: 4/15 - Batch: 1600/7933 - Learning rate: 0.001 - Loss: 1.431346
Epoch: 4/15 - Batch: 1700/7933 - Learning rate: 0.001 - Loss: 1.074921
Epoch: 4/15 - Batch: 1800/7933 - Learning rate: 0.001 - Loss: 0.6289183
Epoch: 4/15 - Batch: 1900/7933 - Learning rate: 0.001 - Loss: 0.8686178
Epoch: 4/15 - Batch: 2000/7933 - Learning rate: 0.001 - Loss: 0.92365104 - Dev BLEU: 0.10774001604913343
Epoch: 4/15 - Batch: 2100/7933 - Learning rate: 0.001 - Loss: 0.7750373
Epoch: 4/15 - Batch: 2200/7933 - Learning rate: 0.001 - Loss: 0.7946325
Epoch: 4/15 - Batch: 2300/7933 - Learning rate: 0.001 - Loss: 0.98011446
Epoch: 4/15 - Batch: 2400/7933 - Learning rate: 0.001 - Loss: 0.842447
Epoch: 4/15 - Batch: 2500/7933 - Learning rate: 0.001 - Loss: 0.8506111
Epoch: 4/15 - Batch: 2600/7933 - Learning rate: 0.001 - Loss: 0.6226781
Epoch: 4/15 - Batch: 2700/7933 - Learning rate: 0.001 - Loss: 0.37392405
Epoch: 4/15 - Batch: 2800/7933 - Learning rate: 0.001 - Loss: 1.0363015
Epoch: 4/15 - Batch: 2900/7933 - Learning rate: 0.001 - Loss: 1.1234283
Epoch: 4/15 - Batch: 3000/7933 - Learning rate: 0.001 - Loss: 1.0607686 - Dev BLEU: 0.11370259937590953
Epoch: 4/15 - Batch: 3100/7933 - Learning rate: 0.001 - Loss: 1.0003506
Epoch: 4/15 - Batch: 3200/7933 - Learning rate: 0.001 - Loss: 0.9667287
Epoch: 4/15 - Batch: 3300/7933 - Learning rate: 0.001 - Loss: 0.76137984
Epoch: 4/15 - Batch: 3400/7933 - Learning rate: 0.001 - Loss: 0.76810175
Epoch: 4/15 - Batch: 3500/7933 - Learning rate: 0.001 - Loss: 1.089745
Epoch: 4/15 - Batch: 3600/7933 - Learning rate: 0.001 - Loss: 1.0367789
Epoch: 4/15 - Batch: 3700/7933 - Learning rate: 0.001 - Loss: 1.0401833
Epoch: 4/15 - Batch: 3800/7933 - Learning rate: 0.001 - Loss: 0.9718789
Epoch: 4/15 - Batch: 3900/7933 - Learning rate: 0.001 - Loss: 1.1036742
Epoch: 4/15 - Batch: 4000/7933 - Learning rate: 0.001 - Loss: 0.6461382 - Dev BLEU: 0.1202579287740935
Epoch: 4/15 - Batch: 4100/7933 - Learning rate: 0.001 - Loss: 0.8387927
Epoch: 4/15 - Batch: 4200/7933 - Learning rate: 0.001 - Loss: 0.75383854
Epoch: 4/15 - Batch: 4300/7933 - Learning rate: 0.001 - Loss: 0.8380195
Epoch: 4/15 - Batch: 4400/7933 - Learning rate: 0.001 - Loss: 0.784064
Epoch: 4/15 - Batch: 4500/7933 - Learning rate: 0.001 - Loss: 0.9252855
Epoch: 4/15 - Batch: 4600/7933 - Learning rate: 0.001 - Loss: 1.7322952
Epoch: 4/15 - Batch: 4700/7933 - Learning rate: 0.001 - Loss: 1.2914115
Epoch: 4/15 - Batch: 4800/7933 - Learning rate: 0.001 - Loss: 1.2457781
Epoch: 4/15 - Batch: 4900/7933 - Learning rate: 0.001 - Loss: 1.4124167
Epoch: 4/15 - Batch: 5000/7933 - Learning rate: 0.001 - Loss: 1.3705852 - Dev BLEU: 0.14510087253340587
Epoch: 4/15 - Batch: 5100/7933 - Learning rate: 0.001 - Loss: 1.4120545
Epoch: 4/15 - Batch: 5200/7933 - Learning rate: 0.001 - Loss: 1.345585
Epoch: 4/15 - Batch: 5300/7933 - Learning rate: 0.001 - Loss: 1.3474588
Epoch: 4/15 - Batch: 5400/7933 - Learning rate: 0.001 - Loss: 1.2863187
Epoch: 4/15 - Batch: 5500/7933 - Learning rate: 0.001 - Loss: 1.3513374
Epoch: 4/15 - Batch: 5600/7933 - Learning rate: 0.001 - Loss: 1.1092811
Epoch: 4/15 - Batch: 5700/7933 - Learning rate: 0.001 - Loss: 1.3409851
Epoch: 4/15 - Batch: 5800/7933 - Learning rate: 0.001 - Loss: 1.294551
Epoch: 4/15 - Batch: 5900/7933 - Learning rate: 0.001 - Loss: 1.0087037
Epoch: 4/15 - Batch: 6000/7933 - Learning rate: 0.001 - Loss: 1.3468915 - Dev BLEU: 0.1409528486132732
Epoch: 4/15 - Batch: 6100/7933 - Learning rate: 0.001 - Loss: 1.3826979
Epoch: 4/15 - Batch: 6200/7933 - Learning rate: 0.001 - Loss: 1.1643405
Epoch: 4/15 - Batch: 6300/7933 - Learning rate: 0.001 - Loss: 1.1182756
Epoch: 4/15 - Batch: 6400/7933 - Learning rate: 0.001 - Loss: 0.9515997
Epoch: 4/15 - Batch: 6500/7933 - Learning rate: 0.001 - Loss: 1.0366939
Epoch: 4/15 - Batch: 6600/7933 - Learning rate: 0.001 - Loss: 1.126384
Epoch: 4/15 - Batch: 6700/7933 - Learning rate: 0.001 - Loss: 0.9953739
Epoch: 4/15 - Batch: 6800/7933 - Learning rate: 0.001 - Loss: 0.9561027
Epoch: 4/15 - Batch: 6900/7933 - Learning rate: 0.001 - Loss: 0.702317
Epoch: 4/15 - Batch: 7000/7933 - Learning rate: 0.001 - Loss: 1.4390947 - Dev BLEU: 0.17368803879945616
Epoch: 4/15 - Batch: 7100/7933 - Learning rate: 0.001 - Loss: 1.0842452
Epoch: 4/15 - Batch: 7200/7933 - Learning rate: 0.001 - Loss: 0.8833634
Epoch: 4/15 - Batch: 7300/7933 - Learning rate: 0.001 - Loss: 1.0549198
Epoch: 4/15 - Batch: 7400/7933 - Learning rate: 0.001 - Loss: 1.1495615
Epoch: 4/15 - Batch: 7500/7933 - Learning rate: 0.001 - Loss: 0.8234544
Epoch: 4/15 - Batch: 7600/7933 - Learning rate: 0.001 - Loss: 1.493755
Epoch: 4/15 - Batch: 7700/7933 - Learning rate: 0.001 - Loss: 1.6051077
Epoch: 4/15 - Batch: 7800/7933 - Learning rate: 0.001 - Loss: 1.5040061
Epoch: 4/15 - Batch: 7900/7933 - Learning rate: 0.001 - Loss: 1.2505139
Epoch: 4/15 - Batch: 7933/7933 - Learning rate: 0.001 - Loss: 1.625571 - Dev BLEU: 0.14952345070124606
Epoch: 5/15 - Batch: 100/7933 - Learning rate: 0.001 - Loss: 0.90266365
Epoch: 5/15 - Batch: 200/7933 - Learning rate: 0.001 - Loss: 0.97820675
Epoch: 5/15 - Batch: 300/7933 - Learning rate: 0.001 - Loss: 0.62726915
Epoch: 5/15 - Batch: 400/7933 - Learning rate: 0.001 - Loss: 1.0316632
Epoch: 5/15 - Batch: 500/7933 - Learning rate: 0.001 - Loss: 0.85266143
Epoch: 5/15 - Batch: 600/7933 - Learning rate: 0.001 - Loss: 0.46162015
Epoch: 5/15 - Batch: 700/7933 - Learning rate: 0.001 - Loss: 0.7982367
Epoch: 5/15 - Batch: 800/7933 - Learning rate: 0.001 - Loss: 0.7919551
Epoch: 5/15 - Batch: 900/7933 - Learning rate: 0.001 - Loss: 0.49381775
Epoch: 5/15 - Batch: 1000/7933 - Learning rate: 0.001 - Loss: 0.8602866 - Dev BLEU: 0.1348872280857284
Epoch: 5/15 - Batch: 1100/7933 - Learning rate: 0.001 - Loss: 0.7463939
Epoch: 5/15 - Batch: 1200/7933 - Learning rate: 0.001 - Loss: 1.0587988
Epoch: 5/15 - Batch: 1300/7933 - Learning rate: 0.001 - Loss: 0.95554847
Epoch: 5/15 - Batch: 1400/7933 - Learning rate: 0.001 - Loss: 0.97471833
Epoch: 5/15 - Batch: 1500/7933 - Learning rate: 0.001 - Loss: 0.6798925
Epoch: 5/15 - Batch: 1600/7933 - Learning rate: 0.001 - Loss: 1.3454404
Epoch: 5/15 - Batch: 1700/7933 - Learning rate: 0.001 - Loss: 0.9921948
Epoch: 5/15 - Batch: 1800/7933 - Learning rate: 0.001 - Loss: 0.5654367
Epoch: 5/15 - Batch: 1900/7933 - Learning rate: 0.001 - Loss: 0.79884535
Epoch: 5/15 - Batch: 2000/7933 - Learning rate: 0.001 - Loss: 0.8554141 - Dev BLEU: 0.12347034554448662
Epoch: 5/15 - Batch: 2100/7933 - Learning rate: 0.001 - Loss: 0.7290107
Epoch: 5/15 - Batch: 2200/7933 - Learning rate: 0.001 - Loss: 0.7285358
Epoch: 5/15 - Batch: 2300/7933 - Learning rate: 0.001 - Loss: 0.9158012
Epoch: 5/15 - Batch: 2400/7933 - Learning rate: 0.001 - Loss: 0.7875964
Epoch: 5/15 - Batch: 2500/7933 - Learning rate: 0.001 - Loss: 0.7814731
Epoch: 5/15 - Batch: 2600/7933 - Learning rate: 0.001 - Loss: 0.57888055
Epoch: 5/15 - Batch: 2700/7933 - Learning rate: 0.001 - Loss: 0.34796065
Epoch: 5/15 - Batch: 2800/7933 - Learning rate: 0.001 - Loss: 0.93915516
Epoch: 5/15 - Batch: 2900/7933 - Learning rate: 0.001 - Loss: 1.0473464
Epoch: 5/15 - Batch: 3000/7933 - Learning rate: 0.001 - Loss: 0.9837364 - Dev BLEU: 0.12669930144139616
Epoch: 5/15 - Batch: 3100/7933 - Learning rate: 0.001 - Loss: 0.9438848
Epoch: 5/15 - Batch: 3200/7933 - Learning rate: 0.001 - Loss: 0.90504324
Epoch: 5/15 - Batch: 3300/7933 - Learning rate: 0.001 - Loss: 0.71461535
Epoch: 5/15 - Batch: 3400/7933 - Learning rate: 0.001 - Loss: 0.7109972
Epoch: 5/15 - Batch: 3500/7933 - Learning rate: 0.001 - Loss: 1.0057962
Epoch: 5/15 - Batch: 3600/7933 - Learning rate: 0.001 - Loss: 0.96827114
Epoch: 5/15 - Batch: 3700/7933 - Learning rate: 0.001 - Loss: 0.9625891
Epoch: 5/15 - Batch: 3800/7933 - Learning rate: 0.001 - Loss: 0.9025889
Epoch: 5/15 - Batch: 3900/7933 - Learning rate: 0.001 - Loss: 1.039513
Epoch: 5/15 - Batch: 4000/7933 - Learning rate: 0.001 - Loss: 0.59647334 - Dev BLEU: 0.13512787814560004
Epoch: 5/15 - Batch: 4100/7933 - Learning rate: 0.001 - Loss: 0.7891877
Epoch: 5/15 - Batch: 4200/7933 - Learning rate: 0.001 - Loss: 0.72184235
Epoch: 5/15 - Batch: 4300/7933 - Learning rate: 0.001 - Loss: 0.80361557
Epoch: 5/15 - Batch: 4400/7933 - Learning rate: 0.001 - Loss: 0.7360253
Epoch: 5/15 - Batch: 4500/7933 - Learning rate: 0.001 - Loss: 0.8727677
Epoch: 5/15 - Batch: 4600/7933 - Learning rate: 0.001 - Loss: 1.5707605
Epoch: 5/15 - Batch: 4700/7933 - Learning rate: 0.001 - Loss: 1.1702435
Epoch: 5/15 - Batch: 4800/7933 - Learning rate: 0.001 - Loss: 1.1585048
Epoch: 5/15 - Batch: 4900/7933 - Learning rate: 0.001 - Loss: 1.3119856
Epoch: 5/15 - Batch: 5000/7933 - Learning rate: 0.001 - Loss: 1.2823516 - Dev BLEU: 0.1601700260142166
Epoch: 5/15 - Batch: 5100/7933 - Learning rate: 0.001 - Loss: 1.3292202
Epoch: 5/15 - Batch: 5200/7933 - Learning rate: 0.001 - Loss: 1.2745223
Epoch: 5/15 - Batch: 5300/7933 - Learning rate: 0.001 - Loss: 1.2475452
Epoch: 5/15 - Batch: 5400/7933 - Learning rate: 0.001 - Loss: 1.2177256
Epoch: 5/15 - Batch: 5500/7933 - Learning rate: 0.001 - Loss: 1.271528
Epoch: 5/15 - Batch: 5600/7933 - Learning rate: 0.001 - Loss: 1.038455
Epoch: 5/15 - Batch: 5700/7933 - Learning rate: 0.001 - Loss: 1.2417198
Epoch: 5/15 - Batch: 5800/7933 - Learning rate: 0.001 - Loss: 1.2061459
Epoch: 5/15 - Batch: 5900/7933 - Learning rate: 0.001 - Loss: 0.9108312
Epoch: 5/15 - Batch: 6000/7933 - Learning rate: 0.001 - Loss: 1.2357613 - Dev BLEU: 0.15087739963411673
Epoch: 5/15 - Batch: 6100/7933 - Learning rate: 0.001 - Loss: 1.2633728
Epoch: 5/15 - Batch: 6200/7933 - Learning rate: 0.001 - Loss: 1.0628341
Epoch: 5/15 - Batch: 6300/7933 - Learning rate: 0.001 - Loss: 1.0297202
Epoch: 5/15 - Batch: 6400/7933 - Learning rate: 0.001 - Loss: 0.89528966
Epoch: 5/15 - Batch: 6500/7933 - Learning rate: 0.001 - Loss: 0.99642503
Epoch: 5/15 - Batch: 6600/7933 - Learning rate: 0.001 - Loss: 1.0279385
Epoch: 5/15 - Batch: 6700/7933 - Learning rate: 0.001 - Loss: 0.93453425
Epoch: 5/15 - Batch: 6800/7933 - Learning rate: 0.001 - Loss: 0.9056349
Epoch: 5/15 - Batch: 6900/7933 - Learning rate: 0.001 - Loss: 0.65810513
Epoch: 5/15 - Batch: 7000/7933 - Learning rate: 0.001 - Loss: 1.3579478 - Dev BLEU: 0.18863222622816278
Epoch: 5/15 - Batch: 7100/7933 - Learning rate: 0.001 - Loss: 1.0351505
Epoch: 5/15 - Batch: 7200/7933 - Learning rate: 0.001 - Loss: 0.82873666
Epoch: 5/15 - Batch: 7300/7933 - Learning rate: 0.001 - Loss: 0.9977629
Epoch: 5/15 - Batch: 7400/7933 - Learning rate: 0.001 - Loss: 1.0951973
Epoch: 5/15 - Batch: 7500/7933 - Learning rate: 0.001 - Loss: 0.7736594
Epoch: 5/15 - Batch: 7600/7933 - Learning rate: 0.001 - Loss: 1.3993844
Epoch: 5/15 - Batch: 7700/7933 - Learning rate: 0.001 - Loss: 1.5039339
Epoch: 5/15 - Batch: 7800/7933 - Learning rate: 0.001 - Loss: 1.422566
Epoch: 5/15 - Batch: 7900/7933 - Learning rate: 0.001 - Loss: 1.1762707
Epoch: 5/15 - Batch: 7933/7933 - Learning rate: 0.001 - Loss: 1.5122869 - Dev BLEU: 0.16103800945825064
Epoch: 6/15 - Batch: 100/7933 - Learning rate: 0.001 - Loss: 0.86918515
Epoch: 6/15 - Batch: 200/7933 - Learning rate: 0.001 - Loss: 0.9195816
Epoch: 6/15 - Batch: 300/7933 - Learning rate: 0.001 - Loss: 0.59479487
Epoch: 6/15 - Batch: 400/7933 - Learning rate: 0.001 - Loss: 0.98079425
Epoch: 6/15 - Batch: 500/7933 - Learning rate: 0.001 - Loss: 0.77919304
Epoch: 6/15 - Batch: 600/7933 - Learning rate: 0.001 - Loss: 0.44092366
Epoch: 6/15 - Batch: 700/7933 - Learning rate: 0.001 - Loss: 0.76260316
Epoch: 6/15 - Batch: 800/7933 - Learning rate: 0.001 - Loss: 0.7456794
Epoch: 6/15 - Batch: 900/7933 - Learning rate: 0.001 - Loss: 0.471633
Epoch: 6/15 - Batch: 1000/7933 - Learning rate: 0.001 - Loss: 0.8146209 - Dev BLEU: 0.1452743052642232
Epoch: 6/15 - Batch: 1100/7933 - Learning rate: 0.001 - Loss: 0.7079921
Epoch: 6/15 - Batch: 1200/7933 - Learning rate: 0.001 - Loss: 0.9948327
Epoch: 6/15 - Batch: 1300/7933 - Learning rate: 0.001 - Loss: 0.9187947
Epoch: 6/15 - Batch: 1400/7933 - Learning rate: 0.001 - Loss: 0.9220933
Epoch: 6/15 - Batch: 1500/7933 - Learning rate: 0.001 - Loss: 0.6503481
Epoch: 6/15 - Batch: 1600/7933 - Learning rate: 0.001 - Loss: 1.2683423
Epoch: 6/15 - Batch: 1700/7933 - Learning rate: 0.001 - Loss: 0.95396143
Epoch: 6/15 - Batch: 1800/7933 - Learning rate: 0.001 - Loss: 0.537437
Epoch: 6/15 - Batch: 1900/7933 - Learning rate: 0.001 - Loss: 0.759406
Epoch: 6/15 - Batch: 2000/7933 - Learning rate: 0.001 - Loss: 0.8263631 - Dev BLEU: 0.13480243557617724
Epoch: 6/15 - Batch: 2100/7933 - Learning rate: 0.001 - Loss: 0.6892166
Epoch: 6/15 - Batch: 2200/7933 - Learning rate: 0.001 - Loss: 0.6851412
Epoch: 6/15 - Batch: 2300/7933 - Learning rate: 0.001 - Loss: 0.85676515
Epoch: 6/15 - Batch: 2400/7933 - Learning rate: 0.001 - Loss: 0.74641126
Epoch: 6/15 - Batch: 2500/7933 - Learning rate: 0.001 - Loss: 0.7239009
Epoch: 6/15 - Batch: 2600/7933 - Learning rate: 0.001 - Loss: 0.54666996
Epoch: 6/15 - Batch: 2700/7933 - Learning rate: 0.001 - Loss: 0.33072838
Epoch: 6/15 - Batch: 2800/7933 - Learning rate: 0.001 - Loss: 0.88445926
Epoch: 6/15 - Batch: 2900/7933 - Learning rate: 0.001 - Loss: 1.0015203
Epoch: 6/15 - Batch: 3000/7933 - Learning rate: 0.001 - Loss: 0.92408776 - Dev BLEU: 0.1383364334182937
Epoch: 6/15 - Batch: 3100/7933 - Learning rate: 0.001 - Loss: 0.9077344
Epoch: 6/15 - Batch: 3200/7933 - Learning rate: 0.001 - Loss: 0.86262476
Epoch: 6/15 - Batch: 3300/7933 - Learning rate: 0.001 - Loss: 0.6827785
Epoch: 6/15 - Batch: 3400/7933 - Learning rate: 0.001 - Loss: 0.68309534
Epoch: 6/15 - Batch: 3500/7933 - Learning rate: 0.001 - Loss: 0.9697258
Epoch: 6/15 - Batch: 3600/7933 - Learning rate: 0.001 - Loss: 0.9166666
Epoch: 6/15 - Batch: 3700/7933 - Learning rate: 0.001 - Loss: 0.9118134
Epoch: 6/15 - Batch: 3800/7933 - Learning rate: 0.001 - Loss: 0.8565392
Epoch: 6/15 - Batch: 3900/7933 - Learning rate: 0.001 - Loss: 0.99136376
Epoch: 6/15 - Batch: 4000/7933 - Learning rate: 0.001 - Loss: 0.57021725 - Dev BLEU: 0.14752323755349814
Epoch: 6/15 - Batch: 4100/7933 - Learning rate: 0.001 - Loss: 0.7428421
Epoch: 6/15 - Batch: 4200/7933 - Learning rate: 0.001 - Loss: 0.68105406
Epoch: 6/15 - Batch: 4300/7933 - Learning rate: 0.001 - Loss: 0.76672935
Epoch: 6/15 - Batch: 4400/7933 - Learning rate: 0.001 - Loss: 0.7060375
Epoch: 6/15 - Batch: 4500/7933 - Learning rate: 0.001 - Loss: 0.8385714
Epoch: 6/15 - Batch: 4600/7933 - Learning rate: 0.001 - Loss: 1.4907542
Epoch: 6/15 - Batch: 4700/7933 - Learning rate: 0.001 - Loss: 1.0810623
Epoch: 6/15 - Batch: 4800/7933 - Learning rate: 0.001 - Loss: 1.0919342
Epoch: 6/15 - Batch: 4900/7933 - Learning rate: 0.001 - Loss: 1.2400163
Epoch: 6/15 - Batch: 5000/7933 - Learning rate: 0.001 - Loss: 1.2404503 - Dev BLEU: 0.17295848997489882
Epoch: 6/15 - Batch: 5100/7933 - Learning rate: 0.001 - Loss: 1.2779511
Epoch: 6/15 - Batch: 5200/7933 - Learning rate: 0.001 - Loss: 1.2384969
Epoch: 6/15 - Batch: 5300/7933 - Learning rate: 0.001 - Loss: 1.2172178
Epoch: 6/15 - Batch: 5400/7933 - Learning rate: 0.001 - Loss: 1.1535553
Epoch: 6/15 - Batch: 5500/7933 - Learning rate: 0.001 - Loss: 1.206335
Epoch: 6/15 - Batch: 5600/7933 - Learning rate: 0.001 - Loss: 0.9715661
Epoch: 6/15 - Batch: 5700/7933 - Learning rate: 0.001 - Loss: 1.1816759
Epoch: 6/15 - Batch: 5800/7933 - Learning rate: 0.001 - Loss: 1.1348602
Epoch: 6/15 - Batch: 5900/7933 - Learning rate: 0.001 - Loss: 0.82316613
Epoch: 6/15 - Batch: 6000/7933 - Learning rate: 0.001 - Loss: 1.1691025 - Dev BLEU: 0.16217455024326716
Epoch: 6/15 - Batch: 6100/7933 - Learning rate: 0.001 - Loss: 1.1834818
Epoch: 6/15 - Batch: 6200/7933 - Learning rate: 0.001 - Loss: 1.0173305
Epoch: 6/15 - Batch: 6300/7933 - Learning rate: 0.001 - Loss: 0.98783666
Epoch: 6/15 - Batch: 6400/7933 - Learning rate: 0.001 - Loss: 0.8592188
Epoch: 6/15 - Batch: 6500/7933 - Learning rate: 0.001 - Loss: 0.947932
Epoch: 6/15 - Batch: 6600/7933 - Learning rate: 0.001 - Loss: 0.9635502
Epoch: 6/15 - Batch: 6700/7933 - Learning rate: 0.001 - Loss: 0.8990757
Epoch: 6/15 - Batch: 6800/7933 - Learning rate: 0.001 - Loss: 0.87156606
Epoch: 6/15 - Batch: 6900/7933 - Learning rate: 0.001 - Loss: 0.6248149
Epoch: 6/15 - Batch: 7000/7933 - Learning rate: 0.001 - Loss: 1.3007544 - Dev BLEU: 0.19776581384854075
Epoch: 6/15 - Batch: 7100/7933 - Learning rate: 0.001 - Loss: 0.98553216
Epoch: 6/15 - Batch: 7200/7933 - Learning rate: 0.001 - Loss: 0.7788682
Epoch: 6/15 - Batch: 7300/7933 - Learning rate: 0.001 - Loss: 0.953745
Epoch: 6/15 - Batch: 7400/7933 - Learning rate: 0.001 - Loss: 1.052276
Epoch: 6/15 - Batch: 7500/7933 - Learning rate: 0.001 - Loss: 0.74479043
Epoch: 6/15 - Batch: 7600/7933 - Learning rate: 0.001 - Loss: 1.343744
Epoch: 6/15 - Batch: 7700/7933 - Learning rate: 0.001 - Loss: 1.4367673
Epoch: 6/15 - Batch: 7800/7933 - Learning rate: 0.001 - Loss: 1.3762114
Epoch: 6/15 - Batch: 7900/7933 - Learning rate: 0.001 - Loss: 1.1180393
Epoch: 6/15 - Batch: 7933/7933 - Learning rate: 0.001 - Loss: 1.417132 - Dev BLEU: 0.17296878515570024
Epoch: 7/15 - Batch: 100/7933 - Learning rate: 0.001 - Loss: 0.8420541
Epoch: 7/15 - Batch: 200/7933 - Learning rate: 0.001 - Loss: 0.86294645
Epoch: 7/15 - Batch: 300/7933 - Learning rate: 0.001 - Loss: 0.57508117
Epoch: 7/15 - Batch: 400/7933 - Learning rate: 0.001 - Loss: 0.94430405
Epoch: 7/15 - Batch: 500/7933 - Learning rate: 0.001 - Loss: 0.7256301
Epoch: 7/15 - Batch: 600/7933 - Learning rate: 0.001 - Loss: 0.43258274
Epoch: 7/15 - Batch: 700/7933 - Learning rate: 0.001 - Loss: 0.73146784
Epoch: 7/15 - Batch: 800/7933 - Learning rate: 0.001 - Loss: 0.71787816
Epoch: 7/15 - Batch: 900/7933 - Learning rate: 0.001 - Loss: 0.46409327
Epoch: 7/15 - Batch: 1000/7933 - Learning rate: 0.001 - Loss: 0.769375 - Dev BLEU: 0.15728541967613416
Epoch: 7/15 - Batch: 1100/7933 - Learning rate: 0.001 - Loss: 0.68598115
Epoch: 7/15 - Batch: 1200/7933 - Learning rate: 0.001 - Loss: 0.9576783
Epoch: 7/15 - Batch: 1300/7933 - Learning rate: 0.001 - Loss: 0.8804477
Epoch: 7/15 - Batch: 1400/7933 - Learning rate: 0.001 - Loss: 0.8804642
Epoch: 7/15 - Batch: 1500/7933 - Learning rate: 0.001 - Loss: 0.6201445
Epoch: 7/15 - Batch: 1600/7933 - Learning rate: 0.001 - Loss: 1.2179838
Epoch: 7/15 - Batch: 1700/7933 - Learning rate: 0.001 - Loss: 0.9221897
Epoch: 7/15 - Batch: 1800/7933 - Learning rate: 0.001 - Loss: 0.51419705
Epoch: 7/15 - Batch: 1900/7933 - Learning rate: 0.001 - Loss: 0.7294256
Epoch: 7/15 - Batch: 2000/7933 - Learning rate: 0.001 - Loss: 0.778096 - Dev BLEU: 0.14107501774389578
Epoch: 7/15 - Batch: 2100/7933 - Learning rate: 0.001 - Loss: 0.6592254
Epoch: 7/15 - Batch: 2200/7933 - Learning rate: 0.001 - Loss: 0.65464216
Epoch: 7/15 - Batch: 2300/7933 - Learning rate: 0.001 - Loss: 0.8277645
Epoch: 7/15 - Batch: 2400/7933 - Learning rate: 0.001 - Loss: 0.71767527
Epoch: 7/15 - Batch: 2500/7933 - Learning rate: 0.001 - Loss: 0.7053614
Epoch: 7/15 - Batch: 2600/7933 - Learning rate: 0.001 - Loss: 0.5262253
Epoch: 7/15 - Batch: 2700/7933 - Learning rate: 0.001 - Loss: 0.31219906
Epoch: 7/15 - Batch: 2800/7933 - Learning rate: 0.001 - Loss: 0.8501967
Epoch: 7/15 - Batch: 2900/7933 - Learning rate: 0.001 - Loss: 0.9397705
Epoch: 7/15 - Batch: 3000/7933 - Learning rate: 0.001 - Loss: 0.8795696 - Dev BLEU: 0.14473719523050413
Epoch: 7/15 - Batch: 3100/7933 - Learning rate: 0.001 - Loss: 0.87606287
Epoch: 7/15 - Batch: 3200/7933 - Learning rate: 0.001 - Loss: 0.8371668
Epoch: 7/15 - Batch: 3300/7933 - Learning rate: 0.001 - Loss: 0.6619339
Epoch: 7/15 - Batch: 3400/7933 - Learning rate: 0.001 - Loss: 0.66803724
Epoch: 7/15 - Batch: 3500/7933 - Learning rate: 0.001 - Loss: 0.9224345
Epoch: 7/15 - Batch: 3600/7933 - Learning rate: 0.001 - Loss: 0.8952277
Epoch: 7/15 - Batch: 3700/7933 - Learning rate: 0.001 - Loss: 0.86994386
Epoch: 7/15 - Batch: 3800/7933 - Learning rate: 0.001 - Loss: 0.81342566
Epoch: 7/15 - Batch: 3900/7933 - Learning rate: 0.001 - Loss: 0.95661163
Epoch: 7/15 - Batch: 4000/7933 - Learning rate: 0.001 - Loss: 0.55183965 - Dev BLEU: 0.15766845679641
Epoch: 7/15 - Batch: 4100/7933 - Learning rate: 0.001 - Loss: 0.71635026
Epoch: 7/15 - Batch: 4200/7933 - Learning rate: 0.001 - Loss: 0.65076476
Epoch: 7/15 - Batch: 4300/7933 - Learning rate: 0.001 - Loss: 0.73989224
Epoch: 7/15 - Batch: 4400/7933 - Learning rate: 0.001 - Loss: 0.68064326
Epoch: 7/15 - Batch: 4500/7933 - Learning rate: 0.001 - Loss: 0.8084314
Epoch: 7/15 - Batch: 4600/7933 - Learning rate: 0.001 - Loss: 1.406927
Epoch: 7/15 - Batch: 4700/7933 - Learning rate: 0.001 - Loss: 1.0412326
Epoch: 7/15 - Batch: 4800/7933 - Learning rate: 0.001 - Loss: 1.0153528
Epoch: 7/15 - Batch: 4900/7933 - Learning rate: 0.001 - Loss: 1.183151
Epoch: 7/15 - Batch: 5000/7933 - Learning rate: 0.001 - Loss: 1.1891435 - Dev BLEU: 0.1790400070524114
Epoch: 7/15 - Batch: 5100/7933 - Learning rate: 0.001 - Loss: 1.2335223
Epoch: 7/15 - Batch: 5200/7933 - Learning rate: 0.001 - Loss: 1.1710894
Epoch: 7/15 - Batch: 5300/7933 - Learning rate: 0.001 - Loss: 1.1594497
Epoch: 7/15 - Batch: 5400/7933 - Learning rate: 0.001 - Loss: 1.0869966
Epoch: 7/15 - Batch: 5500/7933 - Learning rate: 0.001 - Loss: 1.1473635
Epoch: 7/15 - Batch: 5600/7933 - Learning rate: 0.001 - Loss: 0.9160752
Epoch: 7/15 - Batch: 5700/7933 - Learning rate: 0.001 - Loss: 1.1383585
Epoch: 7/15 - Batch: 5800/7933 - Learning rate: 0.001 - Loss: 1.0887144
Epoch: 7/15 - Batch: 5900/7933 - Learning rate: 0.001 - Loss: 0.7893791
Epoch: 7/15 - Batch: 6000/7933 - Learning rate: 0.001 - Loss: 1.1028227 - Dev BLEU: 0.1734248465450521
Epoch: 7/15 - Batch: 6100/7933 - Learning rate: 0.001 - Loss: 1.1511469
Epoch: 7/15 - Batch: 6200/7933 - Learning rate: 0.001 - Loss: 0.9824817
Epoch: 7/15 - Batch: 6300/7933 - Learning rate: 0.001 - Loss: 0.9090691
Epoch: 7/15 - Batch: 6400/7933 - Learning rate: 0.001 - Loss: 0.8167526
Epoch: 7/15 - Batch: 6500/7933 - Learning rate: 0.001 - Loss: 0.9213481
Epoch: 7/15 - Batch: 6600/7933 - Learning rate: 0.001 - Loss: 0.92057
Epoch: 7/15 - Batch: 6700/7933 - Learning rate: 0.001 - Loss: 0.8804471
Epoch: 7/15 - Batch: 6800/7933 - Learning rate: 0.001 - Loss: 0.84207726
Epoch: 7/15 - Batch: 6900/7933 - Learning rate: 0.001 - Loss: 0.61033934
Epoch: 7/15 - Batch: 7000/7933 - Learning rate: 0.001 - Loss: 1.253255 - Dev BLEU: 0.2053118329060372
Epoch: 7/15 - Batch: 7100/7933 - Learning rate: 0.001 - Loss: 0.94605243
Epoch: 7/15 - Batch: 7200/7933 - Learning rate: 0.001 - Loss: 0.7570366
Epoch: 7/15 - Batch: 7300/7933 - Learning rate: 0.001 - Loss: 0.91761684
Epoch: 7/15 - Batch: 7400/7933 - Learning rate: 0.001 - Loss: 1.0232848
Epoch: 7/15 - Batch: 7500/7933 - Learning rate: 0.001 - Loss: 0.72729236
Epoch: 7/15 - Batch: 7600/7933 - Learning rate: 0.001 - Loss: 1.2807126
Epoch: 7/15 - Batch: 7700/7933 - Learning rate: 0.001 - Loss: 1.4106683
Epoch: 7/15 - Batch: 7800/7933 - Learning rate: 0.001 - Loss: 1.3323041
Epoch: 7/15 - Batch: 7900/7933 - Learning rate: 0.001 - Loss: 1.0735453
Epoch: 7/15 - Batch: 7933/7933 - Learning rate: 0.001 - Loss: 1.3529155 - Dev BLEU: 0.18450171500874457
Epoch: 8/15 - Batch: 100/7933 - Learning rate: 0.0005 - Loss: 0.82383966
Epoch: 8/15 - Batch: 200/7933 - Learning rate: 0.0005 - Loss: 0.82380277
Epoch: 8/15 - Batch: 300/7933 - Learning rate: 0.0005 - Loss: 0.55828184
Epoch: 8/15 - Batch: 400/7933 - Learning rate: 0.0005 - Loss: 0.89651954
Epoch: 8/15 - Batch: 500/7933 - Learning rate: 0.0005 - Loss: 0.67910033
Epoch: 8/15 - Batch: 600/7933 - Learning rate: 0.0005 - Loss: 0.4185105
Epoch: 8/15 - Batch: 700/7933 - Learning rate: 0.0005 - Loss: 0.70187175
Epoch: 8/15 - Batch: 800/7933 - Learning rate: 0.0005 - Loss: 0.6724703
Epoch: 8/15 - Batch: 900/7933 - Learning rate: 0.0005 - Loss: 0.44376054
Epoch: 8/15 - Batch: 1000/7933 - Learning rate: 0.0005 - Loss: 0.7503166 - Dev BLEU: 0.17452644062003386
Epoch: 8/15 - Batch: 1100/7933 - Learning rate: 0.0005 - Loss: 0.6499417
Epoch: 8/15 - Batch: 1200/7933 - Learning rate: 0.0005 - Loss: 0.9171503
Epoch: 8/15 - Batch: 1300/7933 - Learning rate: 0.0005 - Loss: 0.810974
Epoch: 8/15 - Batch: 1400/7933 - Learning rate: 0.0005 - Loss: 0.8296166
Epoch: 8/15 - Batch: 1500/7933 - Learning rate: 0.0005 - Loss: 0.5910359
Epoch: 8/15 - Batch: 1600/7933 - Learning rate: 0.0005 - Loss: 1.1693053
Epoch: 8/15 - Batch: 1700/7933 - Learning rate: 0.0005 - Loss: 0.8645603
Epoch: 8/15 - Batch: 1800/7933 - Learning rate: 0.0005 - Loss: 0.47458574
Epoch: 8/15 - Batch: 1900/7933 - Learning rate: 0.0005 - Loss: 0.6979465
Epoch: 8/15 - Batch: 2000/7933 - Learning rate: 0.0005 - Loss: 0.742003 - Dev BLEU: 0.16770520366457395
Epoch: 8/15 - Batch: 2100/7933 - Learning rate: 0.0005 - Loss: 0.6128982
Epoch: 8/15 - Batch: 2200/7933 - Learning rate: 0.0005 - Loss: 0.62557495
Epoch: 8/15 - Batch: 2300/7933 - Learning rate: 0.0005 - Loss: 0.76925445
Epoch: 8/15 - Batch: 2400/7933 - Learning rate: 0.0005 - Loss: 0.6577347
Epoch: 8/15 - Batch: 2500/7933 - Learning rate: 0.0005 - Loss: 0.64949894
Epoch: 8/15 - Batch: 2600/7933 - Learning rate: 0.0005 - Loss: 0.49091023
Epoch: 8/15 - Batch: 2700/7933 - Learning rate: 0.0005 - Loss: 0.2985737
Epoch: 8/15 - Batch: 2800/7933 - Learning rate: 0.0005 - Loss: 0.77396315
Epoch: 8/15 - Batch: 2900/7933 - Learning rate: 0.0005 - Loss: 0.90417784
Epoch: 8/15 - Batch: 3000/7933 - Learning rate: 0.0005 - Loss: 0.8234427 - Dev BLEU: 0.14897144924809408
Epoch: 8/15 - Batch: 3100/7933 - Learning rate: 0.0005 - Loss: 0.8232419
Epoch: 8/15 - Batch: 3200/7933 - Learning rate: 0.0005 - Loss: 0.7829943
Epoch: 8/15 - Batch: 3300/7933 - Learning rate: 0.0005 - Loss: 0.61909425
Epoch: 8/15 - Batch: 3400/7933 - Learning rate: 0.0005 - Loss: 0.6189225
Epoch: 8/15 - Batch: 3500/7933 - Learning rate: 0.0005 - Loss: 0.861012
Epoch: 8/15 - Batch: 3600/7933 - Learning rate: 0.0005 - Loss: 0.8372302
Epoch: 8/15 - Batch: 3700/7933 - Learning rate: 0.0005 - Loss: 0.83445823
Epoch: 8/15 - Batch: 3800/7933 - Learning rate: 0.0005 - Loss: 0.76924825
Epoch: 8/15 - Batch: 3900/7933 - Learning rate: 0.0005 - Loss: 0.88473487
Epoch: 8/15 - Batch: 4000/7933 - Learning rate: 0.0005 - Loss: 0.5172223 - Dev BLEU: 0.1788222288690725
Epoch: 8/15 - Batch: 4100/7933 - Learning rate: 0.0005 - Loss: 0.6733104
Epoch: 8/15 - Batch: 4200/7933 - Learning rate: 0.0005 - Loss: 0.6201945
Epoch: 8/15 - Batch: 4300/7933 - Learning rate: 0.0005 - Loss: 0.6894163
Epoch: 8/15 - Batch: 4400/7933 - Learning rate: 0.0005 - Loss: 0.62888867
Epoch: 8/15 - Batch: 4500/7933 - Learning rate: 0.0005 - Loss: 0.7503067
Epoch: 8/15 - Batch: 4600/7933 - Learning rate: 0.0005 - Loss: 1.2730131
Epoch: 8/15 - Batch: 4700/7933 - Learning rate: 0.0005 - Loss: 0.9186585
Epoch: 8/15 - Batch: 4800/7933 - Learning rate: 0.0005 - Loss: 0.8966769
Epoch: 8/15 - Batch: 4900/7933 - Learning rate: 0.0005 - Loss: 1.0767148
Epoch: 8/15 - Batch: 5000/7933 - Learning rate: 0.0005 - Loss: 1.0811033 - Dev BLEU: 0.19522098934493748
Epoch: 8/15 - Batch: 5100/7933 - Learning rate: 0.0005 - Loss: 1.1189454
Epoch: 8/15 - Batch: 5200/7933 - Learning rate: 0.0005 - Loss: 1.0812995
Epoch: 8/15 - Batch: 5300/7933 - Learning rate: 0.0005 - Loss: 1.0479903
Epoch: 8/15 - Batch: 5400/7933 - Learning rate: 0.0005 - Loss: 0.97121704
Epoch: 8/15 - Batch: 5500/7933 - Learning rate: 0.0005 - Loss: 1.0644703
Epoch: 8/15 - Batch: 5600/7933 - Learning rate: 0.0005 - Loss: 0.84233344
Epoch: 8/15 - Batch: 5700/7933 - Learning rate: 0.0005 - Loss: 1.0080078
Epoch: 8/15 - Batch: 5800/7933 - Learning rate: 0.0005 - Loss: 0.96250206
Epoch: 8/15 - Batch: 5900/7933 - Learning rate: 0.0005 - Loss: 0.6950359
Epoch: 8/15 - Batch: 6000/7933 - Learning rate: 0.0005 - Loss: 1.0368572 - Dev BLEU: 0.19384524707157155
Epoch: 8/15 - Batch: 6100/7933 - Learning rate: 0.0005 - Loss: 0.9944384
Epoch: 8/15 - Batch: 6200/7933 - Learning rate: 0.0005 - Loss: 0.90567404
Epoch: 8/15 - Batch: 6300/7933 - Learning rate: 0.0005 - Loss: 0.8324224
Epoch: 8/15 - Batch: 6400/7933 - Learning rate: 0.0005 - Loss: 0.76244843
Epoch: 8/15 - Batch: 6500/7933 - Learning rate: 0.0005 - Loss: 0.8628664
Epoch: 8/15 - Batch: 6600/7933 - Learning rate: 0.0005 - Loss: 0.8733607
Epoch: 8/15 - Batch: 6700/7933 - Learning rate: 0.0005 - Loss: 0.8417227
Epoch: 8/15 - Batch: 6800/7933 - Learning rate: 0.0005 - Loss: 0.80993253
Epoch: 8/15 - Batch: 6900/7933 - Learning rate: 0.0005 - Loss: 0.57532465
Epoch: 8/15 - Batch: 7000/7933 - Learning rate: 0.0005 - Loss: 1.1886404 - Dev BLEU: 0.21488911705854255
Epoch: 8/15 - Batch: 7100/7933 - Learning rate: 0.0005 - Loss: 0.90562665
Epoch: 8/15 - Batch: 7200/7933 - Learning rate: 0.0005 - Loss: 0.72259736
Epoch: 8/15 - Batch: 7300/7933 - Learning rate: 0.0005 - Loss: 0.87624377
Epoch: 8/15 - Batch: 7400/7933 - Learning rate: 0.0005 - Loss: 0.96762145
Epoch: 8/15 - Batch: 7500/7933 - Learning rate: 0.0005 - Loss: 0.6982843
Epoch: 8/15 - Batch: 7600/7933 - Learning rate: 0.0005 - Loss: 1.2142375
Epoch: 8/15 - Batch: 7700/7933 - Learning rate: 0.0005 - Loss: 1.3453193
Epoch: 8/15 - Batch: 7800/7933 - Learning rate: 0.0005 - Loss: 1.2385339
Epoch: 8/15 - Batch: 7900/7933 - Learning rate: 0.0005 - Loss: 1.0259957
Epoch: 8/15 - Batch: 7933/7933 - Learning rate: 0.0005 - Loss: 1.2813014 - Dev BLEU: 0.19859429896905434
Epoch: 9/15 - Batch: 100/7933 - Learning rate: 0.00025 - Loss: 0.79089665
Epoch: 9/15 - Batch: 200/7933 - Learning rate: 0.00025 - Loss: 0.7894893
Epoch: 9/15 - Batch: 300/7933 - Learning rate: 0.00025 - Loss: 0.5431037
Epoch: 9/15 - Batch: 400/7933 - Learning rate: 0.00025 - Loss: 0.8570479
Epoch: 9/15 - Batch: 500/7933 - Learning rate: 0.00025 - Loss: 0.6463264
Epoch: 9/15 - Batch: 600/7933 - Learning rate: 0.00025 - Loss: 0.4099473
Epoch: 9/15 - Batch: 700/7933 - Learning rate: 0.00025 - Loss: 0.6692964
Epoch: 9/15 - Batch: 800/7933 - Learning rate: 0.00025 - Loss: 0.65208757
Epoch: 9/15 - Batch: 900/7933 - Learning rate: 0.00025 - Loss: 0.42899233
Epoch: 9/15 - Batch: 1000/7933 - Learning rate: 0.00025 - Loss: 0.7169818 - Dev BLEU: 0.1896780823019186
Epoch: 9/15 - Batch: 1100/7933 - Learning rate: 0.00025 - Loss: 0.6442578
Epoch: 9/15 - Batch: 1200/7933 - Learning rate: 0.00025 - Loss: 0.8479781
Epoch: 9/15 - Batch: 1300/7933 - Learning rate: 0.00025 - Loss: 0.7765392
Epoch: 9/15 - Batch: 1400/7933 - Learning rate: 0.00025 - Loss: 0.7852955
Epoch: 9/15 - Batch: 1500/7933 - Learning rate: 0.00025 - Loss: 0.57303876
Epoch: 9/15 - Batch: 1600/7933 - Learning rate: 0.00025 - Loss: 1.1221263
Epoch: 9/15 - Batch: 1700/7933 - Learning rate: 0.00025 - Loss: 0.83806586
Epoch: 9/15 - Batch: 1800/7933 - Learning rate: 0.00025 - Loss: 0.4572273
Epoch: 9/15 - Batch: 1900/7933 - Learning rate: 0.00025 - Loss: 0.67408276
Epoch: 9/15 - Batch: 2000/7933 - Learning rate: 0.00025 - Loss: 0.70538974 - Dev BLEU: 0.18003579357365818
Epoch: 9/15 - Batch: 2100/7933 - Learning rate: 0.00025 - Loss: 0.5788109
Epoch: 9/15 - Batch: 2200/7933 - Learning rate: 0.00025 - Loss: 0.60966516
Epoch: 9/15 - Batch: 2300/7933 - Learning rate: 0.00025 - Loss: 0.7331816
Epoch: 9/15 - Batch: 2400/7933 - Learning rate: 0.00025 - Loss: 0.63677716
Epoch: 9/15 - Batch: 2500/7933 - Learning rate: 0.00025 - Loss: 0.59807277
Epoch: 9/15 - Batch: 2600/7933 - Learning rate: 0.00025 - Loss: 0.4847764
Epoch: 9/15 - Batch: 2700/7933 - Learning rate: 0.00025 - Loss: 0.29397038
Epoch: 9/15 - Batch: 2800/7933 - Learning rate: 0.00025 - Loss: 0.74598813
Epoch: 9/15 - Batch: 2900/7933 - Learning rate: 0.00025 - Loss: 0.86741394
Epoch: 9/15 - Batch: 3000/7933 - Learning rate: 0.00025 - Loss: 0.7976173 - Dev BLEU: 0.18264954381104903
Epoch: 9/15 - Batch: 3100/7933 - Learning rate: 0.00025 - Loss: 0.801658
Epoch: 9/15 - Batch: 3200/7933 - Learning rate: 0.00025 - Loss: 0.7483449
Epoch: 9/15 - Batch: 3300/7933 - Learning rate: 0.00025 - Loss: 0.604481
Epoch: 9/15 - Batch: 3400/7933 - Learning rate: 0.00025 - Loss: 0.5940197
Epoch: 9/15 - Batch: 3500/7933 - Learning rate: 0.00025 - Loss: 0.8072297
Epoch: 9/15 - Batch: 3600/7933 - Learning rate: 0.00025 - Loss: 0.8025646
Epoch: 9/15 - Batch: 3700/7933 - Learning rate: 0.00025 - Loss: 0.7956258
Epoch: 9/15 - Batch: 3800/7933 - Learning rate: 0.00025 - Loss: 0.7330866
Epoch: 9/15 - Batch: 3900/7933 - Learning rate: 0.00025 - Loss: 0.8431589
Epoch: 9/15 - Batch: 4000/7933 - Learning rate: 0.00025 - Loss: 0.498439 - Dev BLEU: 0.18806296319972374
Epoch: 9/15 - Batch: 4100/7933 - Learning rate: 0.00025 - Loss: 0.66103035
Epoch: 9/15 - Batch: 4200/7933 - Learning rate: 0.00025 - Loss: 0.5916862
Epoch: 9/15 - Batch: 4300/7933 - Learning rate: 0.00025 - Loss: 0.6801783
Epoch: 9/15 - Batch: 4400/7933 - Learning rate: 0.00025 - Loss: 0.6005162
Epoch: 9/15 - Batch: 4500/7933 - Learning rate: 0.00025 - Loss: 0.7294656
Epoch: 9/15 - Batch: 4600/7933 - Learning rate: 0.00025 - Loss: 1.1718022
Epoch: 9/15 - Batch: 4700/7933 - Learning rate: 0.00025 - Loss: 0.86844015
Epoch: 9/15 - Batch: 4800/7933 - Learning rate: 0.00025 - Loss: 0.8192194
Epoch: 9/15 - Batch: 4900/7933 - Learning rate: 0.00025 - Loss: 0.98592496
Epoch: 9/15 - Batch: 5000/7933 - Learning rate: 0.00025 - Loss: 0.99412185 - Dev BLEU: 0.21056191054280887
Epoch: 9/15 - Batch: 5100/7933 - Learning rate: 0.00025 - Loss: 1.0514843
Epoch: 9/15 - Batch: 5200/7933 - Learning rate: 0.00025 - Loss: 1.02072
Epoch: 9/15 - Batch: 5300/7933 - Learning rate: 0.00025 - Loss: 1.0238192
Epoch: 9/15 - Batch: 5400/7933 - Learning rate: 0.00025 - Loss: 0.91400295
Epoch: 9/15 - Batch: 5500/7933 - Learning rate: 0.00025 - Loss: 0.98869926
Epoch: 9/15 - Batch: 5600/7933 - Learning rate: 0.00025 - Loss: 0.7889719
Epoch: 9/15 - Batch: 5700/7933 - Learning rate: 0.00025 - Loss: 0.9263119
Epoch: 9/15 - Batch: 5800/7933 - Learning rate: 0.00025 - Loss: 0.91010755
Epoch: 9/15 - Batch: 5900/7933 - Learning rate: 0.00025 - Loss: 0.6564266
Epoch: 9/15 - Batch: 6000/7933 - Learning rate: 0.00025 - Loss: 0.9789718 - Dev BLEU: 0.20902415105032426
Epoch: 9/15 - Batch: 6100/7933 - Learning rate: 0.00025 - Loss: 0.9219713
Epoch: 9/15 - Batch: 6200/7933 - Learning rate: 0.00025 - Loss: 0.8561181
Epoch: 9/15 - Batch: 6300/7933 - Learning rate: 0.00025 - Loss: 0.78510535
Epoch: 9/15 - Batch: 6400/7933 - Learning rate: 0.00025 - Loss: 0.7290368
Epoch: 9/15 - Batch: 6500/7933 - Learning rate: 0.00025 - Loss: 0.8444918
Epoch: 9/15 - Batch: 6600/7933 - Learning rate: 0.00025 - Loss: 0.84993505
Epoch: 9/15 - Batch: 6700/7933 - Learning rate: 0.00025 - Loss: 0.8119097
Epoch: 9/15 - Batch: 6800/7933 - Learning rate: 0.00025 - Loss: 0.80110335
Epoch: 9/15 - Batch: 6900/7933 - Learning rate: 0.00025 - Loss: 0.55915207
Epoch: 9/15 - Batch: 7000/7933 - Learning rate: 0.00025 - Loss: 1.1615831 - Dev BLEU: 0.21919496787346965
Epoch: 9/15 - Batch: 7100/7933 - Learning rate: 0.00025 - Loss: 0.88151187
Epoch: 9/15 - Batch: 7200/7933 - Learning rate: 0.00025 - Loss: 0.7121645
Epoch: 9/15 - Batch: 7300/7933 - Learning rate: 0.00025 - Loss: 0.8597993
Epoch: 9/15 - Batch: 7400/7933 - Learning rate: 0.00025 - Loss: 0.9453137
Epoch: 9/15 - Batch: 7500/7933 - Learning rate: 0.00025 - Loss: 0.6868919
Epoch: 9/15 - Batch: 7600/7933 - Learning rate: 0.00025 - Loss: 1.1846014
Epoch: 9/15 - Batch: 7700/7933 - Learning rate: 0.00025 - Loss: 1.3065561
Epoch: 9/15 - Batch: 7800/7933 - Learning rate: 0.00025 - Loss: 1.1937596
Epoch: 9/15 - Batch: 7900/7933 - Learning rate: 0.00025 - Loss: 0.9919942
Epoch: 9/15 - Batch: 7933/7933 - Learning rate: 0.00025 - Loss: 1.23303 - Dev BLEU: 0.20423953387822066
Epoch: 10/15 - Batch: 100/7933 - Learning rate: 0.000125 - Loss: 0.77128565
Epoch: 10/15 - Batch: 200/7933 - Learning rate: 0.000125 - Loss: 0.7519081
Epoch: 10/15 - Batch: 300/7933 - Learning rate: 0.000125 - Loss: 0.53106105
Epoch: 10/15 - Batch: 400/7933 - Learning rate: 0.000125 - Loss: 0.8383397
Epoch: 10/15 - Batch: 500/7933 - Learning rate: 0.000125 - Loss: 0.62356484
Epoch: 10/15 - Batch: 600/7933 - Learning rate: 0.000125 - Loss: 0.4042085
Epoch: 10/15 - Batch: 700/7933 - Learning rate: 0.000125 - Loss: 0.652725
Epoch: 10/15 - Batch: 800/7933 - Learning rate: 0.000125 - Loss: 0.63578546
Epoch: 10/15 - Batch: 900/7933 - Learning rate: 0.000125 - Loss: 0.4199347
Epoch: 10/15 - Batch: 1000/7933 - Learning rate: 0.000125 - Loss: 0.6878807 - Dev BLEU: 0.19589852100146166
Epoch: 10/15 - Batch: 1100/7933 - Learning rate: 0.000125 - Loss: 0.6262125
Epoch: 10/15 - Batch: 1200/7933 - Learning rate: 0.000125 - Loss: 0.8253769
Epoch: 10/15 - Batch: 1300/7933 - Learning rate: 0.000125 - Loss: 0.7651358
Epoch: 10/15 - Batch: 1400/7933 - Learning rate: 0.000125 - Loss: 0.771017
Epoch: 10/15 - Batch: 1500/7933 - Learning rate: 0.000125 - Loss: 0.57130176
Epoch: 10/15 - Batch: 1600/7933 - Learning rate: 0.000125 - Loss: 1.1152141
Epoch: 10/15 - Batch: 1700/7933 - Learning rate: 0.000125 - Loss: 0.81028676
Epoch: 10/15 - Batch: 1800/7933 - Learning rate: 0.000125 - Loss: 0.45745325
Epoch: 10/15 - Batch: 1900/7933 - Learning rate: 0.000125 - Loss: 0.6594587
Epoch: 10/15 - Batch: 2000/7933 - Learning rate: 0.000125 - Loss: 0.7027237 - Dev BLEU: 0.19087910146492204
Epoch: 10/15 - Batch: 2100/7933 - Learning rate: 0.000125 - Loss: 0.55361485
Epoch: 10/15 - Batch: 2200/7933 - Learning rate: 0.000125 - Loss: 0.5909171
Epoch: 10/15 - Batch: 2300/7933 - Learning rate: 0.000125 - Loss: 0.72262275
Epoch: 10/15 - Batch: 2400/7933 - Learning rate: 0.000125 - Loss: 0.61969095
Epoch: 10/15 - Batch: 2500/7933 - Learning rate: 0.000125 - Loss: 0.5959809
Epoch: 10/15 - Batch: 2600/7933 - Learning rate: 0.000125 - Loss: 0.45854726
Epoch: 10/15 - Batch: 2700/7933 - Learning rate: 0.000125 - Loss: 0.28327295
Epoch: 10/15 - Batch: 2800/7933 - Learning rate: 0.000125 - Loss: 0.74289453
Epoch: 10/15 - Batch: 2900/7933 - Learning rate: 0.000125 - Loss: 0.85953516
Epoch: 10/15 - Batch: 3000/7933 - Learning rate: 0.000125 - Loss: 0.7795679 - Dev BLEU: 0.18778900263543075
Epoch: 10/15 - Batch: 3100/7933 - Learning rate: 0.000125 - Loss: 0.7853076
Epoch: 10/15 - Batch: 3200/7933 - Learning rate: 0.000125 - Loss: 0.7356132
Epoch: 10/15 - Batch: 3300/7933 - Learning rate: 0.000125 - Loss: 0.59887016
Epoch: 10/15 - Batch: 3400/7933 - Learning rate: 0.000125 - Loss: 0.59100634
Epoch: 10/15 - Batch: 3500/7933 - Learning rate: 0.000125 - Loss: 0.7619909
Epoch: 10/15 - Batch: 3600/7933 - Learning rate: 0.000125 - Loss: 0.7930118
Epoch: 10/15 - Batch: 3700/7933 - Learning rate: 0.000125 - Loss: 0.77997136
Epoch: 10/15 - Batch: 3800/7933 - Learning rate: 0.000125 - Loss: 0.73001605
Epoch: 10/15 - Batch: 3900/7933 - Learning rate: 0.000125 - Loss: 0.82019806
Epoch: 10/15 - Batch: 4000/7933 - Learning rate: 0.000125 - Loss: 0.4877939 - Dev BLEU: 0.19232948172714562
Epoch: 10/15 - Batch: 4100/7933 - Learning rate: 0.000125 - Loss: 0.6452005
Epoch: 10/15 - Batch: 4200/7933 - Learning rate: 0.000125 - Loss: 0.5773129
Epoch: 10/15 - Batch: 4300/7933 - Learning rate: 0.000125 - Loss: 0.662479
Epoch: 10/15 - Batch: 4400/7933 - Learning rate: 0.000125 - Loss: 0.5839683
Epoch: 10/15 - Batch: 4500/7933 - Learning rate: 0.000125 - Loss: 0.7060521
Epoch: 10/15 - Batch: 4600/7933 - Learning rate: 0.000125 - Loss: 1.1226709
Epoch: 10/15 - Batch: 4700/7933 - Learning rate: 0.000125 - Loss: 0.83659464
Epoch: 10/15 - Batch: 4800/7933 - Learning rate: 0.000125 - Loss: 0.78372014
Epoch: 10/15 - Batch: 4900/7933 - Learning rate: 0.000125 - Loss: 0.97352976
Epoch: 10/15 - Batch: 5000/7933 - Learning rate: 0.000125 - Loss: 0.96690124 - Dev BLEU: 0.2139030523348896
Epoch: 10/15 - Batch: 5100/7933 - Learning rate: 0.000125 - Loss: 1.0179168
Epoch: 10/15 - Batch: 5200/7933 - Learning rate: 0.000125 - Loss: 1.0070804
Epoch: 10/15 - Batch: 5300/7933 - Learning rate: 0.000125 - Loss: 0.98585385
Epoch: 10/15 - Batch: 5400/7933 - Learning rate: 0.000125 - Loss: 0.90147877
Epoch: 10/15 - Batch: 5500/7933 - Learning rate: 0.000125 - Loss: 0.9800837
Epoch: 10/15 - Batch: 5600/7933 - Learning rate: 0.000125 - Loss: 0.756129
Epoch: 10/15 - Batch: 5700/7933 - Learning rate: 0.000125 - Loss: 0.90124935
Epoch: 10/15 - Batch: 5800/7933 - Learning rate: 0.000125 - Loss: 0.872444
Epoch: 10/15 - Batch: 5900/7933 - Learning rate: 0.000125 - Loss: 0.6387342
Epoch: 10/15 - Batch: 6000/7933 - Learning rate: 0.000125 - Loss: 0.93966067 - Dev BLEU: 0.2154363069517076
Epoch: 10/15 - Batch: 6100/7933 - Learning rate: 0.000125 - Loss: 0.9174121
Epoch: 10/15 - Batch: 6200/7933 - Learning rate: 0.000125 - Loss: 0.8290915
Epoch: 10/15 - Batch: 6300/7933 - Learning rate: 0.000125 - Loss: 0.77345455
Epoch: 10/15 - Batch: 6400/7933 - Learning rate: 0.000125 - Loss: 0.7116313
Epoch: 10/15 - Batch: 6500/7933 - Learning rate: 0.000125 - Loss: 0.8322336
Epoch: 10/15 - Batch: 6600/7933 - Learning rate: 0.000125 - Loss: 0.84051067
Epoch: 10/15 - Batch: 6700/7933 - Learning rate: 0.000125 - Loss: 0.8127032
Epoch: 10/15 - Batch: 6800/7933 - Learning rate: 0.000125 - Loss: 0.79262435
Epoch: 10/15 - Batch: 6900/7933 - Learning rate: 0.000125 - Loss: 0.546293
Epoch: 10/15 - Batch: 7000/7933 - Learning rate: 0.000125 - Loss: 1.1458511 - Dev BLEU: 0.22164989129104595
Epoch: 10/15 - Batch: 7100/7933 - Learning rate: 0.000125 - Loss: 0.8523038
Epoch: 10/15 - Batch: 7200/7933 - Learning rate: 0.000125 - Loss: 0.7002002
Epoch: 10/15 - Batch: 7300/7933 - Learning rate: 0.000125 - Loss: 0.85040504
Epoch: 10/15 - Batch: 7400/7933 - Learning rate: 0.000125 - Loss: 0.9414515
Epoch: 10/15 - Batch: 7500/7933 - Learning rate: 0.000125 - Loss: 0.67092705
Epoch: 10/15 - Batch: 7600/7933 - Learning rate: 0.000125 - Loss: 1.1650206
Epoch: 10/15 - Batch: 7700/7933 - Learning rate: 0.000125 - Loss: 1.2752628
Epoch: 10/15 - Batch: 7800/7933 - Learning rate: 0.000125 - Loss: 1.1718917
Epoch: 10/15 - Batch: 7900/7933 - Learning rate: 0.000125 - Loss: 0.99186784
Epoch: 10/15 - Batch: 7933/7933 - Learning rate: 0.000125 - Loss: 1.2221802 - Dev BLEU: 0.20883979288865223
Epoch: 11/15 - Batch: 100/7933 - Learning rate: 6.25e-05 - Loss: 0.772157
Epoch: 11/15 - Batch: 200/7933 - Learning rate: 6.25e-05 - Loss: 0.7512613
Epoch: 11/15 - Batch: 300/7933 - Learning rate: 6.25e-05 - Loss: 0.5197111
Epoch: 11/15 - Batch: 400/7933 - Learning rate: 6.25e-05 - Loss: 0.8320443
Epoch: 11/15 - Batch: 500/7933 - Learning rate: 6.25e-05 - Loss: 0.6191534
Epoch: 11/15 - Batch: 600/7933 - Learning rate: 6.25e-05 - Loss: 0.39693514
Epoch: 11/15 - Batch: 700/7933 - Learning rate: 6.25e-05 - Loss: 0.6485849
Epoch: 11/15 - Batch: 800/7933 - Learning rate: 6.25e-05 - Loss: 0.6318573
Epoch: 11/15 - Batch: 900/7933 - Learning rate: 6.25e-05 - Loss: 0.41110995
Epoch: 11/15 - Batch: 1000/7933 - Learning rate: 6.25e-05 - Loss: 0.6808608 - Dev BLEU: 0.1994635751365349
Epoch: 11/15 - Batch: 1100/7933 - Learning rate: 6.25e-05 - Loss: 0.6213711
Epoch: 11/15 - Batch: 1200/7933 - Learning rate: 6.25e-05 - Loss: 0.8258273
Epoch: 11/15 - Batch: 1300/7933 - Learning rate: 6.25e-05 - Loss: 0.75951284
Epoch: 11/15 - Batch: 1400/7933 - Learning rate: 6.25e-05 - Loss: 0.7738086
Epoch: 11/15 - Batch: 1500/7933 - Learning rate: 6.25e-05 - Loss: 0.5669733
Epoch: 11/15 - Batch: 1600/7933 - Learning rate: 6.25e-05 - Loss: 1.1049734
Epoch: 11/15 - Batch: 1700/7933 - Learning rate: 6.25e-05 - Loss: 0.80556965
Epoch: 11/15 - Batch: 1800/7933 - Learning rate: 6.25e-05 - Loss: 0.44748384
Epoch: 11/15 - Batch: 1900/7933 - Learning rate: 6.25e-05 - Loss: 0.654787
Epoch: 11/15 - Batch: 2000/7933 - Learning rate: 6.25e-05 - Loss: 0.70330304 - Dev BLEU: 0.19733345146418077
Epoch: 11/15 - Batch: 2100/7933 - Learning rate: 6.25e-05 - Loss: 0.5414581
Epoch: 11/15 - Batch: 2200/7933 - Learning rate: 6.25e-05 - Loss: 0.57292414
Epoch: 11/15 - Batch: 2300/7933 - Learning rate: 6.25e-05 - Loss: 0.72130615
Epoch: 11/15 - Batch: 2400/7933 - Learning rate: 6.25e-05 - Loss: 0.62606394
Epoch: 11/15 - Batch: 2500/7933 - Learning rate: 6.25e-05 - Loss: 0.5856236
Epoch: 11/15 - Batch: 2600/7933 - Learning rate: 6.25e-05 - Loss: 0.46097505
Epoch: 11/15 - Batch: 2700/7933 - Learning rate: 6.25e-05 - Loss: 0.2853325
Epoch: 11/15 - Batch: 2800/7933 - Learning rate: 6.25e-05 - Loss: 0.7253936
Epoch: 11/15 - Batch: 2900/7933 - Learning rate: 6.25e-05 - Loss: 0.8484601
Epoch: 11/15 - Batch: 3000/7933 - Learning rate: 6.25e-05 - Loss: 0.7854216 - Dev BLEU: 0.19407210364515018
Epoch: 11/15 - Batch: 3100/7933 - Learning rate: 6.25e-05 - Loss: 0.77894723
Epoch: 11/15 - Batch: 3200/7933 - Learning rate: 6.25e-05 - Loss: 0.74145
Epoch: 11/15 - Batch: 3300/7933 - Learning rate: 6.25e-05 - Loss: 0.5900701
Epoch: 11/15 - Batch: 3400/7933 - Learning rate: 6.25e-05 - Loss: 0.59020317
Epoch: 11/15 - Batch: 3500/7933 - Learning rate: 6.25e-05 - Loss: 0.77502704
Epoch: 11/15 - Batch: 3600/7933 - Learning rate: 6.25e-05 - Loss: 0.78139204
Epoch: 11/15 - Batch: 3700/7933 - Learning rate: 6.25e-05 - Loss: 0.77562314
Epoch: 11/15 - Batch: 3800/7933 - Learning rate: 6.25e-05 - Loss: 0.73791945
Epoch: 11/15 - Batch: 3900/7933 - Learning rate: 6.25e-05 - Loss: 0.8292384
Epoch: 11/15 - Batch: 4000/7933 - Learning rate: 6.25e-05 - Loss: 0.5000641 - Dev BLEU: 0.19780471266825778
Epoch: 11/15 - Batch: 4100/7933 - Learning rate: 6.25e-05 - Loss: 0.6377565
Epoch: 11/15 - Batch: 4200/7933 - Learning rate: 6.25e-05 - Loss: 0.55791074
Epoch: 11/15 - Batch: 4300/7933 - Learning rate: 6.25e-05 - Loss: 0.6529304
Epoch: 11/15 - Batch: 4400/7933 - Learning rate: 6.25e-05 - Loss: 0.58782744
Epoch: 11/15 - Batch: 4500/7933 - Learning rate: 6.25e-05 - Loss: 0.69873154
Epoch: 11/15 - Batch: 4600/7933 - Learning rate: 6.25e-05 - Loss: 1.1297151
Epoch: 11/15 - Batch: 4700/7933 - Learning rate: 6.25e-05 - Loss: 0.801459
Epoch: 11/15 - Batch: 4800/7933 - Learning rate: 6.25e-05 - Loss: 0.7698229
Epoch: 11/15 - Batch: 4900/7933 - Learning rate: 6.25e-05 - Loss: 0.96033937
Epoch: 11/15 - Batch: 5000/7933 - Learning rate: 6.25e-05 - Loss: 0.9551428 - Dev BLEU: 0.21743358330030763
Epoch: 11/15 - Batch: 5100/7933 - Learning rate: 6.25e-05 - Loss: 1.0120213
Epoch: 11/15 - Batch: 5200/7933 - Learning rate: 6.25e-05 - Loss: 1.019852
Epoch: 11/15 - Batch: 5300/7933 - Learning rate: 6.25e-05 - Loss: 0.97689307
Epoch: 11/15 - Batch: 5400/7933 - Learning rate: 6.25e-05 - Loss: 0.89174664
Epoch: 11/15 - Batch: 5500/7933 - Learning rate: 6.25e-05 - Loss: 0.96481526
Epoch: 11/15 - Batch: 5600/7933 - Learning rate: 6.25e-05 - Loss: 0.7522368
Epoch: 11/15 - Batch: 5700/7933 - Learning rate: 6.25e-05 - Loss: 0.8886655
Epoch: 11/15 - Batch: 5800/7933 - Learning rate: 6.25e-05 - Loss: 0.85542595
Epoch: 11/15 - Batch: 5900/7933 - Learning rate: 6.25e-05 - Loss: 0.6299288
Epoch: 11/15 - Batch: 6000/7933 - Learning rate: 6.25e-05 - Loss: 0.92833483 - Dev BLEU: 0.2170557722519351
Epoch: 11/15 - Batch: 6100/7933 - Learning rate: 6.25e-05 - Loss: 0.8769302
Epoch: 11/15 - Batch: 6200/7933 - Learning rate: 6.25e-05 - Loss: 0.8244125
Epoch: 11/15 - Batch: 6300/7933 - Learning rate: 6.25e-05 - Loss: 0.7567502
Epoch: 11/15 - Batch: 6400/7933 - Learning rate: 6.25e-05 - Loss: 0.7168645
Epoch: 11/15 - Batch: 6500/7933 - Learning rate: 6.25e-05 - Loss: 0.8248329
Epoch: 11/15 - Batch: 6600/7933 - Learning rate: 6.25e-05 - Loss: 0.8411479
Epoch: 11/15 - Batch: 6700/7933 - Learning rate: 6.25e-05 - Loss: 0.8103327
Epoch: 11/15 - Batch: 6800/7933 - Learning rate: 6.25e-05 - Loss: 0.78871584
Epoch: 11/15 - Batch: 6900/7933 - Learning rate: 6.25e-05 - Loss: 0.54797745
Epoch: 11/15 - Batch: 7000/7933 - Learning rate: 6.25e-05 - Loss: 1.1326416 - Dev BLEU: 0.22346135348046633
Epoch: 11/15 - Batch: 7100/7933 - Learning rate: 6.25e-05 - Loss: 0.85465765
Epoch: 11/15 - Batch: 7200/7933 - Learning rate: 6.25e-05 - Loss: 0.6993906
Epoch: 11/15 - Batch: 7300/7933 - Learning rate: 6.25e-05 - Loss: 0.83908004
Epoch: 11/15 - Batch: 7400/7933 - Learning rate: 6.25e-05 - Loss: 0.92667514
Epoch: 11/15 - Batch: 7500/7933 - Learning rate: 6.25e-05 - Loss: 0.67677414
Epoch: 11/15 - Batch: 7600/7933 - Learning rate: 6.25e-05 - Loss: 1.1737599
Epoch: 11/15 - Batch: 7700/7933 - Learning rate: 6.25e-05 - Loss: 1.2597996
Epoch: 11/15 - Batch: 7800/7933 - Learning rate: 6.25e-05 - Loss: 1.1654595
Epoch: 11/15 - Batch: 7900/7933 - Learning rate: 6.25e-05 - Loss: 0.9884941
Epoch: 11/15 - Batch: 7933/7933 - Learning rate: 6.25e-05 - Loss: 1.226327 - Dev BLEU: 0.213887131574701
Epoch: 12/15 - Batch: 100/7933 - Learning rate: 3.125e-05 - Loss: 0.7713892
Epoch: 12/15 - Batch: 200/7933 - Learning rate: 3.125e-05 - Loss: 0.7459942
Epoch: 12/15 - Batch: 300/7933 - Learning rate: 3.125e-05 - Loss: 0.52662057
Epoch: 12/15 - Batch: 400/7933 - Learning rate: 3.125e-05 - Loss: 0.8167876
Epoch: 12/15 - Batch: 500/7933 - Learning rate: 3.125e-05 - Loss: 0.6131529
Epoch: 12/15 - Batch: 600/7933 - Learning rate: 3.125e-05 - Loss: 0.397925
Epoch: 12/15 - Batch: 700/7933 - Learning rate: 3.125e-05 - Loss: 0.6371601
Epoch: 12/15 - Batch: 800/7933 - Learning rate: 3.125e-05 - Loss: 0.6225774
Epoch: 12/15 - Batch: 900/7933 - Learning rate: 3.125e-05 - Loss: 0.41557506
Epoch: 12/15 - Batch: 1000/7933 - Learning rate: 3.125e-05 - Loss: 0.7034876 - Dev BLEU: 0.20518764676324583
Epoch: 12/15 - Batch: 1100/7933 - Learning rate: 3.125e-05 - Loss: 0.621843
Epoch: 12/15 - Batch: 1200/7933 - Learning rate: 3.125e-05 - Loss: 0.8050944
Epoch: 12/15 - Batch: 1300/7933 - Learning rate: 3.125e-05 - Loss: 0.75338787
Epoch: 12/15 - Batch: 1400/7933 - Learning rate: 3.125e-05 - Loss: 0.7668601
Epoch: 12/15 - Batch: 1500/7933 - Learning rate: 3.125e-05 - Loss: 0.57536316
Epoch: 12/15 - Batch: 1600/7933 - Learning rate: 3.125e-05 - Loss: 1.0966827
Epoch: 12/15 - Batch: 1700/7933 - Learning rate: 3.125e-05 - Loss: 0.79538566
Epoch: 12/15 - Batch: 1800/7933 - Learning rate: 3.125e-05 - Loss: 0.43584433
Epoch: 12/15 - Batch: 1900/7933 - Learning rate: 3.125e-05 - Loss: 0.65755916
Epoch: 12/15 - Batch: 2000/7933 - Learning rate: 3.125e-05 - Loss: 0.6919907 - Dev BLEU: 0.20330660944567217
Epoch: 12/15 - Batch: 2100/7933 - Learning rate: 3.125e-05 - Loss: 0.5394227
Epoch: 12/15 - Batch: 2200/7933 - Learning rate: 3.125e-05 - Loss: 0.55964226
Epoch: 12/15 - Batch: 2300/7933 - Learning rate: 3.125e-05 - Loss: 0.7268263
Epoch: 12/15 - Batch: 2400/7933 - Learning rate: 3.125e-05 - Loss: 0.63748777
Epoch: 12/15 - Batch: 2500/7933 - Learning rate: 3.125e-05 - Loss: 0.59365517
Epoch: 12/15 - Batch: 2600/7933 - Learning rate: 3.125e-05 - Loss: 0.4634537
Epoch: 12/15 - Batch: 2700/7933 - Learning rate: 3.125e-05 - Loss: 0.28720587
Epoch: 12/15 - Batch: 2800/7933 - Learning rate: 3.125e-05 - Loss: 0.74305344
Epoch: 12/15 - Batch: 2900/7933 - Learning rate: 3.125e-05 - Loss: 0.8399062
Epoch: 12/15 - Batch: 3000/7933 - Learning rate: 3.125e-05 - Loss: 0.7732041 - Dev BLEU: 0.19822104149182979
Epoch: 12/15 - Batch: 3100/7933 - Learning rate: 3.125e-05 - Loss: 0.77367544
Epoch: 12/15 - Batch: 3200/7933 - Learning rate: 3.125e-05 - Loss: 0.73732656
Epoch: 12/15 - Batch: 3300/7933 - Learning rate: 3.125e-05 - Loss: 0.58877224
Epoch: 12/15 - Batch: 3400/7933 - Learning rate: 3.125e-05 - Loss: 0.5910491
Epoch: 12/15 - Batch: 3500/7933 - Learning rate: 3.125e-05 - Loss: 0.76150703
Epoch: 12/15 - Batch: 3600/7933 - Learning rate: 3.125e-05 - Loss: 0.79103047
Epoch: 12/15 - Batch: 3700/7933 - Learning rate: 3.125e-05 - Loss: 0.7705482
Epoch: 12/15 - Batch: 3800/7933 - Learning rate: 3.125e-05 - Loss: 0.7350342
Epoch: 12/15 - Batch: 3900/7933 - Learning rate: 3.125e-05 - Loss: 0.82680213
Epoch: 12/15 - Batch: 4000/7933 - Learning rate: 3.125e-05 - Loss: 0.48341322 - Dev BLEU: 0.20149560335639166
Epoch: 12/15 - Batch: 4100/7933 - Learning rate: 3.125e-05 - Loss: 0.63484323
Epoch: 12/15 - Batch: 4200/7933 - Learning rate: 3.125e-05 - Loss: 0.5438614
Epoch: 12/15 - Batch: 4300/7933 - Learning rate: 3.125e-05 - Loss: 0.6688863
Epoch: 12/15 - Batch: 4400/7933 - Learning rate: 3.125e-05 - Loss: 0.5863874
Epoch: 12/15 - Batch: 4500/7933 - Learning rate: 3.125e-05 - Loss: 0.69631106
Epoch: 12/15 - Batch: 4600/7933 - Learning rate: 3.125e-05 - Loss: 1.1153618
Epoch: 12/15 - Batch: 4700/7933 - Learning rate: 3.125e-05 - Loss: 0.8134382
Epoch: 12/15 - Batch: 4800/7933 - Learning rate: 3.125e-05 - Loss: 0.75931114
Epoch: 12/15 - Batch: 4900/7933 - Learning rate: 3.125e-05 - Loss: 0.95620364
Epoch: 12/15 - Batch: 5000/7933 - Learning rate: 3.125e-05 - Loss: 0.9598187 - Dev BLEU: 0.2139240558664403
Epoch: 12/15 - Batch: 5100/7933 - Learning rate: 3.125e-05 - Loss: 1.0137879
Epoch: 12/15 - Batch: 5200/7933 - Learning rate: 3.125e-05 - Loss: 0.9780649
Epoch: 12/15 - Batch: 5300/7933 - Learning rate: 3.125e-05 - Loss: 0.9662197
Epoch: 12/15 - Batch: 5400/7933 - Learning rate: 3.125e-05 - Loss: 0.8972139
Epoch: 12/15 - Batch: 5500/7933 - Learning rate: 3.125e-05 - Loss: 0.9584895
Epoch: 12/15 - Batch: 5600/7933 - Learning rate: 3.125e-05 - Loss: 0.7554977
Epoch: 12/15 - Batch: 5700/7933 - Learning rate: 3.125e-05 - Loss: 0.8855992
Epoch: 12/15 - Batch: 5800/7933 - Learning rate: 3.125e-05 - Loss: 0.8466775
Epoch: 12/15 - Batch: 5900/7933 - Learning rate: 3.125e-05 - Loss: 0.63597167
Epoch: 12/15 - Batch: 6000/7933 - Learning rate: 3.125e-05 - Loss: 0.92659515 - Dev BLEU: 0.21810517116896486
Epoch: 12/15 - Batch: 6100/7933 - Learning rate: 3.125e-05 - Loss: 0.8687696
Epoch: 12/15 - Batch: 6200/7933 - Learning rate: 3.125e-05 - Loss: 0.82405746
Epoch: 12/15 - Batch: 6300/7933 - Learning rate: 3.125e-05 - Loss: 0.7395314
Epoch: 12/15 - Batch: 6400/7933 - Learning rate: 3.125e-05 - Loss: 0.69660777
Epoch: 12/15 - Batch: 6500/7933 - Learning rate: 3.125e-05 - Loss: 0.82135683
Epoch: 12/15 - Batch: 6600/7933 - Learning rate: 3.125e-05 - Loss: 0.8437023
Epoch: 12/15 - Batch: 6700/7933 - Learning rate: 3.125e-05 - Loss: 0.81448275
Epoch: 12/15 - Batch: 6800/7933 - Learning rate: 3.125e-05 - Loss: 0.78609425
Epoch: 12/15 - Batch: 6900/7933 - Learning rate: 3.125e-05 - Loss: 0.54031634
Epoch: 12/15 - Batch: 7000/7933 - Learning rate: 3.125e-05 - Loss: 1.1347831 - Dev BLEU: 0.22226630880614734
Epoch: 12/15 - Batch: 7100/7933 - Learning rate: 3.125e-05 - Loss: 0.8494036
Epoch: 12/15 - Batch: 7200/7933 - Learning rate: 3.125e-05 - Loss: 0.6928704
Epoch: 12/15 - Batch: 7300/7933 - Learning rate: 3.125e-05 - Loss: 0.83389765
Epoch: 12/15 - Batch: 7400/7933 - Learning rate: 3.125e-05 - Loss: 0.923839
Epoch: 12/15 - Batch: 7500/7933 - Learning rate: 3.125e-05 - Loss: 0.6796444
Epoch: 12/15 - Batch: 7600/7933 - Learning rate: 3.125e-05 - Loss: 1.1656097
Epoch: 12/15 - Batch: 7700/7933 - Learning rate: 3.125e-05 - Loss: 1.267121
Epoch: 12/15 - Batch: 7800/7933 - Learning rate: 3.125e-05 - Loss: 1.1623842
Epoch: 12/15 - Batch: 7900/7933 - Learning rate: 3.125e-05 - Loss: 0.98545575
Epoch: 12/15 - Batch: 7933/7933 - Learning rate: 3.125e-05 - Loss: 1.21482 - Dev BLEU: 0.21911037134700995
Epoch: 13/15 - Batch: 100/7933 - Learning rate: 1.5625e-05 - Loss: 0.7702048
Epoch: 13/15 - Batch: 200/7933 - Learning rate: 1.5625e-05 - Loss: 0.73910564
Epoch: 13/15 - Batch: 300/7933 - Learning rate: 1.5625e-05 - Loss: 0.52548206
Epoch: 13/15 - Batch: 400/7933 - Learning rate: 1.5625e-05 - Loss: 0.83482265
Epoch: 13/15 - Batch: 500/7933 - Learning rate: 1.5625e-05 - Loss: 0.6103045
Epoch: 13/15 - Batch: 600/7933 - Learning rate: 1.5625e-05 - Loss: 0.3960975
Epoch: 13/15 - Batch: 700/7933 - Learning rate: 1.5625e-05 - Loss: 0.6312674
Epoch: 13/15 - Batch: 800/7933 - Learning rate: 1.5625e-05 - Loss: 0.62214303
Epoch: 13/15 - Batch: 900/7933 - Learning rate: 1.5625e-05 - Loss: 0.4122146
Epoch: 13/15 - Batch: 1000/7933 - Learning rate: 1.5625e-05 - Loss: 0.7014414 - Dev BLEU: 0.20841676579697194
Epoch: 13/15 - Batch: 1100/7933 - Learning rate: 1.5625e-05 - Loss: 0.62470067
Epoch: 13/15 - Batch: 1200/7933 - Learning rate: 1.5625e-05 - Loss: 0.8081085
Epoch: 13/15 - Batch: 1300/7933 - Learning rate: 1.5625e-05 - Loss: 0.75533205
Epoch: 13/15 - Batch: 1400/7933 - Learning rate: 1.5625e-05 - Loss: 0.76102525
Epoch: 13/15 - Batch: 1500/7933 - Learning rate: 1.5625e-05 - Loss: 0.5703001
Epoch: 13/15 - Batch: 1600/7933 - Learning rate: 1.5625e-05 - Loss: 1.0964
Epoch: 13/15 - Batch: 1700/7933 - Learning rate: 1.5625e-05 - Loss: 0.7933496
Epoch: 13/15 - Batch: 1800/7933 - Learning rate: 1.5625e-05 - Loss: 0.4403866
Epoch: 13/15 - Batch: 1900/7933 - Learning rate: 1.5625e-05 - Loss: 0.65952694
Epoch: 13/15 - Batch: 2000/7933 - Learning rate: 1.5625e-05 - Loss: 0.7052847 - Dev BLEU: 0.20631046946826578
Epoch: 13/15 - Batch: 2100/7933 - Learning rate: 1.5625e-05 - Loss: 0.5321014
Epoch: 13/15 - Batch: 2200/7933 - Learning rate: 1.5625e-05 - Loss: 0.56845796
Epoch: 13/15 - Batch: 2300/7933 - Learning rate: 1.5625e-05 - Loss: 0.7294704
Epoch: 13/15 - Batch: 2400/7933 - Learning rate: 1.5625e-05 - Loss: 0.6406892
Epoch: 13/15 - Batch: 2500/7933 - Learning rate: 1.5625e-05 - Loss: 0.58717024
Epoch: 13/15 - Batch: 2600/7933 - Learning rate: 1.5625e-05 - Loss: 0.47106075
Epoch: 13/15 - Batch: 2700/7933 - Learning rate: 1.5625e-05 - Loss: 0.2867172
Epoch: 13/15 - Batch: 2800/7933 - Learning rate: 1.5625e-05 - Loss: 0.73843455
Epoch: 13/15 - Batch: 2900/7933 - Learning rate: 1.5625e-05 - Loss: 0.8500907
Epoch: 13/15 - Batch: 3000/7933 - Learning rate: 1.5625e-05 - Loss: 0.77439636 - Dev BLEU: 0.2022326267373055
Epoch: 13/15 - Batch: 3100/7933 - Learning rate: 1.5625e-05 - Loss: 0.75600946
Epoch: 13/15 - Batch: 3200/7933 - Learning rate: 1.5625e-05 - Loss: 0.7369915
Epoch: 13/15 - Batch: 3300/7933 - Learning rate: 1.5625e-05 - Loss: 0.5807754
Epoch: 13/15 - Batch: 3400/7933 - Learning rate: 1.5625e-05 - Loss: 0.582782
Epoch: 13/15 - Batch: 3500/7933 - Learning rate: 1.5625e-05 - Loss: 0.755132
Epoch: 13/15 - Batch: 3600/7933 - Learning rate: 1.5625e-05 - Loss: 0.78096044
Epoch: 13/15 - Batch: 3700/7933 - Learning rate: 1.5625e-05 - Loss: 0.7799213
Epoch: 13/15 - Batch: 3800/7933 - Learning rate: 1.5625e-05 - Loss: 0.721217
Epoch: 13/15 - Batch: 3900/7933 - Learning rate: 1.5625e-05 - Loss: 0.82509434
Epoch: 13/15 - Batch: 4000/7933 - Learning rate: 1.5625e-05 - Loss: 0.48453116 - Dev BLEU: 0.20376451667404333
Epoch: 13/15 - Batch: 4100/7933 - Learning rate: 1.5625e-05 - Loss: 0.6363318
Epoch: 13/15 - Batch: 4200/7933 - Learning rate: 1.5625e-05 - Loss: 0.55435246
Epoch: 13/15 - Batch: 4300/7933 - Learning rate: 1.5625e-05 - Loss: 0.6673178
Epoch: 13/15 - Batch: 4400/7933 - Learning rate: 1.5625e-05 - Loss: 0.58171254
Epoch: 13/15 - Batch: 4500/7933 - Learning rate: 1.5625e-05 - Loss: 0.69672894
Epoch: 13/15 - Batch: 4600/7933 - Learning rate: 1.5625e-05 - Loss: 1.0764364
Epoch: 13/15 - Batch: 4700/7933 - Learning rate: 1.5625e-05 - Loss: 0.79165
Epoch: 13/15 - Batch: 4800/7933 - Learning rate: 1.5625e-05 - Loss: 0.76210344
Epoch: 13/15 - Batch: 4900/7933 - Learning rate: 1.5625e-05 - Loss: 0.9296858
Epoch: 13/15 - Batch: 5000/7933 - Learning rate: 1.5625e-05 - Loss: 0.9446952 - Dev BLEU: 0.21448544845225556
Epoch: 13/15 - Batch: 5100/7933 - Learning rate: 1.5625e-05 - Loss: 1.0022824
Epoch: 13/15 - Batch: 5200/7933 - Learning rate: 1.5625e-05 - Loss: 0.99307543
Epoch: 13/15 - Batch: 5300/7933 - Learning rate: 1.5625e-05 - Loss: 0.97392446
Epoch: 13/15 - Batch: 5400/7933 - Learning rate: 1.5625e-05 - Loss: 0.8812116
Epoch: 13/15 - Batch: 5500/7933 - Learning rate: 1.5625e-05 - Loss: 0.944769
Epoch: 13/15 - Batch: 5600/7933 - Learning rate: 1.5625e-05 - Loss: 0.7492811
Epoch: 13/15 - Batch: 5700/7933 - Learning rate: 1.5625e-05 - Loss: 0.8862554
Epoch: 13/15 - Batch: 5800/7933 - Learning rate: 1.5625e-05 - Loss: 0.85622585
Epoch: 13/15 - Batch: 5900/7933 - Learning rate: 1.5625e-05 - Loss: 0.61374116
Epoch: 13/15 - Batch: 6000/7933 - Learning rate: 1.5625e-05 - Loss: 0.92546296 - Dev BLEU: 0.2179730183776487
Epoch: 13/15 - Batch: 6100/7933 - Learning rate: 1.5625e-05 - Loss: 0.88085467
Epoch: 13/15 - Batch: 6200/7933 - Learning rate: 1.5625e-05 - Loss: 0.81281525
Epoch: 13/15 - Batch: 6300/7933 - Learning rate: 1.5625e-05 - Loss: 0.7628016
Epoch: 13/15 - Batch: 6400/7933 - Learning rate: 1.5625e-05 - Loss: 0.70366573
Epoch: 13/15 - Batch: 6500/7933 - Learning rate: 1.5625e-05 - Loss: 0.8117519
Epoch: 13/15 - Batch: 6600/7933 - Learning rate: 1.5625e-05 - Loss: 0.85438484
Epoch: 13/15 - Batch: 6700/7933 - Learning rate: 1.5625e-05 - Loss: 0.8081904
Epoch: 13/15 - Batch: 6800/7933 - Learning rate: 1.5625e-05 - Loss: 0.7865498
Epoch: 13/15 - Batch: 6900/7933 - Learning rate: 1.5625e-05 - Loss: 0.5451604
Epoch: 13/15 - Batch: 7000/7933 - Learning rate: 1.5625e-05 - Loss: 1.144056 - Dev BLEU: 0.2215390967781885
Epoch: 13/15 - Batch: 7100/7933 - Learning rate: 1.5625e-05 - Loss: 0.8489952
Epoch: 13/15 - Batch: 7200/7933 - Learning rate: 1.5625e-05 - Loss: 0.6915357
Epoch: 13/15 - Batch: 7300/7933 - Learning rate: 1.5625e-05 - Loss: 0.83959067
Epoch: 13/15 - Batch: 7400/7933 - Learning rate: 1.5625e-05 - Loss: 0.9272254
Epoch: 13/15 - Batch: 7500/7933 - Learning rate: 1.5625e-05 - Loss: 0.6838637
Epoch: 13/15 - Batch: 7600/7933 - Learning rate: 1.5625e-05 - Loss: 1.1567334
Epoch: 13/15 - Batch: 7700/7933 - Learning rate: 1.5625e-05 - Loss: 1.2679979
Epoch: 13/15 - Batch: 7800/7933 - Learning rate: 1.5625e-05 - Loss: 1.1600684
Epoch: 13/15 - Batch: 7900/7933 - Learning rate: 1.5625e-05 - Loss: 0.9903053
Epoch: 13/15 - Batch: 7933/7933 - Learning rate: 1.5625e-05 - Loss: 1.2150582 - Dev BLEU: 0.21731212571481445
Epoch: 14/15 - Batch: 100/7933 - Learning rate: 7.8125e-06 - Loss: 0.770239
Epoch: 14/15 - Batch: 200/7933 - Learning rate: 7.8125e-06 - Loss: 0.7535238
Epoch: 14/15 - Batch: 300/7933 - Learning rate: 7.8125e-06 - Loss: 0.51924235
Epoch: 14/15 - Batch: 400/7933 - Learning rate: 7.8125e-06 - Loss: 0.8391129
Epoch: 14/15 - Batch: 500/7933 - Learning rate: 7.8125e-06 - Loss: 0.5971141
Epoch: 14/15 - Batch: 600/7933 - Learning rate: 7.8125e-06 - Loss: 0.3920492
Epoch: 14/15 - Batch: 700/7933 - Learning rate: 7.8125e-06 - Loss: 0.6440343
Epoch: 14/15 - Batch: 800/7933 - Learning rate: 7.8125e-06 - Loss: 0.63217705
Epoch: 14/15 - Batch: 900/7933 - Learning rate: 7.8125e-06 - Loss: 0.4096182
Epoch: 14/15 - Batch: 1000/7933 - Learning rate: 7.8125e-06 - Loss: 0.6870537 - Dev BLEU: 0.2128680887477614
Epoch: 14/15 - Batch: 1100/7933 - Learning rate: 7.8125e-06 - Loss: 0.6164154
Epoch: 14/15 - Batch: 1200/7933 - Learning rate: 7.8125e-06 - Loss: 0.81008685
Epoch: 14/15 - Batch: 1300/7933 - Learning rate: 7.8125e-06 - Loss: 0.7431427
Epoch: 14/15 - Batch: 1400/7933 - Learning rate: 7.8125e-06 - Loss: 0.7666363
Epoch: 14/15 - Batch: 1500/7933 - Learning rate: 7.8125e-06 - Loss: 0.5662265
Epoch: 14/15 - Batch: 1600/7933 - Learning rate: 7.8125e-06 - Loss: 1.0918806
Epoch: 14/15 - Batch: 1700/7933 - Learning rate: 7.8125e-06 - Loss: 0.7813597
Epoch: 14/15 - Batch: 1800/7933 - Learning rate: 7.8125e-06 - Loss: 0.43963954
Epoch: 14/15 - Batch: 1900/7933 - Learning rate: 7.8125e-06 - Loss: 0.6435207
Epoch: 14/15 - Batch: 2000/7933 - Learning rate: 7.8125e-06 - Loss: 0.7089844 - Dev BLEU: 0.20973001238079886
Epoch: 14/15 - Batch: 2100/7933 - Learning rate: 7.8125e-06 - Loss: 0.5303519
Epoch: 14/15 - Batch: 2200/7933 - Learning rate: 7.8125e-06 - Loss: 0.57681155
Epoch: 14/15 - Batch: 2300/7933 - Learning rate: 7.8125e-06 - Loss: 0.7417972
Epoch: 14/15 - Batch: 2400/7933 - Learning rate: 7.8125e-06 - Loss: 0.6423296
Epoch: 14/15 - Batch: 2500/7933 - Learning rate: 7.8125e-06 - Loss: 0.58987844
Epoch: 14/15 - Batch: 2600/7933 - Learning rate: 7.8125e-06 - Loss: 0.47105289
Epoch: 14/15 - Batch: 2700/7933 - Learning rate: 7.8125e-06 - Loss: 0.29204246
Epoch: 14/15 - Batch: 2800/7933 - Learning rate: 7.8125e-06 - Loss: 0.74347943
Epoch: 14/15 - Batch: 2900/7933 - Learning rate: 7.8125e-06 - Loss: 0.8356473
Epoch: 14/15 - Batch: 3000/7933 - Learning rate: 7.8125e-06 - Loss: 0.7759351 - Dev BLEU: 0.2062789507095126
Epoch: 14/15 - Batch: 3100/7933 - Learning rate: 7.8125e-06 - Loss: 0.76073784
Epoch: 14/15 - Batch: 3200/7933 - Learning rate: 7.8125e-06 - Loss: 0.72219247
Epoch: 14/15 - Batch: 3300/7933 - Learning rate: 7.8125e-06 - Loss: 0.5848012
Epoch: 14/15 - Batch: 3400/7933 - Learning rate: 7.8125e-06 - Loss: 0.58861846
Epoch: 14/15 - Batch: 3500/7933 - Learning rate: 7.8125e-06 - Loss: 0.7462719
Epoch: 14/15 - Batch: 3600/7933 - Learning rate: 7.8125e-06 - Loss: 0.78308207
Epoch: 14/15 - Batch: 3700/7933 - Learning rate: 7.8125e-06 - Loss: 0.7643674
Epoch: 14/15 - Batch: 3800/7933 - Learning rate: 7.8125e-06 - Loss: 0.7253929
Epoch: 14/15 - Batch: 3900/7933 - Learning rate: 7.8125e-06 - Loss: 0.81861115
Epoch: 14/15 - Batch: 4000/7933 - Learning rate: 7.8125e-06 - Loss: 0.48627275 - Dev BLEU: 0.20636053149683617
Epoch: 14/15 - Batch: 4100/7933 - Learning rate: 7.8125e-06 - Loss: 0.64200646
Epoch: 14/15 - Batch: 4200/7933 - Learning rate: 7.8125e-06 - Loss: 0.5561165
Epoch: 14/15 - Batch: 4300/7933 - Learning rate: 7.8125e-06 - Loss: 0.66082484
Epoch: 14/15 - Batch: 4400/7933 - Learning rate: 7.8125e-06 - Loss: 0.58764935
Epoch: 14/15 - Batch: 4500/7933 - Learning rate: 7.8125e-06 - Loss: 0.7021032
Epoch: 14/15 - Batch: 4600/7933 - Learning rate: 7.8125e-06 - Loss: 1.0776219
Epoch: 14/15 - Batch: 4700/7933 - Learning rate: 7.8125e-06 - Loss: 0.8049207
Epoch: 14/15 - Batch: 4800/7933 - Learning rate: 7.8125e-06 - Loss: 0.76834464
Epoch: 14/15 - Batch: 4900/7933 - Learning rate: 7.8125e-06 - Loss: 0.95736426
Epoch: 14/15 - Batch: 5000/7933 - Learning rate: 7.8125e-06 - Loss: 0.9442787 - Dev BLEU: 0.21525418504489618
Epoch: 14/15 - Batch: 5100/7933 - Learning rate: 7.8125e-06 - Loss: 0.9879885
Epoch: 14/15 - Batch: 5200/7933 - Learning rate: 7.8125e-06 - Loss: 0.9955668
Epoch: 14/15 - Batch: 5300/7933 - Learning rate: 7.8125e-06 - Loss: 0.9541958
Epoch: 14/15 - Batch: 5400/7933 - Learning rate: 7.8125e-06 - Loss: 0.86995155
Epoch: 14/15 - Batch: 5500/7933 - Learning rate: 7.8125e-06 - Loss: 0.93670076
Epoch: 14/15 - Batch: 5600/7933 - Learning rate: 7.8125e-06 - Loss: 0.7537334
Epoch: 14/15 - Batch: 5700/7933 - Learning rate: 7.8125e-06 - Loss: 0.8886189
Epoch: 14/15 - Batch: 5800/7933 - Learning rate: 7.8125e-06 - Loss: 0.8594757
Epoch: 14/15 - Batch: 5900/7933 - Learning rate: 7.8125e-06 - Loss: 0.6177579
Epoch: 14/15 - Batch: 6000/7933 - Learning rate: 7.8125e-06 - Loss: 0.93484336 - Dev BLEU: 0.21576819951173876
Epoch: 14/15 - Batch: 6100/7933 - Learning rate: 7.8125e-06 - Loss: 0.88162017
Epoch: 14/15 - Batch: 6200/7933 - Learning rate: 7.8125e-06 - Loss: 0.8208895
Epoch: 14/15 - Batch: 6300/7933 - Learning rate: 7.8125e-06 - Loss: 0.75899535
Epoch: 14/15 - Batch: 6400/7933 - Learning rate: 7.8125e-06 - Loss: 0.69633794
Epoch: 14/15 - Batch: 6500/7933 - Learning rate: 7.8125e-06 - Loss: 0.8091189
Epoch: 14/15 - Batch: 6600/7933 - Learning rate: 7.8125e-06 - Loss: 0.8491178
Epoch: 14/15 - Batch: 6700/7933 - Learning rate: 7.8125e-06 - Loss: 0.81446147
Epoch: 14/15 - Batch: 6800/7933 - Learning rate: 7.8125e-06 - Loss: 0.7877473
Epoch: 14/15 - Batch: 6900/7933 - Learning rate: 7.8125e-06 - Loss: 0.5432189
Epoch: 14/15 - Batch: 7000/7933 - Learning rate: 7.8125e-06 - Loss: 1.149483 - Dev BLEU: 0.21929873492100097
Epoch: 14/15 - Batch: 7100/7933 - Learning rate: 7.8125e-06 - Loss: 0.8555147
Epoch: 14/15 - Batch: 7200/7933 - Learning rate: 7.8125e-06 - Loss: 0.7011994
Epoch: 14/15 - Batch: 7300/7933 - Learning rate: 7.8125e-06 - Loss: 0.8454078
Epoch: 14/15 - Batch: 7400/7933 - Learning rate: 7.8125e-06 - Loss: 0.92717123
Epoch: 14/15 - Batch: 7500/7933 - Learning rate: 7.8125e-06 - Loss: 0.6758906
Epoch: 14/15 - Batch: 7600/7933 - Learning rate: 7.8125e-06 - Loss: 1.1582688
Epoch: 14/15 - Batch: 7700/7933 - Learning rate: 7.8125e-06 - Loss: 1.2706105
Epoch: 14/15 - Batch: 7800/7933 - Learning rate: 7.8125e-06 - Loss: 1.1696254
Epoch: 14/15 - Batch: 7900/7933 - Learning rate: 7.8125e-06 - Loss: 0.9842428
Epoch: 14/15 - Batch: 7933/7933 - Learning rate: 7.8125e-06 - Loss: 1.2186785 - Dev BLEU: 0.21894108848911506
Epoch: 15/15 - Batch: 100/7933 - Learning rate: 3.90625e-06 - Loss: 0.76906604
Epoch: 15/15 - Batch: 200/7933 - Learning rate: 3.90625e-06 - Loss: 0.7354561
Epoch: 15/15 - Batch: 300/7933 - Learning rate: 3.90625e-06 - Loss: 0.52469915
Epoch: 15/15 - Batch: 400/7933 - Learning rate: 3.90625e-06 - Loss: 0.81173354
Epoch: 15/15 - Batch: 500/7933 - Learning rate: 3.90625e-06 - Loss: 0.6168453
Epoch: 15/15 - Batch: 600/7933 - Learning rate: 3.90625e-06 - Loss: 0.40217662
Epoch: 15/15 - Batch: 700/7933 - Learning rate: 3.90625e-06 - Loss: 0.6371398
Epoch: 15/15 - Batch: 800/7933 - Learning rate: 3.90625e-06 - Loss: 0.6248248
Epoch: 15/15 - Batch: 900/7933 - Learning rate: 3.90625e-06 - Loss: 0.40413317
Epoch: 15/15 - Batch: 1000/7933 - Learning rate: 3.90625e-06 - Loss: 0.6893148 - Dev BLEU: 0.2158077225340301
Epoch: 15/15 - Batch: 1100/7933 - Learning rate: 3.90625e-06 - Loss: 0.6157847
Epoch: 15/15 - Batch: 1200/7933 - Learning rate: 3.90625e-06 - Loss: 0.82213324
Epoch: 15/15 - Batch: 1300/7933 - Learning rate: 3.90625e-06 - Loss: 0.752547
Epoch: 15/15 - Batch: 1400/7933 - Learning rate: 3.90625e-06 - Loss: 0.7703167
Epoch: 15/15 - Batch: 1500/7933 - Learning rate: 3.90625e-06 - Loss: 0.5874146
Epoch: 15/15 - Batch: 1600/7933 - Learning rate: 3.90625e-06 - Loss: 1.1068513
Epoch: 15/15 - Batch: 1700/7933 - Learning rate: 3.90625e-06 - Loss: 0.792832
Epoch: 15/15 - Batch: 1800/7933 - Learning rate: 3.90625e-06 - Loss: 0.43466038
Epoch: 15/15 - Batch: 1900/7933 - Learning rate: 3.90625e-06 - Loss: 0.64499766
Epoch: 15/15 - Batch: 2000/7933 - Learning rate: 3.90625e-06 - Loss: 0.68585104 - Dev BLEU: 0.2126029411582036
Epoch: 15/15 - Batch: 2100/7933 - Learning rate: 3.90625e-06 - Loss: 0.5349793
Epoch: 15/15 - Batch: 2200/7933 - Learning rate: 3.90625e-06 - Loss: 0.5822274
Epoch: 15/15 - Batch: 2300/7933 - Learning rate: 3.90625e-06 - Loss: 0.73156077
Epoch: 15/15 - Batch: 2400/7933 - Learning rate: 3.90625e-06 - Loss: 0.6407248
Epoch: 15/15 - Batch: 2500/7933 - Learning rate: 3.90625e-06 - Loss: 0.59248626
Epoch: 15/15 - Batch: 2600/7933 - Learning rate: 3.90625e-06 - Loss: 0.47060403
Epoch: 15/15 - Batch: 2700/7933 - Learning rate: 3.90625e-06 - Loss: 0.29153275
Epoch: 15/15 - Batch: 2800/7933 - Learning rate: 3.90625e-06 - Loss: 0.74959815
Epoch: 15/15 - Batch: 2900/7933 - Learning rate: 3.90625e-06 - Loss: 0.8373539
Epoch: 15/15 - Batch: 3000/7933 - Learning rate: 3.90625e-06 - Loss: 0.7578137 - Dev BLEU: 0.21230169872585652
Epoch: 15/15 - Batch: 3100/7933 - Learning rate: 3.90625e-06 - Loss: 0.75361663
Epoch: 15/15 - Batch: 3200/7933 - Learning rate: 3.90625e-06 - Loss: 0.72811526
Epoch: 15/15 - Batch: 3300/7933 - Learning rate: 3.90625e-06 - Loss: 0.5844561
Epoch: 15/15 - Batch: 3400/7933 - Learning rate: 3.90625e-06 - Loss: 0.59025484
Epoch: 15/15 - Batch: 3500/7933 - Learning rate: 3.90625e-06 - Loss: 0.75563705
Epoch: 15/15 - Batch: 3600/7933 - Learning rate: 3.90625e-06 - Loss: 0.773855
Epoch: 15/15 - Batch: 3700/7933 - Learning rate: 3.90625e-06 - Loss: 0.7644363
Epoch: 15/15 - Batch: 3800/7933 - Learning rate: 3.90625e-06 - Loss: 0.7200895
Epoch: 15/15 - Batch: 3900/7933 - Learning rate: 3.90625e-06 - Loss: 0.8193645
Epoch: 15/15 - Batch: 4000/7933 - Learning rate: 3.90625e-06 - Loss: 0.48071584 - Dev BLEU: 0.20986810589961172
Epoch: 15/15 - Batch: 4100/7933 - Learning rate: 3.90625e-06 - Loss: 0.639391
Epoch: 15/15 - Batch: 4200/7933 - Learning rate: 3.90625e-06 - Loss: 0.5545757
Epoch: 15/15 - Batch: 4300/7933 - Learning rate: 3.90625e-06 - Loss: 0.6573772
Epoch: 15/15 - Batch: 4400/7933 - Learning rate: 3.90625e-06 - Loss: 0.585734
Epoch: 15/15 - Batch: 4500/7933 - Learning rate: 3.90625e-06 - Loss: 0.6910635
Epoch: 15/15 - Batch: 4600/7933 - Learning rate: 3.90625e-06 - Loss: 1.0572319
Epoch: 15/15 - Batch: 4700/7933 - Learning rate: 3.90625e-06 - Loss: 0.80769575
Epoch: 15/15 - Batch: 4800/7933 - Learning rate: 3.90625e-06 - Loss: 0.76099706
Epoch: 15/15 - Batch: 4900/7933 - Learning rate: 3.90625e-06 - Loss: 0.9495018
Epoch: 15/15 - Batch: 5000/7933 - Learning rate: 3.90625e-06 - Loss: 0.9448127 - Dev BLEU: 0.2148464757218821
Epoch: 15/15 - Batch: 5100/7933 - Learning rate: 3.90625e-06 - Loss: 0.9981108
Epoch: 15/15 - Batch: 5200/7933 - Learning rate: 3.90625e-06 - Loss: 1.0179536
Epoch: 15/15 - Batch: 5300/7933 - Learning rate: 3.90625e-06 - Loss: 0.9553148
Epoch: 15/15 - Batch: 5400/7933 - Learning rate: 3.90625e-06 - Loss: 0.8737628
Epoch: 15/15 - Batch: 5500/7933 - Learning rate: 3.90625e-06 - Loss: 0.9541222
Epoch: 15/15 - Batch: 5600/7933 - Learning rate: 3.90625e-06 - Loss: 0.75582767
Epoch: 15/15 - Batch: 5700/7933 - Learning rate: 3.90625e-06 - Loss: 0.8568547
Epoch: 15/15 - Batch: 5800/7933 - Learning rate: 3.90625e-06 - Loss: 0.84131217
Epoch: 15/15 - Batch: 5900/7933 - Learning rate: 3.90625e-06 - Loss: 0.6244177
Epoch: 15/15 - Batch: 6000/7933 - Learning rate: 3.90625e-06 - Loss: 0.91692716 - Dev BLEU: 0.21690136904067808
Epoch: 15/15 - Batch: 6100/7933 - Learning rate: 3.90625e-06 - Loss: 0.894103
Epoch: 15/15 - Batch: 6200/7933 - Learning rate: 3.90625e-06 - Loss: 0.81821066
Epoch: 15/15 - Batch: 6300/7933 - Learning rate: 3.90625e-06 - Loss: 0.7593815
Epoch: 15/15 - Batch: 6400/7933 - Learning rate: 3.90625e-06 - Loss: 0.6973344
Epoch: 15/15 - Batch: 6500/7933 - Learning rate: 3.90625e-06 - Loss: 0.81301045
Epoch: 15/15 - Batch: 6600/7933 - Learning rate: 3.90625e-06 - Loss: 0.8523046
Epoch: 15/15 - Batch: 6700/7933 - Learning rate: 3.90625e-06 - Loss: 0.8220696
Epoch: 15/15 - Batch: 6800/7933 - Learning rate: 3.90625e-06 - Loss: 0.7869476
Epoch: 15/15 - Batch: 6900/7933 - Learning rate: 3.90625e-06 - Loss: 0.54040223
Epoch: 15/15 - Batch: 7000/7933 - Learning rate: 3.90625e-06 - Loss: 1.1476347 - Dev BLEU: 0.21815575120024194
Epoch: 15/15 - Batch: 7100/7933 - Learning rate: 3.90625e-06 - Loss: 0.8495604
Epoch: 15/15 - Batch: 7200/7933 - Learning rate: 3.90625e-06 - Loss: 0.6921069
Epoch: 15/15 - Batch: 7300/7933 - Learning rate: 3.90625e-06 - Loss: 0.8517108
Epoch: 15/15 - Batch: 7400/7933 - Learning rate: 3.90625e-06 - Loss: 0.93433976
Epoch: 15/15 - Batch: 7500/7933 - Learning rate: 3.90625e-06 - Loss: 0.6809832
Epoch: 15/15 - Batch: 7600/7933 - Learning rate: 3.90625e-06 - Loss: 1.1515254
Epoch: 15/15 - Batch: 7700/7933 - Learning rate: 3.90625e-06 - Loss: 1.2703468
Epoch: 15/15 - Batch: 7800/7933 - Learning rate: 3.90625e-06 - Loss: 1.1693877
Epoch: 15/15 - Batch: 7900/7933 - Learning rate: 3.90625e-06 - Loss: 0.98445135
Epoch: 15/15 - Batch: 7933/7933 - Learning rate: 3.90625e-06 - Loss: 1.2415614 - Dev BLEU: 0.21939351252286887 - Test BLEU: 0.2413190796758516
