Epoch: 1/15 - Batch: 100/7933 - Learning rate: 0.001 - Loss: 1.8815713
Epoch: 1/15 - Batch: 200/7933 - Learning rate: 0.001 - Loss: 2.5430381
Epoch: 1/15 - Batch: 300/7933 - Learning rate: 0.001 - Loss: 1.2757897
Epoch: 1/15 - Batch: 400/7933 - Learning rate: 0.001 - Loss: 2.2727292
Epoch: 1/15 - Batch: 500/7933 - Learning rate: 0.001 - Loss: 2.077084
Epoch: 1/15 - Batch: 600/7933 - Learning rate: 0.001 - Loss: 0.86751556
Epoch: 1/15 - Batch: 700/7933 - Learning rate: 0.001 - Loss: 1.8682598
Epoch: 1/15 - Batch: 800/7933 - Learning rate: 0.001 - Loss: 1.5486121
Epoch: 1/15 - Batch: 900/7933 - Learning rate: 0.001 - Loss: 1.0428611
Epoch: 1/15 - Batch: 1000/7933 - Learning rate: 0.001 - Loss: 1.8017396 - Dev BLEU: 0.001398842140000082
Epoch: 1/15 - Batch: 1100/7933 - Learning rate: 0.001 - Loss: 1.4472194
Epoch: 1/15 - Batch: 1200/7933 - Learning rate: 0.001 - Loss: 1.9709625
Epoch: 1/15 - Batch: 1300/7933 - Learning rate: 0.001 - Loss: 1.8341521
Epoch: 1/15 - Batch: 1400/7933 - Learning rate: 0.001 - Loss: 1.9370162
Epoch: 1/15 - Batch: 1500/7933 - Learning rate: 0.001 - Loss: 1.3629296
Epoch: 1/15 - Batch: 1600/7933 - Learning rate: 0.001 - Loss: 2.437569
Epoch: 1/15 - Batch: 1700/7933 - Learning rate: 0.001 - Loss: 1.8505824
Epoch: 1/15 - Batch: 1800/7933 - Learning rate: 0.001 - Loss: 1.2514349
Epoch: 1/15 - Batch: 1900/7933 - Learning rate: 0.001 - Loss: 1.455
Epoch: 1/15 - Batch: 2000/7933 - Learning rate: 0.001 - Loss: 1.62082 - Dev BLEU: 0.003437541780729871
Epoch: 1/15 - Batch: 2100/7933 - Learning rate: 0.001 - Loss: 1.3376852
Epoch: 1/15 - Batch: 2200/7933 - Learning rate: 0.001 - Loss: 1.5572563
Epoch: 1/15 - Batch: 2300/7933 - Learning rate: 0.001 - Loss: 1.7548424
Epoch: 1/15 - Batch: 2400/7933 - Learning rate: 0.001 - Loss: 1.4610678
Epoch: 1/15 - Batch: 2500/7933 - Learning rate: 0.001 - Loss: 1.6840864
Epoch: 1/15 - Batch: 2600/7933 - Learning rate: 0.001 - Loss: 1.1386553
Epoch: 1/15 - Batch: 2700/7933 - Learning rate: 0.001 - Loss: 0.7087382
Epoch: 1/15 - Batch: 2800/7933 - Learning rate: 0.001 - Loss: 1.7681527
Epoch: 1/15 - Batch: 2900/7933 - Learning rate: 0.001 - Loss: 1.7302775
Epoch: 1/15 - Batch: 3000/7933 - Learning rate: 0.001 - Loss: 1.6341118 - Dev BLEU: 0.011614072178723428
Epoch: 1/15 - Batch: 3100/7933 - Learning rate: 0.001 - Loss: 1.4032168
Epoch: 1/15 - Batch: 3200/7933 - Learning rate: 0.001 - Loss: 1.4927891
Epoch: 1/15 - Batch: 3300/7933 - Learning rate: 0.001 - Loss: 1.364621
Epoch: 1/15 - Batch: 3400/7933 - Learning rate: 0.001 - Loss: 1.2665043
Epoch: 1/15 - Batch: 3500/7933 - Learning rate: 0.001 - Loss: 1.7824337
Epoch: 1/15 - Batch: 3600/7933 - Learning rate: 0.001 - Loss: 1.5308578
Epoch: 1/15 - Batch: 3700/7933 - Learning rate: 0.001 - Loss: 1.644401
Epoch: 1/15 - Batch: 3800/7933 - Learning rate: 0.001 - Loss: 1.5692108
Epoch: 1/15 - Batch: 3900/7933 - Learning rate: 0.001 - Loss: 1.7206584
Epoch: 1/15 - Batch: 4000/7933 - Learning rate: 0.001 - Loss: 0.9965361 - Dev BLEU: 0.02070829845685719
Epoch: 1/15 - Batch: 4100/7933 - Learning rate: 0.001 - Loss: 1.251399
Epoch: 1/15 - Batch: 4200/7933 - Learning rate: 0.001 - Loss: 1.1795323
Epoch: 1/15 - Batch: 4300/7933 - Learning rate: 0.001 - Loss: 1.2960308
Epoch: 1/15 - Batch: 4400/7933 - Learning rate: 0.001 - Loss: 1.2688599
Epoch: 1/15 - Batch: 4500/7933 - Learning rate: 0.001 - Loss: 1.3994571
Epoch: 1/15 - Batch: 4600/7933 - Learning rate: 0.001 - Loss: 2.6131706
Epoch: 1/15 - Batch: 4700/7933 - Learning rate: 0.001 - Loss: 2.0011466
Epoch: 1/15 - Batch: 4800/7933 - Learning rate: 0.001 - Loss: 2.0069013
Epoch: 1/15 - Batch: 4900/7933 - Learning rate: 0.001 - Loss: 2.1745574
Epoch: 1/15 - Batch: 5000/7933 - Learning rate: 0.001 - Loss: 1.9966909 - Dev BLEU: 0.03455186199121744
Epoch: 1/15 - Batch: 5100/7933 - Learning rate: 0.001 - Loss: 1.9133785
Epoch: 1/15 - Batch: 5200/7933 - Learning rate: 0.001 - Loss: 2.0082192
Epoch: 1/15 - Batch: 5300/7933 - Learning rate: 0.001 - Loss: 1.9444286
Epoch: 1/15 - Batch: 5400/7933 - Learning rate: 0.001 - Loss: 1.9106722
Epoch: 1/15 - Batch: 5500/7933 - Learning rate: 0.001 - Loss: 2.0225315
Epoch: 1/15 - Batch: 5600/7933 - Learning rate: 0.001 - Loss: 1.5971334
Epoch: 1/15 - Batch: 5700/7933 - Learning rate: 0.001 - Loss: 1.9729866
Epoch: 1/15 - Batch: 5800/7933 - Learning rate: 0.001 - Loss: 1.9236624
Epoch: 1/15 - Batch: 5900/7933 - Learning rate: 0.001 - Loss: 1.5438643
Epoch: 1/15 - Batch: 6000/7933 - Learning rate: 0.001 - Loss: 1.8994317 - Dev BLEU: 0.04830589435110711
Epoch: 1/15 - Batch: 6100/7933 - Learning rate: 0.001 - Loss: 2.0405118
Epoch: 1/15 - Batch: 6200/7933 - Learning rate: 0.001 - Loss: 1.6534283
Epoch: 1/15 - Batch: 6300/7933 - Learning rate: 0.001 - Loss: 1.691399
Epoch: 1/15 - Batch: 6400/7933 - Learning rate: 0.001 - Loss: 1.3407226
Epoch: 1/15 - Batch: 6500/7933 - Learning rate: 0.001 - Loss: 1.4274669
Epoch: 1/15 - Batch: 6600/7933 - Learning rate: 0.001 - Loss: 1.5867279
Epoch: 1/15 - Batch: 6700/7933 - Learning rate: 0.001 - Loss: 1.3376449
Epoch: 1/15 - Batch: 6800/7933 - Learning rate: 0.001 - Loss: 1.2349648
Epoch: 1/15 - Batch: 6900/7933 - Learning rate: 0.001 - Loss: 0.97450715
Epoch: 1/15 - Batch: 7000/7933 - Learning rate: 0.001 - Loss: 1.8940408 - Dev BLEU: 0.0853474536330805
Epoch: 1/15 - Batch: 7100/7933 - Learning rate: 0.001 - Loss: 1.472149
Epoch: 1/15 - Batch: 7200/7933 - Learning rate: 0.001 - Loss: 1.1659143
Epoch: 1/15 - Batch: 7300/7933 - Learning rate: 0.001 - Loss: 1.3747997
Epoch: 1/15 - Batch: 7400/7933 - Learning rate: 0.001 - Loss: 1.477498
Epoch: 1/15 - Batch: 7500/7933 - Learning rate: 0.001 - Loss: 1.0304847
Epoch: 1/15 - Batch: 7600/7933 - Learning rate: 0.001 - Loss: 1.8602618
Epoch: 1/15 - Batch: 7700/7933 - Learning rate: 0.001 - Loss: 2.025228
Epoch: 1/15 - Batch: 7800/7933 - Learning rate: 0.001 - Loss: 1.853828
Epoch: 1/15 - Batch: 7900/7933 - Learning rate: 0.001 - Loss: 1.5353109
Epoch: 1/15 - Batch: 7933/7933 - Learning rate: 0.001 - Loss: 2.0333652 - Dev BLEU: 0.07782103696623767
Epoch: 2/15 - Batch: 100/7933 - Learning rate: 0.001 - Loss: 1.0875087
Epoch: 2/15 - Batch: 200/7933 - Learning rate: 0.001 - Loss: 1.3094941
Epoch: 2/15 - Batch: 300/7933 - Learning rate: 0.001 - Loss: 0.7673875
Epoch: 2/15 - Batch: 400/7933 - Learning rate: 0.001 - Loss: 1.3649703
Epoch: 2/15 - Batch: 500/7933 - Learning rate: 0.001 - Loss: 1.2105534
Epoch: 2/15 - Batch: 600/7933 - Learning rate: 0.001 - Loss: 0.566281
Epoch: 2/15 - Batch: 700/7933 - Learning rate: 0.001 - Loss: 1.0692887
Epoch: 2/15 - Batch: 800/7933 - Learning rate: 0.001 - Loss: 0.9872258
Epoch: 2/15 - Batch: 900/7933 - Learning rate: 0.001 - Loss: 0.6208363
Epoch: 2/15 - Batch: 1000/7933 - Learning rate: 0.001 - Loss: 1.1347228 - Dev BLEU: 0.07323734327821768
Epoch: 2/15 - Batch: 1100/7933 - Learning rate: 0.001 - Loss: 0.93958133
Epoch: 2/15 - Batch: 1200/7933 - Learning rate: 0.001 - Loss: 1.3151816
Epoch: 2/15 - Batch: 1300/7933 - Learning rate: 0.001 - Loss: 1.2040673
Epoch: 2/15 - Batch: 1400/7933 - Learning rate: 0.001 - Loss: 1.209395
Epoch: 2/15 - Batch: 1500/7933 - Learning rate: 0.001 - Loss: 0.84383684
Epoch: 2/15 - Batch: 1600/7933 - Learning rate: 0.001 - Loss: 1.6626501
Epoch: 2/15 - Batch: 1700/7933 - Learning rate: 0.001 - Loss: 1.223825
Epoch: 2/15 - Batch: 1800/7933 - Learning rate: 0.001 - Loss: 0.72448933
Epoch: 2/15 - Batch: 1900/7933 - Learning rate: 0.001 - Loss: 0.9993981
Epoch: 2/15 - Batch: 2000/7933 - Learning rate: 0.001 - Loss: 1.0420306 - Dev BLEU: 0.07237043482148982
Epoch: 2/15 - Batch: 2100/7933 - Learning rate: 0.001 - Loss: 0.8806166
Epoch: 2/15 - Batch: 2200/7933 - Learning rate: 0.001 - Loss: 0.9647026
Epoch: 2/15 - Batch: 2300/7933 - Learning rate: 0.001 - Loss: 1.1359973
Epoch: 2/15 - Batch: 2400/7933 - Learning rate: 0.001 - Loss: 0.9694569
Epoch: 2/15 - Batch: 2500/7933 - Learning rate: 0.001 - Loss: 1.0088323
Epoch: 2/15 - Batch: 2600/7933 - Learning rate: 0.001 - Loss: 0.73181605
Epoch: 2/15 - Batch: 2700/7933 - Learning rate: 0.001 - Loss: 0.43368292
Epoch: 2/15 - Batch: 2800/7933 - Learning rate: 0.001 - Loss: 1.166454
Epoch: 2/15 - Batch: 2900/7933 - Learning rate: 0.001 - Loss: 1.2503814
Epoch: 2/15 - Batch: 3000/7933 - Learning rate: 0.001 - Loss: 1.1898597 - Dev BLEU: 0.08206285078978398
Epoch: 2/15 - Batch: 3100/7933 - Learning rate: 0.001 - Loss: 1.126914
Epoch: 2/15 - Batch: 3200/7933 - Learning rate: 0.001 - Loss: 1.0506302
Epoch: 2/15 - Batch: 3300/7933 - Learning rate: 0.001 - Loss: 0.87606144
Epoch: 2/15 - Batch: 3400/7933 - Learning rate: 0.001 - Loss: 0.871387
Epoch: 2/15 - Batch: 3500/7933 - Learning rate: 0.001 - Loss: 1.2111293
Epoch: 2/15 - Batch: 3600/7933 - Learning rate: 0.001 - Loss: 1.1277694
Epoch: 2/15 - Batch: 3700/7933 - Learning rate: 0.001 - Loss: 1.1678973
Epoch: 2/15 - Batch: 3800/7933 - Learning rate: 0.001 - Loss: 1.0612488
Epoch: 2/15 - Batch: 3900/7933 - Learning rate: 0.001 - Loss: 1.2293876
Epoch: 2/15 - Batch: 4000/7933 - Learning rate: 0.001 - Loss: 0.70694214 - Dev BLEU: 0.09256810192244962
Epoch: 2/15 - Batch: 4100/7933 - Learning rate: 0.001 - Loss: 0.910549
Epoch: 2/15 - Batch: 4200/7933 - Learning rate: 0.001 - Loss: 0.83008415
Epoch: 2/15 - Batch: 4300/7933 - Learning rate: 0.001 - Loss: 0.929674
Epoch: 2/15 - Batch: 4400/7933 - Learning rate: 0.001 - Loss: 0.87861603
Epoch: 2/15 - Batch: 4500/7933 - Learning rate: 0.001 - Loss: 0.9985141
Epoch: 2/15 - Batch: 4600/7933 - Learning rate: 0.001 - Loss: 1.9778714
Epoch: 2/15 - Batch: 4700/7933 - Learning rate: 0.001 - Loss: 1.4474605
Epoch: 2/15 - Batch: 4800/7933 - Learning rate: 0.001 - Loss: 1.4026307
Epoch: 2/15 - Batch: 4900/7933 - Learning rate: 0.001 - Loss: 1.5766133
Epoch: 2/15 - Batch: 5000/7933 - Learning rate: 0.001 - Loss: 1.5085973 - Dev BLEU: 0.11833467645830337
Epoch: 2/15 - Batch: 5100/7933 - Learning rate: 0.001 - Loss: 1.5192789
Epoch: 2/15 - Batch: 5200/7933 - Learning rate: 0.001 - Loss: 1.4774137
Epoch: 2/15 - Batch: 5300/7933 - Learning rate: 0.001 - Loss: 1.4542699
Epoch: 2/15 - Batch: 5400/7933 - Learning rate: 0.001 - Loss: 1.4182135
Epoch: 2/15 - Batch: 5500/7933 - Learning rate: 0.001 - Loss: 1.4305913
Epoch: 2/15 - Batch: 5600/7933 - Learning rate: 0.001 - Loss: 1.1854211
Epoch: 2/15 - Batch: 5700/7933 - Learning rate: 0.001 - Loss: 1.4673492
Epoch: 2/15 - Batch: 5800/7933 - Learning rate: 0.001 - Loss: 1.4599624
Epoch: 2/15 - Batch: 5900/7933 - Learning rate: 0.001 - Loss: 1.1086277
Epoch: 2/15 - Batch: 6000/7933 - Learning rate: 0.001 - Loss: 1.4587024 - Dev BLEU: 0.11332039685141151
Epoch: 2/15 - Batch: 6100/7933 - Learning rate: 0.001 - Loss: 1.5449258
Epoch: 2/15 - Batch: 6200/7933 - Learning rate: 0.001 - Loss: 1.2466531
Epoch: 2/15 - Batch: 6300/7933 - Learning rate: 0.001 - Loss: 1.2048587
Epoch: 2/15 - Batch: 6400/7933 - Learning rate: 0.001 - Loss: 1.0298454
Epoch: 2/15 - Batch: 6500/7933 - Learning rate: 0.001 - Loss: 1.1216661
Epoch: 2/15 - Batch: 6600/7933 - Learning rate: 0.001 - Loss: 1.2037828
Epoch: 2/15 - Batch: 6700/7933 - Learning rate: 0.001 - Loss: 1.0483705
Epoch: 2/15 - Batch: 6800/7933 - Learning rate: 0.001 - Loss: 1.0078192
Epoch: 2/15 - Batch: 6900/7933 - Learning rate: 0.001 - Loss: 0.7457376
Epoch: 2/15 - Batch: 7000/7933 - Learning rate: 0.001 - Loss: 1.5215355 - Dev BLEU: 0.15477360077246202
Epoch: 2/15 - Batch: 7100/7933 - Learning rate: 0.001 - Loss: 1.1686256
Epoch: 2/15 - Batch: 7200/7933 - Learning rate: 0.001 - Loss: 0.9317122
Epoch: 2/15 - Batch: 7300/7933 - Learning rate: 0.001 - Loss: 1.1156693
Epoch: 2/15 - Batch: 7400/7933 - Learning rate: 0.001 - Loss: 1.2142171
Epoch: 2/15 - Batch: 7500/7933 - Learning rate: 0.001 - Loss: 0.8505875
Epoch: 2/15 - Batch: 7600/7933 - Learning rate: 0.001 - Loss: 1.5641625
Epoch: 2/15 - Batch: 7700/7933 - Learning rate: 0.001 - Loss: 1.6602582
Epoch: 2/15 - Batch: 7800/7933 - Learning rate: 0.001 - Loss: 1.5902293
Epoch: 2/15 - Batch: 7900/7933 - Learning rate: 0.001 - Loss: 1.2662994
Epoch: 2/15 - Batch: 7933/7933 - Learning rate: 0.001 - Loss: 1.6997523 - Dev BLEU: 0.13503257461982798
Epoch: 3/15 - Batch: 100/7933 - Learning rate: 0.001 - Loss: 0.9461684
Epoch: 3/15 - Batch: 200/7933 - Learning rate: 0.001 - Loss: 1.0567964
Epoch: 3/15 - Batch: 300/7933 - Learning rate: 0.001 - Loss: 0.6631859
Epoch: 3/15 - Batch: 400/7933 - Learning rate: 0.001 - Loss: 1.1187533
Epoch: 3/15 - Batch: 500/7933 - Learning rate: 0.001 - Loss: 0.963002
Epoch: 3/15 - Batch: 600/7933 - Learning rate: 0.001 - Loss: 0.49242613
Epoch: 3/15 - Batch: 700/7933 - Learning rate: 0.001 - Loss: 0.8650704
Epoch: 3/15 - Batch: 800/7933 - Learning rate: 0.001 - Loss: 0.8399674
Epoch: 3/15 - Batch: 900/7933 - Learning rate: 0.001 - Loss: 0.51806843
Epoch: 3/15 - Batch: 1000/7933 - Learning rate: 0.001 - Loss: 0.9188322 - Dev BLEU: 0.11650046022074598
Epoch: 3/15 - Batch: 1100/7933 - Learning rate: 0.001 - Loss: 0.7962009
Epoch: 3/15 - Batch: 1200/7933 - Learning rate: 0.001 - Loss: 1.1093884
Epoch: 3/15 - Batch: 1300/7933 - Learning rate: 0.001 - Loss: 1.0040671
Epoch: 3/15 - Batch: 1400/7933 - Learning rate: 0.001 - Loss: 1.0220948
Epoch: 3/15 - Batch: 1500/7933 - Learning rate: 0.001 - Loss: 0.7238645
Epoch: 3/15 - Batch: 1600/7933 - Learning rate: 0.001 - Loss: 1.4118489
Epoch: 3/15 - Batch: 1700/7933 - Learning rate: 0.001 - Loss: 1.0492119
Epoch: 3/15 - Batch: 1800/7933 - Learning rate: 0.001 - Loss: 0.59680533
Epoch: 3/15 - Batch: 1900/7933 - Learning rate: 0.001 - Loss: 0.86507934
Epoch: 3/15 - Batch: 2000/7933 - Learning rate: 0.001 - Loss: 0.91713744 - Dev BLEU: 0.11116478514782886
Epoch: 3/15 - Batch: 2100/7933 - Learning rate: 0.001 - Loss: 0.7655891
Epoch: 3/15 - Batch: 2200/7933 - Learning rate: 0.001 - Loss: 0.8022595
Epoch: 3/15 - Batch: 2300/7933 - Learning rate: 0.001 - Loss: 0.94377154
Epoch: 3/15 - Batch: 2400/7933 - Learning rate: 0.001 - Loss: 0.81752306
Epoch: 3/15 - Batch: 2500/7933 - Learning rate: 0.001 - Loss: 0.8353137
Epoch: 3/15 - Batch: 2600/7933 - Learning rate: 0.001 - Loss: 0.6216729
Epoch: 3/15 - Batch: 2700/7933 - Learning rate: 0.001 - Loss: 0.35787737
Epoch: 3/15 - Batch: 2800/7933 - Learning rate: 0.001 - Loss: 1.0070378
Epoch: 3/15 - Batch: 2900/7933 - Learning rate: 0.001 - Loss: 1.0855407
Epoch: 3/15 - Batch: 3000/7933 - Learning rate: 0.001 - Loss: 1.0185043 - Dev BLEU: 0.1147427991955351
Epoch: 3/15 - Batch: 3100/7933 - Learning rate: 0.001 - Loss: 1.0136622
Epoch: 3/15 - Batch: 3200/7933 - Learning rate: 0.001 - Loss: 0.94712573
Epoch: 3/15 - Batch: 3300/7933 - Learning rate: 0.001 - Loss: 0.7588286
Epoch: 3/15 - Batch: 3400/7933 - Learning rate: 0.001 - Loss: 0.7813462
Epoch: 3/15 - Batch: 3500/7933 - Learning rate: 0.001 - Loss: 1.0473143
Epoch: 3/15 - Batch: 3600/7933 - Learning rate: 0.001 - Loss: 0.9846206
Epoch: 3/15 - Batch: 3700/7933 - Learning rate: 0.001 - Loss: 1.0303744
Epoch: 3/15 - Batch: 3800/7933 - Learning rate: 0.001 - Loss: 0.93071914
Epoch: 3/15 - Batch: 3900/7933 - Learning rate: 0.001 - Loss: 1.0992926
Epoch: 3/15 - Batch: 4000/7933 - Learning rate: 0.001 - Loss: 0.6108636 - Dev BLEU: 0.12285670328344041
Epoch: 3/15 - Batch: 4100/7933 - Learning rate: 0.001 - Loss: 0.79942024
Epoch: 3/15 - Batch: 4200/7933 - Learning rate: 0.001 - Loss: 0.73637724
Epoch: 3/15 - Batch: 4300/7933 - Learning rate: 0.001 - Loss: 0.81503934
Epoch: 3/15 - Batch: 4400/7933 - Learning rate: 0.001 - Loss: 0.7863699
Epoch: 3/15 - Batch: 4500/7933 - Learning rate: 0.001 - Loss: 0.894635
Epoch: 3/15 - Batch: 4600/7933 - Learning rate: 0.001 - Loss: 1.7261448
Epoch: 3/15 - Batch: 4700/7933 - Learning rate: 0.001 - Loss: 1.2316105
Epoch: 3/15 - Batch: 4800/7933 - Learning rate: 0.001 - Loss: 1.228996
Epoch: 3/15 - Batch: 4900/7933 - Learning rate: 0.001 - Loss: 1.3733574
Epoch: 3/15 - Batch: 5000/7933 - Learning rate: 0.001 - Loss: 1.3369985 - Dev BLEU: 0.15053051087422484
Epoch: 3/15 - Batch: 5100/7933 - Learning rate: 0.001 - Loss: 1.3708189
Epoch: 3/15 - Batch: 5200/7933 - Learning rate: 0.001 - Loss: 1.3368366
Epoch: 3/15 - Batch: 5300/7933 - Learning rate: 0.001 - Loss: 1.290944
Epoch: 3/15 - Batch: 5400/7933 - Learning rate: 0.001 - Loss: 1.2407242
Epoch: 3/15 - Batch: 5500/7933 - Learning rate: 0.001 - Loss: 1.2870111
Epoch: 3/15 - Batch: 5600/7933 - Learning rate: 0.001 - Loss: 1.0374347
Epoch: 3/15 - Batch: 5700/7933 - Learning rate: 0.001 - Loss: 1.274535
Epoch: 3/15 - Batch: 5800/7933 - Learning rate: 0.001 - Loss: 1.2534064
Epoch: 3/15 - Batch: 5900/7933 - Learning rate: 0.001 - Loss: 0.94357795
Epoch: 3/15 - Batch: 6000/7933 - Learning rate: 0.001 - Loss: 1.2678697 - Dev BLEU: 0.14287292011637595
Epoch: 3/15 - Batch: 6100/7933 - Learning rate: 0.001 - Loss: 1.325759
Epoch: 3/15 - Batch: 6200/7933 - Learning rate: 0.001 - Loss: 1.0876019
Epoch: 3/15 - Batch: 6300/7933 - Learning rate: 0.001 - Loss: 1.0607036
Epoch: 3/15 - Batch: 6400/7933 - Learning rate: 0.001 - Loss: 0.90791124
Epoch: 3/15 - Batch: 6500/7933 - Learning rate: 0.001 - Loss: 1.011045
Epoch: 3/15 - Batch: 6600/7933 - Learning rate: 0.001 - Loss: 1.0635667
Epoch: 3/15 - Batch: 6700/7933 - Learning rate: 0.001 - Loss: 0.95063007
Epoch: 3/15 - Batch: 6800/7933 - Learning rate: 0.001 - Loss: 0.91730356
Epoch: 3/15 - Batch: 6900/7933 - Learning rate: 0.001 - Loss: 0.67269653
Epoch: 3/15 - Batch: 7000/7933 - Learning rate: 0.001 - Loss: 1.378371 - Dev BLEU: 0.18141915167486825
Epoch: 3/15 - Batch: 7100/7933 - Learning rate: 0.001 - Loss: 1.0521032
Epoch: 3/15 - Batch: 7200/7933 - Learning rate: 0.001 - Loss: 0.83646137
Epoch: 3/15 - Batch: 7300/7933 - Learning rate: 0.001 - Loss: 1.0205841
Epoch: 3/15 - Batch: 7400/7933 - Learning rate: 0.001 - Loss: 1.1000222
Epoch: 3/15 - Batch: 7500/7933 - Learning rate: 0.001 - Loss: 0.7820258
Epoch: 3/15 - Batch: 7600/7933 - Learning rate: 0.001 - Loss: 1.4101888
Epoch: 3/15 - Batch: 7700/7933 - Learning rate: 0.001 - Loss: 1.5278231
Epoch: 3/15 - Batch: 7800/7933 - Learning rate: 0.001 - Loss: 1.4753203
Epoch: 3/15 - Batch: 7900/7933 - Learning rate: 0.001 - Loss: 1.152856
Epoch: 3/15 - Batch: 7933/7933 - Learning rate: 0.001 - Loss: 1.5725065 - Dev BLEU: 0.1536301988530499
Epoch: 4/15 - Batch: 100/7933 - Learning rate: 0.001 - Loss: 0.8899183
Epoch: 4/15 - Batch: 200/7933 - Learning rate: 0.001 - Loss: 0.95477456
Epoch: 4/15 - Batch: 300/7933 - Learning rate: 0.001 - Loss: 0.6271972
Epoch: 4/15 - Batch: 400/7933 - Learning rate: 0.001 - Loss: 1.0329012
Epoch: 4/15 - Batch: 500/7933 - Learning rate: 0.001 - Loss: 0.8397395
Epoch: 4/15 - Batch: 600/7933 - Learning rate: 0.001 - Loss: 0.4621347
Epoch: 4/15 - Batch: 700/7933 - Learning rate: 0.001 - Loss: 0.7700122
Epoch: 4/15 - Batch: 800/7933 - Learning rate: 0.001 - Loss: 0.77020586
Epoch: 4/15 - Batch: 900/7933 - Learning rate: 0.001 - Loss: 0.4826965
Epoch: 4/15 - Batch: 1000/7933 - Learning rate: 0.001 - Loss: 0.8193642 - Dev BLEU: 0.14537064611899644
Epoch: 4/15 - Batch: 1100/7933 - Learning rate: 0.001 - Loss: 0.72491425
Epoch: 4/15 - Batch: 1200/7933 - Learning rate: 0.001 - Loss: 1.0287247
Epoch: 4/15 - Batch: 1300/7933 - Learning rate: 0.001 - Loss: 0.91332084
Epoch: 4/15 - Batch: 1400/7933 - Learning rate: 0.001 - Loss: 0.9572271
Epoch: 4/15 - Batch: 1500/7933 - Learning rate: 0.001 - Loss: 0.6667983
Epoch: 4/15 - Batch: 1600/7933 - Learning rate: 0.001 - Loss: 1.3036985
Epoch: 4/15 - Batch: 1700/7933 - Learning rate: 0.001 - Loss: 0.95849556
Epoch: 4/15 - Batch: 1800/7933 - Learning rate: 0.001 - Loss: 0.5192333
Epoch: 4/15 - Batch: 1900/7933 - Learning rate: 0.001 - Loss: 0.7871865
Epoch: 4/15 - Batch: 2000/7933 - Learning rate: 0.001 - Loss: 0.8346979 - Dev BLEU: 0.12949431365994066
Epoch: 4/15 - Batch: 2100/7933 - Learning rate: 0.001 - Loss: 0.7024389
Epoch: 4/15 - Batch: 2200/7933 - Learning rate: 0.001 - Loss: 0.72958034
Epoch: 4/15 - Batch: 2300/7933 - Learning rate: 0.001 - Loss: 0.8772374
Epoch: 4/15 - Batch: 2400/7933 - Learning rate: 0.001 - Loss: 0.75294614
Epoch: 4/15 - Batch: 2500/7933 - Learning rate: 0.001 - Loss: 0.75889856
Epoch: 4/15 - Batch: 2600/7933 - Learning rate: 0.001 - Loss: 0.5630319
Epoch: 4/15 - Batch: 2700/7933 - Learning rate: 0.001 - Loss: 0.3336825
Epoch: 4/15 - Batch: 2800/7933 - Learning rate: 0.001 - Loss: 0.93103737
Epoch: 4/15 - Batch: 2900/7933 - Learning rate: 0.001 - Loss: 1.0298073
Epoch: 4/15 - Batch: 3000/7933 - Learning rate: 0.001 - Loss: 0.9449937 - Dev BLEU: 0.1296027444104634
Epoch: 4/15 - Batch: 3100/7933 - Learning rate: 0.001 - Loss: 0.9417095
Epoch: 4/15 - Batch: 3200/7933 - Learning rate: 0.001 - Loss: 0.8808433
Epoch: 4/15 - Batch: 3300/7933 - Learning rate: 0.001 - Loss: 0.70092344
Epoch: 4/15 - Batch: 3400/7933 - Learning rate: 0.001 - Loss: 0.7166126
Epoch: 4/15 - Batch: 3500/7933 - Learning rate: 0.001 - Loss: 0.95049405
Epoch: 4/15 - Batch: 3600/7933 - Learning rate: 0.001 - Loss: 0.93087995
Epoch: 4/15 - Batch: 3700/7933 - Learning rate: 0.001 - Loss: 0.9486682
Epoch: 4/15 - Batch: 3800/7933 - Learning rate: 0.001 - Loss: 0.863053
Epoch: 4/15 - Batch: 3900/7933 - Learning rate: 0.001 - Loss: 1.0174903
Epoch: 4/15 - Batch: 4000/7933 - Learning rate: 0.001 - Loss: 0.57892305 - Dev BLEU: 0.14243689187862754
Epoch: 4/15 - Batch: 4100/7933 - Learning rate: 0.001 - Loss: 0.75433517
Epoch: 4/15 - Batch: 4200/7933 - Learning rate: 0.001 - Loss: 0.6886722
Epoch: 4/15 - Batch: 4300/7933 - Learning rate: 0.001 - Loss: 0.761959
Epoch: 4/15 - Batch: 4400/7933 - Learning rate: 0.001 - Loss: 0.73095113
Epoch: 4/15 - Batch: 4500/7933 - Learning rate: 0.001 - Loss: 0.830375
Epoch: 4/15 - Batch: 4600/7933 - Learning rate: 0.001 - Loss: 1.5419778
Epoch: 4/15 - Batch: 4700/7933 - Learning rate: 0.001 - Loss: 1.1196007
Epoch: 4/15 - Batch: 4800/7933 - Learning rate: 0.001 - Loss: 1.092726
Epoch: 4/15 - Batch: 4900/7933 - Learning rate: 0.001 - Loss: 1.2411515
Epoch: 4/15 - Batch: 5000/7933 - Learning rate: 0.001 - Loss: 1.2565188 - Dev BLEU: 0.16593631063588432
Epoch: 4/15 - Batch: 5100/7933 - Learning rate: 0.001 - Loss: 1.2739518
Epoch: 4/15 - Batch: 5200/7933 - Learning rate: 0.001 - Loss: 1.2466465
Epoch: 4/15 - Batch: 5300/7933 - Learning rate: 0.001 - Loss: 1.2066087
Epoch: 4/15 - Batch: 5400/7933 - Learning rate: 0.001 - Loss: 1.1613641
Epoch: 4/15 - Batch: 5500/7933 - Learning rate: 0.001 - Loss: 1.1798195
Epoch: 4/15 - Batch: 5600/7933 - Learning rate: 0.001 - Loss: 0.97689563
Epoch: 4/15 - Batch: 5700/7933 - Learning rate: 0.001 - Loss: 1.1710052
Epoch: 4/15 - Batch: 5800/7933 - Learning rate: 0.001 - Loss: 1.1551609
Epoch: 4/15 - Batch: 5900/7933 - Learning rate: 0.001 - Loss: 0.86166465
Epoch: 4/15 - Batch: 6000/7933 - Learning rate: 0.001 - Loss: 1.177741 - Dev BLEU: 0.1589060998579692
Epoch: 4/15 - Batch: 6100/7933 - Learning rate: 0.001 - Loss: 1.2061975
Epoch: 4/15 - Batch: 6200/7933 - Learning rate: 0.001 - Loss: 1.01794
Epoch: 4/15 - Batch: 6300/7933 - Learning rate: 0.001 - Loss: 0.96191686
Epoch: 4/15 - Batch: 6400/7933 - Learning rate: 0.001 - Loss: 0.8384555
Epoch: 4/15 - Batch: 6500/7933 - Learning rate: 0.001 - Loss: 0.9530633
Epoch: 4/15 - Batch: 6600/7933 - Learning rate: 0.001 - Loss: 0.97840434
Epoch: 4/15 - Batch: 6700/7933 - Learning rate: 0.001 - Loss: 0.913004
Epoch: 4/15 - Batch: 6800/7933 - Learning rate: 0.001 - Loss: 0.8653009
Epoch: 4/15 - Batch: 6900/7933 - Learning rate: 0.001 - Loss: 0.62490666
Epoch: 4/15 - Batch: 7000/7933 - Learning rate: 0.001 - Loss: 1.3130716 - Dev BLEU: 0.19506611785416775
Epoch: 4/15 - Batch: 7100/7933 - Learning rate: 0.001 - Loss: 0.99244773
Epoch: 4/15 - Batch: 7200/7933 - Learning rate: 0.001 - Loss: 0.79654235
Epoch: 4/15 - Batch: 7300/7933 - Learning rate: 0.001 - Loss: 0.97008723
Epoch: 4/15 - Batch: 7400/7933 - Learning rate: 0.001 - Loss: 1.0515082
Epoch: 4/15 - Batch: 7500/7933 - Learning rate: 0.001 - Loss: 0.7457598
Epoch: 4/15 - Batch: 7600/7933 - Learning rate: 0.001 - Loss: 1.3116542
Epoch: 4/15 - Batch: 7700/7933 - Learning rate: 0.001 - Loss: 1.461917
Epoch: 4/15 - Batch: 7800/7933 - Learning rate: 0.001 - Loss: 1.3740627
Epoch: 4/15 - Batch: 7900/7933 - Learning rate: 0.001 - Loss: 1.083151
Epoch: 4/15 - Batch: 7933/7933 - Learning rate: 0.001 - Loss: 1.4239973 - Dev BLEU: 0.1682781074389439
Epoch: 5/15 - Batch: 100/7933 - Learning rate: 0.001 - Loss: 0.85570145
Epoch: 5/15 - Batch: 200/7933 - Learning rate: 0.001 - Loss: 0.8856078
Epoch: 5/15 - Batch: 300/7933 - Learning rate: 0.001 - Loss: 0.5841683
Epoch: 5/15 - Batch: 400/7933 - Learning rate: 0.001 - Loss: 0.9685094
Epoch: 5/15 - Batch: 500/7933 - Learning rate: 0.001 - Loss: 0.75824034
Epoch: 5/15 - Batch: 600/7933 - Learning rate: 0.001 - Loss: 0.44405705
Epoch: 5/15 - Batch: 700/7933 - Learning rate: 0.001 - Loss: 0.72458804
Epoch: 5/15 - Batch: 800/7933 - Learning rate: 0.001 - Loss: 0.72801393
Epoch: 5/15 - Batch: 900/7933 - Learning rate: 0.001 - Loss: 0.46333
Epoch: 5/15 - Batch: 1000/7933 - Learning rate: 0.001 - Loss: 0.78349084 - Dev BLEU: 0.15478599668051293
Epoch: 5/15 - Batch: 1100/7933 - Learning rate: 0.001 - Loss: 0.6856604
Epoch: 5/15 - Batch: 1200/7933 - Learning rate: 0.001 - Loss: 0.98727643
Epoch: 5/15 - Batch: 1300/7933 - Learning rate: 0.001 - Loss: 0.8590617
Epoch: 5/15 - Batch: 1400/7933 - Learning rate: 0.001 - Loss: 0.91464764
Epoch: 5/15 - Batch: 1500/7933 - Learning rate: 0.001 - Loss: 0.6386603
Epoch: 5/15 - Batch: 1600/7933 - Learning rate: 0.001 - Loss: 1.22412
Epoch: 5/15 - Batch: 1700/7933 - Learning rate: 0.001 - Loss: 0.9170355
Epoch: 5/15 - Batch: 1800/7933 - Learning rate: 0.001 - Loss: 0.50917524
Epoch: 5/15 - Batch: 1900/7933 - Learning rate: 0.001 - Loss: 0.7387538
Epoch: 5/15 - Batch: 2000/7933 - Learning rate: 0.001 - Loss: 0.7885382 - Dev BLEU: 0.13821480688282314
Epoch: 5/15 - Batch: 2100/7933 - Learning rate: 0.001 - Loss: 0.6557971
Epoch: 5/15 - Batch: 2200/7933 - Learning rate: 0.001 - Loss: 0.68978995
Epoch: 5/15 - Batch: 2300/7933 - Learning rate: 0.001 - Loss: 0.8321337
Epoch: 5/15 - Batch: 2400/7933 - Learning rate: 0.001 - Loss: 0.70217276
Epoch: 5/15 - Batch: 2500/7933 - Learning rate: 0.001 - Loss: 0.6907072
Epoch: 5/15 - Batch: 2600/7933 - Learning rate: 0.001 - Loss: 0.53297883
Epoch: 5/15 - Batch: 2700/7933 - Learning rate: 0.001 - Loss: 0.3136477
Epoch: 5/15 - Batch: 2800/7933 - Learning rate: 0.001 - Loss: 0.85542357
Epoch: 5/15 - Batch: 2900/7933 - Learning rate: 0.001 - Loss: 0.98313826
Epoch: 5/15 - Batch: 3000/7933 - Learning rate: 0.001 - Loss: 0.8863144 - Dev BLEU: 0.1424822423188695
Epoch: 5/15 - Batch: 3100/7933 - Learning rate: 0.001 - Loss: 0.9170455
Epoch: 5/15 - Batch: 3200/7933 - Learning rate: 0.001 - Loss: 0.83568966
Epoch: 5/15 - Batch: 3300/7933 - Learning rate: 0.001 - Loss: 0.686305
Epoch: 5/15 - Batch: 3400/7933 - Learning rate: 0.001 - Loss: 0.68932915
Epoch: 5/15 - Batch: 3500/7933 - Learning rate: 0.001 - Loss: 0.91446245
Epoch: 5/15 - Batch: 3600/7933 - Learning rate: 0.001 - Loss: 0.8900342
Epoch: 5/15 - Batch: 3700/7933 - Learning rate: 0.001 - Loss: 0.8864501
Epoch: 5/15 - Batch: 3800/7933 - Learning rate: 0.001 - Loss: 0.8097445
Epoch: 5/15 - Batch: 3900/7933 - Learning rate: 0.001 - Loss: 0.9674471
Epoch: 5/15 - Batch: 4000/7933 - Learning rate: 0.001 - Loss: 0.5567336 - Dev BLEU: 0.1535953285366041
Epoch: 5/15 - Batch: 4100/7933 - Learning rate: 0.001 - Loss: 0.7147758
Epoch: 5/15 - Batch: 4200/7933 - Learning rate: 0.001 - Loss: 0.6661738
Epoch: 5/15 - Batch: 4300/7933 - Learning rate: 0.001 - Loss: 0.7400177
Epoch: 5/15 - Batch: 4400/7933 - Learning rate: 0.001 - Loss: 0.6899753
Epoch: 5/15 - Batch: 4500/7933 - Learning rate: 0.001 - Loss: 0.78746307
Epoch: 5/15 - Batch: 4600/7933 - Learning rate: 0.001 - Loss: 1.4623427
Epoch: 5/15 - Batch: 4700/7933 - Learning rate: 0.001 - Loss: 1.0373914
Epoch: 5/15 - Batch: 4800/7933 - Learning rate: 0.001 - Loss: 1.0333958
Epoch: 5/15 - Batch: 4900/7933 - Learning rate: 0.001 - Loss: 1.1711178
Epoch: 5/15 - Batch: 5000/7933 - Learning rate: 0.001 - Loss: 1.1942682 - Dev BLEU: 0.17806031331536085
Epoch: 5/15 - Batch: 5100/7933 - Learning rate: 0.001 - Loss: 1.2116191
Epoch: 5/15 - Batch: 5200/7933 - Learning rate: 0.001 - Loss: 1.1877525
Epoch: 5/15 - Batch: 5300/7933 - Learning rate: 0.001 - Loss: 1.1562613
Epoch: 5/15 - Batch: 5400/7933 - Learning rate: 0.001 - Loss: 1.1063311
Epoch: 5/15 - Batch: 5500/7933 - Learning rate: 0.001 - Loss: 1.1426461
Epoch: 5/15 - Batch: 5600/7933 - Learning rate: 0.001 - Loss: 0.906181
Epoch: 5/15 - Batch: 5700/7933 - Learning rate: 0.001 - Loss: 1.1132143
Epoch: 5/15 - Batch: 5800/7933 - Learning rate: 0.001 - Loss: 1.0975462
Epoch: 5/15 - Batch: 5900/7933 - Learning rate: 0.001 - Loss: 0.80152875
Epoch: 5/15 - Batch: 6000/7933 - Learning rate: 0.001 - Loss: 1.1250864 - Dev BLEU: 0.16644172492238057
Epoch: 5/15 - Batch: 6100/7933 - Learning rate: 0.001 - Loss: 1.1540855
Epoch: 5/15 - Batch: 6200/7933 - Learning rate: 0.001 - Loss: 0.9779782
Epoch: 5/15 - Batch: 6300/7933 - Learning rate: 0.001 - Loss: 0.93639535
Epoch: 5/15 - Batch: 6400/7933 - Learning rate: 0.001 - Loss: 0.8150007
Epoch: 5/15 - Batch: 6500/7933 - Learning rate: 0.001 - Loss: 0.91551584
Epoch: 5/15 - Batch: 6600/7933 - Learning rate: 0.001 - Loss: 0.93940043
Epoch: 5/15 - Batch: 6700/7933 - Learning rate: 0.001 - Loss: 0.86884314
Epoch: 5/15 - Batch: 6800/7933 - Learning rate: 0.001 - Loss: 0.8357791
Epoch: 5/15 - Batch: 6900/7933 - Learning rate: 0.001 - Loss: 0.5986613
Epoch: 5/15 - Batch: 7000/7933 - Learning rate: 0.001 - Loss: 1.2658116 - Dev BLEU: 0.20320288637684208
Epoch: 5/15 - Batch: 7100/7933 - Learning rate: 0.001 - Loss: 0.94999397
Epoch: 5/15 - Batch: 7200/7933 - Learning rate: 0.001 - Loss: 0.76852393
Epoch: 5/15 - Batch: 7300/7933 - Learning rate: 0.001 - Loss: 0.92873263
Epoch: 5/15 - Batch: 7400/7933 - Learning rate: 0.001 - Loss: 1.0110421
Epoch: 5/15 - Batch: 7500/7933 - Learning rate: 0.001 - Loss: 0.7119852
Epoch: 5/15 - Batch: 7600/7933 - Learning rate: 0.001 - Loss: 1.2707403
Epoch: 5/15 - Batch: 7700/7933 - Learning rate: 0.001 - Loss: 1.4173772
Epoch: 5/15 - Batch: 7800/7933 - Learning rate: 0.001 - Loss: 1.3206763
Epoch: 5/15 - Batch: 7900/7933 - Learning rate: 0.001 - Loss: 1.0221547
Epoch: 5/15 - Batch: 7933/7933 - Learning rate: 0.001 - Loss: 1.3394666 - Dev BLEU: 0.17700219454652508
Epoch: 6/15 - Batch: 100/7933 - Learning rate: 0.001 - Loss: 0.8392708
Epoch: 6/15 - Batch: 200/7933 - Learning rate: 0.001 - Loss: 0.85553956
Epoch: 6/15 - Batch: 300/7933 - Learning rate: 0.001 - Loss: 0.5597969
Epoch: 6/15 - Batch: 400/7933 - Learning rate: 0.001 - Loss: 0.9323712
Epoch: 6/15 - Batch: 500/7933 - Learning rate: 0.001 - Loss: 0.72704077
Epoch: 6/15 - Batch: 600/7933 - Learning rate: 0.001 - Loss: 0.4281736
Epoch: 6/15 - Batch: 700/7933 - Learning rate: 0.001 - Loss: 0.70255655
Epoch: 6/15 - Batch: 800/7933 - Learning rate: 0.001 - Loss: 0.6926833
Epoch: 6/15 - Batch: 900/7933 - Learning rate: 0.001 - Loss: 0.44241384
Epoch: 6/15 - Batch: 1000/7933 - Learning rate: 0.001 - Loss: 0.7520421 - Dev BLEU: 0.16409588954742396
Epoch: 6/15 - Batch: 1100/7933 - Learning rate: 0.001 - Loss: 0.663978
Epoch: 6/15 - Batch: 1200/7933 - Learning rate: 0.001 - Loss: 0.94451904
Epoch: 6/15 - Batch: 1300/7933 - Learning rate: 0.001 - Loss: 0.82426155
Epoch: 6/15 - Batch: 1400/7933 - Learning rate: 0.001 - Loss: 0.87444717
Epoch: 6/15 - Batch: 1500/7933 - Learning rate: 0.001 - Loss: 0.61161906
Epoch: 6/15 - Batch: 1600/7933 - Learning rate: 0.001 - Loss: 1.19114
Epoch: 6/15 - Batch: 1700/7933 - Learning rate: 0.001 - Loss: 0.8811939
Epoch: 6/15 - Batch: 1800/7933 - Learning rate: 0.001 - Loss: 0.47491848
Epoch: 6/15 - Batch: 1900/7933 - Learning rate: 0.001 - Loss: 0.71223176
Epoch: 6/15 - Batch: 2000/7933 - Learning rate: 0.001 - Loss: 0.74832165 - Dev BLEU: 0.14591772526052693
Epoch: 6/15 - Batch: 2100/7933 - Learning rate: 0.001 - Loss: 0.6398256
Epoch: 6/15 - Batch: 2200/7933 - Learning rate: 0.001 - Loss: 0.6447835
Epoch: 6/15 - Batch: 2300/7933 - Learning rate: 0.001 - Loss: 0.80986834
Epoch: 6/15 - Batch: 2400/7933 - Learning rate: 0.001 - Loss: 0.6687233
Epoch: 6/15 - Batch: 2500/7933 - Learning rate: 0.001 - Loss: 0.6654862
Epoch: 6/15 - Batch: 2600/7933 - Learning rate: 0.001 - Loss: 0.5144614
Epoch: 6/15 - Batch: 2700/7933 - Learning rate: 0.001 - Loss: 0.2989468
Epoch: 6/15 - Batch: 2800/7933 - Learning rate: 0.001 - Loss: 0.84233177
Epoch: 6/15 - Batch: 2900/7933 - Learning rate: 0.001 - Loss: 0.9428273
Epoch: 6/15 - Batch: 3000/7933 - Learning rate: 0.001 - Loss: 0.85247135 - Dev BLEU: 0.15098329168961774
Epoch: 6/15 - Batch: 3100/7933 - Learning rate: 0.001 - Loss: 0.8780974
Epoch: 6/15 - Batch: 3200/7933 - Learning rate: 0.001 - Loss: 0.80751294
Epoch: 6/15 - Batch: 3300/7933 - Learning rate: 0.001 - Loss: 0.6628333
Epoch: 6/15 - Batch: 3400/7933 - Learning rate: 0.001 - Loss: 0.6645958
Epoch: 6/15 - Batch: 3500/7933 - Learning rate: 0.001 - Loss: 0.8738875
Epoch: 6/15 - Batch: 3600/7933 - Learning rate: 0.001 - Loss: 0.84845746
Epoch: 6/15 - Batch: 3700/7933 - Learning rate: 0.001 - Loss: 0.8550011
Epoch: 6/15 - Batch: 3800/7933 - Learning rate: 0.001 - Loss: 0.79615796
Epoch: 6/15 - Batch: 3900/7933 - Learning rate: 0.001 - Loss: 0.941802
Epoch: 6/15 - Batch: 4000/7933 - Learning rate: 0.001 - Loss: 0.5354638 - Dev BLEU: 0.16086662197923848
Epoch: 6/15 - Batch: 4100/7933 - Learning rate: 0.001 - Loss: 0.6874096
Epoch: 6/15 - Batch: 4200/7933 - Learning rate: 0.001 - Loss: 0.62601763
Epoch: 6/15 - Batch: 4300/7933 - Learning rate: 0.001 - Loss: 0.72151417
Epoch: 6/15 - Batch: 4400/7933 - Learning rate: 0.001 - Loss: 0.68239194
Epoch: 6/15 - Batch: 4500/7933 - Learning rate: 0.001 - Loss: 0.7767885
Epoch: 6/15 - Batch: 4600/7933 - Learning rate: 0.001 - Loss: 1.3772758
Epoch: 6/15 - Batch: 4700/7933 - Learning rate: 0.001 - Loss: 0.9844931
Epoch: 6/15 - Batch: 4800/7933 - Learning rate: 0.001 - Loss: 0.99603003
Epoch: 6/15 - Batch: 4900/7933 - Learning rate: 0.001 - Loss: 1.1160611
Epoch: 6/15 - Batch: 5000/7933 - Learning rate: 0.001 - Loss: 1.1464927 - Dev BLEU: 0.18861286083084414
Epoch: 6/15 - Batch: 5100/7933 - Learning rate: 0.001 - Loss: 1.169612
Epoch: 6/15 - Batch: 5200/7933 - Learning rate: 0.001 - Loss: 1.1340259
Epoch: 6/15 - Batch: 5300/7933 - Learning rate: 0.001 - Loss: 1.0968184
Epoch: 6/15 - Batch: 5400/7933 - Learning rate: 0.001 - Loss: 1.0548066
Epoch: 6/15 - Batch: 5500/7933 - Learning rate: 0.001 - Loss: 1.0949475
Epoch: 6/15 - Batch: 5600/7933 - Learning rate: 0.001 - Loss: 0.8786855
Epoch: 6/15 - Batch: 5700/7933 - Learning rate: 0.001 - Loss: 1.0439432
Epoch: 6/15 - Batch: 5800/7933 - Learning rate: 0.001 - Loss: 1.0250881
Epoch: 6/15 - Batch: 5900/7933 - Learning rate: 0.001 - Loss: 0.78753954
Epoch: 6/15 - Batch: 6000/7933 - Learning rate: 0.001 - Loss: 1.0841423 - Dev BLEU: 0.17648487817833017
Epoch: 6/15 - Batch: 6100/7933 - Learning rate: 0.001 - Loss: 1.1058642
Epoch: 6/15 - Batch: 6200/7933 - Learning rate: 0.001 - Loss: 0.94212633
Epoch: 6/15 - Batch: 6300/7933 - Learning rate: 0.001 - Loss: 0.8755589
Epoch: 6/15 - Batch: 6400/7933 - Learning rate: 0.001 - Loss: 0.79439235
Epoch: 6/15 - Batch: 6500/7933 - Learning rate: 0.001 - Loss: 0.88369906
Epoch: 6/15 - Batch: 6600/7933 - Learning rate: 0.001 - Loss: 0.9051974
Epoch: 6/15 - Batch: 6700/7933 - Learning rate: 0.001 - Loss: 0.8459967
Epoch: 6/15 - Batch: 6800/7933 - Learning rate: 0.001 - Loss: 0.82337064
Epoch: 6/15 - Batch: 6900/7933 - Learning rate: 0.001 - Loss: 0.5738557
Epoch: 6/15 - Batch: 7000/7933 - Learning rate: 0.001 - Loss: 1.2331502 - Dev BLEU: 0.20792817141030764
Epoch: 6/15 - Batch: 7100/7933 - Learning rate: 0.001 - Loss: 0.92909014
Epoch: 6/15 - Batch: 7200/7933 - Learning rate: 0.001 - Loss: 0.7362233
Epoch: 6/15 - Batch: 7300/7933 - Learning rate: 0.001 - Loss: 0.9021771
Epoch: 6/15 - Batch: 7400/7933 - Learning rate: 0.001 - Loss: 0.9946441
Epoch: 6/15 - Batch: 7500/7933 - Learning rate: 0.001 - Loss: 0.69878775
Epoch: 6/15 - Batch: 7600/7933 - Learning rate: 0.001 - Loss: 1.223349
Epoch: 6/15 - Batch: 7700/7933 - Learning rate: 0.001 - Loss: 1.3651065
Epoch: 6/15 - Batch: 7800/7933 - Learning rate: 0.001 - Loss: 1.2731411
Epoch: 6/15 - Batch: 7900/7933 - Learning rate: 0.001 - Loss: 0.9906112
Epoch: 6/15 - Batch: 7933/7933 - Learning rate: 0.001 - Loss: 1.2782192 - Dev BLEU: 0.1867648446773095
Epoch: 7/15 - Batch: 100/7933 - Learning rate: 0.001 - Loss: 0.8210766
Epoch: 7/15 - Batch: 200/7933 - Learning rate: 0.001 - Loss: 0.7942352
Epoch: 7/15 - Batch: 300/7933 - Learning rate: 0.001 - Loss: 0.5464793
Epoch: 7/15 - Batch: 400/7933 - Learning rate: 0.001 - Loss: 0.90893394
Epoch: 7/15 - Batch: 500/7933 - Learning rate: 0.001 - Loss: 0.67700475
Epoch: 7/15 - Batch: 600/7933 - Learning rate: 0.001 - Loss: 0.42179435
Epoch: 7/15 - Batch: 700/7933 - Learning rate: 0.001 - Loss: 0.6883021
Epoch: 7/15 - Batch: 800/7933 - Learning rate: 0.001 - Loss: 0.68629867
Epoch: 7/15 - Batch: 900/7933 - Learning rate: 0.001 - Loss: 0.43831167
Epoch: 7/15 - Batch: 1000/7933 - Learning rate: 0.001 - Loss: 0.72595847 - Dev BLEU: 0.17044040203591443
Epoch: 7/15 - Batch: 1100/7933 - Learning rate: 0.001 - Loss: 0.6492706
Epoch: 7/15 - Batch: 1200/7933 - Learning rate: 0.001 - Loss: 0.91173863
Epoch: 7/15 - Batch: 1300/7933 - Learning rate: 0.001 - Loss: 0.7946353
Epoch: 7/15 - Batch: 1400/7933 - Learning rate: 0.001 - Loss: 0.8483151
Epoch: 7/15 - Batch: 1500/7933 - Learning rate: 0.001 - Loss: 0.6060149
Epoch: 7/15 - Batch: 1600/7933 - Learning rate: 0.001 - Loss: 1.1372005
Epoch: 7/15 - Batch: 1700/7933 - Learning rate: 0.001 - Loss: 0.85341394
Epoch: 7/15 - Batch: 1800/7933 - Learning rate: 0.001 - Loss: 0.4753367
Epoch: 7/15 - Batch: 1900/7933 - Learning rate: 0.001 - Loss: 0.6870869
Epoch: 7/15 - Batch: 2000/7933 - Learning rate: 0.001 - Loss: 0.71408284 - Dev BLEU: 0.15095010208475307
Epoch: 7/15 - Batch: 2100/7933 - Learning rate: 0.001 - Loss: 0.62015635
Epoch: 7/15 - Batch: 2200/7933 - Learning rate: 0.001 - Loss: 0.63762873
Epoch: 7/15 - Batch: 2300/7933 - Learning rate: 0.001 - Loss: 0.7866706
Epoch: 7/15 - Batch: 2400/7933 - Learning rate: 0.001 - Loss: 0.6561941
Epoch: 7/15 - Batch: 2500/7933 - Learning rate: 0.001 - Loss: 0.6473011
Epoch: 7/15 - Batch: 2600/7933 - Learning rate: 0.001 - Loss: 0.50216293
Epoch: 7/15 - Batch: 2700/7933 - Learning rate: 0.001 - Loss: 0.2910827
Epoch: 7/15 - Batch: 2800/7933 - Learning rate: 0.001 - Loss: 0.79526573
Epoch: 7/15 - Batch: 2900/7933 - Learning rate: 0.001 - Loss: 0.91483533
Epoch: 7/15 - Batch: 3000/7933 - Learning rate: 0.001 - Loss: 0.82612187 - Dev BLEU: 0.15073994621639805
Epoch: 7/15 - Batch: 3100/7933 - Learning rate: 0.001 - Loss: 0.850505
Epoch: 7/15 - Batch: 3200/7933 - Learning rate: 0.001 - Loss: 0.77925825
Epoch: 7/15 - Batch: 3300/7933 - Learning rate: 0.001 - Loss: 0.66264206
Epoch: 7/15 - Batch: 3400/7933 - Learning rate: 0.001 - Loss: 0.6459232
Epoch: 7/15 - Batch: 3500/7933 - Learning rate: 0.001 - Loss: 0.8593464
Epoch: 7/15 - Batch: 3600/7933 - Learning rate: 0.001 - Loss: 0.8348193
Epoch: 7/15 - Batch: 3700/7933 - Learning rate: 0.001 - Loss: 0.83390653
Epoch: 7/15 - Batch: 3800/7933 - Learning rate: 0.001 - Loss: 0.7675262
Epoch: 7/15 - Batch: 3900/7933 - Learning rate: 0.001 - Loss: 0.90966314
Epoch: 7/15 - Batch: 4000/7933 - Learning rate: 0.001 - Loss: 0.5200537 - Dev BLEU: 0.16364551885073866
Epoch: 7/15 - Batch: 4100/7933 - Learning rate: 0.001 - Loss: 0.6597682
Epoch: 7/15 - Batch: 4200/7933 - Learning rate: 0.001 - Loss: 0.614748
Epoch: 7/15 - Batch: 4300/7933 - Learning rate: 0.001 - Loss: 0.69755924
Epoch: 7/15 - Batch: 4400/7933 - Learning rate: 0.001 - Loss: 0.6614967
Epoch: 7/15 - Batch: 4500/7933 - Learning rate: 0.001 - Loss: 0.7578593
Epoch: 7/15 - Batch: 4600/7933 - Learning rate: 0.001 - Loss: 1.3156779
Epoch: 7/15 - Batch: 4700/7933 - Learning rate: 0.001 - Loss: 0.92672783
Epoch: 7/15 - Batch: 4800/7933 - Learning rate: 0.001 - Loss: 0.9326537
Epoch: 7/15 - Batch: 4900/7933 - Learning rate: 0.001 - Loss: 1.081684
Epoch: 7/15 - Batch: 5000/7933 - Learning rate: 0.001 - Loss: 1.1110202 - Dev BLEU: 0.19182344506381913
Epoch: 7/15 - Batch: 5100/7933 - Learning rate: 0.001 - Loss: 1.1496004
Epoch: 7/15 - Batch: 5200/7933 - Learning rate: 0.001 - Loss: 1.1082875
Epoch: 7/15 - Batch: 5300/7933 - Learning rate: 0.001 - Loss: 1.096909
Epoch: 7/15 - Batch: 5400/7933 - Learning rate: 0.001 - Loss: 1.0253421
Epoch: 7/15 - Batch: 5500/7933 - Learning rate: 0.001 - Loss: 1.0716846
Epoch: 7/15 - Batch: 5600/7933 - Learning rate: 0.001 - Loss: 0.83007485
Epoch: 7/15 - Batch: 5700/7933 - Learning rate: 0.001 - Loss: 1.0244322
Epoch: 7/15 - Batch: 5800/7933 - Learning rate: 0.001 - Loss: 1.0010176
Epoch: 7/15 - Batch: 5900/7933 - Learning rate: 0.001 - Loss: 0.7544818
Epoch: 7/15 - Batch: 6000/7933 - Learning rate: 0.001 - Loss: 1.0620289 - Dev BLEU: 0.18419491376834185
Epoch: 7/15 - Batch: 6100/7933 - Learning rate: 0.001 - Loss: 1.0458735
Epoch: 7/15 - Batch: 6200/7933 - Learning rate: 0.001 - Loss: 0.9030847
Epoch: 7/15 - Batch: 6300/7933 - Learning rate: 0.001 - Loss: 0.8463131
Epoch: 7/15 - Batch: 6400/7933 - Learning rate: 0.001 - Loss: 0.7752228
Epoch: 7/15 - Batch: 6500/7933 - Learning rate: 0.001 - Loss: 0.87880194
Epoch: 7/15 - Batch: 6600/7933 - Learning rate: 0.001 - Loss: 0.8864455
Epoch: 7/15 - Batch: 6700/7933 - Learning rate: 0.001 - Loss: 0.8370521
Epoch: 7/15 - Batch: 6800/7933 - Learning rate: 0.001 - Loss: 0.7974245
Epoch: 7/15 - Batch: 6900/7933 - Learning rate: 0.001 - Loss: 0.5604124
Epoch: 7/15 - Batch: 7000/7933 - Learning rate: 0.001 - Loss: 1.2049276 - Dev BLEU: 0.21173133750296083
Epoch: 7/15 - Batch: 7100/7933 - Learning rate: 0.001 - Loss: 0.9040416
Epoch: 7/15 - Batch: 7200/7933 - Learning rate: 0.001 - Loss: 0.7111916
Epoch: 7/15 - Batch: 7300/7933 - Learning rate: 0.001 - Loss: 0.87849575
Epoch: 7/15 - Batch: 7400/7933 - Learning rate: 0.001 - Loss: 0.9666721
Epoch: 7/15 - Batch: 7500/7933 - Learning rate: 0.001 - Loss: 0.68625236
Epoch: 7/15 - Batch: 7600/7933 - Learning rate: 0.001 - Loss: 1.2002658
Epoch: 7/15 - Batch: 7700/7933 - Learning rate: 0.001 - Loss: 1.3384165
Epoch: 7/15 - Batch: 7800/7933 - Learning rate: 0.001 - Loss: 1.2252985
Epoch: 7/15 - Batch: 7900/7933 - Learning rate: 0.001 - Loss: 0.97111565
Epoch: 7/15 - Batch: 7933/7933 - Learning rate: 0.001 - Loss: 1.2168813 - Dev BLEU: 0.18963014203664444
Epoch: 8/15 - Batch: 100/7933 - Learning rate: 0.0005 - Loss: 0.807424
Epoch: 8/15 - Batch: 200/7933 - Learning rate: 0.0005 - Loss: 0.7826517
Epoch: 8/15 - Batch: 300/7933 - Learning rate: 0.0005 - Loss: 0.53919345
Epoch: 8/15 - Batch: 400/7933 - Learning rate: 0.0005 - Loss: 0.8819937
Epoch: 8/15 - Batch: 500/7933 - Learning rate: 0.0005 - Loss: 0.6502166
Epoch: 8/15 - Batch: 600/7933 - Learning rate: 0.0005 - Loss: 0.40827054
Epoch: 8/15 - Batch: 700/7933 - Learning rate: 0.0005 - Loss: 0.6478625
Epoch: 8/15 - Batch: 800/7933 - Learning rate: 0.0005 - Loss: 0.6448438
Epoch: 8/15 - Batch: 900/7933 - Learning rate: 0.0005 - Loss: 0.42537445
Epoch: 8/15 - Batch: 1000/7933 - Learning rate: 0.0005 - Loss: 0.6928971 - Dev BLEU: 0.17972877700207798
Epoch: 8/15 - Batch: 1100/7933 - Learning rate: 0.0005 - Loss: 0.62802714
Epoch: 8/15 - Batch: 1200/7933 - Learning rate: 0.0005 - Loss: 0.85423183
Epoch: 8/15 - Batch: 1300/7933 - Learning rate: 0.0005 - Loss: 0.76055
Epoch: 8/15 - Batch: 1400/7933 - Learning rate: 0.0005 - Loss: 0.8158269
Epoch: 8/15 - Batch: 1500/7933 - Learning rate: 0.0005 - Loss: 0.57322985
Epoch: 8/15 - Batch: 1600/7933 - Learning rate: 0.0005 - Loss: 1.0827401
Epoch: 8/15 - Batch: 1700/7933 - Learning rate: 0.0005 - Loss: 0.80800796
Epoch: 8/15 - Batch: 1800/7933 - Learning rate: 0.0005 - Loss: 0.43987852
Epoch: 8/15 - Batch: 1900/7933 - Learning rate: 0.0005 - Loss: 0.6665068
Epoch: 8/15 - Batch: 2000/7933 - Learning rate: 0.0005 - Loss: 0.6822046 - Dev BLEU: 0.17048994819531613
Epoch: 8/15 - Batch: 2100/7933 - Learning rate: 0.0005 - Loss: 0.5876128
Epoch: 8/15 - Batch: 2200/7933 - Learning rate: 0.0005 - Loss: 0.60019016
Epoch: 8/15 - Batch: 2300/7933 - Learning rate: 0.0005 - Loss: 0.73099726
Epoch: 8/15 - Batch: 2400/7933 - Learning rate: 0.0005 - Loss: 0.6093229
Epoch: 8/15 - Batch: 2500/7933 - Learning rate: 0.0005 - Loss: 0.5991828
Epoch: 8/15 - Batch: 2600/7933 - Learning rate: 0.0005 - Loss: 0.47095513
Epoch: 8/15 - Batch: 2700/7933 - Learning rate: 0.0005 - Loss: 0.2735209
Epoch: 8/15 - Batch: 2800/7933 - Learning rate: 0.0005 - Loss: 0.7575114
Epoch: 8/15 - Batch: 2900/7933 - Learning rate: 0.0005 - Loss: 0.8752697
Epoch: 8/15 - Batch: 3000/7933 - Learning rate: 0.0005 - Loss: 0.7542531 - Dev BLEU: 0.14689204250830915
Epoch: 8/15 - Batch: 3100/7933 - Learning rate: 0.0005 - Loss: 0.804884
Epoch: 8/15 - Batch: 3200/7933 - Learning rate: 0.0005 - Loss: 0.7369842
Epoch: 8/15 - Batch: 3300/7933 - Learning rate: 0.0005 - Loss: 0.6067285
Epoch: 8/15 - Batch: 3400/7933 - Learning rate: 0.0005 - Loss: 0.6082525
Epoch: 8/15 - Batch: 3500/7933 - Learning rate: 0.0005 - Loss: 0.7908598
Epoch: 8/15 - Batch: 3600/7933 - Learning rate: 0.0005 - Loss: 0.7730207
Epoch: 8/15 - Batch: 3700/7933 - Learning rate: 0.0005 - Loss: 0.7800432
Epoch: 8/15 - Batch: 3800/7933 - Learning rate: 0.0005 - Loss: 0.7238553
Epoch: 8/15 - Batch: 3900/7933 - Learning rate: 0.0005 - Loss: 0.8420741
Epoch: 8/15 - Batch: 4000/7933 - Learning rate: 0.0005 - Loss: 0.49605265 - Dev BLEU: 0.18157722390248815
Epoch: 8/15 - Batch: 4100/7933 - Learning rate: 0.0005 - Loss: 0.62718093
Epoch: 8/15 - Batch: 4200/7933 - Learning rate: 0.0005 - Loss: 0.57314944
Epoch: 8/15 - Batch: 4300/7933 - Learning rate: 0.0005 - Loss: 0.66589373
Epoch: 8/15 - Batch: 4400/7933 - Learning rate: 0.0005 - Loss: 0.6265977
Epoch: 8/15 - Batch: 4500/7933 - Learning rate: 0.0005 - Loss: 0.70543456
Epoch: 8/15 - Batch: 4600/7933 - Learning rate: 0.0005 - Loss: 1.1860094
Epoch: 8/15 - Batch: 4700/7933 - Learning rate: 0.0005 - Loss: 0.84905964
Epoch: 8/15 - Batch: 4800/7933 - Learning rate: 0.0005 - Loss: 0.8377093
Epoch: 8/15 - Batch: 4900/7933 - Learning rate: 0.0005 - Loss: 0.97274977
Epoch: 8/15 - Batch: 5000/7933 - Learning rate: 0.0005 - Loss: 1.0009716 - Dev BLEU: 0.20623323334910193
Epoch: 8/15 - Batch: 5100/7933 - Learning rate: 0.0005 - Loss: 1.0543618
Epoch: 8/15 - Batch: 5200/7933 - Learning rate: 0.0005 - Loss: 1.0046321
Epoch: 8/15 - Batch: 5300/7933 - Learning rate: 0.0005 - Loss: 0.99954736
Epoch: 8/15 - Batch: 5400/7933 - Learning rate: 0.0005 - Loss: 0.91639096
Epoch: 8/15 - Batch: 5500/7933 - Learning rate: 0.0005 - Loss: 0.9931017
Epoch: 8/15 - Batch: 5600/7933 - Learning rate: 0.0005 - Loss: 0.7569486
Epoch: 8/15 - Batch: 5700/7933 - Learning rate: 0.0005 - Loss: 0.90898716
Epoch: 8/15 - Batch: 5800/7933 - Learning rate: 0.0005 - Loss: 0.90004194
Epoch: 8/15 - Batch: 5900/7933 - Learning rate: 0.0005 - Loss: 0.6692252
Epoch: 8/15 - Batch: 6000/7933 - Learning rate: 0.0005 - Loss: 0.9711333 - Dev BLEU: 0.20259945036688565
Epoch: 8/15 - Batch: 6100/7933 - Learning rate: 0.0005 - Loss: 0.93758136
Epoch: 8/15 - Batch: 6200/7933 - Learning rate: 0.0005 - Loss: 0.84574544
Epoch: 8/15 - Batch: 6300/7933 - Learning rate: 0.0005 - Loss: 0.767181
Epoch: 8/15 - Batch: 6400/7933 - Learning rate: 0.0005 - Loss: 0.73981726
Epoch: 8/15 - Batch: 6500/7933 - Learning rate: 0.0005 - Loss: 0.8309655
Epoch: 8/15 - Batch: 6600/7933 - Learning rate: 0.0005 - Loss: 0.8390667
Epoch: 8/15 - Batch: 6700/7933 - Learning rate: 0.0005 - Loss: 0.7969697
Epoch: 8/15 - Batch: 6800/7933 - Learning rate: 0.0005 - Loss: 0.7804536
Epoch: 8/15 - Batch: 6900/7933 - Learning rate: 0.0005 - Loss: 0.5432611
Epoch: 8/15 - Batch: 7000/7933 - Learning rate: 0.0005 - Loss: 1.1408443 - Dev BLEU: 0.22120934359960587
Epoch: 8/15 - Batch: 7100/7933 - Learning rate: 0.0005 - Loss: 0.8567742
Epoch: 8/15 - Batch: 7200/7933 - Learning rate: 0.0005 - Loss: 0.6921398
Epoch: 8/15 - Batch: 7300/7933 - Learning rate: 0.0005 - Loss: 0.836798
Epoch: 8/15 - Batch: 7400/7933 - Learning rate: 0.0005 - Loss: 0.9226128
Epoch: 8/15 - Batch: 7500/7933 - Learning rate: 0.0005 - Loss: 0.6634322
Epoch: 8/15 - Batch: 7600/7933 - Learning rate: 0.0005 - Loss: 1.1432463
Epoch: 8/15 - Batch: 7700/7933 - Learning rate: 0.0005 - Loss: 1.2908823
Epoch: 8/15 - Batch: 7800/7933 - Learning rate: 0.0005 - Loss: 1.1766752
Epoch: 8/15 - Batch: 7900/7933 - Learning rate: 0.0005 - Loss: 0.9447252
Epoch: 8/15 - Batch: 7933/7933 - Learning rate: 0.0005 - Loss: 1.1859903 - Dev BLEU: 0.2040976843226647
Epoch: 9/15 - Batch: 100/7933 - Learning rate: 0.00025 - Loss: 0.7735929
Epoch: 9/15 - Batch: 200/7933 - Learning rate: 0.00025 - Loss: 0.7496037
Epoch: 9/15 - Batch: 300/7933 - Learning rate: 0.00025 - Loss: 0.51831216
Epoch: 9/15 - Batch: 400/7933 - Learning rate: 0.00025 - Loss: 0.85230094
Epoch: 9/15 - Batch: 500/7933 - Learning rate: 0.00025 - Loss: 0.62256014
Epoch: 9/15 - Batch: 600/7933 - Learning rate: 0.00025 - Loss: 0.39903122
Epoch: 9/15 - Batch: 700/7933 - Learning rate: 0.00025 - Loss: 0.630186
Epoch: 9/15 - Batch: 800/7933 - Learning rate: 0.00025 - Loss: 0.61163
Epoch: 9/15 - Batch: 900/7933 - Learning rate: 0.00025 - Loss: 0.40557107
Epoch: 9/15 - Batch: 1000/7933 - Learning rate: 0.00025 - Loss: 0.66757154 - Dev BLEU: 0.19094578069451396
Epoch: 9/15 - Batch: 1100/7933 - Learning rate: 0.00025 - Loss: 0.6132903
Epoch: 9/15 - Batch: 1200/7933 - Learning rate: 0.00025 - Loss: 0.80119175
Epoch: 9/15 - Batch: 1300/7933 - Learning rate: 0.00025 - Loss: 0.7366125
Epoch: 9/15 - Batch: 1400/7933 - Learning rate: 0.00025 - Loss: 0.78523004
Epoch: 9/15 - Batch: 1500/7933 - Learning rate: 0.00025 - Loss: 0.55405176
Epoch: 9/15 - Batch: 1600/7933 - Learning rate: 0.00025 - Loss: 1.0621803
Epoch: 9/15 - Batch: 1700/7933 - Learning rate: 0.00025 - Loss: 0.7767851
Epoch: 9/15 - Batch: 1800/7933 - Learning rate: 0.00025 - Loss: 0.42564762
Epoch: 9/15 - Batch: 1900/7933 - Learning rate: 0.00025 - Loss: 0.6573153
Epoch: 9/15 - Batch: 2000/7933 - Learning rate: 0.00025 - Loss: 0.64770395 - Dev BLEU: 0.1863283136339757
Epoch: 9/15 - Batch: 2100/7933 - Learning rate: 0.00025 - Loss: 0.5605414
Epoch: 9/15 - Batch: 2200/7933 - Learning rate: 0.00025 - Loss: 0.57072
Epoch: 9/15 - Batch: 2300/7933 - Learning rate: 0.00025 - Loss: 0.697283
Epoch: 9/15 - Batch: 2400/7933 - Learning rate: 0.00025 - Loss: 0.5865084
Epoch: 9/15 - Batch: 2500/7933 - Learning rate: 0.00025 - Loss: 0.5702227
Epoch: 9/15 - Batch: 2600/7933 - Learning rate: 0.00025 - Loss: 0.45268968
Epoch: 9/15 - Batch: 2700/7933 - Learning rate: 0.00025 - Loss: 0.27338016
Epoch: 9/15 - Batch: 2800/7933 - Learning rate: 0.00025 - Loss: 0.71509224
Epoch: 9/15 - Batch: 2900/7933 - Learning rate: 0.00025 - Loss: 0.85083246
Epoch: 9/15 - Batch: 3000/7933 - Learning rate: 0.00025 - Loss: 0.73779297 - Dev BLEU: 0.1862667458313352
Epoch: 9/15 - Batch: 3100/7933 - Learning rate: 0.00025 - Loss: 0.7682897
Epoch: 9/15 - Batch: 3200/7933 - Learning rate: 0.00025 - Loss: 0.7174042
Epoch: 9/15 - Batch: 3300/7933 - Learning rate: 0.00025 - Loss: 0.5841842
Epoch: 9/15 - Batch: 3400/7933 - Learning rate: 0.00025 - Loss: 0.5799508
Epoch: 9/15 - Batch: 3500/7933 - Learning rate: 0.00025 - Loss: 0.7516677
Epoch: 9/15 - Batch: 3600/7933 - Learning rate: 0.00025 - Loss: 0.75415516
Epoch: 9/15 - Batch: 3700/7933 - Learning rate: 0.00025 - Loss: 0.73628664
Epoch: 9/15 - Batch: 3800/7933 - Learning rate: 0.00025 - Loss: 0.6876652
Epoch: 9/15 - Batch: 3900/7933 - Learning rate: 0.00025 - Loss: 0.81634825
Epoch: 9/15 - Batch: 4000/7933 - Learning rate: 0.00025 - Loss: 0.48618385 - Dev BLEU: 0.19249503213589034
Epoch: 9/15 - Batch: 4100/7933 - Learning rate: 0.00025 - Loss: 0.61784774
Epoch: 9/15 - Batch: 4200/7933 - Learning rate: 0.00025 - Loss: 0.54967916
Epoch: 9/15 - Batch: 4300/7933 - Learning rate: 0.00025 - Loss: 0.6419713
Epoch: 9/15 - Batch: 4400/7933 - Learning rate: 0.00025 - Loss: 0.59328866
Epoch: 9/15 - Batch: 4500/7933 - Learning rate: 0.00025 - Loss: 0.6751286
Epoch: 9/15 - Batch: 4600/7933 - Learning rate: 0.00025 - Loss: 1.0785822
Epoch: 9/15 - Batch: 4700/7933 - Learning rate: 0.00025 - Loss: 0.7739052
Epoch: 9/15 - Batch: 4800/7933 - Learning rate: 0.00025 - Loss: 0.76784784
Epoch: 9/15 - Batch: 4900/7933 - Learning rate: 0.00025 - Loss: 0.91574
Epoch: 9/15 - Batch: 5000/7933 - Learning rate: 0.00025 - Loss: 0.9493362 - Dev BLEU: 0.2129625862994983
Epoch: 9/15 - Batch: 5100/7933 - Learning rate: 0.00025 - Loss: 0.9928381
Epoch: 9/15 - Batch: 5200/7933 - Learning rate: 0.00025 - Loss: 0.94648653
Epoch: 9/15 - Batch: 5300/7933 - Learning rate: 0.00025 - Loss: 0.9206753
Epoch: 9/15 - Batch: 5400/7933 - Learning rate: 0.00025 - Loss: 0.89592123
Epoch: 9/15 - Batch: 5500/7933 - Learning rate: 0.00025 - Loss: 0.92923963
Epoch: 9/15 - Batch: 5600/7933 - Learning rate: 0.00025 - Loss: 0.7125022
Epoch: 9/15 - Batch: 5700/7933 - Learning rate: 0.00025 - Loss: 0.8347579
Epoch: 9/15 - Batch: 5800/7933 - Learning rate: 0.00025 - Loss: 0.8397924
Epoch: 9/15 - Batch: 5900/7933 - Learning rate: 0.00025 - Loss: 0.6203053
Epoch: 9/15 - Batch: 6000/7933 - Learning rate: 0.00025 - Loss: 0.91242176 - Dev BLEU: 0.2161058433224526
Epoch: 9/15 - Batch: 6100/7933 - Learning rate: 0.00025 - Loss: 0.8651717
Epoch: 9/15 - Batch: 6200/7933 - Learning rate: 0.00025 - Loss: 0.80214185
Epoch: 9/15 - Batch: 6300/7933 - Learning rate: 0.00025 - Loss: 0.7297804
Epoch: 9/15 - Batch: 6400/7933 - Learning rate: 0.00025 - Loss: 0.6969067
Epoch: 9/15 - Batch: 6500/7933 - Learning rate: 0.00025 - Loss: 0.796007
Epoch: 9/15 - Batch: 6600/7933 - Learning rate: 0.00025 - Loss: 0.8066757
Epoch: 9/15 - Batch: 6700/7933 - Learning rate: 0.00025 - Loss: 0.77892363
Epoch: 9/15 - Batch: 6800/7933 - Learning rate: 0.00025 - Loss: 0.76366353
Epoch: 9/15 - Batch: 6900/7933 - Learning rate: 0.00025 - Loss: 0.52917355
Epoch: 9/15 - Batch: 7000/7933 - Learning rate: 0.00025 - Loss: 1.1167228 - Dev BLEU: 0.22518312158440373
Epoch: 9/15 - Batch: 7100/7933 - Learning rate: 0.00025 - Loss: 0.8270547
Epoch: 9/15 - Batch: 7200/7933 - Learning rate: 0.00025 - Loss: 0.6710742
Epoch: 9/15 - Batch: 7300/7933 - Learning rate: 0.00025 - Loss: 0.82230484
Epoch: 9/15 - Batch: 7400/7933 - Learning rate: 0.00025 - Loss: 0.90514237
Epoch: 9/15 - Batch: 7500/7933 - Learning rate: 0.00025 - Loss: 0.6425051
Epoch: 9/15 - Batch: 7600/7933 - Learning rate: 0.00025 - Loss: 1.1135527
Epoch: 9/15 - Batch: 7700/7933 - Learning rate: 0.00025 - Loss: 1.2607752
Epoch: 9/15 - Batch: 7800/7933 - Learning rate: 0.00025 - Loss: 1.13714
Epoch: 9/15 - Batch: 7900/7933 - Learning rate: 0.00025 - Loss: 0.92134655
Epoch: 9/15 - Batch: 7933/7933 - Learning rate: 0.00025 - Loss: 1.1625783 - Dev BLEU: 0.2075917518984837
Epoch: 10/15 - Batch: 100/7933 - Learning rate: 0.000125 - Loss: 0.7646439
Epoch: 10/15 - Batch: 200/7933 - Learning rate: 0.000125 - Loss: 0.7221804
Epoch: 10/15 - Batch: 300/7933 - Learning rate: 0.000125 - Loss: 0.50344926
Epoch: 10/15 - Batch: 400/7933 - Learning rate: 0.000125 - Loss: 0.8261077
Epoch: 10/15 - Batch: 500/7933 - Learning rate: 0.000125 - Loss: 0.60552824
Epoch: 10/15 - Batch: 600/7933 - Learning rate: 0.000125 - Loss: 0.38917488
Epoch: 10/15 - Batch: 700/7933 - Learning rate: 0.000125 - Loss: 0.61375904
Epoch: 10/15 - Batch: 800/7933 - Learning rate: 0.000125 - Loss: 0.60151404
Epoch: 10/15 - Batch: 900/7933 - Learning rate: 0.000125 - Loss: 0.39564994
Epoch: 10/15 - Batch: 1000/7933 - Learning rate: 0.000125 - Loss: 0.66081345 - Dev BLEU: 0.1960036892855219
Epoch: 10/15 - Batch: 1100/7933 - Learning rate: 0.000125 - Loss: 0.6033208
Epoch: 10/15 - Batch: 1200/7933 - Learning rate: 0.000125 - Loss: 0.7980913
Epoch: 10/15 - Batch: 1300/7933 - Learning rate: 0.000125 - Loss: 0.7180543
Epoch: 10/15 - Batch: 1400/7933 - Learning rate: 0.000125 - Loss: 0.7730849
Epoch: 10/15 - Batch: 1500/7933 - Learning rate: 0.000125 - Loss: 0.5488161
Epoch: 10/15 - Batch: 1600/7933 - Learning rate: 0.000125 - Loss: 1.02945
Epoch: 10/15 - Batch: 1700/7933 - Learning rate: 0.000125 - Loss: 0.7748845
Epoch: 10/15 - Batch: 1800/7933 - Learning rate: 0.000125 - Loss: 0.41710603
Epoch: 10/15 - Batch: 1900/7933 - Learning rate: 0.000125 - Loss: 0.63234633
Epoch: 10/15 - Batch: 2000/7933 - Learning rate: 0.000125 - Loss: 0.6563918 - Dev BLEU: 0.19376265181181715
Epoch: 10/15 - Batch: 2100/7933 - Learning rate: 0.000125 - Loss: 0.53492916
Epoch: 10/15 - Batch: 2200/7933 - Learning rate: 0.000125 - Loss: 0.56676733
Epoch: 10/15 - Batch: 2300/7933 - Learning rate: 0.000125 - Loss: 0.6931552
Epoch: 10/15 - Batch: 2400/7933 - Learning rate: 0.000125 - Loss: 0.58408
Epoch: 10/15 - Batch: 2500/7933 - Learning rate: 0.000125 - Loss: 0.5639886
Epoch: 10/15 - Batch: 2600/7933 - Learning rate: 0.000125 - Loss: 0.44099578
Epoch: 10/15 - Batch: 2700/7933 - Learning rate: 0.000125 - Loss: 0.26741183
Epoch: 10/15 - Batch: 2800/7933 - Learning rate: 0.000125 - Loss: 0.6907202
Epoch: 10/15 - Batch: 2900/7933 - Learning rate: 0.000125 - Loss: 0.85402656
Epoch: 10/15 - Batch: 3000/7933 - Learning rate: 0.000125 - Loss: 0.73297495 - Dev BLEU: 0.19260123195827317
Epoch: 10/15 - Batch: 3100/7933 - Learning rate: 0.000125 - Loss: 0.75831914
Epoch: 10/15 - Batch: 3200/7933 - Learning rate: 0.000125 - Loss: 0.701716
Epoch: 10/15 - Batch: 3300/7933 - Learning rate: 0.000125 - Loss: 0.5737293
Epoch: 10/15 - Batch: 3400/7933 - Learning rate: 0.000125 - Loss: 0.5707786
Epoch: 10/15 - Batch: 3500/7933 - Learning rate: 0.000125 - Loss: 0.7277486
Epoch: 10/15 - Batch: 3600/7933 - Learning rate: 0.000125 - Loss: 0.7350157
Epoch: 10/15 - Batch: 3700/7933 - Learning rate: 0.000125 - Loss: 0.7306657
Epoch: 10/15 - Batch: 3800/7933 - Learning rate: 0.000125 - Loss: 0.67395633
Epoch: 10/15 - Batch: 3900/7933 - Learning rate: 0.000125 - Loss: 0.795567
Epoch: 10/15 - Batch: 4000/7933 - Learning rate: 0.000125 - Loss: 0.47374874 - Dev BLEU: 0.19784566134233036
Epoch: 10/15 - Batch: 4100/7933 - Learning rate: 0.000125 - Loss: 0.59976906
Epoch: 10/15 - Batch: 4200/7933 - Learning rate: 0.000125 - Loss: 0.53033495
Epoch: 10/15 - Batch: 4300/7933 - Learning rate: 0.000125 - Loss: 0.63587904
Epoch: 10/15 - Batch: 4400/7933 - Learning rate: 0.000125 - Loss: 0.57994324
Epoch: 10/15 - Batch: 4500/7933 - Learning rate: 0.000125 - Loss: 0.66789967
Epoch: 10/15 - Batch: 4600/7933 - Learning rate: 0.000125 - Loss: 1.0737683
Epoch: 10/15 - Batch: 4700/7933 - Learning rate: 0.000125 - Loss: 0.7382532
Epoch: 10/15 - Batch: 4800/7933 - Learning rate: 0.000125 - Loss: 0.74121624
Epoch: 10/15 - Batch: 4900/7933 - Learning rate: 0.000125 - Loss: 0.8823042
Epoch: 10/15 - Batch: 5000/7933 - Learning rate: 0.000125 - Loss: 0.93336916 - Dev BLEU: 0.2178547634831294
Epoch: 10/15 - Batch: 5100/7933 - Learning rate: 0.000125 - Loss: 0.9581045
Epoch: 10/15 - Batch: 5200/7933 - Learning rate: 0.000125 - Loss: 0.96530855
Epoch: 10/15 - Batch: 5300/7933 - Learning rate: 0.000125 - Loss: 0.91920215
Epoch: 10/15 - Batch: 5400/7933 - Learning rate: 0.000125 - Loss: 0.8703508
Epoch: 10/15 - Batch: 5500/7933 - Learning rate: 0.000125 - Loss: 0.88207704
Epoch: 10/15 - Batch: 5600/7933 - Learning rate: 0.000125 - Loss: 0.69513214
Epoch: 10/15 - Batch: 5700/7933 - Learning rate: 0.000125 - Loss: 0.81449133
Epoch: 10/15 - Batch: 5800/7933 - Learning rate: 0.000125 - Loss: 0.81975734
Epoch: 10/15 - Batch: 5900/7933 - Learning rate: 0.000125 - Loss: 0.6010285
Epoch: 10/15 - Batch: 6000/7933 - Learning rate: 0.000125 - Loss: 0.87456053 - Dev BLEU: 0.21870476221027182
Epoch: 10/15 - Batch: 6100/7933 - Learning rate: 0.000125 - Loss: 0.83439106
Epoch: 10/15 - Batch: 6200/7933 - Learning rate: 0.000125 - Loss: 0.7729369
Epoch: 10/15 - Batch: 6300/7933 - Learning rate: 0.000125 - Loss: 0.7015565
Epoch: 10/15 - Batch: 6400/7933 - Learning rate: 0.000125 - Loss: 0.68735373
Epoch: 10/15 - Batch: 6500/7933 - Learning rate: 0.000125 - Loss: 0.7861213
Epoch: 10/15 - Batch: 6600/7933 - Learning rate: 0.000125 - Loss: 0.8067569
Epoch: 10/15 - Batch: 6700/7933 - Learning rate: 0.000125 - Loss: 0.77708095
Epoch: 10/15 - Batch: 6800/7933 - Learning rate: 0.000125 - Loss: 0.7588326
Epoch: 10/15 - Batch: 6900/7933 - Learning rate: 0.000125 - Loss: 0.5218739
Epoch: 10/15 - Batch: 7000/7933 - Learning rate: 0.000125 - Loss: 1.093937 - Dev BLEU: 0.22382983450661348
Epoch: 10/15 - Batch: 7100/7933 - Learning rate: 0.000125 - Loss: 0.8080045
Epoch: 10/15 - Batch: 7200/7933 - Learning rate: 0.000125 - Loss: 0.6698357
Epoch: 10/15 - Batch: 7300/7933 - Learning rate: 0.000125 - Loss: 0.8096352
Epoch: 10/15 - Batch: 7400/7933 - Learning rate: 0.000125 - Loss: 0.8854932
Epoch: 10/15 - Batch: 7500/7933 - Learning rate: 0.000125 - Loss: 0.6457436
Epoch: 10/15 - Batch: 7600/7933 - Learning rate: 0.000125 - Loss: 1.0933434
Epoch: 10/15 - Batch: 7700/7933 - Learning rate: 0.000125 - Loss: 1.2583239
Epoch: 10/15 - Batch: 7800/7933 - Learning rate: 0.000125 - Loss: 1.1235404
Epoch: 10/15 - Batch: 7900/7933 - Learning rate: 0.000125 - Loss: 0.92609656
Epoch: 10/15 - Batch: 7933/7933 - Learning rate: 0.000125 - Loss: 1.1360505 - Dev BLEU: 0.2112276123772091
Epoch: 11/15 - Batch: 100/7933 - Learning rate: 6.25e-05 - Loss: 0.7546816
Epoch: 11/15 - Batch: 200/7933 - Learning rate: 6.25e-05 - Loss: 0.71606994
Epoch: 11/15 - Batch: 300/7933 - Learning rate: 6.25e-05 - Loss: 0.49024203
Epoch: 11/15 - Batch: 400/7933 - Learning rate: 6.25e-05 - Loss: 0.8130602
Epoch: 11/15 - Batch: 500/7933 - Learning rate: 6.25e-05 - Loss: 0.5895082
Epoch: 11/15 - Batch: 600/7933 - Learning rate: 6.25e-05 - Loss: 0.3913438
Epoch: 11/15 - Batch: 700/7933 - Learning rate: 6.25e-05 - Loss: 0.6056815
Epoch: 11/15 - Batch: 800/7933 - Learning rate: 6.25e-05 - Loss: 0.59671694
Epoch: 11/15 - Batch: 900/7933 - Learning rate: 6.25e-05 - Loss: 0.39297062
Epoch: 11/15 - Batch: 1000/7933 - Learning rate: 6.25e-05 - Loss: 0.64429057 - Dev BLEU: 0.1993452671294073
Epoch: 11/15 - Batch: 1100/7933 - Learning rate: 6.25e-05 - Loss: 0.6019055
Epoch: 11/15 - Batch: 1200/7933 - Learning rate: 6.25e-05 - Loss: 0.7755572
Epoch: 11/15 - Batch: 1300/7933 - Learning rate: 6.25e-05 - Loss: 0.70591843
Epoch: 11/15 - Batch: 1400/7933 - Learning rate: 6.25e-05 - Loss: 0.7554736
Epoch: 11/15 - Batch: 1500/7933 - Learning rate: 6.25e-05 - Loss: 0.54134667
Epoch: 11/15 - Batch: 1600/7933 - Learning rate: 6.25e-05 - Loss: 1.0194721
Epoch: 11/15 - Batch: 1700/7933 - Learning rate: 6.25e-05 - Loss: 0.7671139
Epoch: 11/15 - Batch: 1800/7933 - Learning rate: 6.25e-05 - Loss: 0.40710106
Epoch: 11/15 - Batch: 1900/7933 - Learning rate: 6.25e-05 - Loss: 0.63577276
Epoch: 11/15 - Batch: 2000/7933 - Learning rate: 6.25e-05 - Loss: 0.6516769 - Dev BLEU: 0.19850148188801314
Epoch: 11/15 - Batch: 2100/7933 - Learning rate: 6.25e-05 - Loss: 0.5285819
Epoch: 11/15 - Batch: 2200/7933 - Learning rate: 6.25e-05 - Loss: 0.55224746
Epoch: 11/15 - Batch: 2300/7933 - Learning rate: 6.25e-05 - Loss: 0.6891024
Epoch: 11/15 - Batch: 2400/7933 - Learning rate: 6.25e-05 - Loss: 0.5833989
Epoch: 11/15 - Batch: 2500/7933 - Learning rate: 6.25e-05 - Loss: 0.5530321
Epoch: 11/15 - Batch: 2600/7933 - Learning rate: 6.25e-05 - Loss: 0.44524774
Epoch: 11/15 - Batch: 2700/7933 - Learning rate: 6.25e-05 - Loss: 0.2753779
Epoch: 11/15 - Batch: 2800/7933 - Learning rate: 6.25e-05 - Loss: 0.7125734
Epoch: 11/15 - Batch: 2900/7933 - Learning rate: 6.25e-05 - Loss: 0.81416327
Epoch: 11/15 - Batch: 3000/7933 - Learning rate: 6.25e-05 - Loss: 0.72312415 - Dev BLEU: 0.19634633017855582
Epoch: 11/15 - Batch: 3100/7933 - Learning rate: 6.25e-05 - Loss: 0.7484722
Epoch: 11/15 - Batch: 3200/7933 - Learning rate: 6.25e-05 - Loss: 0.69698155
Epoch: 11/15 - Batch: 3300/7933 - Learning rate: 6.25e-05 - Loss: 0.56271523
Epoch: 11/15 - Batch: 3400/7933 - Learning rate: 6.25e-05 - Loss: 0.5716348
Epoch: 11/15 - Batch: 3500/7933 - Learning rate: 6.25e-05 - Loss: 0.7176365
Epoch: 11/15 - Batch: 3600/7933 - Learning rate: 6.25e-05 - Loss: 0.7209461
Epoch: 11/15 - Batch: 3700/7933 - Learning rate: 6.25e-05 - Loss: 0.7506894
Epoch: 11/15 - Batch: 3800/7933 - Learning rate: 6.25e-05 - Loss: 0.67350143
Epoch: 11/15 - Batch: 3900/7933 - Learning rate: 6.25e-05 - Loss: 0.7829024
Epoch: 11/15 - Batch: 4000/7933 - Learning rate: 6.25e-05 - Loss: 0.47926462 - Dev BLEU: 0.1992086427009215
Epoch: 11/15 - Batch: 4100/7933 - Learning rate: 6.25e-05 - Loss: 0.6004499
Epoch: 11/15 - Batch: 4200/7933 - Learning rate: 6.25e-05 - Loss: 0.52165455
Epoch: 11/15 - Batch: 4300/7933 - Learning rate: 6.25e-05 - Loss: 0.63185024
Epoch: 11/15 - Batch: 4400/7933 - Learning rate: 6.25e-05 - Loss: 0.5802927
Epoch: 11/15 - Batch: 4500/7933 - Learning rate: 6.25e-05 - Loss: 0.6605893
Epoch: 11/15 - Batch: 4600/7933 - Learning rate: 6.25e-05 - Loss: 1.0384127
Epoch: 11/15 - Batch: 4700/7933 - Learning rate: 6.25e-05 - Loss: 0.7321741
Epoch: 11/15 - Batch: 4800/7933 - Learning rate: 6.25e-05 - Loss: 0.73484635
Epoch: 11/15 - Batch: 4900/7933 - Learning rate: 6.25e-05 - Loss: 0.8529032
Epoch: 11/15 - Batch: 5000/7933 - Learning rate: 6.25e-05 - Loss: 0.91295296 - Dev BLEU: 0.22058260343254132
Epoch: 11/15 - Batch: 5100/7933 - Learning rate: 6.25e-05 - Loss: 0.9644176
Epoch: 11/15 - Batch: 5200/7933 - Learning rate: 6.25e-05 - Loss: 0.92788494
Epoch: 11/15 - Batch: 5300/7933 - Learning rate: 6.25e-05 - Loss: 0.89074737
Epoch: 11/15 - Batch: 5400/7933 - Learning rate: 6.25e-05 - Loss: 0.8406065
Epoch: 11/15 - Batch: 5500/7933 - Learning rate: 6.25e-05 - Loss: 0.8761042
Epoch: 11/15 - Batch: 5600/7933 - Learning rate: 6.25e-05 - Loss: 0.6887488
Epoch: 11/15 - Batch: 5700/7933 - Learning rate: 6.25e-05 - Loss: 0.8028199
Epoch: 11/15 - Batch: 5800/7933 - Learning rate: 6.25e-05 - Loss: 0.8107466
Epoch: 11/15 - Batch: 5900/7933 - Learning rate: 6.25e-05 - Loss: 0.58875865
Epoch: 11/15 - Batch: 6000/7933 - Learning rate: 6.25e-05 - Loss: 0.87864214 - Dev BLEU: 0.22305055485350647
Epoch: 11/15 - Batch: 6100/7933 - Learning rate: 6.25e-05 - Loss: 0.8254268
Epoch: 11/15 - Batch: 6200/7933 - Learning rate: 6.25e-05 - Loss: 0.779524
Epoch: 11/15 - Batch: 6300/7933 - Learning rate: 6.25e-05 - Loss: 0.693661
Epoch: 11/15 - Batch: 6400/7933 - Learning rate: 6.25e-05 - Loss: 0.6699906
Epoch: 11/15 - Batch: 6500/7933 - Learning rate: 6.25e-05 - Loss: 0.77432346
Epoch: 11/15 - Batch: 6600/7933 - Learning rate: 6.25e-05 - Loss: 0.8039839
Epoch: 11/15 - Batch: 6700/7933 - Learning rate: 6.25e-05 - Loss: 0.77659816
Epoch: 11/15 - Batch: 6800/7933 - Learning rate: 6.25e-05 - Loss: 0.76179385
Epoch: 11/15 - Batch: 6900/7933 - Learning rate: 6.25e-05 - Loss: 0.5174214
Epoch: 11/15 - Batch: 7000/7933 - Learning rate: 6.25e-05 - Loss: 1.1032965 - Dev BLEU: 0.22727070353990358
Epoch: 11/15 - Batch: 7100/7933 - Learning rate: 6.25e-05 - Loss: 0.8130457
Epoch: 11/15 - Batch: 7200/7933 - Learning rate: 6.25e-05 - Loss: 0.65655506
Epoch: 11/15 - Batch: 7300/7933 - Learning rate: 6.25e-05 - Loss: 0.7982644
Epoch: 11/15 - Batch: 7400/7933 - Learning rate: 6.25e-05 - Loss: 0.89337564
Epoch: 11/15 - Batch: 7500/7933 - Learning rate: 6.25e-05 - Loss: 0.6448901
Epoch: 11/15 - Batch: 7600/7933 - Learning rate: 6.25e-05 - Loss: 1.0741261
Epoch: 11/15 - Batch: 7700/7933 - Learning rate: 6.25e-05 - Loss: 1.2417047
Epoch: 11/15 - Batch: 7800/7933 - Learning rate: 6.25e-05 - Loss: 1.0919214
Epoch: 11/15 - Batch: 7900/7933 - Learning rate: 6.25e-05 - Loss: 0.9138328
Epoch: 11/15 - Batch: 7933/7933 - Learning rate: 6.25e-05 - Loss: 1.1458622 - Dev BLEU: 0.21823645533947636
Epoch: 12/15 - Batch: 100/7933 - Learning rate: 3.125e-05 - Loss: 0.7600375
Epoch: 12/15 - Batch: 200/7933 - Learning rate: 3.125e-05 - Loss: 0.6899227
Epoch: 12/15 - Batch: 300/7933 - Learning rate: 3.125e-05 - Loss: 0.50004333
Epoch: 12/15 - Batch: 400/7933 - Learning rate: 3.125e-05 - Loss: 0.81546396
Epoch: 12/15 - Batch: 500/7933 - Learning rate: 3.125e-05 - Loss: 0.5797762
Epoch: 12/15 - Batch: 600/7933 - Learning rate: 3.125e-05 - Loss: 0.38676107
Epoch: 12/15 - Batch: 700/7933 - Learning rate: 3.125e-05 - Loss: 0.60695744
Epoch: 12/15 - Batch: 800/7933 - Learning rate: 3.125e-05 - Loss: 0.59269667
Epoch: 12/15 - Batch: 900/7933 - Learning rate: 3.125e-05 - Loss: 0.3873869
Epoch: 12/15 - Batch: 1000/7933 - Learning rate: 3.125e-05 - Loss: 0.6473767 - Dev BLEU: 0.20535639690745144
Epoch: 12/15 - Batch: 1100/7933 - Learning rate: 3.125e-05 - Loss: 0.6006786
Epoch: 12/15 - Batch: 1200/7933 - Learning rate: 3.125e-05 - Loss: 0.7707443
Epoch: 12/15 - Batch: 1300/7933 - Learning rate: 3.125e-05 - Loss: 0.71733224
Epoch: 12/15 - Batch: 1400/7933 - Learning rate: 3.125e-05 - Loss: 0.7561278
Epoch: 12/15 - Batch: 1500/7933 - Learning rate: 3.125e-05 - Loss: 0.5373042
Epoch: 12/15 - Batch: 1600/7933 - Learning rate: 3.125e-05 - Loss: 1.0101694
Epoch: 12/15 - Batch: 1700/7933 - Learning rate: 3.125e-05 - Loss: 0.7624971
Epoch: 12/15 - Batch: 1800/7933 - Learning rate: 3.125e-05 - Loss: 0.41368082
Epoch: 12/15 - Batch: 1900/7933 - Learning rate: 3.125e-05 - Loss: 0.6319808
Epoch: 12/15 - Batch: 2000/7933 - Learning rate: 3.125e-05 - Loss: 0.6631383 - Dev BLEU: 0.20270976125931808
Epoch: 12/15 - Batch: 2100/7933 - Learning rate: 3.125e-05 - Loss: 0.5262117
Epoch: 12/15 - Batch: 2200/7933 - Learning rate: 3.125e-05 - Loss: 0.5587277
Epoch: 12/15 - Batch: 2300/7933 - Learning rate: 3.125e-05 - Loss: 0.688591
Epoch: 12/15 - Batch: 2400/7933 - Learning rate: 3.125e-05 - Loss: 0.57636094
Epoch: 12/15 - Batch: 2500/7933 - Learning rate: 3.125e-05 - Loss: 0.5550028
Epoch: 12/15 - Batch: 2600/7933 - Learning rate: 3.125e-05 - Loss: 0.45890528
Epoch: 12/15 - Batch: 2700/7933 - Learning rate: 3.125e-05 - Loss: 0.2677762
Epoch: 12/15 - Batch: 2800/7933 - Learning rate: 3.125e-05 - Loss: 0.7112761
Epoch: 12/15 - Batch: 2900/7933 - Learning rate: 3.125e-05 - Loss: 0.8176304
Epoch: 12/15 - Batch: 3000/7933 - Learning rate: 3.125e-05 - Loss: 0.7051744 - Dev BLEU: 0.20044989760984588
Epoch: 12/15 - Batch: 3100/7933 - Learning rate: 3.125e-05 - Loss: 0.7572841
Epoch: 12/15 - Batch: 3200/7933 - Learning rate: 3.125e-05 - Loss: 0.69707656
Epoch: 12/15 - Batch: 3300/7933 - Learning rate: 3.125e-05 - Loss: 0.5684569
Epoch: 12/15 - Batch: 3400/7933 - Learning rate: 3.125e-05 - Loss: 0.5664117
Epoch: 12/15 - Batch: 3500/7933 - Learning rate: 3.125e-05 - Loss: 0.69491214
Epoch: 12/15 - Batch: 3600/7933 - Learning rate: 3.125e-05 - Loss: 0.7260526
Epoch: 12/15 - Batch: 3700/7933 - Learning rate: 3.125e-05 - Loss: 0.7303418
Epoch: 12/15 - Batch: 3800/7933 - Learning rate: 3.125e-05 - Loss: 0.6770468
Epoch: 12/15 - Batch: 3900/7933 - Learning rate: 3.125e-05 - Loss: 0.80764955
Epoch: 12/15 - Batch: 4000/7933 - Learning rate: 3.125e-05 - Loss: 0.4660164 - Dev BLEU: 0.20234495589559723
Epoch: 12/15 - Batch: 4100/7933 - Learning rate: 3.125e-05 - Loss: 0.5955527
Epoch: 12/15 - Batch: 4200/7933 - Learning rate: 3.125e-05 - Loss: 0.52250504
Epoch: 12/15 - Batch: 4300/7933 - Learning rate: 3.125e-05 - Loss: 0.6405843
Epoch: 12/15 - Batch: 4400/7933 - Learning rate: 3.125e-05 - Loss: 0.5835629
Epoch: 12/15 - Batch: 4500/7933 - Learning rate: 3.125e-05 - Loss: 0.668737
Epoch: 12/15 - Batch: 4600/7933 - Learning rate: 3.125e-05 - Loss: 1.0293207
Epoch: 12/15 - Batch: 4700/7933 - Learning rate: 3.125e-05 - Loss: 0.723326
Epoch: 12/15 - Batch: 4800/7933 - Learning rate: 3.125e-05 - Loss: 0.7147508
Epoch: 12/15 - Batch: 4900/7933 - Learning rate: 3.125e-05 - Loss: 0.8616382
Epoch: 12/15 - Batch: 5000/7933 - Learning rate: 3.125e-05 - Loss: 0.9169142 - Dev BLEU: 0.22178642285477101
Epoch: 12/15 - Batch: 5100/7933 - Learning rate: 3.125e-05 - Loss: 0.9493535
Epoch: 12/15 - Batch: 5200/7933 - Learning rate: 3.125e-05 - Loss: 0.9065082
Epoch: 12/15 - Batch: 5300/7933 - Learning rate: 3.125e-05 - Loss: 0.89141035
Epoch: 12/15 - Batch: 5400/7933 - Learning rate: 3.125e-05 - Loss: 0.8229313
Epoch: 12/15 - Batch: 5500/7933 - Learning rate: 3.125e-05 - Loss: 0.8799832
Epoch: 12/15 - Batch: 5600/7933 - Learning rate: 3.125e-05 - Loss: 0.66946083
Epoch: 12/15 - Batch: 5700/7933 - Learning rate: 3.125e-05 - Loss: 0.78358877
Epoch: 12/15 - Batch: 5800/7933 - Learning rate: 3.125e-05 - Loss: 0.7956807
Epoch: 12/15 - Batch: 5900/7933 - Learning rate: 3.125e-05 - Loss: 0.5913201
Epoch: 12/15 - Batch: 6000/7933 - Learning rate: 3.125e-05 - Loss: 0.86955607 - Dev BLEU: 0.22373614759458282
Epoch: 12/15 - Batch: 6100/7933 - Learning rate: 3.125e-05 - Loss: 0.8132081
Epoch: 12/15 - Batch: 6200/7933 - Learning rate: 3.125e-05 - Loss: 0.7733135
Epoch: 12/15 - Batch: 6300/7933 - Learning rate: 3.125e-05 - Loss: 0.69661975
Epoch: 12/15 - Batch: 6400/7933 - Learning rate: 3.125e-05 - Loss: 0.6828099
Epoch: 12/15 - Batch: 6500/7933 - Learning rate: 3.125e-05 - Loss: 0.7784144
Epoch: 12/15 - Batch: 6600/7933 - Learning rate: 3.125e-05 - Loss: 0.80457556
Epoch: 12/15 - Batch: 6700/7933 - Learning rate: 3.125e-05 - Loss: 0.77092814
Epoch: 12/15 - Batch: 6800/7933 - Learning rate: 3.125e-05 - Loss: 0.75854754
Epoch: 12/15 - Batch: 6900/7933 - Learning rate: 3.125e-05 - Loss: 0.5196868
Epoch: 12/15 - Batch: 7000/7933 - Learning rate: 3.125e-05 - Loss: 1.0885109 - Dev BLEU: 0.22769181299413335
Epoch: 12/15 - Batch: 7100/7933 - Learning rate: 3.125e-05 - Loss: 0.81718826
Epoch: 12/15 - Batch: 7200/7933 - Learning rate: 3.125e-05 - Loss: 0.6595338
Epoch: 12/15 - Batch: 7300/7933 - Learning rate: 3.125e-05 - Loss: 0.79932857
Epoch: 12/15 - Batch: 7400/7933 - Learning rate: 3.125e-05 - Loss: 0.88514876
Epoch: 12/15 - Batch: 7500/7933 - Learning rate: 3.125e-05 - Loss: 0.6414983
Epoch: 12/15 - Batch: 7600/7933 - Learning rate: 3.125e-05 - Loss: 1.0825208
Epoch: 12/15 - Batch: 7700/7933 - Learning rate: 3.125e-05 - Loss: 1.2376363
Epoch: 12/15 - Batch: 7800/7933 - Learning rate: 3.125e-05 - Loss: 1.1053417
Epoch: 12/15 - Batch: 7900/7933 - Learning rate: 3.125e-05 - Loss: 0.9091614
Epoch: 12/15 - Batch: 7933/7933 - Learning rate: 3.125e-05 - Loss: 1.1332227 - Dev BLEU: 0.22353486274060988
Epoch: 13/15 - Batch: 100/7933 - Learning rate: 1.5625e-05 - Loss: 0.761484
Epoch: 13/15 - Batch: 200/7933 - Learning rate: 1.5625e-05 - Loss: 0.7016163
Epoch: 13/15 - Batch: 300/7933 - Learning rate: 1.5625e-05 - Loss: 0.50370926
Epoch: 13/15 - Batch: 400/7933 - Learning rate: 1.5625e-05 - Loss: 0.8015185
Epoch: 13/15 - Batch: 500/7933 - Learning rate: 1.5625e-05 - Loss: 0.5787809
Epoch: 13/15 - Batch: 600/7933 - Learning rate: 1.5625e-05 - Loss: 0.37995923
Epoch: 13/15 - Batch: 700/7933 - Learning rate: 1.5625e-05 - Loss: 0.5945306
Epoch: 13/15 - Batch: 800/7933 - Learning rate: 1.5625e-05 - Loss: 0.5898316
Epoch: 13/15 - Batch: 900/7933 - Learning rate: 1.5625e-05 - Loss: 0.388957
Epoch: 13/15 - Batch: 1000/7933 - Learning rate: 1.5625e-05 - Loss: 0.64407253 - Dev BLEU: 0.20944045680771262
Epoch: 13/15 - Batch: 1100/7933 - Learning rate: 1.5625e-05 - Loss: 0.6119948
Epoch: 13/15 - Batch: 1200/7933 - Learning rate: 1.5625e-05 - Loss: 0.7765006
Epoch: 13/15 - Batch: 1300/7933 - Learning rate: 1.5625e-05 - Loss: 0.6935092
Epoch: 13/15 - Batch: 1400/7933 - Learning rate: 1.5625e-05 - Loss: 0.7515125
Epoch: 13/15 - Batch: 1500/7933 - Learning rate: 1.5625e-05 - Loss: 0.5515001
Epoch: 13/15 - Batch: 1600/7933 - Learning rate: 1.5625e-05 - Loss: 1.0130178
Epoch: 13/15 - Batch: 1700/7933 - Learning rate: 1.5625e-05 - Loss: 0.7625548
Epoch: 13/15 - Batch: 1800/7933 - Learning rate: 1.5625e-05 - Loss: 0.4104908
Epoch: 13/15 - Batch: 1900/7933 - Learning rate: 1.5625e-05 - Loss: 0.6314544
Epoch: 13/15 - Batch: 2000/7933 - Learning rate: 1.5625e-05 - Loss: 0.63372236 - Dev BLEU: 0.20576395266012212
Epoch: 13/15 - Batch: 2100/7933 - Learning rate: 1.5625e-05 - Loss: 0.5126482
Epoch: 13/15 - Batch: 2200/7933 - Learning rate: 1.5625e-05 - Loss: 0.5596787
Epoch: 13/15 - Batch: 2300/7933 - Learning rate: 1.5625e-05 - Loss: 0.7011864
Epoch: 13/15 - Batch: 2400/7933 - Learning rate: 1.5625e-05 - Loss: 0.5794745
Epoch: 13/15 - Batch: 2500/7933 - Learning rate: 1.5625e-05 - Loss: 0.55531186
Epoch: 13/15 - Batch: 2600/7933 - Learning rate: 1.5625e-05 - Loss: 0.45043644
Epoch: 13/15 - Batch: 2700/7933 - Learning rate: 1.5625e-05 - Loss: 0.270413
Epoch: 13/15 - Batch: 2800/7933 - Learning rate: 1.5625e-05 - Loss: 0.7137647
Epoch: 13/15 - Batch: 2900/7933 - Learning rate: 1.5625e-05 - Loss: 0.8146059
Epoch: 13/15 - Batch: 3000/7933 - Learning rate: 1.5625e-05 - Loss: 0.6986968 - Dev BLEU: 0.20505768727092377
Epoch: 13/15 - Batch: 3100/7933 - Learning rate: 1.5625e-05 - Loss: 0.7509912
Epoch: 13/15 - Batch: 3200/7933 - Learning rate: 1.5625e-05 - Loss: 0.6942824
Epoch: 13/15 - Batch: 3300/7933 - Learning rate: 1.5625e-05 - Loss: 0.56842804
Epoch: 13/15 - Batch: 3400/7933 - Learning rate: 1.5625e-05 - Loss: 0.56790453
Epoch: 13/15 - Batch: 3500/7933 - Learning rate: 1.5625e-05 - Loss: 0.70203197
Epoch: 13/15 - Batch: 3600/7933 - Learning rate: 1.5625e-05 - Loss: 0.7230077
Epoch: 13/15 - Batch: 3700/7933 - Learning rate: 1.5625e-05 - Loss: 0.7308077
Epoch: 13/15 - Batch: 3800/7933 - Learning rate: 1.5625e-05 - Loss: 0.6673628
Epoch: 13/15 - Batch: 3900/7933 - Learning rate: 1.5625e-05 - Loss: 0.7835742
Epoch: 13/15 - Batch: 4000/7933 - Learning rate: 1.5625e-05 - Loss: 0.46985134 - Dev BLEU: 0.20394903254706417
Epoch: 13/15 - Batch: 4100/7933 - Learning rate: 1.5625e-05 - Loss: 0.602438
Epoch: 13/15 - Batch: 4200/7933 - Learning rate: 1.5625e-05 - Loss: 0.5146992
Epoch: 13/15 - Batch: 4300/7933 - Learning rate: 1.5625e-05 - Loss: 0.64121944
Epoch: 13/15 - Batch: 4400/7933 - Learning rate: 1.5625e-05 - Loss: 0.58397657
Epoch: 13/15 - Batch: 4500/7933 - Learning rate: 1.5625e-05 - Loss: 0.6477886
Epoch: 13/15 - Batch: 4600/7933 - Learning rate: 1.5625e-05 - Loss: 1.0092939
Epoch: 13/15 - Batch: 4700/7933 - Learning rate: 1.5625e-05 - Loss: 0.71989536
Epoch: 13/15 - Batch: 4800/7933 - Learning rate: 1.5625e-05 - Loss: 0.7051747
Epoch: 13/15 - Batch: 4900/7933 - Learning rate: 1.5625e-05 - Loss: 0.8637125
Epoch: 13/15 - Batch: 5000/7933 - Learning rate: 1.5625e-05 - Loss: 0.89461 - Dev BLEU: 0.22206433705122444
Epoch: 13/15 - Batch: 5100/7933 - Learning rate: 1.5625e-05 - Loss: 0.9573701
Epoch: 13/15 - Batch: 5200/7933 - Learning rate: 1.5625e-05 - Loss: 0.93502146
Epoch: 13/15 - Batch: 5300/7933 - Learning rate: 1.5625e-05 - Loss: 0.88118654
Epoch: 13/15 - Batch: 5400/7933 - Learning rate: 1.5625e-05 - Loss: 0.86175185
Epoch: 13/15 - Batch: 5500/7933 - Learning rate: 1.5625e-05 - Loss: 0.8510156
Epoch: 13/15 - Batch: 5600/7933 - Learning rate: 1.5625e-05 - Loss: 0.67245907
Epoch: 13/15 - Batch: 5700/7933 - Learning rate: 1.5625e-05 - Loss: 0.7862179
Epoch: 13/15 - Batch: 5800/7933 - Learning rate: 1.5625e-05 - Loss: 0.8030938
Epoch: 13/15 - Batch: 5900/7933 - Learning rate: 1.5625e-05 - Loss: 0.5731167
Epoch: 13/15 - Batch: 6000/7933 - Learning rate: 1.5625e-05 - Loss: 0.8683348 - Dev BLEU: 0.2228160559628383
Epoch: 13/15 - Batch: 6100/7933 - Learning rate: 1.5625e-05 - Loss: 0.8140585
Epoch: 13/15 - Batch: 6200/7933 - Learning rate: 1.5625e-05 - Loss: 0.7719933
Epoch: 13/15 - Batch: 6300/7933 - Learning rate: 1.5625e-05 - Loss: 0.68726516
Epoch: 13/15 - Batch: 6400/7933 - Learning rate: 1.5625e-05 - Loss: 0.6699767
Epoch: 13/15 - Batch: 6500/7933 - Learning rate: 1.5625e-05 - Loss: 0.76594365
Epoch: 13/15 - Batch: 6600/7933 - Learning rate: 1.5625e-05 - Loss: 0.80532354
Epoch: 13/15 - Batch: 6700/7933 - Learning rate: 1.5625e-05 - Loss: 0.773094
Epoch: 13/15 - Batch: 6800/7933 - Learning rate: 1.5625e-05 - Loss: 0.7639141
Epoch: 13/15 - Batch: 6900/7933 - Learning rate: 1.5625e-05 - Loss: 0.51990545
Epoch: 13/15 - Batch: 7000/7933 - Learning rate: 1.5625e-05 - Loss: 1.0973489 - Dev BLEU: 0.22654019093713337
Epoch: 13/15 - Batch: 7100/7933 - Learning rate: 1.5625e-05 - Loss: 0.8078131
Epoch: 13/15 - Batch: 7200/7933 - Learning rate: 1.5625e-05 - Loss: 0.66253966
Epoch: 13/15 - Batch: 7300/7933 - Learning rate: 1.5625e-05 - Loss: 0.8040665
Epoch: 13/15 - Batch: 7400/7933 - Learning rate: 1.5625e-05 - Loss: 0.8729863
Epoch: 13/15 - Batch: 7500/7933 - Learning rate: 1.5625e-05 - Loss: 0.64401305
Epoch: 13/15 - Batch: 7600/7933 - Learning rate: 1.5625e-05 - Loss: 1.0884577
Epoch: 13/15 - Batch: 7700/7933 - Learning rate: 1.5625e-05 - Loss: 1.249949
Epoch: 13/15 - Batch: 7800/7933 - Learning rate: 1.5625e-05 - Loss: 1.0899725
Epoch: 13/15 - Batch: 7900/7933 - Learning rate: 1.5625e-05 - Loss: 0.9120014
Epoch: 13/15 - Batch: 7933/7933 - Learning rate: 1.5625e-05 - Loss: 1.1496449 - Dev BLEU: 0.22464450444610695
Epoch: 14/15 - Batch: 100/7933 - Learning rate: 7.8125e-06 - Loss: 0.7566547
Epoch: 14/15 - Batch: 200/7933 - Learning rate: 7.8125e-06 - Loss: 0.6996645
Epoch: 14/15 - Batch: 300/7933 - Learning rate: 7.8125e-06 - Loss: 0.5080221
Epoch: 14/15 - Batch: 400/7933 - Learning rate: 7.8125e-06 - Loss: 0.81957865
Epoch: 14/15 - Batch: 500/7933 - Learning rate: 7.8125e-06 - Loss: 0.5859078
Epoch: 14/15 - Batch: 600/7933 - Learning rate: 7.8125e-06 - Loss: 0.38102752
Epoch: 14/15 - Batch: 700/7933 - Learning rate: 7.8125e-06 - Loss: 0.5961703
Epoch: 14/15 - Batch: 800/7933 - Learning rate: 7.8125e-06 - Loss: 0.58062744
Epoch: 14/15 - Batch: 900/7933 - Learning rate: 7.8125e-06 - Loss: 0.38382414
Epoch: 14/15 - Batch: 1000/7933 - Learning rate: 7.8125e-06 - Loss: 0.643287 - Dev BLEU: 0.21440563921276648
Epoch: 14/15 - Batch: 1100/7933 - Learning rate: 7.8125e-06 - Loss: 0.59674275
Epoch: 14/15 - Batch: 1200/7933 - Learning rate: 7.8125e-06 - Loss: 0.7658509
Epoch: 14/15 - Batch: 1300/7933 - Learning rate: 7.8125e-06 - Loss: 0.68815655
Epoch: 14/15 - Batch: 1400/7933 - Learning rate: 7.8125e-06 - Loss: 0.748174
Epoch: 14/15 - Batch: 1500/7933 - Learning rate: 7.8125e-06 - Loss: 0.5462112
Epoch: 14/15 - Batch: 1600/7933 - Learning rate: 7.8125e-06 - Loss: 1.0185812
Epoch: 14/15 - Batch: 1700/7933 - Learning rate: 7.8125e-06 - Loss: 0.76392627
Epoch: 14/15 - Batch: 1800/7933 - Learning rate: 7.8125e-06 - Loss: 0.4119565
Epoch: 14/15 - Batch: 1900/7933 - Learning rate: 7.8125e-06 - Loss: 0.6200659
Epoch: 14/15 - Batch: 2000/7933 - Learning rate: 7.8125e-06 - Loss: 0.6494789 - Dev BLEU: 0.2097522474890111
Epoch: 14/15 - Batch: 2100/7933 - Learning rate: 7.8125e-06 - Loss: 0.51821196
Epoch: 14/15 - Batch: 2200/7933 - Learning rate: 7.8125e-06 - Loss: 0.5676444
Epoch: 14/15 - Batch: 2300/7933 - Learning rate: 7.8125e-06 - Loss: 0.69392854
Epoch: 14/15 - Batch: 2400/7933 - Learning rate: 7.8125e-06 - Loss: 0.59278554
Epoch: 14/15 - Batch: 2500/7933 - Learning rate: 7.8125e-06 - Loss: 0.559373
Epoch: 14/15 - Batch: 2600/7933 - Learning rate: 7.8125e-06 - Loss: 0.46332315
Epoch: 14/15 - Batch: 2700/7933 - Learning rate: 7.8125e-06 - Loss: 0.27668723
Epoch: 14/15 - Batch: 2800/7933 - Learning rate: 7.8125e-06 - Loss: 0.7117161
Epoch: 14/15 - Batch: 2900/7933 - Learning rate: 7.8125e-06 - Loss: 0.8047374
Epoch: 14/15 - Batch: 3000/7933 - Learning rate: 7.8125e-06 - Loss: 0.7146107 - Dev BLEU: 0.2077067042140904
Epoch: 14/15 - Batch: 3100/7933 - Learning rate: 7.8125e-06 - Loss: 0.7480746
Epoch: 14/15 - Batch: 3200/7933 - Learning rate: 7.8125e-06 - Loss: 0.69546854
Epoch: 14/15 - Batch: 3300/7933 - Learning rate: 7.8125e-06 - Loss: 0.56812567
Epoch: 14/15 - Batch: 3400/7933 - Learning rate: 7.8125e-06 - Loss: 0.58121777
Epoch: 14/15 - Batch: 3500/7933 - Learning rate: 7.8125e-06 - Loss: 0.72266525
Epoch: 14/15 - Batch: 3600/7933 - Learning rate: 7.8125e-06 - Loss: 0.7211408
Epoch: 14/15 - Batch: 3700/7933 - Learning rate: 7.8125e-06 - Loss: 0.71837705
Epoch: 14/15 - Batch: 3800/7933 - Learning rate: 7.8125e-06 - Loss: 0.6567351
Epoch: 14/15 - Batch: 3900/7933 - Learning rate: 7.8125e-06 - Loss: 0.781547
Epoch: 14/15 - Batch: 4000/7933 - Learning rate: 7.8125e-06 - Loss: 0.47090825 - Dev BLEU: 0.2061421320845015
Epoch: 14/15 - Batch: 4100/7933 - Learning rate: 7.8125e-06 - Loss: 0.605735
Epoch: 14/15 - Batch: 4200/7933 - Learning rate: 7.8125e-06 - Loss: 0.51566
Epoch: 14/15 - Batch: 4300/7933 - Learning rate: 7.8125e-06 - Loss: 0.6329557
Epoch: 14/15 - Batch: 4400/7933 - Learning rate: 7.8125e-06 - Loss: 0.58283484
Epoch: 14/15 - Batch: 4500/7933 - Learning rate: 7.8125e-06 - Loss: 0.66329366
Epoch: 14/15 - Batch: 4600/7933 - Learning rate: 7.8125e-06 - Loss: 1.0123442
Epoch: 14/15 - Batch: 4700/7933 - Learning rate: 7.8125e-06 - Loss: 0.7400044
Epoch: 14/15 - Batch: 4800/7933 - Learning rate: 7.8125e-06 - Loss: 0.73485965
Epoch: 14/15 - Batch: 4900/7933 - Learning rate: 7.8125e-06 - Loss: 0.84956014
Epoch: 14/15 - Batch: 5000/7933 - Learning rate: 7.8125e-06 - Loss: 0.91228867 - Dev BLEU: 0.21731958667090223
Epoch: 14/15 - Batch: 5100/7933 - Learning rate: 7.8125e-06 - Loss: 0.9397343
Epoch: 14/15 - Batch: 5200/7933 - Learning rate: 7.8125e-06 - Loss: 0.9419325
Epoch: 14/15 - Batch: 5300/7933 - Learning rate: 7.8125e-06 - Loss: 0.8917303
Epoch: 14/15 - Batch: 5400/7933 - Learning rate: 7.8125e-06 - Loss: 0.82411534
Epoch: 14/15 - Batch: 5500/7933 - Learning rate: 7.8125e-06 - Loss: 0.87477
Epoch: 14/15 - Batch: 5600/7933 - Learning rate: 7.8125e-06 - Loss: 0.69200987
Epoch: 14/15 - Batch: 5700/7933 - Learning rate: 7.8125e-06 - Loss: 0.7790554
Epoch: 14/15 - Batch: 5800/7933 - Learning rate: 7.8125e-06 - Loss: 0.7983762
Epoch: 14/15 - Batch: 5900/7933 - Learning rate: 7.8125e-06 - Loss: 0.56932104
Epoch: 14/15 - Batch: 6000/7933 - Learning rate: 7.8125e-06 - Loss: 0.8636688 - Dev BLEU: 0.22364446906963123
Epoch: 14/15 - Batch: 6100/7933 - Learning rate: 7.8125e-06 - Loss: 0.80999565
Epoch: 14/15 - Batch: 6200/7933 - Learning rate: 7.8125e-06 - Loss: 0.7780008
Epoch: 14/15 - Batch: 6300/7933 - Learning rate: 7.8125e-06 - Loss: 0.6938633
Epoch: 14/15 - Batch: 6400/7933 - Learning rate: 7.8125e-06 - Loss: 0.67490935
Epoch: 14/15 - Batch: 6500/7933 - Learning rate: 7.8125e-06 - Loss: 0.7846109
Epoch: 14/15 - Batch: 6600/7933 - Learning rate: 7.8125e-06 - Loss: 0.81057996
Epoch: 14/15 - Batch: 6700/7933 - Learning rate: 7.8125e-06 - Loss: 0.77707994
Epoch: 14/15 - Batch: 6800/7933 - Learning rate: 7.8125e-06 - Loss: 0.7556896
Epoch: 14/15 - Batch: 6900/7933 - Learning rate: 7.8125e-06 - Loss: 0.5183469
Epoch: 14/15 - Batch: 7000/7933 - Learning rate: 7.8125e-06 - Loss: 1.1062648 - Dev BLEU: 0.22683263786263397
Epoch: 14/15 - Batch: 7100/7933 - Learning rate: 7.8125e-06 - Loss: 0.8166648
Epoch: 14/15 - Batch: 7200/7933 - Learning rate: 7.8125e-06 - Loss: 0.6622434
Epoch: 14/15 - Batch: 7300/7933 - Learning rate: 7.8125e-06 - Loss: 0.8030141
Epoch: 14/15 - Batch: 7400/7933 - Learning rate: 7.8125e-06 - Loss: 0.87983906
Epoch: 14/15 - Batch: 7500/7933 - Learning rate: 7.8125e-06 - Loss: 0.6418812
Epoch: 14/15 - Batch: 7600/7933 - Learning rate: 7.8125e-06 - Loss: 1.0777435
Epoch: 14/15 - Batch: 7700/7933 - Learning rate: 7.8125e-06 - Loss: 1.2418123
Epoch: 14/15 - Batch: 7800/7933 - Learning rate: 7.8125e-06 - Loss: 1.0832593
Epoch: 14/15 - Batch: 7900/7933 - Learning rate: 7.8125e-06 - Loss: 0.91881317
Epoch: 14/15 - Batch: 7933/7933 - Learning rate: 7.8125e-06 - Loss: 1.1277591 - Dev BLEU: 0.22459198808713557
Epoch: 15/15 - Batch: 100/7933 - Learning rate: 3.90625e-06 - Loss: 0.75921685
Epoch: 15/15 - Batch: 200/7933 - Learning rate: 3.90625e-06 - Loss: 0.7012871
Epoch: 15/15 - Batch: 300/7933 - Learning rate: 3.90625e-06 - Loss: 0.50653636
Epoch: 15/15 - Batch: 400/7933 - Learning rate: 3.90625e-06 - Loss: 0.81894034
Epoch: 15/15 - Batch: 500/7933 - Learning rate: 3.90625e-06 - Loss: 0.5983257
Epoch: 15/15 - Batch: 600/7933 - Learning rate: 3.90625e-06 - Loss: 0.3829344
Epoch: 15/15 - Batch: 700/7933 - Learning rate: 3.90625e-06 - Loss: 0.598461
Epoch: 15/15 - Batch: 800/7933 - Learning rate: 3.90625e-06 - Loss: 0.5967871
Epoch: 15/15 - Batch: 900/7933 - Learning rate: 3.90625e-06 - Loss: 0.37841862
Epoch: 15/15 - Batch: 1000/7933 - Learning rate: 3.90625e-06 - Loss: 0.6452065 - Dev BLEU: 0.2188119407811631
Epoch: 15/15 - Batch: 1100/7933 - Learning rate: 3.90625e-06 - Loss: 0.59624285
Epoch: 15/15 - Batch: 1200/7933 - Learning rate: 3.90625e-06 - Loss: 0.76908976
Epoch: 15/15 - Batch: 1300/7933 - Learning rate: 3.90625e-06 - Loss: 0.68894017
Epoch: 15/15 - Batch: 1400/7933 - Learning rate: 3.90625e-06 - Loss: 0.74797004
Epoch: 15/15 - Batch: 1500/7933 - Learning rate: 3.90625e-06 - Loss: 0.54798484
Epoch: 15/15 - Batch: 1600/7933 - Learning rate: 3.90625e-06 - Loss: 1.0217113
Epoch: 15/15 - Batch: 1700/7933 - Learning rate: 3.90625e-06 - Loss: 0.76107186
Epoch: 15/15 - Batch: 1800/7933 - Learning rate: 3.90625e-06 - Loss: 0.41005492
Epoch: 15/15 - Batch: 1900/7933 - Learning rate: 3.90625e-06 - Loss: 0.62600434
Epoch: 15/15 - Batch: 2000/7933 - Learning rate: 3.90625e-06 - Loss: 0.65855795 - Dev BLEU: 0.21363569263855492
Epoch: 15/15 - Batch: 2100/7933 - Learning rate: 3.90625e-06 - Loss: 0.5238507
Epoch: 15/15 - Batch: 2200/7933 - Learning rate: 3.90625e-06 - Loss: 0.55985177
Epoch: 15/15 - Batch: 2300/7933 - Learning rate: 3.90625e-06 - Loss: 0.67775214
Epoch: 15/15 - Batch: 2400/7933 - Learning rate: 3.90625e-06 - Loss: 0.579519
Epoch: 15/15 - Batch: 2500/7933 - Learning rate: 3.90625e-06 - Loss: 0.5650208
Epoch: 15/15 - Batch: 2600/7933 - Learning rate: 3.90625e-06 - Loss: 0.46161973
Epoch: 15/15 - Batch: 2700/7933 - Learning rate: 3.90625e-06 - Loss: 0.28066352
Epoch: 15/15 - Batch: 2800/7933 - Learning rate: 3.90625e-06 - Loss: 0.72114486
Epoch: 15/15 - Batch: 2900/7933 - Learning rate: 3.90625e-06 - Loss: 0.81099504
Epoch: 15/15 - Batch: 3000/7933 - Learning rate: 3.90625e-06 - Loss: 0.7127658 - Dev BLEU: 0.21282699262048263
Epoch: 15/15 - Batch: 3100/7933 - Learning rate: 3.90625e-06 - Loss: 0.7405696
Epoch: 15/15 - Batch: 3200/7933 - Learning rate: 3.90625e-06 - Loss: 0.69185835
Epoch: 15/15 - Batch: 3300/7933 - Learning rate: 3.90625e-06 - Loss: 0.5672642
Epoch: 15/15 - Batch: 3400/7933 - Learning rate: 3.90625e-06 - Loss: 0.58040655
Epoch: 15/15 - Batch: 3500/7933 - Learning rate: 3.90625e-06 - Loss: 0.6987125
Epoch: 15/15 - Batch: 3600/7933 - Learning rate: 3.90625e-06 - Loss: 0.7240245
Epoch: 15/15 - Batch: 3700/7933 - Learning rate: 3.90625e-06 - Loss: 0.7406678
Epoch: 15/15 - Batch: 3800/7933 - Learning rate: 3.90625e-06 - Loss: 0.6611042
Epoch: 15/15 - Batch: 3900/7933 - Learning rate: 3.90625e-06 - Loss: 0.79445547
Epoch: 15/15 - Batch: 4000/7933 - Learning rate: 3.90625e-06 - Loss: 0.46572676 - Dev BLEU: 0.21022179686644657
Epoch: 15/15 - Batch: 4100/7933 - Learning rate: 3.90625e-06 - Loss: 0.59877485
Epoch: 15/15 - Batch: 4200/7933 - Learning rate: 3.90625e-06 - Loss: 0.51769215
Epoch: 15/15 - Batch: 4300/7933 - Learning rate: 3.90625e-06 - Loss: 0.62924075
Epoch: 15/15 - Batch: 4400/7933 - Learning rate: 3.90625e-06 - Loss: 0.58842397
Epoch: 15/15 - Batch: 4500/7933 - Learning rate: 3.90625e-06 - Loss: 0.66289353
Epoch: 15/15 - Batch: 4600/7933 - Learning rate: 3.90625e-06 - Loss: 1.0280784
Epoch: 15/15 - Batch: 4700/7933 - Learning rate: 3.90625e-06 - Loss: 0.7441815
Epoch: 15/15 - Batch: 4800/7933 - Learning rate: 3.90625e-06 - Loss: 0.7070959
Epoch: 15/15 - Batch: 4900/7933 - Learning rate: 3.90625e-06 - Loss: 0.8641781
Epoch: 15/15 - Batch: 5000/7933 - Learning rate: 3.90625e-06 - Loss: 0.916977 - Dev BLEU: 0.2163588556102822
Epoch: 15/15 - Batch: 5100/7933 - Learning rate: 3.90625e-06 - Loss: 0.95110255
Epoch: 15/15 - Batch: 5200/7933 - Learning rate: 3.90625e-06 - Loss: 0.9398704
Epoch: 15/15 - Batch: 5300/7933 - Learning rate: 3.90625e-06 - Loss: 0.87228477
Epoch: 15/15 - Batch: 5400/7933 - Learning rate: 3.90625e-06 - Loss: 0.8291099
Epoch: 15/15 - Batch: 5500/7933 - Learning rate: 3.90625e-06 - Loss: 0.87772566
Epoch: 15/15 - Batch: 5600/7933 - Learning rate: 3.90625e-06 - Loss: 0.68996716
Epoch: 15/15 - Batch: 5700/7933 - Learning rate: 3.90625e-06 - Loss: 0.7817985
Epoch: 15/15 - Batch: 5800/7933 - Learning rate: 3.90625e-06 - Loss: 0.79010975
Epoch: 15/15 - Batch: 5900/7933 - Learning rate: 3.90625e-06 - Loss: 0.57826346
Epoch: 15/15 - Batch: 6000/7933 - Learning rate: 3.90625e-06 - Loss: 0.86889976 - Dev BLEU: 0.22114102992281595
Epoch: 15/15 - Batch: 6100/7933 - Learning rate: 3.90625e-06 - Loss: 0.8071694
Epoch: 15/15 - Batch: 6200/7933 - Learning rate: 3.90625e-06 - Loss: 0.76201475
Epoch: 15/15 - Batch: 6300/7933 - Learning rate: 3.90625e-06 - Loss: 0.6935618
Epoch: 15/15 - Batch: 6400/7933 - Learning rate: 3.90625e-06 - Loss: 0.66959697
Epoch: 15/15 - Batch: 6500/7933 - Learning rate: 3.90625e-06 - Loss: 0.77431387
Epoch: 15/15 - Batch: 6600/7933 - Learning rate: 3.90625e-06 - Loss: 0.81013364
Epoch: 15/15 - Batch: 6700/7933 - Learning rate: 3.90625e-06 - Loss: 0.77333546
Epoch: 15/15 - Batch: 6800/7933 - Learning rate: 3.90625e-06 - Loss: 0.7616761
Epoch: 15/15 - Batch: 6900/7933 - Learning rate: 3.90625e-06 - Loss: 0.5247844
Epoch: 15/15 - Batch: 7000/7933 - Learning rate: 3.90625e-06 - Loss: 1.1096342 - Dev BLEU: 0.22490184821646567
Epoch: 15/15 - Batch: 7100/7933 - Learning rate: 3.90625e-06 - Loss: 0.8128374
Epoch: 15/15 - Batch: 7200/7933 - Learning rate: 3.90625e-06 - Loss: 0.66587496
Epoch: 15/15 - Batch: 7300/7933 - Learning rate: 3.90625e-06 - Loss: 0.8038634
Epoch: 15/15 - Batch: 7400/7933 - Learning rate: 3.90625e-06 - Loss: 0.8755341
Epoch: 15/15 - Batch: 7500/7933 - Learning rate: 3.90625e-06 - Loss: 0.6427997
Epoch: 15/15 - Batch: 7600/7933 - Learning rate: 3.90625e-06 - Loss: 1.0890695
Epoch: 15/15 - Batch: 7700/7933 - Learning rate: 3.90625e-06 - Loss: 1.248758
Epoch: 15/15 - Batch: 7800/7933 - Learning rate: 3.90625e-06 - Loss: 1.0995609
Epoch: 15/15 - Batch: 7900/7933 - Learning rate: 3.90625e-06 - Loss: 0.9140363
Epoch: 15/15 - Batch: 7933/7933 - Learning rate: 3.90625e-06 - Loss: 1.1539629 - Dev BLEU: 0.22457709151886396 - Test BLEU: 0.24449206439988222
