Epoch: 1/15 - Batch: 100/7933 - Learning rate: 0.001 - Loss: 1.8927358
Epoch: 1/15 - Batch: 200/7933 - Learning rate: 0.001 - Loss: 2.721045
Epoch: 1/15 - Batch: 300/7933 - Learning rate: 0.001 - Loss: 1.5255128
Epoch: 1/15 - Batch: 400/7933 - Learning rate: 0.001 - Loss: 2.8087878
Epoch: 1/15 - Batch: 500/7933 - Learning rate: 0.001 - Loss: 2.1840189
Epoch: 1/15 - Batch: 600/7933 - Learning rate: 0.001 - Loss: 0.8917609
Epoch: 1/15 - Batch: 700/7933 - Learning rate: 0.001 - Loss: 1.9217857
Epoch: 1/15 - Batch: 800/7933 - Learning rate: 0.001 - Loss: 1.6169406
Epoch: 1/15 - Batch: 900/7933 - Learning rate: 0.001 - Loss: 1.0880753
Epoch: 1/15 - Batch: 1000/7933 - Learning rate: 0.001 - Loss: 1.8965443 - Dev BLEU: 0.0
Epoch: 1/15 - Batch: 1100/7933 - Learning rate: 0.001 - Loss: 1.5237166
Epoch: 1/15 - Batch: 1200/7933 - Learning rate: 0.001 - Loss: 2.0664656
Epoch: 1/15 - Batch: 1300/7933 - Learning rate: 0.001 - Loss: 1.9375544
Epoch: 1/15 - Batch: 1400/7933 - Learning rate: 0.001 - Loss: 2.0962272
Epoch: 1/15 - Batch: 1500/7933 - Learning rate: 0.001 - Loss: 1.4926258
Epoch: 1/15 - Batch: 1600/7933 - Learning rate: 0.001 - Loss: 2.6069078
Epoch: 1/15 - Batch: 1700/7933 - Learning rate: 0.001 - Loss: 1.9675624
Epoch: 1/15 - Batch: 1800/7933 - Learning rate: 0.001 - Loss: 1.381371
Epoch: 1/15 - Batch: 1900/7933 - Learning rate: 0.001 - Loss: 1.5640123
Epoch: 1/15 - Batch: 2000/7933 - Learning rate: 0.001 - Loss: 1.7595574 - Dev BLEU: 0.001016576360378309
Epoch: 1/15 - Batch: 2100/7933 - Learning rate: 0.001 - Loss: 1.4361882
Epoch: 1/15 - Batch: 2200/7933 - Learning rate: 0.001 - Loss: 1.7433392
Epoch: 1/15 - Batch: 2300/7933 - Learning rate: 0.001 - Loss: 1.9479249
Epoch: 1/15 - Batch: 2400/7933 - Learning rate: 0.001 - Loss: 1.5963663
Epoch: 1/15 - Batch: 2500/7933 - Learning rate: 0.001 - Loss: 1.849797
Epoch: 1/15 - Batch: 2600/7933 - Learning rate: 0.001 - Loss: 1.2630842
Epoch: 1/15 - Batch: 2700/7933 - Learning rate: 0.001 - Loss: 0.80236936
Epoch: 1/15 - Batch: 2800/7933 - Learning rate: 0.001 - Loss: 1.9532721
Epoch: 1/15 - Batch: 2900/7933 - Learning rate: 0.001 - Loss: 1.8828621
Epoch: 1/15 - Batch: 3000/7933 - Learning rate: 0.001 - Loss: 1.78078 - Dev BLEU: 0.00507855288232926
Epoch: 1/15 - Batch: 3100/7933 - Learning rate: 0.001 - Loss: 1.4953322
Epoch: 1/15 - Batch: 3200/7933 - Learning rate: 0.001 - Loss: 1.6519971
Epoch: 1/15 - Batch: 3300/7933 - Learning rate: 0.001 - Loss: 1.529066
Epoch: 1/15 - Batch: 3400/7933 - Learning rate: 0.001 - Loss: 1.402526
Epoch: 1/15 - Batch: 3500/7933 - Learning rate: 0.001 - Loss: 2.00418
Epoch: 1/15 - Batch: 3600/7933 - Learning rate: 0.001 - Loss: 1.6568542
Epoch: 1/15 - Batch: 3700/7933 - Learning rate: 0.001 - Loss: 1.8816068
Epoch: 1/15 - Batch: 3800/7933 - Learning rate: 0.001 - Loss: 1.7965381
Epoch: 1/15 - Batch: 3900/7933 - Learning rate: 0.001 - Loss: 1.8947955
Epoch: 1/15 - Batch: 4000/7933 - Learning rate: 0.001 - Loss: 1.1113539 - Dev BLEU: 0.012227541771670741
Epoch: 1/15 - Batch: 4100/7933 - Learning rate: 0.001 - Loss: 1.406692
Epoch: 1/15 - Batch: 4200/7933 - Learning rate: 0.001 - Loss: 1.3707097
Epoch: 1/15 - Batch: 4300/7933 - Learning rate: 0.001 - Loss: 1.4790795
Epoch: 1/15 - Batch: 4400/7933 - Learning rate: 0.001 - Loss: 1.4734426
Epoch: 1/15 - Batch: 4500/7933 - Learning rate: 0.001 - Loss: 1.6155187
Epoch: 1/15 - Batch: 4600/7933 - Learning rate: 0.001 - Loss: 2.9061618
Epoch: 1/15 - Batch: 4700/7933 - Learning rate: 0.001 - Loss: 2.2656186
Epoch: 1/15 - Batch: 4800/7933 - Learning rate: 0.001 - Loss: 2.3433344
Epoch: 1/15 - Batch: 4900/7933 - Learning rate: 0.001 - Loss: 2.5537155
Epoch: 1/15 - Batch: 5000/7933 - Learning rate: 0.001 - Loss: 2.2937198 - Dev BLEU: 0.023178790404930653
Epoch: 1/15 - Batch: 5100/7933 - Learning rate: 0.001 - Loss: 2.2047994
Epoch: 1/15 - Batch: 5200/7933 - Learning rate: 0.001 - Loss: 2.3994563
Epoch: 1/15 - Batch: 5300/7933 - Learning rate: 0.001 - Loss: 2.2534292
Epoch: 1/15 - Batch: 5400/7933 - Learning rate: 0.001 - Loss: 2.2796261
Epoch: 1/15 - Batch: 5500/7933 - Learning rate: 0.001 - Loss: 2.379613
Epoch: 1/15 - Batch: 5600/7933 - Learning rate: 0.001 - Loss: 1.864603
Epoch: 1/15 - Batch: 5700/7933 - Learning rate: 0.001 - Loss: 2.3475618
Epoch: 1/15 - Batch: 5800/7933 - Learning rate: 0.001 - Loss: 2.2460616
Epoch: 1/15 - Batch: 5900/7933 - Learning rate: 0.001 - Loss: 1.8405737
Epoch: 1/15 - Batch: 6000/7933 - Learning rate: 0.001 - Loss: 2.2713816 - Dev BLEU: 0.03412786964373816
Epoch: 1/15 - Batch: 6100/7933 - Learning rate: 0.001 - Loss: 2.4345822
Epoch: 1/15 - Batch: 6200/7933 - Learning rate: 0.001 - Loss: 1.9673165
Epoch: 1/15 - Batch: 6300/7933 - Learning rate: 0.001 - Loss: 2.060096
Epoch: 1/15 - Batch: 6400/7933 - Learning rate: 0.001 - Loss: 1.5719022
Epoch: 1/15 - Batch: 6500/7933 - Learning rate: 0.001 - Loss: 1.6556967
Epoch: 1/15 - Batch: 6600/7933 - Learning rate: 0.001 - Loss: 1.8990203
Epoch: 1/15 - Batch: 6700/7933 - Learning rate: 0.001 - Loss: 1.5684282
Epoch: 1/15 - Batch: 6800/7933 - Learning rate: 0.001 - Loss: 1.472132
Epoch: 1/15 - Batch: 6900/7933 - Learning rate: 0.001 - Loss: 1.1980283
Epoch: 1/15 - Batch: 7000/7933 - Learning rate: 0.001 - Loss: 2.2468455 - Dev BLEU: 0.06355491086487162
Epoch: 1/15 - Batch: 7100/7933 - Learning rate: 0.001 - Loss: 1.7095264
Epoch: 1/15 - Batch: 7200/7933 - Learning rate: 0.001 - Loss: 1.4108262
Epoch: 1/15 - Batch: 7300/7933 - Learning rate: 0.001 - Loss: 1.6520562
Epoch: 1/15 - Batch: 7400/7933 - Learning rate: 0.001 - Loss: 1.7460036
Epoch: 1/15 - Batch: 7500/7933 - Learning rate: 0.001 - Loss: 1.2056938
Epoch: 1/15 - Batch: 7600/7933 - Learning rate: 0.001 - Loss: 2.0607271
Epoch: 1/15 - Batch: 7700/7933 - Learning rate: 0.001 - Loss: 2.32958
Epoch: 1/15 - Batch: 7800/7933 - Learning rate: 0.001 - Loss: 2.0662296
Epoch: 1/15 - Batch: 7900/7933 - Learning rate: 0.001 - Loss: 1.8158084
Epoch: 1/15 - Batch: 7933/7933 - Learning rate: 0.001 - Loss: 2.354589 - Dev BLEU: 0.05742422577889634
Epoch: 2/15 - Batch: 100/7933 - Learning rate: 0.001 - Loss: 1.1834308
Epoch: 2/15 - Batch: 200/7933 - Learning rate: 0.001 - Loss: 1.5197935
Epoch: 2/15 - Batch: 300/7933 - Learning rate: 0.001 - Loss: 0.86819357
Epoch: 2/15 - Batch: 400/7933 - Learning rate: 0.001 - Loss: 1.5567147
Epoch: 2/15 - Batch: 500/7933 - Learning rate: 0.001 - Loss: 1.3908503
Epoch: 2/15 - Batch: 600/7933 - Learning rate: 0.001 - Loss: 0.6309575
Epoch: 2/15 - Batch: 700/7933 - Learning rate: 0.001 - Loss: 1.2403387
Epoch: 2/15 - Batch: 800/7933 - Learning rate: 0.001 - Loss: 1.2610176
Epoch: 2/15 - Batch: 900/7933 - Learning rate: 0.001 - Loss: 0.7287375
Epoch: 2/15 - Batch: 1000/7933 - Learning rate: 0.001 - Loss: 1.2938359 - Dev BLEU: 0.05442875549903623
Epoch: 2/15 - Batch: 1100/7933 - Learning rate: 0.001 - Loss: 1.0949004
Epoch: 2/15 - Batch: 1200/7933 - Learning rate: 0.001 - Loss: 1.504288
Epoch: 2/15 - Batch: 1300/7933 - Learning rate: 0.001 - Loss: 1.3932948
Epoch: 2/15 - Batch: 1400/7933 - Learning rate: 0.001 - Loss: 1.3992326
Epoch: 2/15 - Batch: 1500/7933 - Learning rate: 0.001 - Loss: 0.9711841
Epoch: 2/15 - Batch: 1600/7933 - Learning rate: 0.001 - Loss: 1.8862149
Epoch: 2/15 - Batch: 1700/7933 - Learning rate: 0.001 - Loss: 1.3976325
Epoch: 2/15 - Batch: 1800/7933 - Learning rate: 0.001 - Loss: 0.86272216
Epoch: 2/15 - Batch: 1900/7933 - Learning rate: 0.001 - Loss: 1.1319721
Epoch: 2/15 - Batch: 2000/7933 - Learning rate: 0.001 - Loss: 1.2068192 - Dev BLEU: 0.05538237560719551
Epoch: 2/15 - Batch: 2100/7933 - Learning rate: 0.001 - Loss: 1.0062997
Epoch: 2/15 - Batch: 2200/7933 - Learning rate: 0.001 - Loss: 1.1095434
Epoch: 2/15 - Batch: 2300/7933 - Learning rate: 0.001 - Loss: 1.2965906
Epoch: 2/15 - Batch: 2400/7933 - Learning rate: 0.001 - Loss: 1.1137727
Epoch: 2/15 - Batch: 2500/7933 - Learning rate: 0.001 - Loss: 1.224292
Epoch: 2/15 - Batch: 2600/7933 - Learning rate: 0.001 - Loss: 0.8574476
Epoch: 2/15 - Batch: 2700/7933 - Learning rate: 0.001 - Loss: 0.50019604
Epoch: 2/15 - Batch: 2800/7933 - Learning rate: 0.001 - Loss: 1.3822064
Epoch: 2/15 - Batch: 2900/7933 - Learning rate: 0.001 - Loss: 1.4220659
Epoch: 2/15 - Batch: 3000/7933 - Learning rate: 0.001 - Loss: 1.3254023 - Dev BLEU: 0.06381271228804929
Epoch: 2/15 - Batch: 3100/7933 - Learning rate: 0.001 - Loss: 1.1961975
Epoch: 2/15 - Batch: 3200/7933 - Learning rate: 0.001 - Loss: 1.1951419
Epoch: 2/15 - Batch: 3300/7933 - Learning rate: 0.001 - Loss: 0.9955455
Epoch: 2/15 - Batch: 3400/7933 - Learning rate: 0.001 - Loss: 0.9874271
Epoch: 2/15 - Batch: 3500/7933 - Learning rate: 0.001 - Loss: 1.4361264
Epoch: 2/15 - Batch: 3600/7933 - Learning rate: 0.001 - Loss: 1.2902309
Epoch: 2/15 - Batch: 3700/7933 - Learning rate: 0.001 - Loss: 1.3086026
Epoch: 2/15 - Batch: 3800/7933 - Learning rate: 0.001 - Loss: 1.2873267
Epoch: 2/15 - Batch: 3900/7933 - Learning rate: 0.001 - Loss: 1.3966385
Epoch: 2/15 - Batch: 4000/7933 - Learning rate: 0.001 - Loss: 0.80508393 - Dev BLEU: 0.06507981849745784
Epoch: 2/15 - Batch: 4100/7933 - Learning rate: 0.001 - Loss: 1.0322447
Epoch: 2/15 - Batch: 4200/7933 - Learning rate: 0.001 - Loss: 0.9594053
Epoch: 2/15 - Batch: 4300/7933 - Learning rate: 0.001 - Loss: 1.0594941
Epoch: 2/15 - Batch: 4400/7933 - Learning rate: 0.001 - Loss: 1.0141628
Epoch: 2/15 - Batch: 4500/7933 - Learning rate: 0.001 - Loss: 1.1621344
Epoch: 2/15 - Batch: 4600/7933 - Learning rate: 0.001 - Loss: 2.1892514
Epoch: 2/15 - Batch: 4700/7933 - Learning rate: 0.001 - Loss: 1.677051
Epoch: 2/15 - Batch: 4800/7933 - Learning rate: 0.001 - Loss: 1.634394
Epoch: 2/15 - Batch: 4900/7933 - Learning rate: 0.001 - Loss: 1.8316246
Epoch: 2/15 - Batch: 5000/7933 - Learning rate: 0.001 - Loss: 1.7481735 - Dev BLEU: 0.09382868494957511
Epoch: 2/15 - Batch: 5100/7933 - Learning rate: 0.001 - Loss: 1.7211391
Epoch: 2/15 - Batch: 5200/7933 - Learning rate: 0.001 - Loss: 1.666198
Epoch: 2/15 - Batch: 5300/7933 - Learning rate: 0.001 - Loss: 1.7177598
Epoch: 2/15 - Batch: 5400/7933 - Learning rate: 0.001 - Loss: 1.6451066
Epoch: 2/15 - Batch: 5500/7933 - Learning rate: 0.001 - Loss: 1.7546978
Epoch: 2/15 - Batch: 5600/7933 - Learning rate: 0.001 - Loss: 1.3978924
Epoch: 2/15 - Batch: 5700/7933 - Learning rate: 0.001 - Loss: 1.7067822
Epoch: 2/15 - Batch: 5800/7933 - Learning rate: 0.001 - Loss: 1.6717428
Epoch: 2/15 - Batch: 5900/7933 - Learning rate: 0.001 - Loss: 1.2886666
Epoch: 2/15 - Batch: 6000/7933 - Learning rate: 0.001 - Loss: 1.6885228 - Dev BLEU: 0.0936682400987234
Epoch: 2/15 - Batch: 6100/7933 - Learning rate: 0.001 - Loss: 1.817166
Epoch: 2/15 - Batch: 6200/7933 - Learning rate: 0.001 - Loss: 1.4449099
Epoch: 2/15 - Batch: 6300/7933 - Learning rate: 0.001 - Loss: 1.4723222
Epoch: 2/15 - Batch: 6400/7933 - Learning rate: 0.001 - Loss: 1.1956302
Epoch: 2/15 - Batch: 6500/7933 - Learning rate: 0.001 - Loss: 1.3025019
Epoch: 2/15 - Batch: 6600/7933 - Learning rate: 0.001 - Loss: 1.435873
Epoch: 2/15 - Batch: 6700/7933 - Learning rate: 0.001 - Loss: 1.217006
Epoch: 2/15 - Batch: 6800/7933 - Learning rate: 0.001 - Loss: 1.1459124
Epoch: 2/15 - Batch: 6900/7933 - Learning rate: 0.001 - Loss: 0.8808687
Epoch: 2/15 - Batch: 7000/7933 - Learning rate: 0.001 - Loss: 1.7337614 - Dev BLEU: 0.12210526441575167
Epoch: 2/15 - Batch: 7100/7933 - Learning rate: 0.001 - Loss: 1.3369423
Epoch: 2/15 - Batch: 7200/7933 - Learning rate: 0.001 - Loss: 1.0850998
Epoch: 2/15 - Batch: 7300/7933 - Learning rate: 0.001 - Loss: 1.2880958
Epoch: 2/15 - Batch: 7400/7933 - Learning rate: 0.001 - Loss: 1.4049594
Epoch: 2/15 - Batch: 7500/7933 - Learning rate: 0.001 - Loss: 0.99103975
Epoch: 2/15 - Batch: 7600/7933 - Learning rate: 0.001 - Loss: 1.7622507
Epoch: 2/15 - Batch: 7700/7933 - Learning rate: 0.001 - Loss: 1.9154826
Epoch: 2/15 - Batch: 7800/7933 - Learning rate: 0.001 - Loss: 1.7851052
Epoch: 2/15 - Batch: 7900/7933 - Learning rate: 0.001 - Loss: 1.513588
Epoch: 2/15 - Batch: 7933/7933 - Learning rate: 0.001 - Loss: 1.9979205 - Dev BLEU: 0.10464467767180022
Epoch: 3/15 - Batch: 100/7933 - Learning rate: 0.001 - Loss: 1.0069257
Epoch: 3/15 - Batch: 200/7933 - Learning rate: 0.001 - Loss: 1.199694
Epoch: 3/15 - Batch: 300/7933 - Learning rate: 0.001 - Loss: 0.74685156
Epoch: 3/15 - Batch: 400/7933 - Learning rate: 0.001 - Loss: 1.2541639
Epoch: 3/15 - Batch: 500/7933 - Learning rate: 0.001 - Loss: 1.0937123
Epoch: 3/15 - Batch: 600/7933 - Learning rate: 0.001 - Loss: 0.5428871
Epoch: 3/15 - Batch: 700/7933 - Learning rate: 0.001 - Loss: 0.9990666
Epoch: 3/15 - Batch: 800/7933 - Learning rate: 0.001 - Loss: 0.9359934
Epoch: 3/15 - Batch: 900/7933 - Learning rate: 0.001 - Loss: 0.5852169
Epoch: 3/15 - Batch: 1000/7933 - Learning rate: 0.001 - Loss: 1.0411676 - Dev BLEU: 0.0905973323503516
Epoch: 3/15 - Batch: 1100/7933 - Learning rate: 0.001 - Loss: 0.8929241
Epoch: 3/15 - Batch: 1200/7933 - Learning rate: 0.001 - Loss: 1.2316816
Epoch: 3/15 - Batch: 1300/7933 - Learning rate: 0.001 - Loss: 1.1587609
Epoch: 3/15 - Batch: 1400/7933 - Learning rate: 0.001 - Loss: 1.1480516
Epoch: 3/15 - Batch: 1500/7933 - Learning rate: 0.001 - Loss: 0.8103239
Epoch: 3/15 - Batch: 1600/7933 - Learning rate: 0.001 - Loss: 1.5868335
Epoch: 3/15 - Batch: 1700/7933 - Learning rate: 0.001 - Loss: 1.1876137
Epoch: 3/15 - Batch: 1800/7933 - Learning rate: 0.001 - Loss: 0.68345743
Epoch: 3/15 - Batch: 1900/7933 - Learning rate: 0.001 - Loss: 0.94836336
Epoch: 3/15 - Batch: 2000/7933 - Learning rate: 0.001 - Loss: 1.0169783 - Dev BLEU: 0.08983989332131966
Epoch: 3/15 - Batch: 2100/7933 - Learning rate: 0.001 - Loss: 0.8572558
Epoch: 3/15 - Batch: 2200/7933 - Learning rate: 0.001 - Loss: 0.8869294
Epoch: 3/15 - Batch: 2300/7933 - Learning rate: 0.001 - Loss: 1.0762805
Epoch: 3/15 - Batch: 2400/7933 - Learning rate: 0.001 - Loss: 0.9291144
Epoch: 3/15 - Batch: 2500/7933 - Learning rate: 0.001 - Loss: 0.96913826
Epoch: 3/15 - Batch: 2600/7933 - Learning rate: 0.001 - Loss: 0.6871166
Epoch: 3/15 - Batch: 2700/7933 - Learning rate: 0.001 - Loss: 0.4030092
Epoch: 3/15 - Batch: 2800/7933 - Learning rate: 0.001 - Loss: 1.1445068
Epoch: 3/15 - Batch: 2900/7933 - Learning rate: 0.001 - Loss: 1.2203125
Epoch: 3/15 - Batch: 3000/7933 - Learning rate: 0.001 - Loss: 1.1515056 - Dev BLEU: 0.09602530863414978
Epoch: 3/15 - Batch: 3100/7933 - Learning rate: 0.001 - Loss: 1.0904459
Epoch: 3/15 - Batch: 3200/7933 - Learning rate: 0.001 - Loss: 1.0188491
Epoch: 3/15 - Batch: 3300/7933 - Learning rate: 0.001 - Loss: 0.8376925
Epoch: 3/15 - Batch: 3400/7933 - Learning rate: 0.001 - Loss: 0.850903
Epoch: 3/15 - Batch: 3500/7933 - Learning rate: 0.001 - Loss: 1.1839076
Epoch: 3/15 - Batch: 3600/7933 - Learning rate: 0.001 - Loss: 1.1277431
Epoch: 3/15 - Batch: 3700/7933 - Learning rate: 0.001 - Loss: 1.1352471
Epoch: 3/15 - Batch: 3800/7933 - Learning rate: 0.001 - Loss: 1.0695657
Epoch: 3/15 - Batch: 3900/7933 - Learning rate: 0.001 - Loss: 1.2092018
Epoch: 3/15 - Batch: 4000/7933 - Learning rate: 0.001 - Loss: 0.7022965 - Dev BLEU: 0.10008901203217814
Epoch: 3/15 - Batch: 4100/7933 - Learning rate: 0.001 - Loss: 0.9093899
Epoch: 3/15 - Batch: 4200/7933 - Learning rate: 0.001 - Loss: 0.81303114
Epoch: 3/15 - Batch: 4300/7933 - Learning rate: 0.001 - Loss: 0.9189595
Epoch: 3/15 - Batch: 4400/7933 - Learning rate: 0.001 - Loss: 0.8490761
Epoch: 3/15 - Batch: 4500/7933 - Learning rate: 0.001 - Loss: 1.0093017
Epoch: 3/15 - Batch: 4600/7933 - Learning rate: 0.001 - Loss: 1.8646268
Epoch: 3/15 - Batch: 4700/7933 - Learning rate: 0.001 - Loss: 1.3771011
Epoch: 3/15 - Batch: 4800/7933 - Learning rate: 0.001 - Loss: 1.3827791
Epoch: 3/15 - Batch: 4900/7933 - Learning rate: 0.001 - Loss: 1.5351177
Epoch: 3/15 - Batch: 5000/7933 - Learning rate: 0.001 - Loss: 1.4780699 - Dev BLEU: 0.12873283039546837
Epoch: 3/15 - Batch: 5100/7933 - Learning rate: 0.001 - Loss: 1.4871707
Epoch: 3/15 - Batch: 5200/7933 - Learning rate: 0.001 - Loss: 1.4376075
Epoch: 3/15 - Batch: 5300/7933 - Learning rate: 0.001 - Loss: 1.4406062
Epoch: 3/15 - Batch: 5400/7933 - Learning rate: 0.001 - Loss: 1.3872991
Epoch: 3/15 - Batch: 5500/7933 - Learning rate: 0.001 - Loss: 1.4618182
Epoch: 3/15 - Batch: 5600/7933 - Learning rate: 0.001 - Loss: 1.1837205
Epoch: 3/15 - Batch: 5700/7933 - Learning rate: 0.001 - Loss: 1.4673201
Epoch: 3/15 - Batch: 5800/7933 - Learning rate: 0.001 - Loss: 1.4290528
Epoch: 3/15 - Batch: 5900/7933 - Learning rate: 0.001 - Loss: 1.0824496
Epoch: 3/15 - Batch: 6000/7933 - Learning rate: 0.001 - Loss: 1.4485724 - Dev BLEU: 0.12547179255228683
Epoch: 3/15 - Batch: 6100/7933 - Learning rate: 0.001 - Loss: 1.4886235
Epoch: 3/15 - Batch: 6200/7933 - Learning rate: 0.001 - Loss: 1.2425745
Epoch: 3/15 - Batch: 6300/7933 - Learning rate: 0.001 - Loss: 1.2002695
Epoch: 3/15 - Batch: 6400/7933 - Learning rate: 0.001 - Loss: 1.0120947
Epoch: 3/15 - Batch: 6500/7933 - Learning rate: 0.001 - Loss: 1.1198738
Epoch: 3/15 - Batch: 6600/7933 - Learning rate: 0.001 - Loss: 1.2023916
Epoch: 3/15 - Batch: 6700/7933 - Learning rate: 0.001 - Loss: 1.0584176
Epoch: 3/15 - Batch: 6800/7933 - Learning rate: 0.001 - Loss: 1.0112045
Epoch: 3/15 - Batch: 6900/7933 - Learning rate: 0.001 - Loss: 0.75641257
Epoch: 3/15 - Batch: 7000/7933 - Learning rate: 0.001 - Loss: 1.5239518 - Dev BLEU: 0.15658765067592817
Epoch: 3/15 - Batch: 7100/7933 - Learning rate: 0.001 - Loss: 1.1633365
Epoch: 3/15 - Batch: 7200/7933 - Learning rate: 0.001 - Loss: 0.9252372
Epoch: 3/15 - Batch: 7300/7933 - Learning rate: 0.001 - Loss: 1.1134363
Epoch: 3/15 - Batch: 7400/7933 - Learning rate: 0.001 - Loss: 1.2311193
Epoch: 3/15 - Batch: 7500/7933 - Learning rate: 0.001 - Loss: 0.8775779
Epoch: 3/15 - Batch: 7600/7933 - Learning rate: 0.001 - Loss: 1.5783998
Epoch: 3/15 - Batch: 7700/7933 - Learning rate: 0.001 - Loss: 1.6902382
Epoch: 3/15 - Batch: 7800/7933 - Learning rate: 0.001 - Loss: 1.5891399
Epoch: 3/15 - Batch: 7900/7933 - Learning rate: 0.001 - Loss: 1.3368499
Epoch: 3/15 - Batch: 7933/7933 - Learning rate: 0.001 - Loss: 1.7848485 - Dev BLEU: 0.13607149396697557
Epoch: 4/15 - Batch: 100/7933 - Learning rate: 0.001 - Loss: 0.9367251
Epoch: 4/15 - Batch: 200/7933 - Learning rate: 0.001 - Loss: 1.0513906
Epoch: 4/15 - Batch: 300/7933 - Learning rate: 0.001 - Loss: 0.6731361
Epoch: 4/15 - Batch: 400/7933 - Learning rate: 0.001 - Loss: 1.1229554
Epoch: 4/15 - Batch: 500/7933 - Learning rate: 0.001 - Loss: 0.9331238
Epoch: 4/15 - Batch: 600/7933 - Learning rate: 0.001 - Loss: 0.4938427
Epoch: 4/15 - Batch: 700/7933 - Learning rate: 0.001 - Loss: 0.8644654
Epoch: 4/15 - Batch: 800/7933 - Learning rate: 0.001 - Loss: 0.82601255
Epoch: 4/15 - Batch: 900/7933 - Learning rate: 0.001 - Loss: 0.526047
Epoch: 4/15 - Batch: 1000/7933 - Learning rate: 0.001 - Loss: 0.91367936 - Dev BLEU: 0.12031736008388288
Epoch: 4/15 - Batch: 1100/7933 - Learning rate: 0.001 - Loss: 0.7881632
Epoch: 4/15 - Batch: 1200/7933 - Learning rate: 0.001 - Loss: 1.1220547
Epoch: 4/15 - Batch: 1300/7933 - Learning rate: 0.001 - Loss: 1.023873
Epoch: 4/15 - Batch: 1400/7933 - Learning rate: 0.001 - Loss: 1.0156784
Epoch: 4/15 - Batch: 1500/7933 - Learning rate: 0.001 - Loss: 0.72390217
Epoch: 4/15 - Batch: 1600/7933 - Learning rate: 0.001 - Loss: 1.4187425
Epoch: 4/15 - Batch: 1700/7933 - Learning rate: 0.001 - Loss: 1.0607891
Epoch: 4/15 - Batch: 1800/7933 - Learning rate: 0.001 - Loss: 0.6031948
Epoch: 4/15 - Batch: 1900/7933 - Learning rate: 0.001 - Loss: 0.84441
Epoch: 4/15 - Batch: 2000/7933 - Learning rate: 0.001 - Loss: 0.91326666 - Dev BLEU: 0.11483516795054607
Epoch: 4/15 - Batch: 2100/7933 - Learning rate: 0.001 - Loss: 0.7629681
Epoch: 4/15 - Batch: 2200/7933 - Learning rate: 0.001 - Loss: 0.79199183
Epoch: 4/15 - Batch: 2300/7933 - Learning rate: 0.001 - Loss: 0.9579511
Epoch: 4/15 - Batch: 2400/7933 - Learning rate: 0.001 - Loss: 0.82873076
Epoch: 4/15 - Batch: 2500/7933 - Learning rate: 0.001 - Loss: 0.8405495
Epoch: 4/15 - Batch: 2600/7933 - Learning rate: 0.001 - Loss: 0.60811263
Epoch: 4/15 - Batch: 2700/7933 - Learning rate: 0.001 - Loss: 0.3567875
Epoch: 4/15 - Batch: 2800/7933 - Learning rate: 0.001 - Loss: 1.0151087
Epoch: 4/15 - Batch: 2900/7933 - Learning rate: 0.001 - Loss: 1.1233172
Epoch: 4/15 - Batch: 3000/7933 - Learning rate: 0.001 - Loss: 1.0346178 - Dev BLEU: 0.10752923029527901
Epoch: 4/15 - Batch: 3100/7933 - Learning rate: 0.001 - Loss: 0.99580187
Epoch: 4/15 - Batch: 3200/7933 - Learning rate: 0.001 - Loss: 0.9516959
Epoch: 4/15 - Batch: 3300/7933 - Learning rate: 0.001 - Loss: 0.74931663
Epoch: 4/15 - Batch: 3400/7933 - Learning rate: 0.001 - Loss: 0.77622616
Epoch: 4/15 - Batch: 3500/7933 - Learning rate: 0.001 - Loss: 1.0683252
Epoch: 4/15 - Batch: 3600/7933 - Learning rate: 0.001 - Loss: 1.0251279
Epoch: 4/15 - Batch: 3700/7933 - Learning rate: 0.001 - Loss: 1.0305479
Epoch: 4/15 - Batch: 3800/7933 - Learning rate: 0.001 - Loss: 0.9692395
Epoch: 4/15 - Batch: 3900/7933 - Learning rate: 0.001 - Loss: 1.1099448
Epoch: 4/15 - Batch: 4000/7933 - Learning rate: 0.001 - Loss: 0.6369658 - Dev BLEU: 0.12024429903551913
Epoch: 4/15 - Batch: 4100/7933 - Learning rate: 0.001 - Loss: 0.8221612
Epoch: 4/15 - Batch: 4200/7933 - Learning rate: 0.001 - Loss: 0.7406794
Epoch: 4/15 - Batch: 4300/7933 - Learning rate: 0.001 - Loss: 0.8243108
Epoch: 4/15 - Batch: 4400/7933 - Learning rate: 0.001 - Loss: 0.77201015
Epoch: 4/15 - Batch: 4500/7933 - Learning rate: 0.001 - Loss: 0.9300036
Epoch: 4/15 - Batch: 4600/7933 - Learning rate: 0.001 - Loss: 1.6687814
Epoch: 4/15 - Batch: 4700/7933 - Learning rate: 0.001 - Loss: 1.2012075
Epoch: 4/15 - Batch: 4800/7933 - Learning rate: 0.001 - Loss: 1.2396958
Epoch: 4/15 - Batch: 4900/7933 - Learning rate: 0.001 - Loss: 1.3557353
Epoch: 4/15 - Batch: 5000/7933 - Learning rate: 0.001 - Loss: 1.3620256 - Dev BLEU: 0.1524161062394617
Epoch: 4/15 - Batch: 5100/7933 - Learning rate: 0.001 - Loss: 1.3699336
Epoch: 4/15 - Batch: 5200/7933 - Learning rate: 0.001 - Loss: 1.3213574
Epoch: 4/15 - Batch: 5300/7933 - Learning rate: 0.001 - Loss: 1.3134059
Epoch: 4/15 - Batch: 5400/7933 - Learning rate: 0.001 - Loss: 1.2556653
Epoch: 4/15 - Batch: 5500/7933 - Learning rate: 0.001 - Loss: 1.3203967
Epoch: 4/15 - Batch: 5600/7933 - Learning rate: 0.001 - Loss: 1.0601188
Epoch: 4/15 - Batch: 5700/7933 - Learning rate: 0.001 - Loss: 1.3100663
Epoch: 4/15 - Batch: 5800/7933 - Learning rate: 0.001 - Loss: 1.2586578
Epoch: 4/15 - Batch: 5900/7933 - Learning rate: 0.001 - Loss: 0.94640696
Epoch: 4/15 - Batch: 6000/7933 - Learning rate: 0.001 - Loss: 1.2989738 - Dev BLEU: 0.1473324426266112
Epoch: 4/15 - Batch: 6100/7933 - Learning rate: 0.001 - Loss: 1.329667
Epoch: 4/15 - Batch: 6200/7933 - Learning rate: 0.001 - Loss: 1.1132735
Epoch: 4/15 - Batch: 6300/7933 - Learning rate: 0.001 - Loss: 1.0649582
Epoch: 4/15 - Batch: 6400/7933 - Learning rate: 0.001 - Loss: 0.9127277
Epoch: 4/15 - Batch: 6500/7933 - Learning rate: 0.001 - Loss: 1.0223383
Epoch: 4/15 - Batch: 6600/7933 - Learning rate: 0.001 - Loss: 1.0749414
Epoch: 4/15 - Batch: 6700/7933 - Learning rate: 0.001 - Loss: 0.9606443
Epoch: 4/15 - Batch: 6800/7933 - Learning rate: 0.001 - Loss: 0.93308645
Epoch: 4/15 - Batch: 6900/7933 - Learning rate: 0.001 - Loss: 0.679738
Epoch: 4/15 - Batch: 7000/7933 - Learning rate: 0.001 - Loss: 1.3989242 - Dev BLEU: 0.17895147474199843
Epoch: 4/15 - Batch: 7100/7933 - Learning rate: 0.001 - Loss: 1.0652833
Epoch: 4/15 - Batch: 7200/7933 - Learning rate: 0.001 - Loss: 0.8445728
Epoch: 4/15 - Batch: 7300/7933 - Learning rate: 0.001 - Loss: 1.0379875
Epoch: 4/15 - Batch: 7400/7933 - Learning rate: 0.001 - Loss: 1.1507622
Epoch: 4/15 - Batch: 7500/7933 - Learning rate: 0.001 - Loss: 0.80986816
Epoch: 4/15 - Batch: 7600/7933 - Learning rate: 0.001 - Loss: 1.4801878
Epoch: 4/15 - Batch: 7700/7933 - Learning rate: 0.001 - Loss: 1.5738354
Epoch: 4/15 - Batch: 7800/7933 - Learning rate: 0.001 - Loss: 1.4957755
Epoch: 4/15 - Batch: 7900/7933 - Learning rate: 0.001 - Loss: 1.2106876
Epoch: 4/15 - Batch: 7933/7933 - Learning rate: 0.001 - Loss: 1.607823 - Dev BLEU: 0.15172924357291295
Epoch: 5/15 - Batch: 100/7933 - Learning rate: 0.001 - Loss: 0.8838053
Epoch: 5/15 - Batch: 200/7933 - Learning rate: 0.001 - Loss: 0.9421524
Epoch: 5/15 - Batch: 300/7933 - Learning rate: 0.001 - Loss: 0.62879586
Epoch: 5/15 - Batch: 400/7933 - Learning rate: 0.001 - Loss: 1.0467424
Epoch: 5/15 - Batch: 500/7933 - Learning rate: 0.001 - Loss: 0.82002914
Epoch: 5/15 - Batch: 600/7933 - Learning rate: 0.001 - Loss: 0.45631522
Epoch: 5/15 - Batch: 700/7933 - Learning rate: 0.001 - Loss: 0.7779436
Epoch: 5/15 - Batch: 800/7933 - Learning rate: 0.001 - Loss: 0.7759994
Epoch: 5/15 - Batch: 900/7933 - Learning rate: 0.001 - Loss: 0.4926058
Epoch: 5/15 - Batch: 1000/7933 - Learning rate: 0.001 - Loss: 0.83884186 - Dev BLEU: 0.14127507951777596
Epoch: 5/15 - Batch: 1100/7933 - Learning rate: 0.001 - Loss: 0.73320174
Epoch: 5/15 - Batch: 1200/7933 - Learning rate: 0.001 - Loss: 1.0371269
Epoch: 5/15 - Batch: 1300/7933 - Learning rate: 0.001 - Loss: 0.9496626
Epoch: 5/15 - Batch: 1400/7933 - Learning rate: 0.001 - Loss: 0.9524043
Epoch: 5/15 - Batch: 1500/7933 - Learning rate: 0.001 - Loss: 0.6696281
Epoch: 5/15 - Batch: 1600/7933 - Learning rate: 0.001 - Loss: 1.3270967
Epoch: 5/15 - Batch: 1700/7933 - Learning rate: 0.001 - Loss: 0.98893887
Epoch: 5/15 - Batch: 1800/7933 - Learning rate: 0.001 - Loss: 0.5437917
Epoch: 5/15 - Batch: 1900/7933 - Learning rate: 0.001 - Loss: 0.7951153
Epoch: 5/15 - Batch: 2000/7933 - Learning rate: 0.001 - Loss: 0.8447396 - Dev BLEU: 0.1294288857770683
Epoch: 5/15 - Batch: 2100/7933 - Learning rate: 0.001 - Loss: 0.7132609
Epoch: 5/15 - Batch: 2200/7933 - Learning rate: 0.001 - Loss: 0.71767944
Epoch: 5/15 - Batch: 2300/7933 - Learning rate: 0.001 - Loss: 0.9006072
Epoch: 5/15 - Batch: 2400/7933 - Learning rate: 0.001 - Loss: 0.7575571
Epoch: 5/15 - Batch: 2500/7933 - Learning rate: 0.001 - Loss: 0.75670916
Epoch: 5/15 - Batch: 2600/7933 - Learning rate: 0.001 - Loss: 0.5725651
Epoch: 5/15 - Batch: 2700/7933 - Learning rate: 0.001 - Loss: 0.32695267
Epoch: 5/15 - Batch: 2800/7933 - Learning rate: 0.001 - Loss: 0.92429984
Epoch: 5/15 - Batch: 2900/7933 - Learning rate: 0.001 - Loss: 1.0509171
Epoch: 5/15 - Batch: 3000/7933 - Learning rate: 0.001 - Loss: 0.9543711 - Dev BLEU: 0.12527634749009373
Epoch: 5/15 - Batch: 3100/7933 - Learning rate: 0.001 - Loss: 0.9439374
Epoch: 5/15 - Batch: 3200/7933 - Learning rate: 0.001 - Loss: 0.8922748
Epoch: 5/15 - Batch: 3300/7933 - Learning rate: 0.001 - Loss: 0.71043867
Epoch: 5/15 - Batch: 3400/7933 - Learning rate: 0.001 - Loss: 0.7235401
Epoch: 5/15 - Batch: 3500/7933 - Learning rate: 0.001 - Loss: 0.98559177
Epoch: 5/15 - Batch: 3600/7933 - Learning rate: 0.001 - Loss: 0.952854
Epoch: 5/15 - Batch: 3700/7933 - Learning rate: 0.001 - Loss: 0.94718593
Epoch: 5/15 - Batch: 3800/7933 - Learning rate: 0.001 - Loss: 0.8938551
Epoch: 5/15 - Batch: 3900/7933 - Learning rate: 0.001 - Loss: 1.0457195
Epoch: 5/15 - Batch: 4000/7933 - Learning rate: 0.001 - Loss: 0.60180956 - Dev BLEU: 0.13684584019652815
Epoch: 5/15 - Batch: 4100/7933 - Learning rate: 0.001 - Loss: 0.7664157
Epoch: 5/15 - Batch: 4200/7933 - Learning rate: 0.001 - Loss: 0.6930821
Epoch: 5/15 - Batch: 4300/7933 - Learning rate: 0.001 - Loss: 0.7647875
Epoch: 5/15 - Batch: 4400/7933 - Learning rate: 0.001 - Loss: 0.7233686
Epoch: 5/15 - Batch: 4500/7933 - Learning rate: 0.001 - Loss: 0.86072516
Epoch: 5/15 - Batch: 4600/7933 - Learning rate: 0.001 - Loss: 1.5422096
Epoch: 5/15 - Batch: 4700/7933 - Learning rate: 0.001 - Loss: 1.096059
Epoch: 5/15 - Batch: 4800/7933 - Learning rate: 0.001 - Loss: 1.105925
Epoch: 5/15 - Batch: 4900/7933 - Learning rate: 0.001 - Loss: 1.2703733
Epoch: 5/15 - Batch: 5000/7933 - Learning rate: 0.001 - Loss: 1.2591733 - Dev BLEU: 0.16628542389202397
Epoch: 5/15 - Batch: 5100/7933 - Learning rate: 0.001 - Loss: 1.3096294
Epoch: 5/15 - Batch: 5200/7933 - Learning rate: 0.001 - Loss: 1.2514396
Epoch: 5/15 - Batch: 5300/7933 - Learning rate: 0.001 - Loss: 1.2295465
Epoch: 5/15 - Batch: 5400/7933 - Learning rate: 0.001 - Loss: 1.1450046
Epoch: 5/15 - Batch: 5500/7933 - Learning rate: 0.001 - Loss: 1.221171
Epoch: 5/15 - Batch: 5600/7933 - Learning rate: 0.001 - Loss: 0.9877783
Epoch: 5/15 - Batch: 5700/7933 - Learning rate: 0.001 - Loss: 1.2093645
Epoch: 5/15 - Batch: 5800/7933 - Learning rate: 0.001 - Loss: 1.1721995
Epoch: 5/15 - Batch: 5900/7933 - Learning rate: 0.001 - Loss: 0.8687787
Epoch: 5/15 - Batch: 6000/7933 - Learning rate: 0.001 - Loss: 1.1944753 - Dev BLEU: 0.16047728729695018
Epoch: 5/15 - Batch: 6100/7933 - Learning rate: 0.001 - Loss: 1.2026049
Epoch: 5/15 - Batch: 6200/7933 - Learning rate: 0.001 - Loss: 1.0428443
Epoch: 5/15 - Batch: 6300/7933 - Learning rate: 0.001 - Loss: 0.9898994
Epoch: 5/15 - Batch: 6400/7933 - Learning rate: 0.001 - Loss: 0.8599385
Epoch: 5/15 - Batch: 6500/7933 - Learning rate: 0.001 - Loss: 0.9674587
Epoch: 5/15 - Batch: 6600/7933 - Learning rate: 0.001 - Loss: 0.9985891
Epoch: 5/15 - Batch: 6700/7933 - Learning rate: 0.001 - Loss: 0.90953153
Epoch: 5/15 - Batch: 6800/7933 - Learning rate: 0.001 - Loss: 0.8796762
Epoch: 5/15 - Batch: 6900/7933 - Learning rate: 0.001 - Loss: 0.6320959
Epoch: 5/15 - Batch: 7000/7933 - Learning rate: 0.001 - Loss: 1.3295552 - Dev BLEU: 0.1877908601528405
Epoch: 5/15 - Batch: 7100/7933 - Learning rate: 0.001 - Loss: 1.0060031
Epoch: 5/15 - Batch: 7200/7933 - Learning rate: 0.001 - Loss: 0.7959913
Epoch: 5/15 - Batch: 7300/7933 - Learning rate: 0.001 - Loss: 0.9656171
Epoch: 5/15 - Batch: 7400/7933 - Learning rate: 0.001 - Loss: 1.0834365
Epoch: 5/15 - Batch: 7500/7933 - Learning rate: 0.001 - Loss: 0.7603462
Epoch: 5/15 - Batch: 7600/7933 - Learning rate: 0.001 - Loss: 1.4000857
Epoch: 5/15 - Batch: 7700/7933 - Learning rate: 0.001 - Loss: 1.480824
Epoch: 5/15 - Batch: 7800/7933 - Learning rate: 0.001 - Loss: 1.4295256
Epoch: 5/15 - Batch: 7900/7933 - Learning rate: 0.001 - Loss: 1.1351427
Epoch: 5/15 - Batch: 7933/7933 - Learning rate: 0.001 - Loss: 1.464162 - Dev BLEU: 0.16507229420420091
Epoch: 6/15 - Batch: 100/7933 - Learning rate: 0.001 - Loss: 0.8582863
Epoch: 6/15 - Batch: 200/7933 - Learning rate: 0.001 - Loss: 0.8730578
Epoch: 6/15 - Batch: 300/7933 - Learning rate: 0.001 - Loss: 0.6039397
Epoch: 6/15 - Batch: 400/7933 - Learning rate: 0.001 - Loss: 1.0035716
Epoch: 6/15 - Batch: 500/7933 - Learning rate: 0.001 - Loss: 0.7483637
Epoch: 6/15 - Batch: 600/7933 - Learning rate: 0.001 - Loss: 0.44212463
Epoch: 6/15 - Batch: 700/7933 - Learning rate: 0.001 - Loss: 0.72797
Epoch: 6/15 - Batch: 800/7933 - Learning rate: 0.001 - Loss: 0.73599344
Epoch: 6/15 - Batch: 900/7933 - Learning rate: 0.001 - Loss: 0.47244442
Epoch: 6/15 - Batch: 1000/7933 - Learning rate: 0.001 - Loss: 0.80108625 - Dev BLEU: 0.1521928191607128
Epoch: 6/15 - Batch: 1100/7933 - Learning rate: 0.001 - Loss: 0.7019164
Epoch: 6/15 - Batch: 1200/7933 - Learning rate: 0.001 - Loss: 0.984003
Epoch: 6/15 - Batch: 1300/7933 - Learning rate: 0.001 - Loss: 0.8961783
Epoch: 6/15 - Batch: 1400/7933 - Learning rate: 0.001 - Loss: 0.91921234
Epoch: 6/15 - Batch: 1500/7933 - Learning rate: 0.001 - Loss: 0.6361263
Epoch: 6/15 - Batch: 1600/7933 - Learning rate: 0.001 - Loss: 1.2691464
Epoch: 6/15 - Batch: 1700/7933 - Learning rate: 0.001 - Loss: 0.92979723
Epoch: 6/15 - Batch: 1800/7933 - Learning rate: 0.001 - Loss: 0.5180678
Epoch: 6/15 - Batch: 1900/7933 - Learning rate: 0.001 - Loss: 0.7543729
Epoch: 6/15 - Batch: 2000/7933 - Learning rate: 0.001 - Loss: 0.8091957 - Dev BLEU: 0.13815567184043875
Epoch: 6/15 - Batch: 2100/7933 - Learning rate: 0.001 - Loss: 0.6784626
Epoch: 6/15 - Batch: 2200/7933 - Learning rate: 0.001 - Loss: 0.6721225
Epoch: 6/15 - Batch: 2300/7933 - Learning rate: 0.001 - Loss: 0.83494425
Epoch: 6/15 - Batch: 2400/7933 - Learning rate: 0.001 - Loss: 0.73218066
Epoch: 6/15 - Batch: 2500/7933 - Learning rate: 0.001 - Loss: 0.70178014
Epoch: 6/15 - Batch: 2600/7933 - Learning rate: 0.001 - Loss: 0.5340375
Epoch: 6/15 - Batch: 2700/7933 - Learning rate: 0.001 - Loss: 0.31492838
Epoch: 6/15 - Batch: 2800/7933 - Learning rate: 0.001 - Loss: 0.86718726
Epoch: 6/15 - Batch: 2900/7933 - Learning rate: 0.001 - Loss: 0.99339384
Epoch: 6/15 - Batch: 3000/7933 - Learning rate: 0.001 - Loss: 0.9017882 - Dev BLEU: 0.1366882209111488
Epoch: 6/15 - Batch: 3100/7933 - Learning rate: 0.001 - Loss: 0.90490985
Epoch: 6/15 - Batch: 3200/7933 - Learning rate: 0.001 - Loss: 0.8423126
Epoch: 6/15 - Batch: 3300/7933 - Learning rate: 0.001 - Loss: 0.6764607
Epoch: 6/15 - Batch: 3400/7933 - Learning rate: 0.001 - Loss: 0.68897706
Epoch: 6/15 - Batch: 3500/7933 - Learning rate: 0.001 - Loss: 0.9126621
Epoch: 6/15 - Batch: 3600/7933 - Learning rate: 0.001 - Loss: 0.90163106
Epoch: 6/15 - Batch: 3700/7933 - Learning rate: 0.001 - Loss: 0.89785486
Epoch: 6/15 - Batch: 3800/7933 - Learning rate: 0.001 - Loss: 0.8514994
Epoch: 6/15 - Batch: 3900/7933 - Learning rate: 0.001 - Loss: 1.0004923
Epoch: 6/15 - Batch: 4000/7933 - Learning rate: 0.001 - Loss: 0.5639771 - Dev BLEU: 0.14671184595910522
Epoch: 6/15 - Batch: 4100/7933 - Learning rate: 0.001 - Loss: 0.72879696
Epoch: 6/15 - Batch: 4200/7933 - Learning rate: 0.001 - Loss: 0.6716542
Epoch: 6/15 - Batch: 4300/7933 - Learning rate: 0.001 - Loss: 0.73964447
Epoch: 6/15 - Batch: 4400/7933 - Learning rate: 0.001 - Loss: 0.6907936
Epoch: 6/15 - Batch: 4500/7933 - Learning rate: 0.001 - Loss: 0.8234272
Epoch: 6/15 - Batch: 4600/7933 - Learning rate: 0.001 - Loss: 1.4398896
Epoch: 6/15 - Batch: 4700/7933 - Learning rate: 0.001 - Loss: 1.0089301
Epoch: 6/15 - Batch: 4800/7933 - Learning rate: 0.001 - Loss: 1.0403745
Epoch: 6/15 - Batch: 4900/7933 - Learning rate: 0.001 - Loss: 1.1783712
Epoch: 6/15 - Batch: 5000/7933 - Learning rate: 0.001 - Loss: 1.1948959 - Dev BLEU: 0.1792983786456949
Epoch: 6/15 - Batch: 5100/7933 - Learning rate: 0.001 - Loss: 1.2236825
Epoch: 6/15 - Batch: 5200/7933 - Learning rate: 0.001 - Loss: 1.1970314
Epoch: 6/15 - Batch: 5300/7933 - Learning rate: 0.001 - Loss: 1.1699333
Epoch: 6/15 - Batch: 5400/7933 - Learning rate: 0.001 - Loss: 1.081789
Epoch: 6/15 - Batch: 5500/7933 - Learning rate: 0.001 - Loss: 1.1675338
Epoch: 6/15 - Batch: 5600/7933 - Learning rate: 0.001 - Loss: 0.9056344
Epoch: 6/15 - Batch: 5700/7933 - Learning rate: 0.001 - Loss: 1.1693218
Epoch: 6/15 - Batch: 5800/7933 - Learning rate: 0.001 - Loss: 1.1034511
Epoch: 6/15 - Batch: 5900/7933 - Learning rate: 0.001 - Loss: 0.81344247
Epoch: 6/15 - Batch: 6000/7933 - Learning rate: 0.001 - Loss: 1.1511382 - Dev BLEU: 0.16929130670966025
Epoch: 6/15 - Batch: 6100/7933 - Learning rate: 0.001 - Loss: 1.1225259
Epoch: 6/15 - Batch: 6200/7933 - Learning rate: 0.001 - Loss: 0.9799193
Epoch: 6/15 - Batch: 6300/7933 - Learning rate: 0.001 - Loss: 0.9392684
Epoch: 6/15 - Batch: 6400/7933 - Learning rate: 0.001 - Loss: 0.8046006
Epoch: 6/15 - Batch: 6500/7933 - Learning rate: 0.001 - Loss: 1.0892363
Epoch: 6/15 - Batch: 6600/7933 - Learning rate: 0.001 - Loss: 2.234798
Epoch: 6/15 - Batch: 6700/7933 - Learning rate: 0.001 - Loss: 1.7155066
Epoch: 6/15 - Batch: 6800/7933 - Learning rate: 0.001 - Loss: 1.542005
Epoch: 6/15 - Batch: 6900/7933 - Learning rate: 0.001 - Loss: 1.2023368
Epoch: 6/15 - Batch: 7000/7933 - Learning rate: 0.001 - Loss: 2.1453934 - Dev BLEU: 0.05574316728312407
Epoch: 6/15 - Batch: 7100/7933 - Learning rate: 0.001 - Loss: 1.5710162
Epoch: 6/15 - Batch: 7200/7933 - Learning rate: 0.001 - Loss: 1.3075023
Epoch: 6/15 - Batch: 7300/7933 - Learning rate: 0.001 - Loss: 1.5242759
Epoch: 6/15 - Batch: 7400/7933 - Learning rate: 0.001 - Loss: 1.5814657
Epoch: 6/15 - Batch: 7500/7933 - Learning rate: 0.001 - Loss: 1.0807273
Epoch: 6/15 - Batch: 7600/7933 - Learning rate: 0.001 - Loss: 1.8740816
Epoch: 6/15 - Batch: 7700/7933 - Learning rate: 0.001 - Loss: 2.0549521
Epoch: 6/15 - Batch: 7800/7933 - Learning rate: 0.001 - Loss: 1.8707386
Epoch: 6/15 - Batch: 7900/7933 - Learning rate: 0.001 - Loss: 1.5691304
Epoch: 6/15 - Batch: 7933/7933 - Learning rate: 0.001 - Loss: 2.0178957 - Dev BLEU: 0.09181126975454694
Epoch: 7/15 - Batch: 100/7933 - Learning rate: 0.001 - Loss: 1.0825219
Epoch: 7/15 - Batch: 200/7933 - Learning rate: 0.001 - Loss: 1.2829411
Epoch: 7/15 - Batch: 300/7933 - Learning rate: 0.001 - Loss: 0.74018484
Epoch: 7/15 - Batch: 400/7933 - Learning rate: 0.001 - Loss: 1.2795821
Epoch: 7/15 - Batch: 500/7933 - Learning rate: 0.001 - Loss: 1.0671473
Epoch: 7/15 - Batch: 600/7933 - Learning rate: 0.001 - Loss: 0.5276917
Epoch: 7/15 - Batch: 700/7933 - Learning rate: 0.001 - Loss: 0.97782046
Epoch: 7/15 - Batch: 800/7933 - Learning rate: 0.001 - Loss: 0.9204313
Epoch: 7/15 - Batch: 900/7933 - Learning rate: 0.001 - Loss: 0.5856297
Epoch: 7/15 - Batch: 1000/7933 - Learning rate: 0.001 - Loss: 0.9970537 - Dev BLEU: 0.0982186997165077
Epoch: 7/15 - Batch: 1100/7933 - Learning rate: 0.001 - Loss: 0.88060695
Epoch: 7/15 - Batch: 1200/7933 - Learning rate: 0.001 - Loss: 1.1900151
Epoch: 7/15 - Batch: 1300/7933 - Learning rate: 0.001 - Loss: 1.0787249
Epoch: 7/15 - Batch: 1400/7933 - Learning rate: 0.001 - Loss: 1.1046923
Epoch: 7/15 - Batch: 1500/7933 - Learning rate: 0.001 - Loss: 0.78569794
Epoch: 7/15 - Batch: 1600/7933 - Learning rate: 0.001 - Loss: 1.5437177
Epoch: 7/15 - Batch: 1700/7933 - Learning rate: 0.001 - Loss: 1.1085862
Epoch: 7/15 - Batch: 1800/7933 - Learning rate: 0.001 - Loss: 0.66502655
Epoch: 7/15 - Batch: 1900/7933 - Learning rate: 0.001 - Loss: 0.94571286
Epoch: 7/15 - Batch: 2000/7933 - Learning rate: 0.001 - Loss: 0.9511063 - Dev BLEU: 0.1010496523755879
Epoch: 7/15 - Batch: 2100/7933 - Learning rate: 0.001 - Loss: 0.80440193
Epoch: 7/15 - Batch: 2200/7933 - Learning rate: 0.001 - Loss: 0.8612196
Epoch: 7/15 - Batch: 2300/7933 - Learning rate: 0.001 - Loss: 1.0109049
Epoch: 7/15 - Batch: 2400/7933 - Learning rate: 0.001 - Loss: 0.8900006
Epoch: 7/15 - Batch: 2500/7933 - Learning rate: 0.001 - Loss: 0.9020678
Epoch: 7/15 - Batch: 2600/7933 - Learning rate: 0.001 - Loss: 0.66785014
Epoch: 7/15 - Batch: 2700/7933 - Learning rate: 0.001 - Loss: 0.39378542
Epoch: 7/15 - Batch: 2800/7933 - Learning rate: 0.001 - Loss: 1.0705152
Epoch: 7/15 - Batch: 2900/7933 - Learning rate: 0.001 - Loss: 1.1494013
Epoch: 7/15 - Batch: 3000/7933 - Learning rate: 0.001 - Loss: 1.0434448 - Dev BLEU: 0.11451909927703353
Epoch: 7/15 - Batch: 3100/7933 - Learning rate: 0.001 - Loss: 0.9996874
Epoch: 7/15 - Batch: 3200/7933 - Learning rate: 0.001 - Loss: 0.9387335
Epoch: 7/15 - Batch: 3300/7933 - Learning rate: 0.001 - Loss: 0.74674726
Epoch: 7/15 - Batch: 3400/7933 - Learning rate: 0.001 - Loss: 0.7906783
Epoch: 7/15 - Batch: 3500/7933 - Learning rate: 0.001 - Loss: 1.05648
Epoch: 7/15 - Batch: 3600/7933 - Learning rate: 0.001 - Loss: 1.0263752
Epoch: 7/15 - Batch: 3700/7933 - Learning rate: 0.001 - Loss: 1.0155579
Epoch: 7/15 - Batch: 3800/7933 - Learning rate: 0.001 - Loss: 0.9412884
Epoch: 7/15 - Batch: 3900/7933 - Learning rate: 0.001 - Loss: 1.098351
Epoch: 7/15 - Batch: 4000/7933 - Learning rate: 0.001 - Loss: 0.63628185 - Dev BLEU: 0.12693366510016335
Epoch: 7/15 - Batch: 4100/7933 - Learning rate: 0.001 - Loss: 0.8095728
Epoch: 7/15 - Batch: 4200/7933 - Learning rate: 0.001 - Loss: 0.75984895
Epoch: 7/15 - Batch: 4300/7933 - Learning rate: 0.001 - Loss: 0.8323588
Epoch: 7/15 - Batch: 4400/7933 - Learning rate: 0.001 - Loss: 0.7869513
Epoch: 7/15 - Batch: 4500/7933 - Learning rate: 0.001 - Loss: 0.9270579
Epoch: 7/15 - Batch: 4600/7933 - Learning rate: 0.001 - Loss: 1.5340565
Epoch: 7/15 - Batch: 4700/7933 - Learning rate: 0.001 - Loss: 1.1260467
Epoch: 7/15 - Batch: 4800/7933 - Learning rate: 0.001 - Loss: 1.10885
Epoch: 7/15 - Batch: 4900/7933 - Learning rate: 0.001 - Loss: 1.2503037
Epoch: 7/15 - Batch: 5000/7933 - Learning rate: 0.001 - Loss: 1.2321138 - Dev BLEU: 0.1554586602122341
Epoch: 7/15 - Batch: 5100/7933 - Learning rate: 0.001 - Loss: 1.2555397
Epoch: 7/15 - Batch: 5200/7933 - Learning rate: 0.001 - Loss: 1.2450204
Epoch: 7/15 - Batch: 5300/7933 - Learning rate: 0.001 - Loss: 1.1879499
Epoch: 7/15 - Batch: 5400/7933 - Learning rate: 0.001 - Loss: 1.1706995
Epoch: 7/15 - Batch: 5500/7933 - Learning rate: 0.001 - Loss: 1.2133926
Epoch: 7/15 - Batch: 5600/7933 - Learning rate: 0.001 - Loss: 0.95603955
Epoch: 7/15 - Batch: 5700/7933 - Learning rate: 0.001 - Loss: 1.181632
Epoch: 7/15 - Batch: 5800/7933 - Learning rate: 0.001 - Loss: 1.1222692
Epoch: 7/15 - Batch: 5900/7933 - Learning rate: 0.001 - Loss: 0.8232522
Epoch: 7/15 - Batch: 6000/7933 - Learning rate: 0.001 - Loss: 1.1649173 - Dev BLEU: 0.1605497527494574
Epoch: 7/15 - Batch: 6100/7933 - Learning rate: 0.001 - Loss: 1.1261748
Epoch: 7/15 - Batch: 6200/7933 - Learning rate: 0.001 - Loss: 0.9979382
Epoch: 7/15 - Batch: 6300/7933 - Learning rate: 0.001 - Loss: 0.94133264
Epoch: 7/15 - Batch: 6400/7933 - Learning rate: 0.001 - Loss: 0.80770534
Epoch: 7/15 - Batch: 6500/7933 - Learning rate: 0.001 - Loss: 0.99551475
Epoch: 7/15 - Batch: 6600/7933 - Learning rate: 0.001 - Loss: 1.049012
Epoch: 7/15 - Batch: 6700/7933 - Learning rate: 0.001 - Loss: 0.94211894
Epoch: 7/15 - Batch: 6800/7933 - Learning rate: 0.001 - Loss: 0.92691344
Epoch: 7/15 - Batch: 6900/7933 - Learning rate: 0.001 - Loss: 0.66505516
Epoch: 7/15 - Batch: 7000/7933 - Learning rate: 0.001 - Loss: 1.3715475 - Dev BLEU: 0.18371591958902717
Epoch: 7/15 - Batch: 7100/7933 - Learning rate: 0.001 - Loss: 1.02345
Epoch: 7/15 - Batch: 7200/7933 - Learning rate: 0.001 - Loss: 0.8185901
Epoch: 7/15 - Batch: 7300/7933 - Learning rate: 0.001 - Loss: 1.0079103
Epoch: 7/15 - Batch: 7400/7933 - Learning rate: 0.001 - Loss: 1.1199439
Epoch: 7/15 - Batch: 7500/7933 - Learning rate: 0.001 - Loss: 0.7833235
Epoch: 7/15 - Batch: 7600/7933 - Learning rate: 0.001 - Loss: 1.468515
Epoch: 7/15 - Batch: 7700/7933 - Learning rate: 0.001 - Loss: 1.5512207
Epoch: 7/15 - Batch: 7800/7933 - Learning rate: 0.001 - Loss: 1.4861759
Epoch: 7/15 - Batch: 7900/7933 - Learning rate: 0.001 - Loss: 1.1807812
Epoch: 7/15 - Batch: 7933/7933 - Learning rate: 0.001 - Loss: 1.5433619 - Dev BLEU: 0.16832372930036602
Epoch: 8/15 - Batch: 100/7933 - Learning rate: 0.0005 - Loss: 0.868309
Epoch: 8/15 - Batch: 200/7933 - Learning rate: 0.0005 - Loss: 0.92236763
Epoch: 8/15 - Batch: 300/7933 - Learning rate: 0.0005 - Loss: 0.6027107
Epoch: 8/15 - Batch: 400/7933 - Learning rate: 0.0005 - Loss: 0.9938494
Epoch: 8/15 - Batch: 500/7933 - Learning rate: 0.0005 - Loss: 0.7820353
Epoch: 8/15 - Batch: 600/7933 - Learning rate: 0.0005 - Loss: 0.43892586
Epoch: 8/15 - Batch: 700/7933 - Learning rate: 0.0005 - Loss: 0.7353551
Epoch: 8/15 - Batch: 800/7933 - Learning rate: 0.0005 - Loss: 0.73218507
Epoch: 8/15 - Batch: 900/7933 - Learning rate: 0.0005 - Loss: 0.46548626
Epoch: 8/15 - Batch: 1000/7933 - Learning rate: 0.0005 - Loss: 0.795002 - Dev BLEU: 0.15520164029062083
Epoch: 8/15 - Batch: 1100/7933 - Learning rate: 0.0005 - Loss: 0.7038762
Epoch: 8/15 - Batch: 1200/7933 - Learning rate: 0.0005 - Loss: 0.9484204
Epoch: 8/15 - Batch: 1300/7933 - Learning rate: 0.0005 - Loss: 0.87606084
Epoch: 8/15 - Batch: 1400/7933 - Learning rate: 0.0005 - Loss: 0.9015287
Epoch: 8/15 - Batch: 1500/7933 - Learning rate: 0.0005 - Loss: 0.6373823
Epoch: 8/15 - Batch: 1600/7933 - Learning rate: 0.0005 - Loss: 1.2646086
Epoch: 8/15 - Batch: 1700/7933 - Learning rate: 0.0005 - Loss: 0.90630966
Epoch: 8/15 - Batch: 1800/7933 - Learning rate: 0.0005 - Loss: 0.50318485
Epoch: 8/15 - Batch: 1900/7933 - Learning rate: 0.0005 - Loss: 0.75281817
Epoch: 8/15 - Batch: 2000/7933 - Learning rate: 0.0005 - Loss: 0.8151208 - Dev BLEU: 0.1547392986379286
Epoch: 8/15 - Batch: 2100/7933 - Learning rate: 0.0005 - Loss: 0.63996595
Epoch: 8/15 - Batch: 2200/7933 - Learning rate: 0.0005 - Loss: 0.6643247
Epoch: 8/15 - Batch: 2300/7933 - Learning rate: 0.0005 - Loss: 0.81532973
Epoch: 8/15 - Batch: 2400/7933 - Learning rate: 0.0005 - Loss: 0.72146034
Epoch: 8/15 - Batch: 2500/7933 - Learning rate: 0.0005 - Loss: 0.68897825
Epoch: 8/15 - Batch: 2600/7933 - Learning rate: 0.0005 - Loss: 0.5329777
Epoch: 8/15 - Batch: 2700/7933 - Learning rate: 0.0005 - Loss: 0.3107104
Epoch: 8/15 - Batch: 2800/7933 - Learning rate: 0.0005 - Loss: 0.87402815
Epoch: 8/15 - Batch: 2900/7933 - Learning rate: 0.0005 - Loss: 0.9749664
Epoch: 8/15 - Batch: 3000/7933 - Learning rate: 0.0005 - Loss: 0.8830346 - Dev BLEU: 0.13735248164304778
Epoch: 8/15 - Batch: 3100/7933 - Learning rate: 0.0005 - Loss: 0.8722793
Epoch: 8/15 - Batch: 3200/7933 - Learning rate: 0.0005 - Loss: 0.80659854
Epoch: 8/15 - Batch: 3300/7933 - Learning rate: 0.0005 - Loss: 0.6489078
Epoch: 8/15 - Batch: 3400/7933 - Learning rate: 0.0005 - Loss: 0.67196834
Epoch: 8/15 - Batch: 3500/7933 - Learning rate: 0.0005 - Loss: 0.9006866
Epoch: 8/15 - Batch: 3600/7933 - Learning rate: 0.0005 - Loss: 0.8866917
Epoch: 8/15 - Batch: 3700/7933 - Learning rate: 0.0005 - Loss: 0.8723388
Epoch: 8/15 - Batch: 3800/7933 - Learning rate: 0.0005 - Loss: 0.81129694
Epoch: 8/15 - Batch: 3900/7933 - Learning rate: 0.0005 - Loss: 0.95146745
Epoch: 8/15 - Batch: 4000/7933 - Learning rate: 0.0005 - Loss: 0.5410863 - Dev BLEU: 0.16326356170868522
Epoch: 8/15 - Batch: 4100/7933 - Learning rate: 0.0005 - Loss: 0.7057036
Epoch: 8/15 - Batch: 4200/7933 - Learning rate: 0.0005 - Loss: 0.6393503
Epoch: 8/15 - Batch: 4300/7933 - Learning rate: 0.0005 - Loss: 0.7185267
Epoch: 8/15 - Batch: 4400/7933 - Learning rate: 0.0005 - Loss: 0.66068536
Epoch: 8/15 - Batch: 4500/7933 - Learning rate: 0.0005 - Loss: 0.78811496
Epoch: 8/15 - Batch: 4600/7933 - Learning rate: 0.0005 - Loss: 1.2593099
Epoch: 8/15 - Batch: 4700/7933 - Learning rate: 0.0005 - Loss: 0.92232835
Epoch: 8/15 - Batch: 4800/7933 - Learning rate: 0.0005 - Loss: 0.93205017
Epoch: 8/15 - Batch: 4900/7933 - Learning rate: 0.0005 - Loss: 1.0897005
Epoch: 8/15 - Batch: 5000/7933 - Learning rate: 0.0005 - Loss: 1.0961134 - Dev BLEU: 0.18612946786846685
Epoch: 8/15 - Batch: 5100/7933 - Learning rate: 0.0005 - Loss: 1.1343235
Epoch: 8/15 - Batch: 5200/7933 - Learning rate: 0.0005 - Loss: 1.105551
Epoch: 8/15 - Batch: 5300/7933 - Learning rate: 0.0005 - Loss: 1.0680667
Epoch: 8/15 - Batch: 5400/7933 - Learning rate: 0.0005 - Loss: 1.0078522
Epoch: 8/15 - Batch: 5500/7933 - Learning rate: 0.0005 - Loss: 1.082249
Epoch: 8/15 - Batch: 5600/7933 - Learning rate: 0.0005 - Loss: 0.8359997
Epoch: 8/15 - Batch: 5700/7933 - Learning rate: 0.0005 - Loss: 1.0394187
Epoch: 8/15 - Batch: 5800/7933 - Learning rate: 0.0005 - Loss: 0.9874698
Epoch: 8/15 - Batch: 5900/7933 - Learning rate: 0.0005 - Loss: 0.72690743
Epoch: 8/15 - Batch: 6000/7933 - Learning rate: 0.0005 - Loss: 1.0643934 - Dev BLEU: 0.18509790285784594
Epoch: 8/15 - Batch: 6100/7933 - Learning rate: 0.0005 - Loss: 1.016694
Epoch: 8/15 - Batch: 6200/7933 - Learning rate: 0.0005 - Loss: 0.8959129
Epoch: 8/15 - Batch: 6300/7933 - Learning rate: 0.0005 - Loss: 0.855702
Epoch: 8/15 - Batch: 6400/7933 - Learning rate: 0.0005 - Loss: 0.7536301
Epoch: 8/15 - Batch: 6500/7933 - Learning rate: 0.0005 - Loss: 0.917731
Epoch: 8/15 - Batch: 6600/7933 - Learning rate: 0.0005 - Loss: 0.93397206
Epoch: 8/15 - Batch: 6700/7933 - Learning rate: 0.0005 - Loss: 0.86303705
Epoch: 8/15 - Batch: 6800/7933 - Learning rate: 0.0005 - Loss: 0.8521127
Epoch: 8/15 - Batch: 6900/7933 - Learning rate: 0.0005 - Loss: 0.60359496
Epoch: 8/15 - Batch: 7000/7933 - Learning rate: 0.0005 - Loss: 1.2611395 - Dev BLEU: 0.20079488763756748
Epoch: 8/15 - Batch: 7100/7933 - Learning rate: 0.0005 - Loss: 0.9522016
Epoch: 8/15 - Batch: 7200/7933 - Learning rate: 0.0005 - Loss: 0.74661505
Epoch: 8/15 - Batch: 7300/7933 - Learning rate: 0.0005 - Loss: 0.91974914
Epoch: 8/15 - Batch: 7400/7933 - Learning rate: 0.0005 - Loss: 1.0403438
Epoch: 8/15 - Batch: 7500/7933 - Learning rate: 0.0005 - Loss: 0.72273135
Epoch: 8/15 - Batch: 7600/7933 - Learning rate: 0.0005 - Loss: 1.3420681
Epoch: 8/15 - Batch: 7700/7933 - Learning rate: 0.0005 - Loss: 1.4466467
Epoch: 8/15 - Batch: 7800/7933 - Learning rate: 0.0005 - Loss: 1.377215
Epoch: 8/15 - Batch: 7900/7933 - Learning rate: 0.0005 - Loss: 1.0872064
Epoch: 8/15 - Batch: 7933/7933 - Learning rate: 0.0005 - Loss: 1.4103032 - Dev BLEU: 0.1809903657489333
Epoch: 9/15 - Batch: 100/7933 - Learning rate: 0.00025 - Loss: 0.82673806
Epoch: 9/15 - Batch: 200/7933 - Learning rate: 0.00025 - Loss: 0.83850896
Epoch: 9/15 - Batch: 300/7933 - Learning rate: 0.00025 - Loss: 0.57454854
Epoch: 9/15 - Batch: 400/7933 - Learning rate: 0.00025 - Loss: 0.925419
Epoch: 9/15 - Batch: 500/7933 - Learning rate: 0.00025 - Loss: 0.7027484
Epoch: 9/15 - Batch: 600/7933 - Learning rate: 0.00025 - Loss: 0.42430213
Epoch: 9/15 - Batch: 700/7933 - Learning rate: 0.00025 - Loss: 0.6869223
Epoch: 9/15 - Batch: 800/7933 - Learning rate: 0.00025 - Loss: 0.6875232
Epoch: 9/15 - Batch: 900/7933 - Learning rate: 0.00025 - Loss: 0.44029176
Epoch: 9/15 - Batch: 1000/7933 - Learning rate: 0.00025 - Loss: 0.7505467 - Dev BLEU: 0.17490343474651102
Epoch: 9/15 - Batch: 1100/7933 - Learning rate: 0.00025 - Loss: 0.6558087
Epoch: 9/15 - Batch: 1200/7933 - Learning rate: 0.00025 - Loss: 0.89959276
Epoch: 9/15 - Batch: 1300/7933 - Learning rate: 0.00025 - Loss: 0.8244338
Epoch: 9/15 - Batch: 1400/7933 - Learning rate: 0.00025 - Loss: 0.8606323
Epoch: 9/15 - Batch: 1500/7933 - Learning rate: 0.00025 - Loss: 0.598786
Epoch: 9/15 - Batch: 1600/7933 - Learning rate: 0.00025 - Loss: 1.1731699
Epoch: 9/15 - Batch: 1700/7933 - Learning rate: 0.00025 - Loss: 0.8498678
Epoch: 9/15 - Batch: 1800/7933 - Learning rate: 0.00025 - Loss: 0.4666698
Epoch: 9/15 - Batch: 1900/7933 - Learning rate: 0.00025 - Loss: 0.70669633
Epoch: 9/15 - Batch: 2000/7933 - Learning rate: 0.00025 - Loss: 0.76340985 - Dev BLEU: 0.16783939600031228
Epoch: 9/15 - Batch: 2100/7933 - Learning rate: 0.00025 - Loss: 0.6003822
Epoch: 9/15 - Batch: 2200/7933 - Learning rate: 0.00025 - Loss: 0.6184078
Epoch: 9/15 - Batch: 2300/7933 - Learning rate: 0.00025 - Loss: 0.7562272
Epoch: 9/15 - Batch: 2400/7933 - Learning rate: 0.00025 - Loss: 0.6772053
Epoch: 9/15 - Batch: 2500/7933 - Learning rate: 0.00025 - Loss: 0.64176434
Epoch: 9/15 - Batch: 2600/7933 - Learning rate: 0.00025 - Loss: 0.49064398
Epoch: 9/15 - Batch: 2700/7933 - Learning rate: 0.00025 - Loss: 0.2882084
Epoch: 9/15 - Batch: 2800/7933 - Learning rate: 0.00025 - Loss: 0.8079068
Epoch: 9/15 - Batch: 2900/7933 - Learning rate: 0.00025 - Loss: 0.9168978
Epoch: 9/15 - Batch: 3000/7933 - Learning rate: 0.00025 - Loss: 0.8331269 - Dev BLEU: 0.14986388206599827
Epoch: 9/15 - Batch: 3100/7933 - Learning rate: 0.00025 - Loss: 0.82573324
Epoch: 9/15 - Batch: 3200/7933 - Learning rate: 0.00025 - Loss: 0.7735622
Epoch: 9/15 - Batch: 3300/7933 - Learning rate: 0.00025 - Loss: 0.61402196
Epoch: 9/15 - Batch: 3400/7933 - Learning rate: 0.00025 - Loss: 0.6361277
Epoch: 9/15 - Batch: 3500/7933 - Learning rate: 0.00025 - Loss: 0.8404415
Epoch: 9/15 - Batch: 3600/7933 - Learning rate: 0.00025 - Loss: 0.84677726
Epoch: 9/15 - Batch: 3700/7933 - Learning rate: 0.00025 - Loss: 0.8258953
Epoch: 9/15 - Batch: 3800/7933 - Learning rate: 0.00025 - Loss: 0.77881557
Epoch: 9/15 - Batch: 3900/7933 - Learning rate: 0.00025 - Loss: 0.8995361
Epoch: 9/15 - Batch: 4000/7933 - Learning rate: 0.00025 - Loss: 0.5261644 - Dev BLEU: 0.17312111805896205
Epoch: 9/15 - Batch: 4100/7933 - Learning rate: 0.00025 - Loss: 0.68726444
Epoch: 9/15 - Batch: 4200/7933 - Learning rate: 0.00025 - Loss: 0.6028326
Epoch: 9/15 - Batch: 4300/7933 - Learning rate: 0.00025 - Loss: 0.6844246
Epoch: 9/15 - Batch: 4400/7933 - Learning rate: 0.00025 - Loss: 0.6394466
Epoch: 9/15 - Batch: 4500/7933 - Learning rate: 0.00025 - Loss: 0.7598708
Epoch: 9/15 - Batch: 4600/7933 - Learning rate: 0.00025 - Loss: 1.212196
Epoch: 9/15 - Batch: 4700/7933 - Learning rate: 0.00025 - Loss: 0.86644685
Epoch: 9/15 - Batch: 4800/7933 - Learning rate: 0.00025 - Loss: 0.8751486
Epoch: 9/15 - Batch: 4900/7933 - Learning rate: 0.00025 - Loss: 0.99556035
Epoch: 9/15 - Batch: 5000/7933 - Learning rate: 0.00025 - Loss: 1.0516185 - Dev BLEU: 0.19988665487470683
Epoch: 9/15 - Batch: 5100/7933 - Learning rate: 0.00025 - Loss: 1.0810862
Epoch: 9/15 - Batch: 5200/7933 - Learning rate: 0.00025 - Loss: 1.0451658
Epoch: 9/15 - Batch: 5300/7933 - Learning rate: 0.00025 - Loss: 1.0370538
Epoch: 9/15 - Batch: 5400/7933 - Learning rate: 0.00025 - Loss: 0.96474856
Epoch: 9/15 - Batch: 5500/7933 - Learning rate: 0.00025 - Loss: 1.017007
Epoch: 9/15 - Batch: 5600/7933 - Learning rate: 0.00025 - Loss: 0.8059322
Epoch: 9/15 - Batch: 5700/7933 - Learning rate: 0.00025 - Loss: 0.9819768
Epoch: 9/15 - Batch: 5800/7933 - Learning rate: 0.00025 - Loss: 0.9324804
Epoch: 9/15 - Batch: 5900/7933 - Learning rate: 0.00025 - Loss: 0.6881431
Epoch: 9/15 - Batch: 6000/7933 - Learning rate: 0.00025 - Loss: 1.014271 - Dev BLEU: 0.199900108945842
Epoch: 9/15 - Batch: 6100/7933 - Learning rate: 0.00025 - Loss: 0.96688014
Epoch: 9/15 - Batch: 6200/7933 - Learning rate: 0.00025 - Loss: 0.8692794
Epoch: 9/15 - Batch: 6300/7933 - Learning rate: 0.00025 - Loss: 0.8268419
Epoch: 9/15 - Batch: 6400/7933 - Learning rate: 0.00025 - Loss: 0.7381634
Epoch: 9/15 - Batch: 6500/7933 - Learning rate: 0.00025 - Loss: 0.874504
Epoch: 9/15 - Batch: 6600/7933 - Learning rate: 0.00025 - Loss: 0.8987748
Epoch: 9/15 - Batch: 6700/7933 - Learning rate: 0.00025 - Loss: 0.8467102
Epoch: 9/15 - Batch: 6800/7933 - Learning rate: 0.00025 - Loss: 0.83436036
Epoch: 9/15 - Batch: 6900/7933 - Learning rate: 0.00025 - Loss: 0.5828084
Epoch: 9/15 - Batch: 7000/7933 - Learning rate: 0.00025 - Loss: 1.2283045 - Dev BLEU: 0.20594030133903618
Epoch: 9/15 - Batch: 7100/7933 - Learning rate: 0.00025 - Loss: 0.9123431
Epoch: 9/15 - Batch: 7200/7933 - Learning rate: 0.00025 - Loss: 0.72091043
Epoch: 9/15 - Batch: 7300/7933 - Learning rate: 0.00025 - Loss: 0.8971539
Epoch: 9/15 - Batch: 7400/7933 - Learning rate: 0.00025 - Loss: 1.001974
Epoch: 9/15 - Batch: 7500/7933 - Learning rate: 0.00025 - Loss: 0.706094
Epoch: 9/15 - Batch: 7600/7933 - Learning rate: 0.00025 - Loss: 1.2789711
Epoch: 9/15 - Batch: 7700/7933 - Learning rate: 0.00025 - Loss: 1.3902853
Epoch: 9/15 - Batch: 7800/7933 - Learning rate: 0.00025 - Loss: 1.327265
Epoch: 9/15 - Batch: 7900/7933 - Learning rate: 0.00025 - Loss: 1.0487684
Epoch: 9/15 - Batch: 7933/7933 - Learning rate: 0.00025 - Loss: 1.3498034 - Dev BLEU: 0.19096410090748095
Epoch: 10/15 - Batch: 100/7933 - Learning rate: 0.000125 - Loss: 0.8114497
Epoch: 10/15 - Batch: 200/7933 - Learning rate: 0.000125 - Loss: 0.80270475
Epoch: 10/15 - Batch: 300/7933 - Learning rate: 0.000125 - Loss: 0.55934745
Epoch: 10/15 - Batch: 400/7933 - Learning rate: 0.000125 - Loss: 0.9094238
Epoch: 10/15 - Batch: 500/7933 - Learning rate: 0.000125 - Loss: 0.66843355
Epoch: 10/15 - Batch: 600/7933 - Learning rate: 0.000125 - Loss: 0.4157699
Epoch: 10/15 - Batch: 700/7933 - Learning rate: 0.000125 - Loss: 0.6710991
Epoch: 10/15 - Batch: 800/7933 - Learning rate: 0.000125 - Loss: 0.6676894
Epoch: 10/15 - Batch: 900/7933 - Learning rate: 0.000125 - Loss: 0.43058252
Epoch: 10/15 - Batch: 1000/7933 - Learning rate: 0.000125 - Loss: 0.7319848 - Dev BLEU: 0.18151673044565528
Epoch: 10/15 - Batch: 1100/7933 - Learning rate: 0.000125 - Loss: 0.645136
Epoch: 10/15 - Batch: 1200/7933 - Learning rate: 0.000125 - Loss: 0.86736286
Epoch: 10/15 - Batch: 1300/7933 - Learning rate: 0.000125 - Loss: 0.7927109
Epoch: 10/15 - Batch: 1400/7933 - Learning rate: 0.000125 - Loss: 0.8335327
Epoch: 10/15 - Batch: 1500/7933 - Learning rate: 0.000125 - Loss: 0.59093213
Epoch: 10/15 - Batch: 1600/7933 - Learning rate: 0.000125 - Loss: 1.1490531
Epoch: 10/15 - Batch: 1700/7933 - Learning rate: 0.000125 - Loss: 0.83638394
Epoch: 10/15 - Batch: 1800/7933 - Learning rate: 0.000125 - Loss: 0.4582332
Epoch: 10/15 - Batch: 1900/7933 - Learning rate: 0.000125 - Loss: 0.6839832
Epoch: 10/15 - Batch: 2000/7933 - Learning rate: 0.000125 - Loss: 0.74705946 - Dev BLEU: 0.17831656964024184
Epoch: 10/15 - Batch: 2100/7933 - Learning rate: 0.000125 - Loss: 0.5720899
Epoch: 10/15 - Batch: 2200/7933 - Learning rate: 0.000125 - Loss: 0.5957705
Epoch: 10/15 - Batch: 2300/7933 - Learning rate: 0.000125 - Loss: 0.7346886
Epoch: 10/15 - Batch: 2400/7933 - Learning rate: 0.000125 - Loss: 0.6659001
Epoch: 10/15 - Batch: 2500/7933 - Learning rate: 0.000125 - Loss: 0.62503153
Epoch: 10/15 - Batch: 2600/7933 - Learning rate: 0.000125 - Loss: 0.4830835
Epoch: 10/15 - Batch: 2700/7933 - Learning rate: 0.000125 - Loss: 0.28988254
Epoch: 10/15 - Batch: 2800/7933 - Learning rate: 0.000125 - Loss: 0.79293585
Epoch: 10/15 - Batch: 2900/7933 - Learning rate: 0.000125 - Loss: 0.89665455
Epoch: 10/15 - Batch: 3000/7933 - Learning rate: 0.000125 - Loss: 0.8230871 - Dev BLEU: 0.17259830414129704
Epoch: 10/15 - Batch: 3100/7933 - Learning rate: 0.000125 - Loss: 0.8094481
Epoch: 10/15 - Batch: 3200/7933 - Learning rate: 0.000125 - Loss: 0.7587517
Epoch: 10/15 - Batch: 3300/7933 - Learning rate: 0.000125 - Loss: 0.6025072
Epoch: 10/15 - Batch: 3400/7933 - Learning rate: 0.000125 - Loss: 0.61300766
Epoch: 10/15 - Batch: 3500/7933 - Learning rate: 0.000125 - Loss: 0.803555
Epoch: 10/15 - Batch: 3600/7933 - Learning rate: 0.000125 - Loss: 0.82453847
Epoch: 10/15 - Batch: 3700/7933 - Learning rate: 0.000125 - Loss: 0.81522673
Epoch: 10/15 - Batch: 3800/7933 - Learning rate: 0.000125 - Loss: 0.776114
Epoch: 10/15 - Batch: 3900/7933 - Learning rate: 0.000125 - Loss: 0.89179265
Epoch: 10/15 - Batch: 4000/7933 - Learning rate: 0.000125 - Loss: 0.5175974 - Dev BLEU: 0.18170059452178283
Epoch: 10/15 - Batch: 4100/7933 - Learning rate: 0.000125 - Loss: 0.66806376
Epoch: 10/15 - Batch: 4200/7933 - Learning rate: 0.000125 - Loss: 0.5954583
Epoch: 10/15 - Batch: 4300/7933 - Learning rate: 0.000125 - Loss: 0.68156546
Epoch: 10/15 - Batch: 4400/7933 - Learning rate: 0.000125 - Loss: 0.6248071
Epoch: 10/15 - Batch: 4500/7933 - Learning rate: 0.000125 - Loss: 0.73339534
Epoch: 10/15 - Batch: 4600/7933 - Learning rate: 0.000125 - Loss: 1.1777875
Epoch: 10/15 - Batch: 4700/7933 - Learning rate: 0.000125 - Loss: 0.84272015
Epoch: 10/15 - Batch: 4800/7933 - Learning rate: 0.000125 - Loss: 0.8569883
Epoch: 10/15 - Batch: 4900/7933 - Learning rate: 0.000125 - Loss: 0.97989005
Epoch: 10/15 - Batch: 5000/7933 - Learning rate: 0.000125 - Loss: 1.0165489 - Dev BLEU: 0.20351766713763367
Epoch: 10/15 - Batch: 5100/7933 - Learning rate: 0.000125 - Loss: 1.0581542
Epoch: 10/15 - Batch: 5200/7933 - Learning rate: 0.000125 - Loss: 1.043611
Epoch: 10/15 - Batch: 5300/7933 - Learning rate: 0.000125 - Loss: 0.995466
Epoch: 10/15 - Batch: 5400/7933 - Learning rate: 0.000125 - Loss: 0.94024175
Epoch: 10/15 - Batch: 5500/7933 - Learning rate: 0.000125 - Loss: 1.0122864
Epoch: 10/15 - Batch: 5600/7933 - Learning rate: 0.000125 - Loss: 0.7747567
Epoch: 10/15 - Batch: 5700/7933 - Learning rate: 0.000125 - Loss: 0.95029277
Epoch: 10/15 - Batch: 5800/7933 - Learning rate: 0.000125 - Loss: 0.88381904
Epoch: 10/15 - Batch: 5900/7933 - Learning rate: 0.000125 - Loss: 0.6576117
Epoch: 10/15 - Batch: 6000/7933 - Learning rate: 0.000125 - Loss: 0.99678403 - Dev BLEU: 0.20266717049547464
Epoch: 10/15 - Batch: 6100/7933 - Learning rate: 0.000125 - Loss: 0.9228333
Epoch: 10/15 - Batch: 6200/7933 - Learning rate: 0.000125 - Loss: 0.8437001
Epoch: 10/15 - Batch: 6300/7933 - Learning rate: 0.000125 - Loss: 0.799548
Epoch: 10/15 - Batch: 6400/7933 - Learning rate: 0.000125 - Loss: 0.7068391
Epoch: 10/15 - Batch: 6500/7933 - Learning rate: 0.000125 - Loss: 0.8619916
Epoch: 10/15 - Batch: 6600/7933 - Learning rate: 0.000125 - Loss: 0.8991966
Epoch: 10/15 - Batch: 6700/7933 - Learning rate: 0.000125 - Loss: 0.8271061
Epoch: 10/15 - Batch: 6800/7933 - Learning rate: 0.000125 - Loss: 0.8198028
Epoch: 10/15 - Batch: 6900/7933 - Learning rate: 0.000125 - Loss: 0.5740924
Epoch: 10/15 - Batch: 7000/7933 - Learning rate: 0.000125 - Loss: 1.2066901 - Dev BLEU: 0.2104848023979776
Epoch: 10/15 - Batch: 7100/7933 - Learning rate: 0.000125 - Loss: 0.90550107
Epoch: 10/15 - Batch: 7200/7933 - Learning rate: 0.000125 - Loss: 0.7138681
Epoch: 10/15 - Batch: 7300/7933 - Learning rate: 0.000125 - Loss: 0.8847021
Epoch: 10/15 - Batch: 7400/7933 - Learning rate: 0.000125 - Loss: 0.9899262
Epoch: 10/15 - Batch: 7500/7933 - Learning rate: 0.000125 - Loss: 0.7030804
Epoch: 10/15 - Batch: 7600/7933 - Learning rate: 0.000125 - Loss: 1.2827775
Epoch: 10/15 - Batch: 7700/7933 - Learning rate: 0.000125 - Loss: 1.3659258
Epoch: 10/15 - Batch: 7800/7933 - Learning rate: 0.000125 - Loss: 1.2886
Epoch: 10/15 - Batch: 7900/7933 - Learning rate: 0.000125 - Loss: 1.046495
Epoch: 10/15 - Batch: 7933/7933 - Learning rate: 0.000125 - Loss: 1.3414325 - Dev BLEU: 0.19721420890460953
Epoch: 11/15 - Batch: 100/7933 - Learning rate: 6.25e-05 - Loss: 0.8000548
Epoch: 11/15 - Batch: 200/7933 - Learning rate: 6.25e-05 - Loss: 0.79363406
Epoch: 11/15 - Batch: 300/7933 - Learning rate: 6.25e-05 - Loss: 0.5552118
Epoch: 11/15 - Batch: 400/7933 - Learning rate: 6.25e-05 - Loss: 0.8821398
Epoch: 11/15 - Batch: 500/7933 - Learning rate: 6.25e-05 - Loss: 0.6582222
Epoch: 11/15 - Batch: 600/7933 - Learning rate: 6.25e-05 - Loss: 0.4076483
Epoch: 11/15 - Batch: 700/7933 - Learning rate: 6.25e-05 - Loss: 0.6638529
Epoch: 11/15 - Batch: 800/7933 - Learning rate: 6.25e-05 - Loss: 0.65289044
Epoch: 11/15 - Batch: 900/7933 - Learning rate: 6.25e-05 - Loss: 0.42059532
Epoch: 11/15 - Batch: 1000/7933 - Learning rate: 6.25e-05 - Loss: 0.7217597 - Dev BLEU: 0.1847408018012191
Epoch: 11/15 - Batch: 1100/7933 - Learning rate: 6.25e-05 - Loss: 0.64822435
Epoch: 11/15 - Batch: 1200/7933 - Learning rate: 6.25e-05 - Loss: 0.8493475
Epoch: 11/15 - Batch: 1300/7933 - Learning rate: 6.25e-05 - Loss: 0.7876883
Epoch: 11/15 - Batch: 1400/7933 - Learning rate: 6.25e-05 - Loss: 0.8317632
Epoch: 11/15 - Batch: 1500/7933 - Learning rate: 6.25e-05 - Loss: 0.5906793
Epoch: 11/15 - Batch: 1600/7933 - Learning rate: 6.25e-05 - Loss: 1.1368073
Epoch: 11/15 - Batch: 1700/7933 - Learning rate: 6.25e-05 - Loss: 0.8243378
Epoch: 11/15 - Batch: 1800/7933 - Learning rate: 6.25e-05 - Loss: 0.460519
Epoch: 11/15 - Batch: 1900/7933 - Learning rate: 6.25e-05 - Loss: 0.6847426
Epoch: 11/15 - Batch: 2000/7933 - Learning rate: 6.25e-05 - Loss: 0.7453489 - Dev BLEU: 0.18308668097841627
Epoch: 11/15 - Batch: 2100/7933 - Learning rate: 6.25e-05 - Loss: 0.56505203
Epoch: 11/15 - Batch: 2200/7933 - Learning rate: 6.25e-05 - Loss: 0.583589
Epoch: 11/15 - Batch: 2300/7933 - Learning rate: 6.25e-05 - Loss: 0.7278875
Epoch: 11/15 - Batch: 2400/7933 - Learning rate: 6.25e-05 - Loss: 0.6651221
Epoch: 11/15 - Batch: 2500/7933 - Learning rate: 6.25e-05 - Loss: 0.61723787
Epoch: 11/15 - Batch: 2600/7933 - Learning rate: 6.25e-05 - Loss: 0.4816819
Epoch: 11/15 - Batch: 2700/7933 - Learning rate: 6.25e-05 - Loss: 0.28210035
Epoch: 11/15 - Batch: 2800/7933 - Learning rate: 6.25e-05 - Loss: 0.77368236
Epoch: 11/15 - Batch: 2900/7933 - Learning rate: 6.25e-05 - Loss: 0.8858441
Epoch: 11/15 - Batch: 3000/7933 - Learning rate: 6.25e-05 - Loss: 0.8103545 - Dev BLEU: 0.18144632429330534
Epoch: 11/15 - Batch: 3100/7933 - Learning rate: 6.25e-05 - Loss: 0.8020698
Epoch: 11/15 - Batch: 3200/7933 - Learning rate: 6.25e-05 - Loss: 0.7582335
Epoch: 11/15 - Batch: 3300/7933 - Learning rate: 6.25e-05 - Loss: 0.60416996
Epoch: 11/15 - Batch: 3400/7933 - Learning rate: 6.25e-05 - Loss: 0.61499846
Epoch: 11/15 - Batch: 3500/7933 - Learning rate: 6.25e-05 - Loss: 0.79908264
Epoch: 11/15 - Batch: 3600/7933 - Learning rate: 6.25e-05 - Loss: 0.8213521
Epoch: 11/15 - Batch: 3700/7933 - Learning rate: 6.25e-05 - Loss: 0.8043181
Epoch: 11/15 - Batch: 3800/7933 - Learning rate: 6.25e-05 - Loss: 0.75746834
Epoch: 11/15 - Batch: 3900/7933 - Learning rate: 6.25e-05 - Loss: 0.88314784
Epoch: 11/15 - Batch: 4000/7933 - Learning rate: 6.25e-05 - Loss: 0.5122396 - Dev BLEU: 0.18487022131081127
Epoch: 11/15 - Batch: 4100/7933 - Learning rate: 6.25e-05 - Loss: 0.6604407
Epoch: 11/15 - Batch: 4200/7933 - Learning rate: 6.25e-05 - Loss: 0.5810845
Epoch: 11/15 - Batch: 4300/7933 - Learning rate: 6.25e-05 - Loss: 0.66794103
Epoch: 11/15 - Batch: 4400/7933 - Learning rate: 6.25e-05 - Loss: 0.6125611
Epoch: 11/15 - Batch: 4500/7933 - Learning rate: 6.25e-05 - Loss: 0.7230766
Epoch: 11/15 - Batch: 4600/7933 - Learning rate: 6.25e-05 - Loss: 1.1411495
Epoch: 11/15 - Batch: 4700/7933 - Learning rate: 6.25e-05 - Loss: 0.8331729
Epoch: 11/15 - Batch: 4800/7933 - Learning rate: 6.25e-05 - Loss: 0.83044803
Epoch: 11/15 - Batch: 4900/7933 - Learning rate: 6.25e-05 - Loss: 0.94959295
Epoch: 11/15 - Batch: 5000/7933 - Learning rate: 6.25e-05 - Loss: 0.999209 - Dev BLEU: 0.20386008463246136
Epoch: 11/15 - Batch: 5100/7933 - Learning rate: 6.25e-05 - Loss: 1.0319177
Epoch: 11/15 - Batch: 5200/7933 - Learning rate: 6.25e-05 - Loss: 1.0144268
Epoch: 11/15 - Batch: 5300/7933 - Learning rate: 6.25e-05 - Loss: 0.9796867
Epoch: 11/15 - Batch: 5400/7933 - Learning rate: 6.25e-05 - Loss: 0.9132287
Epoch: 11/15 - Batch: 5500/7933 - Learning rate: 6.25e-05 - Loss: 0.97727376
Epoch: 11/15 - Batch: 5600/7933 - Learning rate: 6.25e-05 - Loss: 0.7731415
Epoch: 11/15 - Batch: 5700/7933 - Learning rate: 6.25e-05 - Loss: 0.9433642
Epoch: 11/15 - Batch: 5800/7933 - Learning rate: 6.25e-05 - Loss: 0.9078659
Epoch: 11/15 - Batch: 5900/7933 - Learning rate: 6.25e-05 - Loss: 0.6475274
Epoch: 11/15 - Batch: 6000/7933 - Learning rate: 6.25e-05 - Loss: 0.98114187 - Dev BLEU: 0.20921327687542104
Epoch: 11/15 - Batch: 6100/7933 - Learning rate: 6.25e-05 - Loss: 0.9045726
Epoch: 11/15 - Batch: 6200/7933 - Learning rate: 6.25e-05 - Loss: 0.8411201
Epoch: 11/15 - Batch: 6300/7933 - Learning rate: 6.25e-05 - Loss: 0.76892906
Epoch: 11/15 - Batch: 6400/7933 - Learning rate: 6.25e-05 - Loss: 0.71373105
Epoch: 11/15 - Batch: 6500/7933 - Learning rate: 6.25e-05 - Loss: 0.8479858
Epoch: 11/15 - Batch: 6600/7933 - Learning rate: 6.25e-05 - Loss: 0.8896576
Epoch: 11/15 - Batch: 6700/7933 - Learning rate: 6.25e-05 - Loss: 0.8324441
Epoch: 11/15 - Batch: 6800/7933 - Learning rate: 6.25e-05 - Loss: 0.8187548
Epoch: 11/15 - Batch: 6900/7933 - Learning rate: 6.25e-05 - Loss: 0.56706923
Epoch: 11/15 - Batch: 7000/7933 - Learning rate: 6.25e-05 - Loss: 1.1909934 - Dev BLEU: 0.20918140780779063
Epoch: 11/15 - Batch: 7100/7933 - Learning rate: 6.25e-05 - Loss: 0.89747185
Epoch: 11/15 - Batch: 7200/7933 - Learning rate: 6.25e-05 - Loss: 0.70913047
Epoch: 11/15 - Batch: 7300/7933 - Learning rate: 6.25e-05 - Loss: 0.8817098
Epoch: 11/15 - Batch: 7400/7933 - Learning rate: 6.25e-05 - Loss: 0.9878286
Epoch: 11/15 - Batch: 7500/7933 - Learning rate: 6.25e-05 - Loss: 0.6933706
Epoch: 11/15 - Batch: 7600/7933 - Learning rate: 6.25e-05 - Loss: 1.2547804
Epoch: 11/15 - Batch: 7700/7933 - Learning rate: 6.25e-05 - Loss: 1.3670167
Epoch: 11/15 - Batch: 7800/7933 - Learning rate: 6.25e-05 - Loss: 1.2829653
Epoch: 11/15 - Batch: 7900/7933 - Learning rate: 6.25e-05 - Loss: 1.0363349
Epoch: 11/15 - Batch: 7933/7933 - Learning rate: 6.25e-05 - Loss: 1.3261559 - Dev BLEU: 0.20039602133405493
Epoch: 12/15 - Batch: 100/7933 - Learning rate: 3.125e-05 - Loss: 0.79482573
Epoch: 12/15 - Batch: 200/7933 - Learning rate: 3.125e-05 - Loss: 0.77378243
Epoch: 12/15 - Batch: 300/7933 - Learning rate: 3.125e-05 - Loss: 0.5495809
Epoch: 12/15 - Batch: 400/7933 - Learning rate: 3.125e-05 - Loss: 0.88994634
Epoch: 12/15 - Batch: 500/7933 - Learning rate: 3.125e-05 - Loss: 0.6448029
Epoch: 12/15 - Batch: 600/7933 - Learning rate: 3.125e-05 - Loss: 0.40721208
Epoch: 12/15 - Batch: 700/7933 - Learning rate: 3.125e-05 - Loss: 0.65704006
Epoch: 12/15 - Batch: 800/7933 - Learning rate: 3.125e-05 - Loss: 0.6514214
Epoch: 12/15 - Batch: 900/7933 - Learning rate: 3.125e-05 - Loss: 0.41956714
Epoch: 12/15 - Batch: 1000/7933 - Learning rate: 3.125e-05 - Loss: 0.7155691 - Dev BLEU: 0.18815333298390785
Epoch: 12/15 - Batch: 1100/7933 - Learning rate: 3.125e-05 - Loss: 0.6284381
Epoch: 12/15 - Batch: 1200/7933 - Learning rate: 3.125e-05 - Loss: 0.8426779
Epoch: 12/15 - Batch: 1300/7933 - Learning rate: 3.125e-05 - Loss: 0.7901804
Epoch: 12/15 - Batch: 1400/7933 - Learning rate: 3.125e-05 - Loss: 0.81694704
Epoch: 12/15 - Batch: 1500/7933 - Learning rate: 3.125e-05 - Loss: 0.59266865
Epoch: 12/15 - Batch: 1600/7933 - Learning rate: 3.125e-05 - Loss: 1.1524626
Epoch: 12/15 - Batch: 1700/7933 - Learning rate: 3.125e-05 - Loss: 0.8257168
Epoch: 12/15 - Batch: 1800/7933 - Learning rate: 3.125e-05 - Loss: 0.4515423
Epoch: 12/15 - Batch: 1900/7933 - Learning rate: 3.125e-05 - Loss: 0.6727061
Epoch: 12/15 - Batch: 2000/7933 - Learning rate: 3.125e-05 - Loss: 0.7566679 - Dev BLEU: 0.18667582385940948
Epoch: 12/15 - Batch: 2100/7933 - Learning rate: 3.125e-05 - Loss: 0.55010766
Epoch: 12/15 - Batch: 2200/7933 - Learning rate: 3.125e-05 - Loss: 0.58442986
Epoch: 12/15 - Batch: 2300/7933 - Learning rate: 3.125e-05 - Loss: 0.73852295
Epoch: 12/15 - Batch: 2400/7933 - Learning rate: 3.125e-05 - Loss: 0.6605468
Epoch: 12/15 - Batch: 2500/7933 - Learning rate: 3.125e-05 - Loss: 0.6241085
Epoch: 12/15 - Batch: 2600/7933 - Learning rate: 3.125e-05 - Loss: 0.48967192
Epoch: 12/15 - Batch: 2700/7933 - Learning rate: 3.125e-05 - Loss: 0.28788254
Epoch: 12/15 - Batch: 2800/7933 - Learning rate: 3.125e-05 - Loss: 0.7886827
Epoch: 12/15 - Batch: 2900/7933 - Learning rate: 3.125e-05 - Loss: 0.8788391
Epoch: 12/15 - Batch: 3000/7933 - Learning rate: 3.125e-05 - Loss: 0.8126303 - Dev BLEU: 0.1846368017446018
Epoch: 12/15 - Batch: 3100/7933 - Learning rate: 3.125e-05 - Loss: 0.7964797
Epoch: 12/15 - Batch: 3200/7933 - Learning rate: 3.125e-05 - Loss: 0.7324647
Epoch: 12/15 - Batch: 3300/7933 - Learning rate: 3.125e-05 - Loss: 0.59382814
Epoch: 12/15 - Batch: 3400/7933 - Learning rate: 3.125e-05 - Loss: 0.6037493
Epoch: 12/15 - Batch: 3500/7933 - Learning rate: 3.125e-05 - Loss: 0.79483914
Epoch: 12/15 - Batch: 3600/7933 - Learning rate: 3.125e-05 - Loss: 0.8205837
Epoch: 12/15 - Batch: 3700/7933 - Learning rate: 3.125e-05 - Loss: 0.8130152
Epoch: 12/15 - Batch: 3800/7933 - Learning rate: 3.125e-05 - Loss: 0.7641928
Epoch: 12/15 - Batch: 3900/7933 - Learning rate: 3.125e-05 - Loss: 0.88139945
Epoch: 12/15 - Batch: 4000/7933 - Learning rate: 3.125e-05 - Loss: 0.5152498 - Dev BLEU: 0.18769372385674557
Epoch: 12/15 - Batch: 4100/7933 - Learning rate: 3.125e-05 - Loss: 0.654384
Epoch: 12/15 - Batch: 4200/7933 - Learning rate: 3.125e-05 - Loss: 0.5643339
Epoch: 12/15 - Batch: 4300/7933 - Learning rate: 3.125e-05 - Loss: 0.66560805
Epoch: 12/15 - Batch: 4400/7933 - Learning rate: 3.125e-05 - Loss: 0.6226601
Epoch: 12/15 - Batch: 4500/7933 - Learning rate: 3.125e-05 - Loss: 0.72659135
Epoch: 12/15 - Batch: 4600/7933 - Learning rate: 3.125e-05 - Loss: 1.1228513
Epoch: 12/15 - Batch: 4700/7933 - Learning rate: 3.125e-05 - Loss: 0.8277131
Epoch: 12/15 - Batch: 4800/7933 - Learning rate: 3.125e-05 - Loss: 0.8209366
Epoch: 12/15 - Batch: 4900/7933 - Learning rate: 3.125e-05 - Loss: 0.9470413
Epoch: 12/15 - Batch: 5000/7933 - Learning rate: 3.125e-05 - Loss: 0.98677856 - Dev BLEU: 0.2052681657139669
Epoch: 12/15 - Batch: 5100/7933 - Learning rate: 3.125e-05 - Loss: 1.0274707
Epoch: 12/15 - Batch: 5200/7933 - Learning rate: 3.125e-05 - Loss: 1.0242069
Epoch: 12/15 - Batch: 5300/7933 - Learning rate: 3.125e-05 - Loss: 0.9701368
Epoch: 12/15 - Batch: 5400/7933 - Learning rate: 3.125e-05 - Loss: 0.923377
Epoch: 12/15 - Batch: 5500/7933 - Learning rate: 3.125e-05 - Loss: 0.96123856
Epoch: 12/15 - Batch: 5600/7933 - Learning rate: 3.125e-05 - Loss: 0.76242274
Epoch: 12/15 - Batch: 5700/7933 - Learning rate: 3.125e-05 - Loss: 0.9143886
Epoch: 12/15 - Batch: 5800/7933 - Learning rate: 3.125e-05 - Loss: 0.8763322
Epoch: 12/15 - Batch: 5900/7933 - Learning rate: 3.125e-05 - Loss: 0.6408211
Epoch: 12/15 - Batch: 6000/7933 - Learning rate: 3.125e-05 - Loss: 0.9847212 - Dev BLEU: 0.20785611736599058
Epoch: 12/15 - Batch: 6100/7933 - Learning rate: 3.125e-05 - Loss: 0.8663383
Epoch: 12/15 - Batch: 6200/7933 - Learning rate: 3.125e-05 - Loss: 0.848361
Epoch: 12/15 - Batch: 6300/7933 - Learning rate: 3.125e-05 - Loss: 0.77497584
Epoch: 12/15 - Batch: 6400/7933 - Learning rate: 3.125e-05 - Loss: 0.7026225
Epoch: 12/15 - Batch: 6500/7933 - Learning rate: 3.125e-05 - Loss: 0.84168
Epoch: 12/15 - Batch: 6600/7933 - Learning rate: 3.125e-05 - Loss: 0.890148
Epoch: 12/15 - Batch: 6700/7933 - Learning rate: 3.125e-05 - Loss: 0.8313389
Epoch: 12/15 - Batch: 6800/7933 - Learning rate: 3.125e-05 - Loss: 0.8182718
Epoch: 12/15 - Batch: 6900/7933 - Learning rate: 3.125e-05 - Loss: 0.5649692
Epoch: 12/15 - Batch: 7000/7933 - Learning rate: 3.125e-05 - Loss: 1.2040873 - Dev BLEU: 0.20908786518829386
Epoch: 12/15 - Batch: 7100/7933 - Learning rate: 3.125e-05 - Loss: 0.89825386
Epoch: 12/15 - Batch: 7200/7933 - Learning rate: 3.125e-05 - Loss: 0.7097465
Epoch: 12/15 - Batch: 7300/7933 - Learning rate: 3.125e-05 - Loss: 0.8774722
Epoch: 12/15 - Batch: 7400/7933 - Learning rate: 3.125e-05 - Loss: 0.9829158
Epoch: 12/15 - Batch: 7500/7933 - Learning rate: 3.125e-05 - Loss: 0.6985117
Epoch: 12/15 - Batch: 7600/7933 - Learning rate: 3.125e-05 - Loss: 1.2540877
Epoch: 12/15 - Batch: 7700/7933 - Learning rate: 3.125e-05 - Loss: 1.3500437
Epoch: 12/15 - Batch: 7800/7933 - Learning rate: 3.125e-05 - Loss: 1.276139
Epoch: 12/15 - Batch: 7900/7933 - Learning rate: 3.125e-05 - Loss: 1.0394061
Epoch: 12/15 - Batch: 7933/7933 - Learning rate: 3.125e-05 - Loss: 1.3279283 - Dev BLEU: 0.20266039092898747
Epoch: 13/15 - Batch: 100/7933 - Learning rate: 1.5625e-05 - Loss: 0.80132264
Epoch: 13/15 - Batch: 200/7933 - Learning rate: 1.5625e-05 - Loss: 0.7713689
Epoch: 13/15 - Batch: 300/7933 - Learning rate: 1.5625e-05 - Loss: 0.5363986
Epoch: 13/15 - Batch: 400/7933 - Learning rate: 1.5625e-05 - Loss: 0.8804111
Epoch: 13/15 - Batch: 500/7933 - Learning rate: 1.5625e-05 - Loss: 0.6428854
Epoch: 13/15 - Batch: 600/7933 - Learning rate: 1.5625e-05 - Loss: 0.4037079
Epoch: 13/15 - Batch: 700/7933 - Learning rate: 1.5625e-05 - Loss: 0.65080816
Epoch: 13/15 - Batch: 800/7933 - Learning rate: 1.5625e-05 - Loss: 0.6444191
Epoch: 13/15 - Batch: 900/7933 - Learning rate: 1.5625e-05 - Loss: 0.4185904
Epoch: 13/15 - Batch: 1000/7933 - Learning rate: 1.5625e-05 - Loss: 0.7212854 - Dev BLEU: 0.19253457925774078
Epoch: 13/15 - Batch: 1100/7933 - Learning rate: 1.5625e-05 - Loss: 0.6350478
Epoch: 13/15 - Batch: 1200/7933 - Learning rate: 1.5625e-05 - Loss: 0.8480275
Epoch: 13/15 - Batch: 1300/7933 - Learning rate: 1.5625e-05 - Loss: 0.7824602
Epoch: 13/15 - Batch: 1400/7933 - Learning rate: 1.5625e-05 - Loss: 0.8255175
Epoch: 13/15 - Batch: 1500/7933 - Learning rate: 1.5625e-05 - Loss: 0.5809651
Epoch: 13/15 - Batch: 1600/7933 - Learning rate: 1.5625e-05 - Loss: 1.1390501
Epoch: 13/15 - Batch: 1700/7933 - Learning rate: 1.5625e-05 - Loss: 0.81310135
Epoch: 13/15 - Batch: 1800/7933 - Learning rate: 1.5625e-05 - Loss: 0.4533177
Epoch: 13/15 - Batch: 1900/7933 - Learning rate: 1.5625e-05 - Loss: 0.67245406
Epoch: 13/15 - Batch: 2000/7933 - Learning rate: 1.5625e-05 - Loss: 0.7415928 - Dev BLEU: 0.19015097685621213
Epoch: 13/15 - Batch: 2100/7933 - Learning rate: 1.5625e-05 - Loss: 0.5523513
Epoch: 13/15 - Batch: 2200/7933 - Learning rate: 1.5625e-05 - Loss: 0.57529944
Epoch: 13/15 - Batch: 2300/7933 - Learning rate: 1.5625e-05 - Loss: 0.74870545
Epoch: 13/15 - Batch: 2400/7933 - Learning rate: 1.5625e-05 - Loss: 0.67524517
Epoch: 13/15 - Batch: 2500/7933 - Learning rate: 1.5625e-05 - Loss: 0.60889286
Epoch: 13/15 - Batch: 2600/7933 - Learning rate: 1.5625e-05 - Loss: 0.4835009
Epoch: 13/15 - Batch: 2700/7933 - Learning rate: 1.5625e-05 - Loss: 0.2888164
Epoch: 13/15 - Batch: 2800/7933 - Learning rate: 1.5625e-05 - Loss: 0.79336745
Epoch: 13/15 - Batch: 2900/7933 - Learning rate: 1.5625e-05 - Loss: 0.87580943
Epoch: 13/15 - Batch: 3000/7933 - Learning rate: 1.5625e-05 - Loss: 0.81432295 - Dev BLEU: 0.1888190940688764
Epoch: 13/15 - Batch: 3100/7933 - Learning rate: 1.5625e-05 - Loss: 0.7929535
Epoch: 13/15 - Batch: 3200/7933 - Learning rate: 1.5625e-05 - Loss: 0.7333028
Epoch: 13/15 - Batch: 3300/7933 - Learning rate: 1.5625e-05 - Loss: 0.5933883
Epoch: 13/15 - Batch: 3400/7933 - Learning rate: 1.5625e-05 - Loss: 0.6130651
Epoch: 13/15 - Batch: 3500/7933 - Learning rate: 1.5625e-05 - Loss: 0.7728317
Epoch: 13/15 - Batch: 3600/7933 - Learning rate: 1.5625e-05 - Loss: 0.82187515
Epoch: 13/15 - Batch: 3700/7933 - Learning rate: 1.5625e-05 - Loss: 0.80901855
Epoch: 13/15 - Batch: 3800/7933 - Learning rate: 1.5625e-05 - Loss: 0.7604468
Epoch: 13/15 - Batch: 3900/7933 - Learning rate: 1.5625e-05 - Loss: 0.87049574
Epoch: 13/15 - Batch: 4000/7933 - Learning rate: 1.5625e-05 - Loss: 0.5048034 - Dev BLEU: 0.18945435056039375
Epoch: 13/15 - Batch: 4100/7933 - Learning rate: 1.5625e-05 - Loss: 0.6714699
Epoch: 13/15 - Batch: 4200/7933 - Learning rate: 1.5625e-05 - Loss: 0.56894886
Epoch: 13/15 - Batch: 4300/7933 - Learning rate: 1.5625e-05 - Loss: 0.66251385
Epoch: 13/15 - Batch: 4400/7933 - Learning rate: 1.5625e-05 - Loss: 0.6084452
Epoch: 13/15 - Batch: 4500/7933 - Learning rate: 1.5625e-05 - Loss: 0.7247351
Epoch: 13/15 - Batch: 4600/7933 - Learning rate: 1.5625e-05 - Loss: 1.1079788
Epoch: 13/15 - Batch: 4700/7933 - Learning rate: 1.5625e-05 - Loss: 0.82270664
Epoch: 13/15 - Batch: 4800/7933 - Learning rate: 1.5625e-05 - Loss: 0.8107225
Epoch: 13/15 - Batch: 4900/7933 - Learning rate: 1.5625e-05 - Loss: 0.9561326
Epoch: 13/15 - Batch: 5000/7933 - Learning rate: 1.5625e-05 - Loss: 0.9934994 - Dev BLEU: 0.20514603013251934
Epoch: 13/15 - Batch: 5100/7933 - Learning rate: 1.5625e-05 - Loss: 1.0242033
Epoch: 13/15 - Batch: 5200/7933 - Learning rate: 1.5625e-05 - Loss: 1.0070312
Epoch: 13/15 - Batch: 5300/7933 - Learning rate: 1.5625e-05 - Loss: 0.985846
Epoch: 13/15 - Batch: 5400/7933 - Learning rate: 1.5625e-05 - Loss: 0.9298665
Epoch: 13/15 - Batch: 5500/7933 - Learning rate: 1.5625e-05 - Loss: 0.95362055
Epoch: 13/15 - Batch: 5600/7933 - Learning rate: 1.5625e-05 - Loss: 0.7582401
Epoch: 13/15 - Batch: 5700/7933 - Learning rate: 1.5625e-05 - Loss: 0.93456423
Epoch: 13/15 - Batch: 5800/7933 - Learning rate: 1.5625e-05 - Loss: 0.8783484
Epoch: 13/15 - Batch: 5900/7933 - Learning rate: 1.5625e-05 - Loss: 0.6372444
Epoch: 13/15 - Batch: 6000/7933 - Learning rate: 1.5625e-05 - Loss: 0.9750454 - Dev BLEU: 0.20830683558315516
Epoch: 13/15 - Batch: 6100/7933 - Learning rate: 1.5625e-05 - Loss: 0.88965875
Epoch: 13/15 - Batch: 6200/7933 - Learning rate: 1.5625e-05 - Loss: 0.8367278
Epoch: 13/15 - Batch: 6300/7933 - Learning rate: 1.5625e-05 - Loss: 0.78052604
Epoch: 13/15 - Batch: 6400/7933 - Learning rate: 1.5625e-05 - Loss: 0.7138718
Epoch: 13/15 - Batch: 6500/7933 - Learning rate: 1.5625e-05 - Loss: 0.8468116
Epoch: 13/15 - Batch: 6600/7933 - Learning rate: 1.5625e-05 - Loss: 0.8931664
Epoch: 13/15 - Batch: 6700/7933 - Learning rate: 1.5625e-05 - Loss: 0.83066833
Epoch: 13/15 - Batch: 6800/7933 - Learning rate: 1.5625e-05 - Loss: 0.8180433
Epoch: 13/15 - Batch: 6900/7933 - Learning rate: 1.5625e-05 - Loss: 0.56541055
Epoch: 13/15 - Batch: 7000/7933 - Learning rate: 1.5625e-05 - Loss: 1.1965286 - Dev BLEU: 0.20693658450155153
Epoch: 13/15 - Batch: 7100/7933 - Learning rate: 1.5625e-05 - Loss: 0.89443135
Epoch: 13/15 - Batch: 7200/7933 - Learning rate: 1.5625e-05 - Loss: 0.7078661
Epoch: 13/15 - Batch: 7300/7933 - Learning rate: 1.5625e-05 - Loss: 0.8781636
Epoch: 13/15 - Batch: 7400/7933 - Learning rate: 1.5625e-05 - Loss: 0.97906804
Epoch: 13/15 - Batch: 7500/7933 - Learning rate: 1.5625e-05 - Loss: 0.6931456
Epoch: 13/15 - Batch: 7600/7933 - Learning rate: 1.5625e-05 - Loss: 1.2630112
Epoch: 13/15 - Batch: 7700/7933 - Learning rate: 1.5625e-05 - Loss: 1.3514451
Epoch: 13/15 - Batch: 7800/7933 - Learning rate: 1.5625e-05 - Loss: 1.2618227
Epoch: 13/15 - Batch: 7900/7933 - Learning rate: 1.5625e-05 - Loss: 1.0434773
Epoch: 13/15 - Batch: 7933/7933 - Learning rate: 1.5625e-05 - Loss: 1.328159 - Dev BLEU: 0.2054216495011365
Epoch: 14/15 - Batch: 100/7933 - Learning rate: 7.8125e-06 - Loss: 0.7970991
Epoch: 14/15 - Batch: 200/7933 - Learning rate: 7.8125e-06 - Loss: 0.76410466
Epoch: 14/15 - Batch: 300/7933 - Learning rate: 7.8125e-06 - Loss: 0.5409404
Epoch: 14/15 - Batch: 400/7933 - Learning rate: 7.8125e-06 - Loss: 0.87606883
Epoch: 14/15 - Batch: 500/7933 - Learning rate: 7.8125e-06 - Loss: 0.6462577
Epoch: 14/15 - Batch: 600/7933 - Learning rate: 7.8125e-06 - Loss: 0.39920753
Epoch: 14/15 - Batch: 700/7933 - Learning rate: 7.8125e-06 - Loss: 0.6406681
Epoch: 14/15 - Batch: 800/7933 - Learning rate: 7.8125e-06 - Loss: 0.6584045
Epoch: 14/15 - Batch: 900/7933 - Learning rate: 7.8125e-06 - Loss: 0.4205522
Epoch: 14/15 - Batch: 1000/7933 - Learning rate: 7.8125e-06 - Loss: 0.7227783 - Dev BLEU: 0.19841601004709106
Epoch: 14/15 - Batch: 1100/7933 - Learning rate: 7.8125e-06 - Loss: 0.63443714
Epoch: 14/15 - Batch: 1200/7933 - Learning rate: 7.8125e-06 - Loss: 0.83541375
Epoch: 14/15 - Batch: 1300/7933 - Learning rate: 7.8125e-06 - Loss: 0.77286124
Epoch: 14/15 - Batch: 1400/7933 - Learning rate: 7.8125e-06 - Loss: 0.81456465
Epoch: 14/15 - Batch: 1500/7933 - Learning rate: 7.8125e-06 - Loss: 0.58208984
Epoch: 14/15 - Batch: 1600/7933 - Learning rate: 7.8125e-06 - Loss: 1.1500441
Epoch: 14/15 - Batch: 1700/7933 - Learning rate: 7.8125e-06 - Loss: 0.8202566
Epoch: 14/15 - Batch: 1800/7933 - Learning rate: 7.8125e-06 - Loss: 0.44793463
Epoch: 14/15 - Batch: 1900/7933 - Learning rate: 7.8125e-06 - Loss: 0.67682576
Epoch: 14/15 - Batch: 2000/7933 - Learning rate: 7.8125e-06 - Loss: 0.7391488 - Dev BLEU: 0.1939142112703162
Epoch: 14/15 - Batch: 2100/7933 - Learning rate: 7.8125e-06 - Loss: 0.551921
Epoch: 14/15 - Batch: 2200/7933 - Learning rate: 7.8125e-06 - Loss: 0.57054454
Epoch: 14/15 - Batch: 2300/7933 - Learning rate: 7.8125e-06 - Loss: 0.750385
Epoch: 14/15 - Batch: 2400/7933 - Learning rate: 7.8125e-06 - Loss: 0.6707122
Epoch: 14/15 - Batch: 2500/7933 - Learning rate: 7.8125e-06 - Loss: 0.6110464
Epoch: 14/15 - Batch: 2600/7933 - Learning rate: 7.8125e-06 - Loss: 0.49116743
Epoch: 14/15 - Batch: 2700/7933 - Learning rate: 7.8125e-06 - Loss: 0.2908795
Epoch: 14/15 - Batch: 2800/7933 - Learning rate: 7.8125e-06 - Loss: 0.8016949
Epoch: 14/15 - Batch: 2900/7933 - Learning rate: 7.8125e-06 - Loss: 0.868333
Epoch: 14/15 - Batch: 3000/7933 - Learning rate: 7.8125e-06 - Loss: 0.80445135 - Dev BLEU: 0.19233547932286146
Epoch: 14/15 - Batch: 3100/7933 - Learning rate: 7.8125e-06 - Loss: 0.791617
Epoch: 14/15 - Batch: 3200/7933 - Learning rate: 7.8125e-06 - Loss: 0.7426209
Epoch: 14/15 - Batch: 3300/7933 - Learning rate: 7.8125e-06 - Loss: 0.59911317
Epoch: 14/15 - Batch: 3400/7933 - Learning rate: 7.8125e-06 - Loss: 0.61188567
Epoch: 14/15 - Batch: 3500/7933 - Learning rate: 7.8125e-06 - Loss: 0.77645403
Epoch: 14/15 - Batch: 3600/7933 - Learning rate: 7.8125e-06 - Loss: 0.80934787
Epoch: 14/15 - Batch: 3700/7933 - Learning rate: 7.8125e-06 - Loss: 0.8003501
Epoch: 14/15 - Batch: 3800/7933 - Learning rate: 7.8125e-06 - Loss: 0.75331014
Epoch: 14/15 - Batch: 3900/7933 - Learning rate: 7.8125e-06 - Loss: 0.86159635
Epoch: 14/15 - Batch: 4000/7933 - Learning rate: 7.8125e-06 - Loss: 0.50206697 - Dev BLEU: 0.19128463099461482
Epoch: 14/15 - Batch: 4100/7933 - Learning rate: 7.8125e-06 - Loss: 0.6568998
Epoch: 14/15 - Batch: 4200/7933 - Learning rate: 7.8125e-06 - Loss: 0.5728831
Epoch: 14/15 - Batch: 4300/7933 - Learning rate: 7.8125e-06 - Loss: 0.6789091
Epoch: 14/15 - Batch: 4400/7933 - Learning rate: 7.8125e-06 - Loss: 0.6136928
Epoch: 14/15 - Batch: 4500/7933 - Learning rate: 7.8125e-06 - Loss: 0.7303635
Epoch: 14/15 - Batch: 4600/7933 - Learning rate: 7.8125e-06 - Loss: 1.1247619
Epoch: 14/15 - Batch: 4700/7933 - Learning rate: 7.8125e-06 - Loss: 0.8224916
Epoch: 14/15 - Batch: 4800/7933 - Learning rate: 7.8125e-06 - Loss: 0.81351143
Epoch: 14/15 - Batch: 4900/7933 - Learning rate: 7.8125e-06 - Loss: 0.9715938
Epoch: 14/15 - Batch: 5000/7933 - Learning rate: 7.8125e-06 - Loss: 0.99868643 - Dev BLEU: 0.20202802247348017
Epoch: 14/15 - Batch: 5100/7933 - Learning rate: 7.8125e-06 - Loss: 1.0247892
Epoch: 14/15 - Batch: 5200/7933 - Learning rate: 7.8125e-06 - Loss: 1.0257815
Epoch: 14/15 - Batch: 5300/7933 - Learning rate: 7.8125e-06 - Loss: 0.9725911
Epoch: 14/15 - Batch: 5400/7933 - Learning rate: 7.8125e-06 - Loss: 0.92706674
Epoch: 14/15 - Batch: 5500/7933 - Learning rate: 7.8125e-06 - Loss: 0.96733296
Epoch: 14/15 - Batch: 5600/7933 - Learning rate: 7.8125e-06 - Loss: 0.75205773
Epoch: 14/15 - Batch: 5700/7933 - Learning rate: 7.8125e-06 - Loss: 0.9131081
Epoch: 14/15 - Batch: 5800/7933 - Learning rate: 7.8125e-06 - Loss: 0.87987024
Epoch: 14/15 - Batch: 5900/7933 - Learning rate: 7.8125e-06 - Loss: 0.63499856
Epoch: 14/15 - Batch: 6000/7933 - Learning rate: 7.8125e-06 - Loss: 0.9578951 - Dev BLEU: 0.20720351664764672
Epoch: 14/15 - Batch: 6100/7933 - Learning rate: 7.8125e-06 - Loss: 0.8790117
Epoch: 14/15 - Batch: 6200/7933 - Learning rate: 7.8125e-06 - Loss: 0.8421688
Epoch: 14/15 - Batch: 6300/7933 - Learning rate: 7.8125e-06 - Loss: 0.7658824
Epoch: 14/15 - Batch: 6400/7933 - Learning rate: 7.8125e-06 - Loss: 0.7011898
Epoch: 14/15 - Batch: 6500/7933 - Learning rate: 7.8125e-06 - Loss: 0.83933514
Epoch: 14/15 - Batch: 6600/7933 - Learning rate: 7.8125e-06 - Loss: 0.89346355
Epoch: 14/15 - Batch: 6700/7933 - Learning rate: 7.8125e-06 - Loss: 0.83096015
Epoch: 14/15 - Batch: 6800/7933 - Learning rate: 7.8125e-06 - Loss: 0.81551665
Epoch: 14/15 - Batch: 6900/7933 - Learning rate: 7.8125e-06 - Loss: 0.57273006
Epoch: 14/15 - Batch: 7000/7933 - Learning rate: 7.8125e-06 - Loss: 1.2039055 - Dev BLEU: 0.20790911047726093
Epoch: 14/15 - Batch: 7100/7933 - Learning rate: 7.8125e-06 - Loss: 0.89588267
Epoch: 14/15 - Batch: 7200/7933 - Learning rate: 7.8125e-06 - Loss: 0.71968365
Epoch: 14/15 - Batch: 7300/7933 - Learning rate: 7.8125e-06 - Loss: 0.8751609
Epoch: 14/15 - Batch: 7400/7933 - Learning rate: 7.8125e-06 - Loss: 0.9884151
Epoch: 14/15 - Batch: 7500/7933 - Learning rate: 7.8125e-06 - Loss: 0.6970397
Epoch: 14/15 - Batch: 7600/7933 - Learning rate: 7.8125e-06 - Loss: 1.263373
Epoch: 14/15 - Batch: 7700/7933 - Learning rate: 7.8125e-06 - Loss: 1.3503777
Epoch: 14/15 - Batch: 7800/7933 - Learning rate: 7.8125e-06 - Loss: 1.2737968
Epoch: 14/15 - Batch: 7900/7933 - Learning rate: 7.8125e-06 - Loss: 1.0405576
Epoch: 14/15 - Batch: 7933/7933 - Learning rate: 7.8125e-06 - Loss: 1.3258213 - Dev BLEU: 0.20437402236522337
Epoch: 15/15 - Batch: 100/7933 - Learning rate: 3.90625e-06 - Loss: 0.80020803
Epoch: 15/15 - Batch: 200/7933 - Learning rate: 3.90625e-06 - Loss: 0.75966555
Epoch: 15/15 - Batch: 300/7933 - Learning rate: 3.90625e-06 - Loss: 0.5473352
Epoch: 15/15 - Batch: 400/7933 - Learning rate: 3.90625e-06 - Loss: 0.87694484
Epoch: 15/15 - Batch: 500/7933 - Learning rate: 3.90625e-06 - Loss: 0.6485014
Epoch: 15/15 - Batch: 600/7933 - Learning rate: 3.90625e-06 - Loss: 0.40038708
Epoch: 15/15 - Batch: 700/7933 - Learning rate: 3.90625e-06 - Loss: 0.6496433
Epoch: 15/15 - Batch: 800/7933 - Learning rate: 3.90625e-06 - Loss: 0.6444896
Epoch: 15/15 - Batch: 900/7933 - Learning rate: 3.90625e-06 - Loss: 0.42321736
Epoch: 15/15 - Batch: 1000/7933 - Learning rate: 3.90625e-06 - Loss: 0.7386294 - Dev BLEU: 0.20298073114365597
Epoch: 15/15 - Batch: 1100/7933 - Learning rate: 3.90625e-06 - Loss: 0.62702817
Epoch: 15/15 - Batch: 1200/7933 - Learning rate: 3.90625e-06 - Loss: 0.8447625
Epoch: 15/15 - Batch: 1300/7933 - Learning rate: 3.90625e-06 - Loss: 0.7673679
Epoch: 15/15 - Batch: 1400/7933 - Learning rate: 3.90625e-06 - Loss: 0.8085116
Epoch: 15/15 - Batch: 1500/7933 - Learning rate: 3.90625e-06 - Loss: 0.58424884
Epoch: 15/15 - Batch: 1600/7933 - Learning rate: 3.90625e-06 - Loss: 1.1508762
Epoch: 15/15 - Batch: 1700/7933 - Learning rate: 3.90625e-06 - Loss: 0.81927705
Epoch: 15/15 - Batch: 1800/7933 - Learning rate: 3.90625e-06 - Loss: 0.4451439
Epoch: 15/15 - Batch: 1900/7933 - Learning rate: 3.90625e-06 - Loss: 0.66893333
Epoch: 15/15 - Batch: 2000/7933 - Learning rate: 3.90625e-06 - Loss: 0.72696215 - Dev BLEU: 0.19823963557909804
Epoch: 15/15 - Batch: 2100/7933 - Learning rate: 3.90625e-06 - Loss: 0.55466163
Epoch: 15/15 - Batch: 2200/7933 - Learning rate: 3.90625e-06 - Loss: 0.5829673
Epoch: 15/15 - Batch: 2300/7933 - Learning rate: 3.90625e-06 - Loss: 0.7440554
Epoch: 15/15 - Batch: 2400/7933 - Learning rate: 3.90625e-06 - Loss: 0.6671727
Epoch: 15/15 - Batch: 2500/7933 - Learning rate: 3.90625e-06 - Loss: 0.6102243
Epoch: 15/15 - Batch: 2600/7933 - Learning rate: 3.90625e-06 - Loss: 0.4969777
Epoch: 15/15 - Batch: 2700/7933 - Learning rate: 3.90625e-06 - Loss: 0.29376674
Epoch: 15/15 - Batch: 2800/7933 - Learning rate: 3.90625e-06 - Loss: 0.79545844
Epoch: 15/15 - Batch: 2900/7933 - Learning rate: 3.90625e-06 - Loss: 0.87585866
Epoch: 15/15 - Batch: 3000/7933 - Learning rate: 3.90625e-06 - Loss: 0.81197417 - Dev BLEU: 0.19650450930687938
Epoch: 15/15 - Batch: 3100/7933 - Learning rate: 3.90625e-06 - Loss: 0.7893927
Epoch: 15/15 - Batch: 3200/7933 - Learning rate: 3.90625e-06 - Loss: 0.74536455
Epoch: 15/15 - Batch: 3300/7933 - Learning rate: 3.90625e-06 - Loss: 0.5847051
Epoch: 15/15 - Batch: 3400/7933 - Learning rate: 3.90625e-06 - Loss: 0.6103169
Epoch: 15/15 - Batch: 3500/7933 - Learning rate: 3.90625e-06 - Loss: 0.79044837
Epoch: 15/15 - Batch: 3600/7933 - Learning rate: 3.90625e-06 - Loss: 0.81415796
Epoch: 15/15 - Batch: 3700/7933 - Learning rate: 3.90625e-06 - Loss: 0.80203766
Epoch: 15/15 - Batch: 3800/7933 - Learning rate: 3.90625e-06 - Loss: 0.7615173
Epoch: 15/15 - Batch: 3900/7933 - Learning rate: 3.90625e-06 - Loss: 0.872856
Epoch: 15/15 - Batch: 4000/7933 - Learning rate: 3.90625e-06 - Loss: 0.50930816 - Dev BLEU: 0.19495498454116883
Epoch: 15/15 - Batch: 4100/7933 - Learning rate: 3.90625e-06 - Loss: 0.6709282
Epoch: 15/15 - Batch: 4200/7933 - Learning rate: 3.90625e-06 - Loss: 0.5701143
Epoch: 15/15 - Batch: 4300/7933 - Learning rate: 3.90625e-06 - Loss: 0.66554946
Epoch: 15/15 - Batch: 4400/7933 - Learning rate: 3.90625e-06 - Loss: 0.6202464
Epoch: 15/15 - Batch: 4500/7933 - Learning rate: 3.90625e-06 - Loss: 0.7243787
Epoch: 15/15 - Batch: 4600/7933 - Learning rate: 3.90625e-06 - Loss: 1.10807
Epoch: 15/15 - Batch: 4700/7933 - Learning rate: 3.90625e-06 - Loss: 0.8169789
Epoch: 15/15 - Batch: 4800/7933 - Learning rate: 3.90625e-06 - Loss: 0.8157694
Epoch: 15/15 - Batch: 4900/7933 - Learning rate: 3.90625e-06 - Loss: 0.9638359
Epoch: 15/15 - Batch: 5000/7933 - Learning rate: 3.90625e-06 - Loss: 0.9842955 - Dev BLEU: 0.20077404351846315
Epoch: 15/15 - Batch: 5100/7933 - Learning rate: 3.90625e-06 - Loss: 1.0346612
Epoch: 15/15 - Batch: 5200/7933 - Learning rate: 3.90625e-06 - Loss: 1.0342839
Epoch: 15/15 - Batch: 5300/7933 - Learning rate: 3.90625e-06 - Loss: 0.9559492
Epoch: 15/15 - Batch: 5400/7933 - Learning rate: 3.90625e-06 - Loss: 0.9334572
Epoch: 15/15 - Batch: 5500/7933 - Learning rate: 3.90625e-06 - Loss: 0.972077
Epoch: 15/15 - Batch: 5600/7933 - Learning rate: 3.90625e-06 - Loss: 0.74817854
Epoch: 15/15 - Batch: 5700/7933 - Learning rate: 3.90625e-06 - Loss: 0.91414666
Epoch: 15/15 - Batch: 5800/7933 - Learning rate: 3.90625e-06 - Loss: 0.8964679
Epoch: 15/15 - Batch: 5900/7933 - Learning rate: 3.90625e-06 - Loss: 0.631269
Epoch: 15/15 - Batch: 6000/7933 - Learning rate: 3.90625e-06 - Loss: 0.96773314 - Dev BLEU: 0.20618642134648782
Epoch: 15/15 - Batch: 6100/7933 - Learning rate: 3.90625e-06 - Loss: 0.8870064
Epoch: 15/15 - Batch: 6200/7933 - Learning rate: 3.90625e-06 - Loss: 0.83091706
Epoch: 15/15 - Batch: 6300/7933 - Learning rate: 3.90625e-06 - Loss: 0.7798815
Epoch: 15/15 - Batch: 6400/7933 - Learning rate: 3.90625e-06 - Loss: 0.70752364
Epoch: 15/15 - Batch: 6500/7933 - Learning rate: 3.90625e-06 - Loss: 0.842756
Epoch: 15/15 - Batch: 6600/7933 - Learning rate: 3.90625e-06 - Loss: 0.8867955
Epoch: 15/15 - Batch: 6700/7933 - Learning rate: 3.90625e-06 - Loss: 0.83349687
Epoch: 15/15 - Batch: 6800/7933 - Learning rate: 3.90625e-06 - Loss: 0.818537
Epoch: 15/15 - Batch: 6900/7933 - Learning rate: 3.90625e-06 - Loss: 0.57203096
Epoch: 15/15 - Batch: 7000/7933 - Learning rate: 3.90625e-06 - Loss: 1.2082193 - Dev BLEU: 0.20714042633551968
Epoch: 15/15 - Batch: 7100/7933 - Learning rate: 3.90625e-06 - Loss: 0.89953065
Epoch: 15/15 - Batch: 7200/7933 - Learning rate: 3.90625e-06 - Loss: 0.71402997
Epoch: 15/15 - Batch: 7300/7933 - Learning rate: 3.90625e-06 - Loss: 0.881093
Epoch: 15/15 - Batch: 7400/7933 - Learning rate: 3.90625e-06 - Loss: 0.9783952
Epoch: 15/15 - Batch: 7500/7933 - Learning rate: 3.90625e-06 - Loss: 0.6912112
Epoch: 15/15 - Batch: 7600/7933 - Learning rate: 3.90625e-06 - Loss: 1.2604874
Epoch: 15/15 - Batch: 7700/7933 - Learning rate: 3.90625e-06 - Loss: 1.357421
Epoch: 15/15 - Batch: 7800/7933 - Learning rate: 3.90625e-06 - Loss: 1.2703224
Epoch: 15/15 - Batch: 7900/7933 - Learning rate: 3.90625e-06 - Loss: 1.0452719
Epoch: 15/15 - Batch: 7933/7933 - Learning rate: 3.90625e-06 - Loss: 1.3401917 - Dev BLEU: 0.20801068896823777 - Test BLEU: 0.23213446773712557
