Epoch: 1/15 - Batch: 100/7933 - Learning rate: 0.001 - Loss: 1.8932006
Epoch: 1/15 - Batch: 200/7933 - Learning rate: 0.001 - Loss: 2.524446
Epoch: 1/15 - Batch: 300/7933 - Learning rate: 0.001 - Loss: 1.4672027
Epoch: 1/15 - Batch: 400/7933 - Learning rate: 0.001 - Loss: 2.516953
Epoch: 1/15 - Batch: 500/7933 - Learning rate: 0.001 - Loss: 2.2464252
Epoch: 1/15 - Batch: 600/7933 - Learning rate: 0.001 - Loss: 0.97063255
Epoch: 1/15 - Batch: 700/7933 - Learning rate: 0.001 - Loss: 2.049104
Epoch: 1/15 - Batch: 800/7933 - Learning rate: 0.001 - Loss: 1.7066216
Epoch: 1/15 - Batch: 900/7933 - Learning rate: 0.001 - Loss: 1.1598573
Epoch: 1/15 - Batch: 1000/7933 - Learning rate: 0.001 - Loss: 2.044207 - Dev BLEU: 0.0
Epoch: 1/15 - Batch: 1100/7933 - Learning rate: 0.001 - Loss: 1.6261886
Epoch: 1/15 - Batch: 1200/7933 - Learning rate: 0.001 - Loss: 2.2648506
Epoch: 1/15 - Batch: 1300/7933 - Learning rate: 0.001 - Loss: 2.0491743
Epoch: 1/15 - Batch: 1400/7933 - Learning rate: 0.001 - Loss: 2.2282476
Epoch: 1/15 - Batch: 1500/7933 - Learning rate: 0.001 - Loss: 1.5761338
Epoch: 1/15 - Batch: 1600/7933 - Learning rate: 0.001 - Loss: 2.7986078
Epoch: 1/15 - Batch: 1700/7933 - Learning rate: 0.001 - Loss: 2.0873246
Epoch: 1/15 - Batch: 1800/7933 - Learning rate: 0.001 - Loss: 1.4614795
Epoch: 1/15 - Batch: 1900/7933 - Learning rate: 0.001 - Loss: 1.563053
Epoch: 1/15 - Batch: 2000/7933 - Learning rate: 0.001 - Loss: 1.750382 - Dev BLEU: 0.0
Epoch: 1/15 - Batch: 2100/7933 - Learning rate: 0.001 - Loss: 1.4174873
Epoch: 1/15 - Batch: 2200/7933 - Learning rate: 0.001 - Loss: 1.7137293
Epoch: 1/15 - Batch: 2300/7933 - Learning rate: 0.001 - Loss: 1.9054679
Epoch: 1/15 - Batch: 2400/7933 - Learning rate: 0.001 - Loss: 1.546565
Epoch: 1/15 - Batch: 2500/7933 - Learning rate: 0.001 - Loss: 1.8010272
Epoch: 1/15 - Batch: 2600/7933 - Learning rate: 0.001 - Loss: 1.2542458
Epoch: 1/15 - Batch: 2700/7933 - Learning rate: 0.001 - Loss: 0.77013713
Epoch: 1/15 - Batch: 2800/7933 - Learning rate: 0.001 - Loss: 1.8881233
Epoch: 1/15 - Batch: 2900/7933 - Learning rate: 0.001 - Loss: 1.8258357
Epoch: 1/15 - Batch: 3000/7933 - Learning rate: 0.001 - Loss: 1.7150842 - Dev BLEU: 0.007841024642039873
Epoch: 1/15 - Batch: 3100/7933 - Learning rate: 0.001 - Loss: 1.4526274
Epoch: 1/15 - Batch: 3200/7933 - Learning rate: 0.001 - Loss: 1.5501313
Epoch: 1/15 - Batch: 3300/7933 - Learning rate: 0.001 - Loss: 1.3844808
Epoch: 1/15 - Batch: 3400/7933 - Learning rate: 0.001 - Loss: 1.2983329
Epoch: 1/15 - Batch: 3500/7933 - Learning rate: 0.001 - Loss: 1.822323
Epoch: 1/15 - Batch: 3600/7933 - Learning rate: 0.001 - Loss: 1.5260835
Epoch: 1/15 - Batch: 3700/7933 - Learning rate: 0.001 - Loss: 1.6807883
Epoch: 1/15 - Batch: 3800/7933 - Learning rate: 0.001 - Loss: 1.5890632
Epoch: 1/15 - Batch: 3900/7933 - Learning rate: 0.001 - Loss: 1.7356093
Epoch: 1/15 - Batch: 4000/7933 - Learning rate: 0.001 - Loss: 0.98606074 - Dev BLEU: 0.021963976555002214
Epoch: 1/15 - Batch: 4100/7933 - Learning rate: 0.001 - Loss: 1.2509263
Epoch: 1/15 - Batch: 4200/7933 - Learning rate: 0.001 - Loss: 1.1978476
Epoch: 1/15 - Batch: 4300/7933 - Learning rate: 0.001 - Loss: 1.2800237
Epoch: 1/15 - Batch: 4400/7933 - Learning rate: 0.001 - Loss: 1.268785
Epoch: 1/15 - Batch: 4500/7933 - Learning rate: 0.001 - Loss: 1.3774124
Epoch: 1/15 - Batch: 4600/7933 - Learning rate: 0.001 - Loss: 2.5037231
Epoch: 1/15 - Batch: 4700/7933 - Learning rate: 0.001 - Loss: 1.9067401
Epoch: 1/15 - Batch: 4800/7933 - Learning rate: 0.001 - Loss: 1.9321866
Epoch: 1/15 - Batch: 4900/7933 - Learning rate: 0.001 - Loss: 2.1068008
Epoch: 1/15 - Batch: 5000/7933 - Learning rate: 0.001 - Loss: 1.950641 - Dev BLEU: 0.0576622802212686
Epoch: 1/15 - Batch: 5100/7933 - Learning rate: 0.001 - Loss: 1.923468
Epoch: 1/15 - Batch: 5200/7933 - Learning rate: 0.001 - Loss: 1.914095
Epoch: 1/15 - Batch: 5300/7933 - Learning rate: 0.001 - Loss: 1.8423016
Epoch: 1/15 - Batch: 5400/7933 - Learning rate: 0.001 - Loss: 1.880111
Epoch: 1/15 - Batch: 5500/7933 - Learning rate: 0.001 - Loss: 1.9194534
Epoch: 1/15 - Batch: 5600/7933 - Learning rate: 0.001 - Loss: 1.5211984
Epoch: 1/15 - Batch: 5700/7933 - Learning rate: 0.001 - Loss: 1.869454
Epoch: 1/15 - Batch: 5800/7933 - Learning rate: 0.001 - Loss: 1.7837613
Epoch: 1/15 - Batch: 5900/7933 - Learning rate: 0.001 - Loss: 1.346479
Epoch: 1/15 - Batch: 6000/7933 - Learning rate: 0.001 - Loss: 1.778538 - Dev BLEU: 0.07019159942340428
Epoch: 1/15 - Batch: 6100/7933 - Learning rate: 0.001 - Loss: 1.9384769
Epoch: 1/15 - Batch: 6200/7933 - Learning rate: 0.001 - Loss: 1.5340663
Epoch: 1/15 - Batch: 6300/7933 - Learning rate: 0.001 - Loss: 1.5245452
Epoch: 1/15 - Batch: 6400/7933 - Learning rate: 0.001 - Loss: 1.2720238
Epoch: 1/15 - Batch: 6500/7933 - Learning rate: 0.001 - Loss: 1.3738799
Epoch: 1/15 - Batch: 6600/7933 - Learning rate: 0.001 - Loss: 1.4807823
Epoch: 1/15 - Batch: 6700/7933 - Learning rate: 0.001 - Loss: 1.2384121
Epoch: 1/15 - Batch: 6800/7933 - Learning rate: 0.001 - Loss: 1.1799947
Epoch: 1/15 - Batch: 6900/7933 - Learning rate: 0.001 - Loss: 0.9476152
Epoch: 1/15 - Batch: 7000/7933 - Learning rate: 0.001 - Loss: 1.7636342 - Dev BLEU: 0.12418337008691811
Epoch: 1/15 - Batch: 7100/7933 - Learning rate: 0.001 - Loss: 1.350458
Epoch: 1/15 - Batch: 7200/7933 - Learning rate: 0.001 - Loss: 1.0811781
Epoch: 1/15 - Batch: 7300/7933 - Learning rate: 0.001 - Loss: 1.3073276
Epoch: 1/15 - Batch: 7400/7933 - Learning rate: 0.001 - Loss: 1.380516
Epoch: 1/15 - Batch: 7500/7933 - Learning rate: 0.001 - Loss: 0.9702789
Epoch: 1/15 - Batch: 7600/7933 - Learning rate: 0.001 - Loss: 1.7264456
Epoch: 1/15 - Batch: 7700/7933 - Learning rate: 0.001 - Loss: 1.9351788
Epoch: 1/15 - Batch: 7800/7933 - Learning rate: 0.001 - Loss: 1.742758
Epoch: 1/15 - Batch: 7900/7933 - Learning rate: 0.001 - Loss: 1.3743523
Epoch: 1/15 - Batch: 7933/7933 - Learning rate: 0.001 - Loss: 1.8835856 - Dev BLEU: 0.12242764488619207
Epoch: 2/15 - Batch: 100/7933 - Learning rate: 0.001 - Loss: 1.0515497
Epoch: 2/15 - Batch: 200/7933 - Learning rate: 0.001 - Loss: 1.2085956
Epoch: 2/15 - Batch: 300/7933 - Learning rate: 0.001 - Loss: 0.7605167
Epoch: 2/15 - Batch: 400/7933 - Learning rate: 0.001 - Loss: 1.3279276
Epoch: 2/15 - Batch: 500/7933 - Learning rate: 0.001 - Loss: 1.1121687
Epoch: 2/15 - Batch: 600/7933 - Learning rate: 0.001 - Loss: 0.5270941
Epoch: 2/15 - Batch: 700/7933 - Learning rate: 0.001 - Loss: 1.0029546
Epoch: 2/15 - Batch: 800/7933 - Learning rate: 0.001 - Loss: 0.93709946
Epoch: 2/15 - Batch: 900/7933 - Learning rate: 0.001 - Loss: 0.58689815
Epoch: 2/15 - Batch: 1000/7933 - Learning rate: 0.001 - Loss: 1.0190471 - Dev BLEU: 0.10335511714141954
Epoch: 2/15 - Batch: 1100/7933 - Learning rate: 0.001 - Loss: 0.870508
Epoch: 2/15 - Batch: 1200/7933 - Learning rate: 0.001 - Loss: 1.244049
Epoch: 2/15 - Batch: 1300/7933 - Learning rate: 0.001 - Loss: 1.1035554
Epoch: 2/15 - Batch: 1400/7933 - Learning rate: 0.001 - Loss: 1.1283685
Epoch: 2/15 - Batch: 1500/7933 - Learning rate: 0.001 - Loss: 0.8011152
Epoch: 2/15 - Batch: 1600/7933 - Learning rate: 0.001 - Loss: 1.5080829
Epoch: 2/15 - Batch: 1700/7933 - Learning rate: 0.001 - Loss: 1.1367421
Epoch: 2/15 - Batch: 1800/7933 - Learning rate: 0.001 - Loss: 0.65338725
Epoch: 2/15 - Batch: 1900/7933 - Learning rate: 0.001 - Loss: 0.92399454
Epoch: 2/15 - Batch: 2000/7933 - Learning rate: 0.001 - Loss: 0.97499543 - Dev BLEU: 0.1033852714970354
Epoch: 2/15 - Batch: 2100/7933 - Learning rate: 0.001 - Loss: 0.8118502
Epoch: 2/15 - Batch: 2200/7933 - Learning rate: 0.001 - Loss: 0.8788658
Epoch: 2/15 - Batch: 2300/7933 - Learning rate: 0.001 - Loss: 1.0472261
Epoch: 2/15 - Batch: 2400/7933 - Learning rate: 0.001 - Loss: 0.87069076
Epoch: 2/15 - Batch: 2500/7933 - Learning rate: 0.001 - Loss: 0.89347005
Epoch: 2/15 - Batch: 2600/7933 - Learning rate: 0.001 - Loss: 0.6530933
Epoch: 2/15 - Batch: 2700/7933 - Learning rate: 0.001 - Loss: 0.3838575
Epoch: 2/15 - Batch: 2800/7933 - Learning rate: 0.001 - Loss: 1.0868524
Epoch: 2/15 - Batch: 2900/7933 - Learning rate: 0.001 - Loss: 1.1684439
Epoch: 2/15 - Batch: 3000/7933 - Learning rate: 0.001 - Loss: 1.0798271 - Dev BLEU: 0.1078132633226221
Epoch: 2/15 - Batch: 3100/7933 - Learning rate: 0.001 - Loss: 1.0544801
Epoch: 2/15 - Batch: 3200/7933 - Learning rate: 0.001 - Loss: 0.98831344
Epoch: 2/15 - Batch: 3300/7933 - Learning rate: 0.001 - Loss: 0.8115995
Epoch: 2/15 - Batch: 3400/7933 - Learning rate: 0.001 - Loss: 0.8100626
Epoch: 2/15 - Batch: 3500/7933 - Learning rate: 0.001 - Loss: 1.1143771
Epoch: 2/15 - Batch: 3600/7933 - Learning rate: 0.001 - Loss: 1.0336545
Epoch: 2/15 - Batch: 3700/7933 - Learning rate: 0.001 - Loss: 1.0180799
Epoch: 2/15 - Batch: 3800/7933 - Learning rate: 0.001 - Loss: 0.9860474
Epoch: 2/15 - Batch: 3900/7933 - Learning rate: 0.001 - Loss: 1.1523842
Epoch: 2/15 - Batch: 4000/7933 - Learning rate: 0.001 - Loss: 0.6455892 - Dev BLEU: 0.11658865096544466
Epoch: 2/15 - Batch: 4100/7933 - Learning rate: 0.001 - Loss: 0.8274052
Epoch: 2/15 - Batch: 4200/7933 - Learning rate: 0.001 - Loss: 0.7875468
Epoch: 2/15 - Batch: 4300/7933 - Learning rate: 0.001 - Loss: 0.88188326
Epoch: 2/15 - Batch: 4400/7933 - Learning rate: 0.001 - Loss: 0.83196545
Epoch: 2/15 - Batch: 4500/7933 - Learning rate: 0.001 - Loss: 0.9559305
Epoch: 2/15 - Batch: 4600/7933 - Learning rate: 0.001 - Loss: 1.759557
Epoch: 2/15 - Batch: 4700/7933 - Learning rate: 0.001 - Loss: 1.2803293
Epoch: 2/15 - Batch: 4800/7933 - Learning rate: 0.001 - Loss: 1.2579371
Epoch: 2/15 - Batch: 4900/7933 - Learning rate: 0.001 - Loss: 1.3587167
Epoch: 2/15 - Batch: 5000/7933 - Learning rate: 0.001 - Loss: 1.383695 - Dev BLEU: 0.15577515631178612
Epoch: 2/15 - Batch: 5100/7933 - Learning rate: 0.001 - Loss: 1.3910589
Epoch: 2/15 - Batch: 5200/7933 - Learning rate: 0.001 - Loss: 1.3406408
Epoch: 2/15 - Batch: 5300/7933 - Learning rate: 0.001 - Loss: 1.322838
Epoch: 2/15 - Batch: 5400/7933 - Learning rate: 0.001 - Loss: 1.300938
Epoch: 2/15 - Batch: 5500/7933 - Learning rate: 0.001 - Loss: 1.2969406
Epoch: 2/15 - Batch: 5600/7933 - Learning rate: 0.001 - Loss: 1.0232774
Epoch: 2/15 - Batch: 5700/7933 - Learning rate: 0.001 - Loss: 1.3198296
Epoch: 2/15 - Batch: 5800/7933 - Learning rate: 0.001 - Loss: 1.2456053
Epoch: 2/15 - Batch: 5900/7933 - Learning rate: 0.001 - Loss: 0.914412
Epoch: 2/15 - Batch: 6000/7933 - Learning rate: 0.001 - Loss: 1.2452078 - Dev BLEU: 0.14350622554370948
Epoch: 2/15 - Batch: 6100/7933 - Learning rate: 0.001 - Loss: 1.2659438
Epoch: 2/15 - Batch: 6200/7933 - Learning rate: 0.001 - Loss: 1.1021955
Epoch: 2/15 - Batch: 6300/7933 - Learning rate: 0.001 - Loss: 1.0693265
Epoch: 2/15 - Batch: 6400/7933 - Learning rate: 0.001 - Loss: 0.89765984
Epoch: 2/15 - Batch: 6500/7933 - Learning rate: 0.001 - Loss: 1.0260634
Epoch: 2/15 - Batch: 6600/7933 - Learning rate: 0.001 - Loss: 1.0449923
Epoch: 2/15 - Batch: 6700/7933 - Learning rate: 0.001 - Loss: 0.94081247
Epoch: 2/15 - Batch: 6800/7933 - Learning rate: 0.001 - Loss: 0.9208266
Epoch: 2/15 - Batch: 6900/7933 - Learning rate: 0.001 - Loss: 0.6710876
Epoch: 2/15 - Batch: 7000/7933 - Learning rate: 0.001 - Loss: 1.378166 - Dev BLEU: 0.19287659169397328
Epoch: 2/15 - Batch: 7100/7933 - Learning rate: 0.001 - Loss: 1.0402803
Epoch: 2/15 - Batch: 7200/7933 - Learning rate: 0.001 - Loss: 0.82355064
Epoch: 2/15 - Batch: 7300/7933 - Learning rate: 0.001 - Loss: 1.0258086
Epoch: 2/15 - Batch: 7400/7933 - Learning rate: 0.001 - Loss: 1.0750908
Epoch: 2/15 - Batch: 7500/7933 - Learning rate: 0.001 - Loss: 0.77351564
Epoch: 2/15 - Batch: 7600/7933 - Learning rate: 0.001 - Loss: 1.3996087
Epoch: 2/15 - Batch: 7700/7933 - Learning rate: 0.001 - Loss: 1.5641853
Epoch: 2/15 - Batch: 7800/7933 - Learning rate: 0.001 - Loss: 1.4539953
Epoch: 2/15 - Batch: 7900/7933 - Learning rate: 0.001 - Loss: 1.0590068
Epoch: 2/15 - Batch: 7933/7933 - Learning rate: 0.001 - Loss: 1.5409203 - Dev BLEU: 0.17293218742202834
Epoch: 3/15 - Batch: 100/7933 - Learning rate: 0.001 - Loss: 0.90228677
Epoch: 3/15 - Batch: 200/7933 - Learning rate: 0.001 - Loss: 0.9393323
Epoch: 3/15 - Batch: 300/7933 - Learning rate: 0.001 - Loss: 0.6455446
Epoch: 3/15 - Batch: 400/7933 - Learning rate: 0.001 - Loss: 1.0847359
Epoch: 3/15 - Batch: 500/7933 - Learning rate: 0.001 - Loss: 0.8172621
Epoch: 3/15 - Batch: 600/7933 - Learning rate: 0.001 - Loss: 0.4646648
Epoch: 3/15 - Batch: 700/7933 - Learning rate: 0.001 - Loss: 0.79615897
Epoch: 3/15 - Batch: 800/7933 - Learning rate: 0.001 - Loss: 0.78110504
Epoch: 3/15 - Batch: 900/7933 - Learning rate: 0.001 - Loss: 0.5022406
Epoch: 3/15 - Batch: 1000/7933 - Learning rate: 0.001 - Loss: 0.8424529 - Dev BLEU: 0.14804221341469995
Epoch: 3/15 - Batch: 1100/7933 - Learning rate: 0.001 - Loss: 0.72149026
Epoch: 3/15 - Batch: 1200/7933 - Learning rate: 0.001 - Loss: 1.0276414
Epoch: 3/15 - Batch: 1300/7933 - Learning rate: 0.001 - Loss: 0.9064729
Epoch: 3/15 - Batch: 1400/7933 - Learning rate: 0.001 - Loss: 0.94188344
Epoch: 3/15 - Batch: 1500/7933 - Learning rate: 0.001 - Loss: 0.67789793
Epoch: 3/15 - Batch: 1600/7933 - Learning rate: 0.001 - Loss: 1.2885383
Epoch: 3/15 - Batch: 1700/7933 - Learning rate: 0.001 - Loss: 0.9366716
Epoch: 3/15 - Batch: 1800/7933 - Learning rate: 0.001 - Loss: 0.52173126
Epoch: 3/15 - Batch: 1900/7933 - Learning rate: 0.001 - Loss: 0.77781904
Epoch: 3/15 - Batch: 2000/7933 - Learning rate: 0.001 - Loss: 0.84022486 - Dev BLEU: 0.14176578004743165
Epoch: 3/15 - Batch: 2100/7933 - Learning rate: 0.001 - Loss: 0.6934756
Epoch: 3/15 - Batch: 2200/7933 - Learning rate: 0.001 - Loss: 0.7183138
Epoch: 3/15 - Batch: 2300/7933 - Learning rate: 0.001 - Loss: 0.8809583
Epoch: 3/15 - Batch: 2400/7933 - Learning rate: 0.001 - Loss: 0.74394053
Epoch: 3/15 - Batch: 2500/7933 - Learning rate: 0.001 - Loss: 0.71445847
Epoch: 3/15 - Batch: 2600/7933 - Learning rate: 0.001 - Loss: 0.54600495
Epoch: 3/15 - Batch: 2700/7933 - Learning rate: 0.001 - Loss: 0.31759593
Epoch: 3/15 - Batch: 2800/7933 - Learning rate: 0.001 - Loss: 0.9112138
Epoch: 3/15 - Batch: 2900/7933 - Learning rate: 0.001 - Loss: 1.0208957
Epoch: 3/15 - Batch: 3000/7933 - Learning rate: 0.001 - Loss: 0.927345 - Dev BLEU: 0.1403830611717229
Epoch: 3/15 - Batch: 3100/7933 - Learning rate: 0.001 - Loss: 0.9449357
Epoch: 3/15 - Batch: 3200/7933 - Learning rate: 0.001 - Loss: 0.8666378
Epoch: 3/15 - Batch: 3300/7933 - Learning rate: 0.001 - Loss: 0.70944506
Epoch: 3/15 - Batch: 3400/7933 - Learning rate: 0.001 - Loss: 0.7073643
Epoch: 3/15 - Batch: 3500/7933 - Learning rate: 0.001 - Loss: 0.96960634
Epoch: 3/15 - Batch: 3600/7933 - Learning rate: 0.001 - Loss: 0.92988014
Epoch: 3/15 - Batch: 3700/7933 - Learning rate: 0.001 - Loss: 0.8928914
Epoch: 3/15 - Batch: 3800/7933 - Learning rate: 0.001 - Loss: 0.8563479
Epoch: 3/15 - Batch: 3900/7933 - Learning rate: 0.001 - Loss: 1.0065814
Epoch: 3/15 - Batch: 4000/7933 - Learning rate: 0.001 - Loss: 0.5455037 - Dev BLEU: 0.15497481783445372
Epoch: 3/15 - Batch: 4100/7933 - Learning rate: 0.001 - Loss: 0.70640707
Epoch: 3/15 - Batch: 4200/7933 - Learning rate: 0.001 - Loss: 0.691949
Epoch: 3/15 - Batch: 4300/7933 - Learning rate: 0.001 - Loss: 0.7673981
Epoch: 3/15 - Batch: 4400/7933 - Learning rate: 0.001 - Loss: 0.7258931
Epoch: 3/15 - Batch: 4500/7933 - Learning rate: 0.001 - Loss: 0.8393023
Epoch: 3/15 - Batch: 4600/7933 - Learning rate: 0.001 - Loss: 1.4965968
Epoch: 3/15 - Batch: 4700/7933 - Learning rate: 0.001 - Loss: 1.0967917
Epoch: 3/15 - Batch: 4800/7933 - Learning rate: 0.001 - Loss: 1.0453134
Epoch: 3/15 - Batch: 4900/7933 - Learning rate: 0.001 - Loss: 1.1642925
Epoch: 3/15 - Batch: 5000/7933 - Learning rate: 0.001 - Loss: 1.211274 - Dev BLEU: 0.18662406758782213
Epoch: 3/15 - Batch: 5100/7933 - Learning rate: 0.001 - Loss: 1.246101
Epoch: 3/15 - Batch: 5200/7933 - Learning rate: 0.001 - Loss: 1.1688389
Epoch: 3/15 - Batch: 5300/7933 - Learning rate: 0.001 - Loss: 1.1713165
Epoch: 3/15 - Batch: 5400/7933 - Learning rate: 0.001 - Loss: 1.1172469
Epoch: 3/15 - Batch: 5500/7933 - Learning rate: 0.001 - Loss: 1.0950061
Epoch: 3/15 - Batch: 5600/7933 - Learning rate: 0.001 - Loss: 0.9082562
Epoch: 3/15 - Batch: 5700/7933 - Learning rate: 0.001 - Loss: 1.1453793
Epoch: 3/15 - Batch: 5800/7933 - Learning rate: 0.001 - Loss: 1.0809972
Epoch: 3/15 - Batch: 5900/7933 - Learning rate: 0.001 - Loss: 0.7543397
Epoch: 3/15 - Batch: 6000/7933 - Learning rate: 0.001 - Loss: 1.1098304 - Dev BLEU: 0.1698654631774625
Epoch: 3/15 - Batch: 6100/7933 - Learning rate: 0.001 - Loss: 1.0910428
Epoch: 3/15 - Batch: 6200/7933 - Learning rate: 0.001 - Loss: 0.9711891
Epoch: 3/15 - Batch: 6300/7933 - Learning rate: 0.001 - Loss: 0.90996826
Epoch: 3/15 - Batch: 6400/7933 - Learning rate: 0.001 - Loss: 0.7814446
Epoch: 3/15 - Batch: 6500/7933 - Learning rate: 0.001 - Loss: 0.9145274
Epoch: 3/15 - Batch: 6600/7933 - Learning rate: 0.001 - Loss: 0.90324795
Epoch: 3/15 - Batch: 6700/7933 - Learning rate: 0.001 - Loss: 0.85366195
Epoch: 3/15 - Batch: 6800/7933 - Learning rate: 0.001 - Loss: 0.83284354
Epoch: 3/15 - Batch: 6900/7933 - Learning rate: 0.001 - Loss: 0.58928424
Epoch: 3/15 - Batch: 7000/7933 - Learning rate: 0.001 - Loss: 1.2490876 - Dev BLEU: 0.2127950170219357
Epoch: 3/15 - Batch: 7100/7933 - Learning rate: 0.001 - Loss: 0.92860174
Epoch: 3/15 - Batch: 7200/7933 - Learning rate: 0.001 - Loss: 0.74507815
Epoch: 3/15 - Batch: 7300/7933 - Learning rate: 0.001 - Loss: 0.928951
Epoch: 3/15 - Batch: 7400/7933 - Learning rate: 0.001 - Loss: 0.964777
Epoch: 3/15 - Batch: 7500/7933 - Learning rate: 0.001 - Loss: 0.7097024
Epoch: 3/15 - Batch: 7600/7933 - Learning rate: 0.001 - Loss: 1.2763131
Epoch: 3/15 - Batch: 7700/7933 - Learning rate: 0.001 - Loss: 1.4051346
Epoch: 3/15 - Batch: 7800/7933 - Learning rate: 0.001 - Loss: 1.336402
Epoch: 3/15 - Batch: 7900/7933 - Learning rate: 0.001 - Loss: 0.9410321
Epoch: 3/15 - Batch: 7933/7933 - Learning rate: 0.001 - Loss: 1.3418599 - Dev BLEU: 0.19195020142549646
Epoch: 4/15 - Batch: 100/7933 - Learning rate: 0.001 - Loss: 0.8571793
Epoch: 4/15 - Batch: 200/7933 - Learning rate: 0.001 - Loss: 0.8134626
Epoch: 4/15 - Batch: 300/7933 - Learning rate: 0.001 - Loss: 0.5953738
Epoch: 4/15 - Batch: 400/7933 - Learning rate: 0.001 - Loss: 0.980463
Epoch: 4/15 - Batch: 500/7933 - Learning rate: 0.001 - Loss: 0.7258638
Epoch: 4/15 - Batch: 600/7933 - Learning rate: 0.001 - Loss: 0.4366234
Epoch: 4/15 - Batch: 700/7933 - Learning rate: 0.001 - Loss: 0.7067252
Epoch: 4/15 - Batch: 800/7933 - Learning rate: 0.001 - Loss: 0.70927507
Epoch: 4/15 - Batch: 900/7933 - Learning rate: 0.001 - Loss: 0.45646107
Epoch: 4/15 - Batch: 1000/7933 - Learning rate: 0.001 - Loss: 0.77020895 - Dev BLEU: 0.16832962408696528
Epoch: 4/15 - Batch: 1100/7933 - Learning rate: 0.001 - Loss: 0.66141313
Epoch: 4/15 - Batch: 1200/7933 - Learning rate: 0.001 - Loss: 0.9426205
Epoch: 4/15 - Batch: 1300/7933 - Learning rate: 0.001 - Loss: 0.80586386
Epoch: 4/15 - Batch: 1400/7933 - Learning rate: 0.001 - Loss: 0.8638803
Epoch: 4/15 - Batch: 1500/7933 - Learning rate: 0.001 - Loss: 0.616491
Epoch: 4/15 - Batch: 1600/7933 - Learning rate: 0.001 - Loss: 1.1559762
Epoch: 4/15 - Batch: 1700/7933 - Learning rate: 0.001 - Loss: 0.8527909
Epoch: 4/15 - Batch: 1800/7933 - Learning rate: 0.001 - Loss: 0.47033718
Epoch: 4/15 - Batch: 1900/7933 - Learning rate: 0.001 - Loss: 0.72096777
Epoch: 4/15 - Batch: 2000/7933 - Learning rate: 0.001 - Loss: 0.7253118 - Dev BLEU: 0.15298285409319126
Epoch: 4/15 - Batch: 2100/7933 - Learning rate: 0.001 - Loss: 0.64127994
Epoch: 4/15 - Batch: 2200/7933 - Learning rate: 0.001 - Loss: 0.6359903
Epoch: 4/15 - Batch: 2300/7933 - Learning rate: 0.001 - Loss: 0.7979352
Epoch: 4/15 - Batch: 2400/7933 - Learning rate: 0.001 - Loss: 0.6627053
Epoch: 4/15 - Batch: 2500/7933 - Learning rate: 0.001 - Loss: 0.6440521
Epoch: 4/15 - Batch: 2600/7933 - Learning rate: 0.001 - Loss: 0.4997169
Epoch: 4/15 - Batch: 2700/7933 - Learning rate: 0.001 - Loss: 0.28889015
Epoch: 4/15 - Batch: 2800/7933 - Learning rate: 0.001 - Loss: 0.8386168
Epoch: 4/15 - Batch: 2900/7933 - Learning rate: 0.001 - Loss: 0.95454127
Epoch: 4/15 - Batch: 3000/7933 - Learning rate: 0.001 - Loss: 0.8447342 - Dev BLEU: 0.1555224175748825
Epoch: 4/15 - Batch: 3100/7933 - Learning rate: 0.001 - Loss: 0.8904439
Epoch: 4/15 - Batch: 3200/7933 - Learning rate: 0.001 - Loss: 0.8046615
Epoch: 4/15 - Batch: 3300/7933 - Learning rate: 0.001 - Loss: 0.6785151
Epoch: 4/15 - Batch: 3400/7933 - Learning rate: 0.001 - Loss: 0.6437349
Epoch: 4/15 - Batch: 3500/7933 - Learning rate: 0.001 - Loss: 0.8807415
Epoch: 4/15 - Batch: 3600/7933 - Learning rate: 0.001 - Loss: 0.87107503
Epoch: 4/15 - Batch: 3700/7933 - Learning rate: 0.001 - Loss: 0.82958233
Epoch: 4/15 - Batch: 3800/7933 - Learning rate: 0.001 - Loss: 0.7826114
Epoch: 4/15 - Batch: 3900/7933 - Learning rate: 0.001 - Loss: 0.92249334
Epoch: 4/15 - Batch: 4000/7933 - Learning rate: 0.001 - Loss: 0.49568996 - Dev BLEU: 0.17182884234549842
Epoch: 4/15 - Batch: 4100/7933 - Learning rate: 0.001 - Loss: 0.6600864
Epoch: 4/15 - Batch: 4200/7933 - Learning rate: 0.001 - Loss: 0.63395196
Epoch: 4/15 - Batch: 4300/7933 - Learning rate: 0.001 - Loss: 0.72919893
Epoch: 4/15 - Batch: 4400/7933 - Learning rate: 0.001 - Loss: 0.6660582
Epoch: 4/15 - Batch: 4500/7933 - Learning rate: 0.001 - Loss: 0.7967871
Epoch: 4/15 - Batch: 4600/7933 - Learning rate: 0.001 - Loss: 1.3657788
Epoch: 4/15 - Batch: 4700/7933 - Learning rate: 0.001 - Loss: 0.9930566
Epoch: 4/15 - Batch: 4800/7933 - Learning rate: 0.001 - Loss: 0.9613106
Epoch: 4/15 - Batch: 4900/7933 - Learning rate: 0.001 - Loss: 1.0679586
Epoch: 4/15 - Batch: 5000/7933 - Learning rate: 0.001 - Loss: 1.1160588 - Dev BLEU: 0.20070341309897677
Epoch: 4/15 - Batch: 5100/7933 - Learning rate: 0.001 - Loss: 1.1657209
Epoch: 4/15 - Batch: 5200/7933 - Learning rate: 0.001 - Loss: 1.0848105
Epoch: 4/15 - Batch: 5300/7933 - Learning rate: 0.001 - Loss: 1.0571191
Epoch: 4/15 - Batch: 5400/7933 - Learning rate: 0.001 - Loss: 1.0427852
Epoch: 4/15 - Batch: 5500/7933 - Learning rate: 0.001 - Loss: 1.0332212
Epoch: 4/15 - Batch: 5600/7933 - Learning rate: 0.001 - Loss: 0.8386687
Epoch: 4/15 - Batch: 5700/7933 - Learning rate: 0.001 - Loss: 1.0432001
Epoch: 4/15 - Batch: 5800/7933 - Learning rate: 0.001 - Loss: 0.9974207
Epoch: 4/15 - Batch: 5900/7933 - Learning rate: 0.001 - Loss: 0.7107342
Epoch: 4/15 - Batch: 6000/7933 - Learning rate: 0.001 - Loss: 1.0115207 - Dev BLEU: 0.18494331331482392
Epoch: 4/15 - Batch: 6100/7933 - Learning rate: 0.001 - Loss: 1.00815
Epoch: 4/15 - Batch: 6200/7933 - Learning rate: 0.001 - Loss: 0.88957673
Epoch: 4/15 - Batch: 6300/7933 - Learning rate: 0.001 - Loss: 0.8462728
Epoch: 4/15 - Batch: 6400/7933 - Learning rate: 0.001 - Loss: 0.7429149
Epoch: 4/15 - Batch: 6500/7933 - Learning rate: 0.001 - Loss: 0.8464671
Epoch: 4/15 - Batch: 6600/7933 - Learning rate: 0.001 - Loss: 0.8288191
Epoch: 4/15 - Batch: 6700/7933 - Learning rate: 0.001 - Loss: 0.8001625
Epoch: 4/15 - Batch: 6800/7933 - Learning rate: 0.001 - Loss: 0.7837104
Epoch: 4/15 - Batch: 6900/7933 - Learning rate: 0.001 - Loss: 0.55630255
Epoch: 4/15 - Batch: 7000/7933 - Learning rate: 0.001 - Loss: 1.1684363 - Dev BLEU: 0.22574967019241468
Epoch: 4/15 - Batch: 7100/7933 - Learning rate: 0.001 - Loss: 0.8838272
Epoch: 4/15 - Batch: 7200/7933 - Learning rate: 0.001 - Loss: 0.7033524
Epoch: 4/15 - Batch: 7300/7933 - Learning rate: 0.001 - Loss: 0.87549704
Epoch: 4/15 - Batch: 7400/7933 - Learning rate: 0.001 - Loss: 0.9073801
Epoch: 4/15 - Batch: 7500/7933 - Learning rate: 0.001 - Loss: 0.66447693
Epoch: 4/15 - Batch: 7600/7933 - Learning rate: 0.001 - Loss: 1.2041658
Epoch: 4/15 - Batch: 7700/7933 - Learning rate: 0.001 - Loss: 1.3327934
Epoch: 4/15 - Batch: 7800/7933 - Learning rate: 0.001 - Loss: 1.2532096
Epoch: 4/15 - Batch: 7900/7933 - Learning rate: 0.001 - Loss: 0.88865525
Epoch: 4/15 - Batch: 7933/7933 - Learning rate: 0.001 - Loss: 1.2089077 - Dev BLEU: 0.19761919910509984
Epoch: 5/15 - Batch: 100/7933 - Learning rate: 0.001 - Loss: 0.81424576
Epoch: 5/15 - Batch: 200/7933 - Learning rate: 0.001 - Loss: 0.75168276
Epoch: 5/15 - Batch: 300/7933 - Learning rate: 0.001 - Loss: 0.5667257
Epoch: 5/15 - Batch: 400/7933 - Learning rate: 0.001 - Loss: 0.9249133
Epoch: 5/15 - Batch: 500/7933 - Learning rate: 0.001 - Loss: 0.66465044
Epoch: 5/15 - Batch: 600/7933 - Learning rate: 0.001 - Loss: 0.41732913
Epoch: 5/15 - Batch: 700/7933 - Learning rate: 0.001 - Loss: 0.6708482
Epoch: 5/15 - Batch: 800/7933 - Learning rate: 0.001 - Loss: 0.66502976
Epoch: 5/15 - Batch: 900/7933 - Learning rate: 0.001 - Loss: 0.43202376
Epoch: 5/15 - Batch: 1000/7933 - Learning rate: 0.001 - Loss: 0.7283037 - Dev BLEU: 0.18213206529997716
Epoch: 5/15 - Batch: 1100/7933 - Learning rate: 0.001 - Loss: 0.6316632
Epoch: 5/15 - Batch: 1200/7933 - Learning rate: 0.001 - Loss: 0.8790324
Epoch: 5/15 - Batch: 1300/7933 - Learning rate: 0.001 - Loss: 0.75953186
Epoch: 5/15 - Batch: 1400/7933 - Learning rate: 0.001 - Loss: 0.8342664
Epoch: 5/15 - Batch: 1500/7933 - Learning rate: 0.001 - Loss: 0.5875399
Epoch: 5/15 - Batch: 1600/7933 - Learning rate: 0.001 - Loss: 1.0901135
Epoch: 5/15 - Batch: 1700/7933 - Learning rate: 0.001 - Loss: 0.8113928
Epoch: 5/15 - Batch: 1800/7933 - Learning rate: 0.001 - Loss: 0.44631004
Epoch: 5/15 - Batch: 1900/7933 - Learning rate: 0.001 - Loss: 0.67414635
Epoch: 5/15 - Batch: 2000/7933 - Learning rate: 0.001 - Loss: 0.6910891 - Dev BLEU: 0.16461738278762672
Epoch: 5/15 - Batch: 2100/7933 - Learning rate: 0.001 - Loss: 0.604903
Epoch: 5/15 - Batch: 2200/7933 - Learning rate: 0.001 - Loss: 0.6041456
Epoch: 5/15 - Batch: 2300/7933 - Learning rate: 0.001 - Loss: 0.7541376
Epoch: 5/15 - Batch: 2400/7933 - Learning rate: 0.001 - Loss: 0.6094314
Epoch: 5/15 - Batch: 2500/7933 - Learning rate: 0.001 - Loss: 0.6025512
Epoch: 5/15 - Batch: 2600/7933 - Learning rate: 0.001 - Loss: 0.46914086
Epoch: 5/15 - Batch: 2700/7933 - Learning rate: 0.001 - Loss: 0.28019187
Epoch: 5/15 - Batch: 2800/7933 - Learning rate: 0.001 - Loss: 0.7909086
Epoch: 5/15 - Batch: 2900/7933 - Learning rate: 0.001 - Loss: 0.896368
Epoch: 5/15 - Batch: 3000/7933 - Learning rate: 0.001 - Loss: 0.80856454 - Dev BLEU: 0.16415429452841457
Epoch: 5/15 - Batch: 3100/7933 - Learning rate: 0.001 - Loss: 0.84381825
Epoch: 5/15 - Batch: 3200/7933 - Learning rate: 0.001 - Loss: 0.77651685
Epoch: 5/15 - Batch: 3300/7933 - Learning rate: 0.001 - Loss: 0.6470762
Epoch: 5/15 - Batch: 3400/7933 - Learning rate: 0.001 - Loss: 0.63548744
Epoch: 5/15 - Batch: 3500/7933 - Learning rate: 0.001 - Loss: 0.8391151
Epoch: 5/15 - Batch: 3600/7933 - Learning rate: 0.001 - Loss: 0.8177156
Epoch: 5/15 - Batch: 3700/7933 - Learning rate: 0.001 - Loss: 0.7835964
Epoch: 5/15 - Batch: 3800/7933 - Learning rate: 0.001 - Loss: 0.73021036
Epoch: 5/15 - Batch: 3900/7933 - Learning rate: 0.001 - Loss: 0.8561212
Epoch: 5/15 - Batch: 4000/7933 - Learning rate: 0.001 - Loss: 0.4730722 - Dev BLEU: 0.17635932302523388
Epoch: 5/15 - Batch: 4100/7933 - Learning rate: 0.001 - Loss: 0.6218111
Epoch: 5/15 - Batch: 4200/7933 - Learning rate: 0.001 - Loss: 0.60068554
Epoch: 5/15 - Batch: 4300/7933 - Learning rate: 0.001 - Loss: 0.68749976
Epoch: 5/15 - Batch: 4400/7933 - Learning rate: 0.001 - Loss: 0.64388674
Epoch: 5/15 - Batch: 4500/7933 - Learning rate: 0.001 - Loss: 0.7512159
Epoch: 5/15 - Batch: 4600/7933 - Learning rate: 0.001 - Loss: 1.2319328
Epoch: 5/15 - Batch: 4700/7933 - Learning rate: 0.001 - Loss: 0.92387736
Epoch: 5/15 - Batch: 4800/7933 - Learning rate: 0.001 - Loss: 0.88185954
Epoch: 5/15 - Batch: 4900/7933 - Learning rate: 0.001 - Loss: 0.98716885
Epoch: 5/15 - Batch: 5000/7933 - Learning rate: 0.001 - Loss: 1.0648458 - Dev BLEU: 0.2106357274795801
Epoch: 5/15 - Batch: 5100/7933 - Learning rate: 0.001 - Loss: 1.0919534
Epoch: 5/15 - Batch: 5200/7933 - Learning rate: 0.001 - Loss: 1.0162879
Epoch: 5/15 - Batch: 5300/7933 - Learning rate: 0.001 - Loss: 1.0023189
Epoch: 5/15 - Batch: 5400/7933 - Learning rate: 0.001 - Loss: 0.9739055
Epoch: 5/15 - Batch: 5500/7933 - Learning rate: 0.001 - Loss: 0.9663608
Epoch: 5/15 - Batch: 5600/7933 - Learning rate: 0.001 - Loss: 0.76230055
Epoch: 5/15 - Batch: 5700/7933 - Learning rate: 0.001 - Loss: 0.96153075
Epoch: 5/15 - Batch: 5800/7933 - Learning rate: 0.001 - Loss: 0.938949
Epoch: 5/15 - Batch: 5900/7933 - Learning rate: 0.001 - Loss: 0.6661221
Epoch: 5/15 - Batch: 6000/7933 - Learning rate: 0.001 - Loss: 0.9750365 - Dev BLEU: 0.1969810701387849
Epoch: 5/15 - Batch: 6100/7933 - Learning rate: 0.001 - Loss: 0.94966185
Epoch: 5/15 - Batch: 6200/7933 - Learning rate: 0.001 - Loss: 0.85081977
Epoch: 5/15 - Batch: 6300/7933 - Learning rate: 0.001 - Loss: 0.7922694
Epoch: 5/15 - Batch: 6400/7933 - Learning rate: 0.001 - Loss: 0.7056551
Epoch: 5/15 - Batch: 6500/7933 - Learning rate: 0.001 - Loss: 0.80765486
Epoch: 5/15 - Batch: 6600/7933 - Learning rate: 0.001 - Loss: 0.80357224
Epoch: 5/15 - Batch: 6700/7933 - Learning rate: 0.001 - Loss: 0.76723164
Epoch: 5/15 - Batch: 6800/7933 - Learning rate: 0.001 - Loss: 0.76236933
Epoch: 5/15 - Batch: 6900/7933 - Learning rate: 0.001 - Loss: 0.532595
Epoch: 5/15 - Batch: 7000/7933 - Learning rate: 0.001 - Loss: 1.114643 - Dev BLEU: 0.23458839315739452
Epoch: 5/15 - Batch: 7100/7933 - Learning rate: 0.001 - Loss: 0.8371372
Epoch: 5/15 - Batch: 7200/7933 - Learning rate: 0.001 - Loss: 0.66812783
Epoch: 5/15 - Batch: 7300/7933 - Learning rate: 0.001 - Loss: 0.8321742
Epoch: 5/15 - Batch: 7400/7933 - Learning rate: 0.001 - Loss: 0.87884605
Epoch: 5/15 - Batch: 7500/7933 - Learning rate: 0.001 - Loss: 0.63251245
Epoch: 5/15 - Batch: 7600/7933 - Learning rate: 0.001 - Loss: 1.146881
Epoch: 5/15 - Batch: 7700/7933 - Learning rate: 0.001 - Loss: 1.2814138
Epoch: 5/15 - Batch: 7800/7933 - Learning rate: 0.001 - Loss: 1.1896461
Epoch: 5/15 - Batch: 7900/7933 - Learning rate: 0.001 - Loss: 0.8449551
Epoch: 5/15 - Batch: 7933/7933 - Learning rate: 0.001 - Loss: 1.1566706 - Dev BLEU: 0.20625343481953537
Epoch: 6/15 - Batch: 100/7933 - Learning rate: 0.001 - Loss: 0.79575294
Epoch: 6/15 - Batch: 200/7933 - Learning rate: 0.001 - Loss: 0.6953429
Epoch: 6/15 - Batch: 300/7933 - Learning rate: 0.001 - Loss: 0.54716927
Epoch: 6/15 - Batch: 400/7933 - Learning rate: 0.001 - Loss: 0.8806014
Epoch: 6/15 - Batch: 500/7933 - Learning rate: 0.001 - Loss: 0.62344354
Epoch: 6/15 - Batch: 600/7933 - Learning rate: 0.001 - Loss: 0.40525994
Epoch: 6/15 - Batch: 700/7933 - Learning rate: 0.001 - Loss: 0.6404091
Epoch: 6/15 - Batch: 800/7933 - Learning rate: 0.001 - Loss: 0.64193815
Epoch: 6/15 - Batch: 900/7933 - Learning rate: 0.001 - Loss: 0.41824913
Epoch: 6/15 - Batch: 1000/7933 - Learning rate: 0.001 - Loss: 0.6872894 - Dev BLEU: 0.19009844660613556
Epoch: 6/15 - Batch: 1100/7933 - Learning rate: 0.001 - Loss: 0.6079083
Epoch: 6/15 - Batch: 1200/7933 - Learning rate: 0.001 - Loss: 0.8448828
Epoch: 6/15 - Batch: 1300/7933 - Learning rate: 0.001 - Loss: 0.7241873
Epoch: 6/15 - Batch: 1400/7933 - Learning rate: 0.001 - Loss: 0.804594
Epoch: 6/15 - Batch: 1500/7933 - Learning rate: 0.001 - Loss: 0.5584368
Epoch: 6/15 - Batch: 1600/7933 - Learning rate: 0.001 - Loss: 1.0547161
Epoch: 6/15 - Batch: 1700/7933 - Learning rate: 0.001 - Loss: 0.78467244
Epoch: 6/15 - Batch: 1800/7933 - Learning rate: 0.001 - Loss: 0.4221636
Epoch: 6/15 - Batch: 1900/7933 - Learning rate: 0.001 - Loss: 0.64829034
Epoch: 6/15 - Batch: 2000/7933 - Learning rate: 0.001 - Loss: 0.6608859 - Dev BLEU: 0.17356871737904306
Epoch: 6/15 - Batch: 2100/7933 - Learning rate: 0.001 - Loss: 0.5759095
Epoch: 6/15 - Batch: 2200/7933 - Learning rate: 0.001 - Loss: 0.57182777
Epoch: 6/15 - Batch: 2300/7933 - Learning rate: 0.001 - Loss: 0.7270028
Epoch: 6/15 - Batch: 2400/7933 - Learning rate: 0.001 - Loss: 0.58230454
Epoch: 6/15 - Batch: 2500/7933 - Learning rate: 0.001 - Loss: 0.56620294
Epoch: 6/15 - Batch: 2600/7933 - Learning rate: 0.001 - Loss: 0.44608366
Epoch: 6/15 - Batch: 2700/7933 - Learning rate: 0.001 - Loss: 0.27037928
Epoch: 6/15 - Batch: 2800/7933 - Learning rate: 0.001 - Loss: 0.74749917
Epoch: 6/15 - Batch: 2900/7933 - Learning rate: 0.001 - Loss: 0.85805833
Epoch: 6/15 - Batch: 3000/7933 - Learning rate: 0.001 - Loss: 0.7665645 - Dev BLEU: 0.17014032795849773
Epoch: 6/15 - Batch: 3100/7933 - Learning rate: 0.001 - Loss: 0.79851454
Epoch: 6/15 - Batch: 3200/7933 - Learning rate: 0.001 - Loss: 0.75882107
Epoch: 6/15 - Batch: 3300/7933 - Learning rate: 0.001 - Loss: 0.6280184
Epoch: 6/15 - Batch: 3400/7933 - Learning rate: 0.001 - Loss: 0.60057145
Epoch: 6/15 - Batch: 3500/7933 - Learning rate: 0.001 - Loss: 0.78952295
Epoch: 6/15 - Batch: 3600/7933 - Learning rate: 0.001 - Loss: 0.77690804
Epoch: 6/15 - Batch: 3700/7933 - Learning rate: 0.001 - Loss: 0.75983673
Epoch: 6/15 - Batch: 3800/7933 - Learning rate: 0.001 - Loss: 0.71047556
Epoch: 6/15 - Batch: 3900/7933 - Learning rate: 0.001 - Loss: 0.81515634
Epoch: 6/15 - Batch: 4000/7933 - Learning rate: 0.001 - Loss: 0.46002153 - Dev BLEU: 0.18590801052381897
Epoch: 6/15 - Batch: 4100/7933 - Learning rate: 0.001 - Loss: 0.5923229
Epoch: 6/15 - Batch: 4200/7933 - Learning rate: 0.001 - Loss: 0.58102685
Epoch: 6/15 - Batch: 4300/7933 - Learning rate: 0.001 - Loss: 0.6677182
Epoch: 6/15 - Batch: 4400/7933 - Learning rate: 0.001 - Loss: 0.62097466
Epoch: 6/15 - Batch: 4500/7933 - Learning rate: 0.001 - Loss: 0.7294022
Epoch: 6/15 - Batch: 4600/7933 - Learning rate: 0.001 - Loss: 1.1970557
Epoch: 6/15 - Batch: 4700/7933 - Learning rate: 0.001 - Loss: 0.8408907
Epoch: 6/15 - Batch: 4800/7933 - Learning rate: 0.001 - Loss: 0.8469276
Epoch: 6/15 - Batch: 4900/7933 - Learning rate: 0.001 - Loss: 0.93971807
Epoch: 6/15 - Batch: 5000/7933 - Learning rate: 0.001 - Loss: 1.0122336 - Dev BLEU: 0.2193303984946668
Epoch: 6/15 - Batch: 5100/7933 - Learning rate: 0.001 - Loss: 1.0656503
Epoch: 6/15 - Batch: 5200/7933 - Learning rate: 0.001 - Loss: 0.9767587
Epoch: 6/15 - Batch: 5300/7933 - Learning rate: 0.001 - Loss: 0.94584274
Epoch: 6/15 - Batch: 5400/7933 - Learning rate: 0.001 - Loss: 0.9351766
Epoch: 6/15 - Batch: 5500/7933 - Learning rate: 0.001 - Loss: 0.9439278
Epoch: 6/15 - Batch: 5600/7933 - Learning rate: 0.001 - Loss: 0.73350734
Epoch: 6/15 - Batch: 5700/7933 - Learning rate: 0.001 - Loss: 0.94014895
Epoch: 6/15 - Batch: 5800/7933 - Learning rate: 0.001 - Loss: 0.8974266
Epoch: 6/15 - Batch: 5900/7933 - Learning rate: 0.001 - Loss: 0.62891585
Epoch: 6/15 - Batch: 6000/7933 - Learning rate: 0.001 - Loss: 0.9364136 - Dev BLEU: 0.2038562793609979
Epoch: 6/15 - Batch: 6100/7933 - Learning rate: 0.001 - Loss: 0.90808725
Epoch: 6/15 - Batch: 6200/7933 - Learning rate: 0.001 - Loss: 0.8190217
Epoch: 6/15 - Batch: 6300/7933 - Learning rate: 0.001 - Loss: 0.779517
Epoch: 6/15 - Batch: 6400/7933 - Learning rate: 0.001 - Loss: 0.69949436
Epoch: 6/15 - Batch: 6500/7933 - Learning rate: 0.001 - Loss: 0.79097193
Epoch: 6/15 - Batch: 6600/7933 - Learning rate: 0.001 - Loss: 0.7647099
Epoch: 6/15 - Batch: 6700/7933 - Learning rate: 0.001 - Loss: 0.7424199
Epoch: 6/15 - Batch: 6800/7933 - Learning rate: 0.001 - Loss: 0.7388753
Epoch: 6/15 - Batch: 6900/7933 - Learning rate: 0.001 - Loss: 0.51514804
Epoch: 6/15 - Batch: 7000/7933 - Learning rate: 0.001 - Loss: 1.0826616 - Dev BLEU: 0.23736612010208274
Epoch: 6/15 - Batch: 7100/7933 - Learning rate: 0.001 - Loss: 0.81984943
Epoch: 6/15 - Batch: 7200/7933 - Learning rate: 0.001 - Loss: 0.6476092
Epoch: 6/15 - Batch: 7300/7933 - Learning rate: 0.001 - Loss: 0.80825573
Epoch: 6/15 - Batch: 7400/7933 - Learning rate: 0.001 - Loss: 0.84496564
Epoch: 6/15 - Batch: 7500/7933 - Learning rate: 0.001 - Loss: 0.62300617
Epoch: 6/15 - Batch: 7600/7933 - Learning rate: 0.001 - Loss: 1.101128
Epoch: 6/15 - Batch: 7700/7933 - Learning rate: 0.001 - Loss: 1.2591864
Epoch: 6/15 - Batch: 7800/7933 - Learning rate: 0.001 - Loss: 1.1412019
Epoch: 6/15 - Batch: 7900/7933 - Learning rate: 0.001 - Loss: 0.82449895
Epoch: 6/15 - Batch: 7933/7933 - Learning rate: 0.001 - Loss: 1.072152 - Dev BLEU: 0.2117911432403824
Epoch: 7/15 - Batch: 100/7933 - Learning rate: 0.001 - Loss: 0.7830106
Epoch: 7/15 - Batch: 200/7933 - Learning rate: 0.001 - Loss: 0.6699128
Epoch: 7/15 - Batch: 300/7933 - Learning rate: 0.001 - Loss: 0.52693135
Epoch: 7/15 - Batch: 400/7933 - Learning rate: 0.001 - Loss: 0.83775365
Epoch: 7/15 - Batch: 500/7933 - Learning rate: 0.001 - Loss: 0.59169465
Epoch: 7/15 - Batch: 600/7933 - Learning rate: 0.001 - Loss: 0.39870486
Epoch: 7/15 - Batch: 700/7933 - Learning rate: 0.001 - Loss: 0.6037396
Epoch: 7/15 - Batch: 800/7933 - Learning rate: 0.001 - Loss: 0.6221494
Epoch: 7/15 - Batch: 900/7933 - Learning rate: 0.001 - Loss: 0.40350148
Epoch: 7/15 - Batch: 1000/7933 - Learning rate: 0.001 - Loss: 0.68392706 - Dev BLEU: 0.19626187975830614
Epoch: 7/15 - Batch: 1100/7933 - Learning rate: 0.001 - Loss: 0.5971791
Epoch: 7/15 - Batch: 1200/7933 - Learning rate: 0.001 - Loss: 0.8061256
Epoch: 7/15 - Batch: 1300/7933 - Learning rate: 0.001 - Loss: 0.70079535
Epoch: 7/15 - Batch: 1400/7933 - Learning rate: 0.001 - Loss: 0.7776774
Epoch: 7/15 - Batch: 1500/7933 - Learning rate: 0.001 - Loss: 0.5534024
Epoch: 7/15 - Batch: 1600/7933 - Learning rate: 0.001 - Loss: 1.022046
Epoch: 7/15 - Batch: 1700/7933 - Learning rate: 0.001 - Loss: 0.75538623
Epoch: 7/15 - Batch: 1800/7933 - Learning rate: 0.001 - Loss: 0.41147682
Epoch: 7/15 - Batch: 1900/7933 - Learning rate: 0.001 - Loss: 0.62500596
Epoch: 7/15 - Batch: 2000/7933 - Learning rate: 0.001 - Loss: 0.63101405 - Dev BLEU: 0.1767348710956151
Epoch: 7/15 - Batch: 2100/7933 - Learning rate: 0.001 - Loss: 0.54945266
Epoch: 7/15 - Batch: 2200/7933 - Learning rate: 0.001 - Loss: 0.54274493
Epoch: 7/15 - Batch: 2300/7933 - Learning rate: 0.001 - Loss: 0.68444586
Epoch: 7/15 - Batch: 2400/7933 - Learning rate: 0.001 - Loss: 0.57106376
Epoch: 7/15 - Batch: 2500/7933 - Learning rate: 0.001 - Loss: 0.55110854
Epoch: 7/15 - Batch: 2600/7933 - Learning rate: 0.001 - Loss: 0.43159187
Epoch: 7/15 - Batch: 2700/7933 - Learning rate: 0.001 - Loss: 0.26108778
Epoch: 7/15 - Batch: 2800/7933 - Learning rate: 0.001 - Loss: 0.72725797
Epoch: 7/15 - Batch: 2900/7933 - Learning rate: 0.001 - Loss: 0.84885526
Epoch: 7/15 - Batch: 3000/7933 - Learning rate: 0.001 - Loss: 0.7345298 - Dev BLEU: 0.16916144671712435
Epoch: 7/15 - Batch: 3100/7933 - Learning rate: 0.001 - Loss: 0.7802646
Epoch: 7/15 - Batch: 3200/7933 - Learning rate: 0.001 - Loss: 0.7287734
Epoch: 7/15 - Batch: 3300/7933 - Learning rate: 0.001 - Loss: 0.60925394
Epoch: 7/15 - Batch: 3400/7933 - Learning rate: 0.001 - Loss: 0.62838334
Epoch: 7/15 - Batch: 3500/7933 - Learning rate: 0.001 - Loss: 0.7995398
Epoch: 7/15 - Batch: 3600/7933 - Learning rate: 0.001 - Loss: 0.7802469
Epoch: 7/15 - Batch: 3700/7933 - Learning rate: 0.001 - Loss: 0.75278944
Epoch: 7/15 - Batch: 3800/7933 - Learning rate: 0.001 - Loss: 0.6892527
Epoch: 7/15 - Batch: 3900/7933 - Learning rate: 0.001 - Loss: 0.7928265
Epoch: 7/15 - Batch: 4000/7933 - Learning rate: 0.001 - Loss: 0.45755592 - Dev BLEU: 0.19015414766222966
Epoch: 7/15 - Batch: 4100/7933 - Learning rate: 0.001 - Loss: 0.5792265
Epoch: 7/15 - Batch: 4200/7933 - Learning rate: 0.001 - Loss: 0.56648433
Epoch: 7/15 - Batch: 4300/7933 - Learning rate: 0.001 - Loss: 0.6513395
Epoch: 7/15 - Batch: 4400/7933 - Learning rate: 0.001 - Loss: 0.5967429
Epoch: 7/15 - Batch: 4500/7933 - Learning rate: 0.001 - Loss: 0.6990913
Epoch: 7/15 - Batch: 4600/7933 - Learning rate: 0.001 - Loss: 1.1108115
Epoch: 7/15 - Batch: 4700/7933 - Learning rate: 0.001 - Loss: 0.8133845
Epoch: 7/15 - Batch: 4800/7933 - Learning rate: 0.001 - Loss: 0.80170953
Epoch: 7/15 - Batch: 4900/7933 - Learning rate: 0.001 - Loss: 0.901685
Epoch: 7/15 - Batch: 5000/7933 - Learning rate: 0.001 - Loss: 0.96133894 - Dev BLEU: 0.22428819476628595
Epoch: 7/15 - Batch: 5100/7933 - Learning rate: 0.001 - Loss: 0.99943155
Epoch: 7/15 - Batch: 5200/7933 - Learning rate: 0.001 - Loss: 0.95297843
Epoch: 7/15 - Batch: 5300/7933 - Learning rate: 0.001 - Loss: 0.9383659
Epoch: 7/15 - Batch: 5400/7933 - Learning rate: 0.001 - Loss: 0.8965473
Epoch: 7/15 - Batch: 5500/7933 - Learning rate: 0.001 - Loss: 0.8494965
Epoch: 7/15 - Batch: 5600/7933 - Learning rate: 0.001 - Loss: 0.7272887
Epoch: 7/15 - Batch: 5700/7933 - Learning rate: 0.001 - Loss: 0.89014304
Epoch: 7/15 - Batch: 5800/7933 - Learning rate: 0.001 - Loss: 0.8462078
Epoch: 7/15 - Batch: 5900/7933 - Learning rate: 0.001 - Loss: 0.5940245
Epoch: 7/15 - Batch: 6000/7933 - Learning rate: 0.001 - Loss: 0.912418 - Dev BLEU: 0.21253601031866187
Epoch: 7/15 - Batch: 6100/7933 - Learning rate: 0.001 - Loss: 0.86834615
Epoch: 7/15 - Batch: 6200/7933 - Learning rate: 0.001 - Loss: 0.80722773
Epoch: 7/15 - Batch: 6300/7933 - Learning rate: 0.001 - Loss: 0.7532652
Epoch: 7/15 - Batch: 6400/7933 - Learning rate: 0.001 - Loss: 0.6781456
Epoch: 7/15 - Batch: 6500/7933 - Learning rate: 0.001 - Loss: 0.76586854
Epoch: 7/15 - Batch: 6600/7933 - Learning rate: 0.001 - Loss: 0.7439918
Epoch: 7/15 - Batch: 6700/7933 - Learning rate: 0.001 - Loss: 0.73161316
Epoch: 7/15 - Batch: 6800/7933 - Learning rate: 0.001 - Loss: 0.7287264
Epoch: 7/15 - Batch: 6900/7933 - Learning rate: 0.001 - Loss: 0.5047966
Epoch: 7/15 - Batch: 7000/7933 - Learning rate: 0.001 - Loss: 1.0621661 - Dev BLEU: 0.24211292353312303
Epoch: 7/15 - Batch: 7100/7933 - Learning rate: 0.001 - Loss: 0.79725486
Epoch: 7/15 - Batch: 7200/7933 - Learning rate: 0.001 - Loss: 0.63207746
Epoch: 7/15 - Batch: 7300/7933 - Learning rate: 0.001 - Loss: 0.78322023
Epoch: 7/15 - Batch: 7400/7933 - Learning rate: 0.001 - Loss: 0.84428954
Epoch: 7/15 - Batch: 7500/7933 - Learning rate: 0.001 - Loss: 0.6061777
Epoch: 7/15 - Batch: 7600/7933 - Learning rate: 0.001 - Loss: 1.0574574
Epoch: 7/15 - Batch: 7700/7933 - Learning rate: 0.001 - Loss: 1.2211127
Epoch: 7/15 - Batch: 7800/7933 - Learning rate: 0.001 - Loss: 1.1118559
Epoch: 7/15 - Batch: 7900/7933 - Learning rate: 0.001 - Loss: 0.7999064
Epoch: 7/15 - Batch: 7933/7933 - Learning rate: 0.001 - Loss: 1.0197419 - Dev BLEU: 0.21915936903635266
Epoch: 8/15 - Batch: 100/7933 - Learning rate: 0.0005 - Loss: 0.76485294
Epoch: 8/15 - Batch: 200/7933 - Learning rate: 0.0005 - Loss: 0.63310283
Epoch: 8/15 - Batch: 300/7933 - Learning rate: 0.0005 - Loss: 0.5193724
Epoch: 8/15 - Batch: 400/7933 - Learning rate: 0.0005 - Loss: 0.815382
Epoch: 8/15 - Batch: 500/7933 - Learning rate: 0.0005 - Loss: 0.5530073
Epoch: 8/15 - Batch: 600/7933 - Learning rate: 0.0005 - Loss: 0.37971207
Epoch: 8/15 - Batch: 700/7933 - Learning rate: 0.0005 - Loss: 0.5770426
Epoch: 8/15 - Batch: 800/7933 - Learning rate: 0.0005 - Loss: 0.58352256
Epoch: 8/15 - Batch: 900/7933 - Learning rate: 0.0005 - Loss: 0.38664773
Epoch: 8/15 - Batch: 1000/7933 - Learning rate: 0.0005 - Loss: 0.64155227 - Dev BLEU: 0.20192925644684273
Epoch: 8/15 - Batch: 1100/7933 - Learning rate: 0.0005 - Loss: 0.5765577
Epoch: 8/15 - Batch: 1200/7933 - Learning rate: 0.0005 - Loss: 0.77299184
Epoch: 8/15 - Batch: 1300/7933 - Learning rate: 0.0005 - Loss: 0.65508056
Epoch: 8/15 - Batch: 1400/7933 - Learning rate: 0.0005 - Loss: 0.74696857
Epoch: 8/15 - Batch: 1500/7933 - Learning rate: 0.0005 - Loss: 0.5224079
Epoch: 8/15 - Batch: 1600/7933 - Learning rate: 0.0005 - Loss: 0.9586531
Epoch: 8/15 - Batch: 1700/7933 - Learning rate: 0.0005 - Loss: 0.71750027
Epoch: 8/15 - Batch: 1800/7933 - Learning rate: 0.0005 - Loss: 0.3890539
Epoch: 8/15 - Batch: 1900/7933 - Learning rate: 0.0005 - Loss: 0.59034896
Epoch: 8/15 - Batch: 2000/7933 - Learning rate: 0.0005 - Loss: 0.5972816 - Dev BLEU: 0.1964368764208497
Epoch: 8/15 - Batch: 2100/7933 - Learning rate: 0.0005 - Loss: 0.5134811
Epoch: 8/15 - Batch: 2200/7933 - Learning rate: 0.0005 - Loss: 0.51020133
Epoch: 8/15 - Batch: 2300/7933 - Learning rate: 0.0005 - Loss: 0.63574034
Epoch: 8/15 - Batch: 2400/7933 - Learning rate: 0.0005 - Loss: 0.51653147
Epoch: 8/15 - Batch: 2500/7933 - Learning rate: 0.0005 - Loss: 0.51730585
Epoch: 8/15 - Batch: 2600/7933 - Learning rate: 0.0005 - Loss: 0.4044849
Epoch: 8/15 - Batch: 2700/7933 - Learning rate: 0.0005 - Loss: 0.242683
Epoch: 8/15 - Batch: 2800/7933 - Learning rate: 0.0005 - Loss: 0.665567
Epoch: 8/15 - Batch: 2900/7933 - Learning rate: 0.0005 - Loss: 0.7891204
Epoch: 8/15 - Batch: 3000/7933 - Learning rate: 0.0005 - Loss: 0.68187547 - Dev BLEU: 0.1806296199445913
Epoch: 8/15 - Batch: 3100/7933 - Learning rate: 0.0005 - Loss: 0.72490215
Epoch: 8/15 - Batch: 3200/7933 - Learning rate: 0.0005 - Loss: 0.6855398
Epoch: 8/15 - Batch: 3300/7933 - Learning rate: 0.0005 - Loss: 0.56888324
Epoch: 8/15 - Batch: 3400/7933 - Learning rate: 0.0005 - Loss: 0.5613306
Epoch: 8/15 - Batch: 3500/7933 - Learning rate: 0.0005 - Loss: 0.7259428
Epoch: 8/15 - Batch: 3600/7933 - Learning rate: 0.0005 - Loss: 0.71496516
Epoch: 8/15 - Batch: 3700/7933 - Learning rate: 0.0005 - Loss: 0.7052213
Epoch: 8/15 - Batch: 3800/7933 - Learning rate: 0.0005 - Loss: 0.64899313
Epoch: 8/15 - Batch: 3900/7933 - Learning rate: 0.0005 - Loss: 0.7420196
Epoch: 8/15 - Batch: 4000/7933 - Learning rate: 0.0005 - Loss: 0.4251991 - Dev BLEU: 0.20937863341440735
Epoch: 8/15 - Batch: 4100/7933 - Learning rate: 0.0005 - Loss: 0.5586744
Epoch: 8/15 - Batch: 4200/7933 - Learning rate: 0.0005 - Loss: 0.5311257
Epoch: 8/15 - Batch: 4300/7933 - Learning rate: 0.0005 - Loss: 0.6112732
Epoch: 8/15 - Batch: 4400/7933 - Learning rate: 0.0005 - Loss: 0.56488615
Epoch: 8/15 - Batch: 4500/7933 - Learning rate: 0.0005 - Loss: 0.6626414
Epoch: 8/15 - Batch: 4600/7933 - Learning rate: 0.0005 - Loss: 0.98222846
Epoch: 8/15 - Batch: 4700/7933 - Learning rate: 0.0005 - Loss: 0.71610034
Epoch: 8/15 - Batch: 4800/7933 - Learning rate: 0.0005 - Loss: 0.68739253
Epoch: 8/15 - Batch: 4900/7933 - Learning rate: 0.0005 - Loss: 0.838201
Epoch: 8/15 - Batch: 5000/7933 - Learning rate: 0.0005 - Loss: 0.87934315 - Dev BLEU: 0.23727731729994347
Epoch: 8/15 - Batch: 5100/7933 - Learning rate: 0.0005 - Loss: 0.92462325
Epoch: 8/15 - Batch: 5200/7933 - Learning rate: 0.0005 - Loss: 0.88775116
Epoch: 8/15 - Batch: 5300/7933 - Learning rate: 0.0005 - Loss: 0.8569748
Epoch: 8/15 - Batch: 5400/7933 - Learning rate: 0.0005 - Loss: 0.8385029
Epoch: 8/15 - Batch: 5500/7933 - Learning rate: 0.0005 - Loss: 0.80826706
Epoch: 8/15 - Batch: 5600/7933 - Learning rate: 0.0005 - Loss: 0.647162
Epoch: 8/15 - Batch: 5700/7933 - Learning rate: 0.0005 - Loss: 0.8172966
Epoch: 8/15 - Batch: 5800/7933 - Learning rate: 0.0005 - Loss: 0.76264846
Epoch: 8/15 - Batch: 5900/7933 - Learning rate: 0.0005 - Loss: 0.56026006
Epoch: 8/15 - Batch: 6000/7933 - Learning rate: 0.0005 - Loss: 0.8299278 - Dev BLEU: 0.2302627477020291
Epoch: 8/15 - Batch: 6100/7933 - Learning rate: 0.0005 - Loss: 0.78754336
Epoch: 8/15 - Batch: 6200/7933 - Learning rate: 0.0005 - Loss: 0.7384146
Epoch: 8/15 - Batch: 6300/7933 - Learning rate: 0.0005 - Loss: 0.6752916
Epoch: 8/15 - Batch: 6400/7933 - Learning rate: 0.0005 - Loss: 0.63718563
Epoch: 8/15 - Batch: 6500/7933 - Learning rate: 0.0005 - Loss: 0.72745806
Epoch: 8/15 - Batch: 6600/7933 - Learning rate: 0.0005 - Loss: 0.71440476
Epoch: 8/15 - Batch: 6700/7933 - Learning rate: 0.0005 - Loss: 0.6958725
Epoch: 8/15 - Batch: 6800/7933 - Learning rate: 0.0005 - Loss: 0.69872016
Epoch: 8/15 - Batch: 6900/7933 - Learning rate: 0.0005 - Loss: 0.4787173
Epoch: 8/15 - Batch: 7000/7933 - Learning rate: 0.0005 - Loss: 0.99817014 - Dev BLEU: 0.24767326679756113
Epoch: 8/15 - Batch: 7100/7933 - Learning rate: 0.0005 - Loss: 0.7529773
Epoch: 8/15 - Batch: 7200/7933 - Learning rate: 0.0005 - Loss: 0.60254806
Epoch: 8/15 - Batch: 7300/7933 - Learning rate: 0.0005 - Loss: 0.76094246
Epoch: 8/15 - Batch: 7400/7933 - Learning rate: 0.0005 - Loss: 0.7974195
Epoch: 8/15 - Batch: 7500/7933 - Learning rate: 0.0005 - Loss: 0.5902386
Epoch: 8/15 - Batch: 7600/7933 - Learning rate: 0.0005 - Loss: 0.9937766
Epoch: 8/15 - Batch: 7700/7933 - Learning rate: 0.0005 - Loss: 1.1621873
Epoch: 8/15 - Batch: 7800/7933 - Learning rate: 0.0005 - Loss: 1.0411922
Epoch: 8/15 - Batch: 7900/7933 - Learning rate: 0.0005 - Loss: 0.77142364
Epoch: 8/15 - Batch: 7933/7933 - Learning rate: 0.0005 - Loss: 0.9429831 - Dev BLEU: 0.23056510558332985
Epoch: 9/15 - Batch: 100/7933 - Learning rate: 0.00025 - Loss: 0.74544257
Epoch: 9/15 - Batch: 200/7933 - Learning rate: 0.00025 - Loss: 0.6178408
Epoch: 9/15 - Batch: 300/7933 - Learning rate: 0.00025 - Loss: 0.4990187
Epoch: 9/15 - Batch: 400/7933 - Learning rate: 0.00025 - Loss: 0.7754278
Epoch: 9/15 - Batch: 500/7933 - Learning rate: 0.00025 - Loss: 0.53801966
Epoch: 9/15 - Batch: 600/7933 - Learning rate: 0.00025 - Loss: 0.37177983
Epoch: 9/15 - Batch: 700/7933 - Learning rate: 0.00025 - Loss: 0.5559949
Epoch: 9/15 - Batch: 800/7933 - Learning rate: 0.00025 - Loss: 0.56960136
Epoch: 9/15 - Batch: 900/7933 - Learning rate: 0.00025 - Loss: 0.37301892
Epoch: 9/15 - Batch: 1000/7933 - Learning rate: 0.00025 - Loss: 0.6171628 - Dev BLEU: 0.2134340108125598
Epoch: 9/15 - Batch: 1100/7933 - Learning rate: 0.00025 - Loss: 0.56082904
Epoch: 9/15 - Batch: 1200/7933 - Learning rate: 0.00025 - Loss: 0.7260891
Epoch: 9/15 - Batch: 1300/7933 - Learning rate: 0.00025 - Loss: 0.631521
Epoch: 9/15 - Batch: 1400/7933 - Learning rate: 0.00025 - Loss: 0.71141285
Epoch: 9/15 - Batch: 1500/7933 - Learning rate: 0.00025 - Loss: 0.50990653
Epoch: 9/15 - Batch: 1600/7933 - Learning rate: 0.00025 - Loss: 0.92661434
Epoch: 9/15 - Batch: 1700/7933 - Learning rate: 0.00025 - Loss: 0.6936863
Epoch: 9/15 - Batch: 1800/7933 - Learning rate: 0.00025 - Loss: 0.3763707
Epoch: 9/15 - Batch: 1900/7933 - Learning rate: 0.00025 - Loss: 0.5819832
Epoch: 9/15 - Batch: 2000/7933 - Learning rate: 0.00025 - Loss: 0.58261836 - Dev BLEU: 0.21049711555535058
Epoch: 9/15 - Batch: 2100/7933 - Learning rate: 0.00025 - Loss: 0.47970155
Epoch: 9/15 - Batch: 2200/7933 - Learning rate: 0.00025 - Loss: 0.48602533
Epoch: 9/15 - Batch: 2300/7933 - Learning rate: 0.00025 - Loss: 0.6031256
Epoch: 9/15 - Batch: 2400/7933 - Learning rate: 0.00025 - Loss: 0.4941343
Epoch: 9/15 - Batch: 2500/7933 - Learning rate: 0.00025 - Loss: 0.49377614
Epoch: 9/15 - Batch: 2600/7933 - Learning rate: 0.00025 - Loss: 0.3828902
Epoch: 9/15 - Batch: 2700/7933 - Learning rate: 0.00025 - Loss: 0.23625411
Epoch: 9/15 - Batch: 2800/7933 - Learning rate: 0.00025 - Loss: 0.65931064
Epoch: 9/15 - Batch: 2900/7933 - Learning rate: 0.00025 - Loss: 0.76732457
Epoch: 9/15 - Batch: 3000/7933 - Learning rate: 0.00025 - Loss: 0.6586537 - Dev BLEU: 0.2103664881191043
Epoch: 9/15 - Batch: 3100/7933 - Learning rate: 0.00025 - Loss: 0.6904646
Epoch: 9/15 - Batch: 3200/7933 - Learning rate: 0.00025 - Loss: 0.66659474
Epoch: 9/15 - Batch: 3300/7933 - Learning rate: 0.00025 - Loss: 0.5611093
Epoch: 9/15 - Batch: 3400/7933 - Learning rate: 0.00025 - Loss: 0.5449255
Epoch: 9/15 - Batch: 3500/7933 - Learning rate: 0.00025 - Loss: 0.7014687
Epoch: 9/15 - Batch: 3600/7933 - Learning rate: 0.00025 - Loss: 0.6833093
Epoch: 9/15 - Batch: 3700/7933 - Learning rate: 0.00025 - Loss: 0.6708074
Epoch: 9/15 - Batch: 3800/7933 - Learning rate: 0.00025 - Loss: 0.6217295
Epoch: 9/15 - Batch: 3900/7933 - Learning rate: 0.00025 - Loss: 0.70480335
Epoch: 9/15 - Batch: 4000/7933 - Learning rate: 0.00025 - Loss: 0.4137429 - Dev BLEU: 0.22009071336167496
Epoch: 9/15 - Batch: 4100/7933 - Learning rate: 0.00025 - Loss: 0.5337343
Epoch: 9/15 - Batch: 4200/7933 - Learning rate: 0.00025 - Loss: 0.5216557
Epoch: 9/15 - Batch: 4300/7933 - Learning rate: 0.00025 - Loss: 0.5971583
Epoch: 9/15 - Batch: 4400/7933 - Learning rate: 0.00025 - Loss: 0.5579235
Epoch: 9/15 - Batch: 4500/7933 - Learning rate: 0.00025 - Loss: 0.6355276
Epoch: 9/15 - Batch: 4600/7933 - Learning rate: 0.00025 - Loss: 0.9187552
Epoch: 9/15 - Batch: 4700/7933 - Learning rate: 0.00025 - Loss: 0.67484105
Epoch: 9/15 - Batch: 4800/7933 - Learning rate: 0.00025 - Loss: 0.64191705
Epoch: 9/15 - Batch: 4900/7933 - Learning rate: 0.00025 - Loss: 0.79027057
Epoch: 9/15 - Batch: 5000/7933 - Learning rate: 0.00025 - Loss: 0.83426565 - Dev BLEU: 0.24512806536000561
Epoch: 9/15 - Batch: 5100/7933 - Learning rate: 0.00025 - Loss: 0.8595658
Epoch: 9/15 - Batch: 5200/7933 - Learning rate: 0.00025 - Loss: 0.8517516
Epoch: 9/15 - Batch: 5300/7933 - Learning rate: 0.00025 - Loss: 0.8169397
Epoch: 9/15 - Batch: 5400/7933 - Learning rate: 0.00025 - Loss: 0.784312
Epoch: 9/15 - Batch: 5500/7933 - Learning rate: 0.00025 - Loss: 0.7400086
Epoch: 9/15 - Batch: 5600/7933 - Learning rate: 0.00025 - Loss: 0.6110182
Epoch: 9/15 - Batch: 5700/7933 - Learning rate: 0.00025 - Loss: 0.7739828
Epoch: 9/15 - Batch: 5800/7933 - Learning rate: 0.00025 - Loss: 0.72381854
Epoch: 9/15 - Batch: 5900/7933 - Learning rate: 0.00025 - Loss: 0.53565836
Epoch: 9/15 - Batch: 6000/7933 - Learning rate: 0.00025 - Loss: 0.79875684 - Dev BLEU: 0.24042460466775203
Epoch: 9/15 - Batch: 6100/7933 - Learning rate: 0.00025 - Loss: 0.7201088
Epoch: 9/15 - Batch: 6200/7933 - Learning rate: 0.00025 - Loss: 0.6819465
Epoch: 9/15 - Batch: 6300/7933 - Learning rate: 0.00025 - Loss: 0.6411373
Epoch: 9/15 - Batch: 6400/7933 - Learning rate: 0.00025 - Loss: 0.62281364
Epoch: 9/15 - Batch: 6500/7933 - Learning rate: 0.00025 - Loss: 0.7080548
Epoch: 9/15 - Batch: 6600/7933 - Learning rate: 0.00025 - Loss: 0.69685495
Epoch: 9/15 - Batch: 6700/7933 - Learning rate: 0.00025 - Loss: 0.68567866
Epoch: 9/15 - Batch: 6800/7933 - Learning rate: 0.00025 - Loss: 0.68737113
Epoch: 9/15 - Batch: 6900/7933 - Learning rate: 0.00025 - Loss: 0.4727498
Epoch: 9/15 - Batch: 7000/7933 - Learning rate: 0.00025 - Loss: 0.96883065 - Dev BLEU: 0.2539452361806081
Epoch: 9/15 - Batch: 7100/7933 - Learning rate: 0.00025 - Loss: 0.7262953
Epoch: 9/15 - Batch: 7200/7933 - Learning rate: 0.00025 - Loss: 0.5941413
Epoch: 9/15 - Batch: 7300/7933 - Learning rate: 0.00025 - Loss: 0.72444797
Epoch: 9/15 - Batch: 7400/7933 - Learning rate: 0.00025 - Loss: 0.77479804
Epoch: 9/15 - Batch: 7500/7933 - Learning rate: 0.00025 - Loss: 0.5762916
Epoch: 9/15 - Batch: 7600/7933 - Learning rate: 0.00025 - Loss: 0.9711136
Epoch: 9/15 - Batch: 7700/7933 - Learning rate: 0.00025 - Loss: 1.1417462
Epoch: 9/15 - Batch: 7800/7933 - Learning rate: 0.00025 - Loss: 1.0019994
Epoch: 9/15 - Batch: 7900/7933 - Learning rate: 0.00025 - Loss: 0.74729735
Epoch: 9/15 - Batch: 7933/7933 - Learning rate: 0.00025 - Loss: 0.9120953 - Dev BLEU: 0.23990624406026603
Epoch: 10/15 - Batch: 100/7933 - Learning rate: 0.000125 - Loss: 0.7301036
Epoch: 10/15 - Batch: 200/7933 - Learning rate: 0.000125 - Loss: 0.5942844
Epoch: 10/15 - Batch: 300/7933 - Learning rate: 0.000125 - Loss: 0.48183483
Epoch: 10/15 - Batch: 400/7933 - Learning rate: 0.000125 - Loss: 0.75362813
Epoch: 10/15 - Batch: 500/7933 - Learning rate: 0.000125 - Loss: 0.5048063
Epoch: 10/15 - Batch: 600/7933 - Learning rate: 0.000125 - Loss: 0.3598728
Epoch: 10/15 - Batch: 700/7933 - Learning rate: 0.000125 - Loss: 0.55014473
Epoch: 10/15 - Batch: 800/7933 - Learning rate: 0.000125 - Loss: 0.5560536
Epoch: 10/15 - Batch: 900/7933 - Learning rate: 0.000125 - Loss: 0.36236638
Epoch: 10/15 - Batch: 1000/7933 - Learning rate: 0.000125 - Loss: 0.5898236 - Dev BLEU: 0.2222972167486939
Epoch: 10/15 - Batch: 1100/7933 - Learning rate: 0.000125 - Loss: 0.55883336
Epoch: 10/15 - Batch: 1200/7933 - Learning rate: 0.000125 - Loss: 0.7268447
Epoch: 10/15 - Batch: 1300/7933 - Learning rate: 0.000125 - Loss: 0.6057409
Epoch: 10/15 - Batch: 1400/7933 - Learning rate: 0.000125 - Loss: 0.7015387
Epoch: 10/15 - Batch: 1500/7933 - Learning rate: 0.000125 - Loss: 0.5131282
Epoch: 10/15 - Batch: 1600/7933 - Learning rate: 0.000125 - Loss: 0.9131069
Epoch: 10/15 - Batch: 1700/7933 - Learning rate: 0.000125 - Loss: 0.6735215
Epoch: 10/15 - Batch: 1800/7933 - Learning rate: 0.000125 - Loss: 0.35421476
Epoch: 10/15 - Batch: 1900/7933 - Learning rate: 0.000125 - Loss: 0.5777765
Epoch: 10/15 - Batch: 2000/7933 - Learning rate: 0.000125 - Loss: 0.578054 - Dev BLEU: 0.21833233258259133
Epoch: 10/15 - Batch: 2100/7933 - Learning rate: 0.000125 - Loss: 0.47270736
Epoch: 10/15 - Batch: 2200/7933 - Learning rate: 0.000125 - Loss: 0.47289297
Epoch: 10/15 - Batch: 2300/7933 - Learning rate: 0.000125 - Loss: 0.5872112
Epoch: 10/15 - Batch: 2400/7933 - Learning rate: 0.000125 - Loss: 0.5039187
Epoch: 10/15 - Batch: 2500/7933 - Learning rate: 0.000125 - Loss: 0.4795552
Epoch: 10/15 - Batch: 2600/7933 - Learning rate: 0.000125 - Loss: 0.38399565
Epoch: 10/15 - Batch: 2700/7933 - Learning rate: 0.000125 - Loss: 0.23637153
Epoch: 10/15 - Batch: 2800/7933 - Learning rate: 0.000125 - Loss: 0.62404764
Epoch: 10/15 - Batch: 2900/7933 - Learning rate: 0.000125 - Loss: 0.7484334
Epoch: 10/15 - Batch: 3000/7933 - Learning rate: 0.000125 - Loss: 0.6481177 - Dev BLEU: 0.21797433855852308
Epoch: 10/15 - Batch: 3100/7933 - Learning rate: 0.000125 - Loss: 0.6943597
Epoch: 10/15 - Batch: 3200/7933 - Learning rate: 0.000125 - Loss: 0.6493196
Epoch: 10/15 - Batch: 3300/7933 - Learning rate: 0.000125 - Loss: 0.5546249
Epoch: 10/15 - Batch: 3400/7933 - Learning rate: 0.000125 - Loss: 0.5281958
Epoch: 10/15 - Batch: 3500/7933 - Learning rate: 0.000125 - Loss: 0.66400635
Epoch: 10/15 - Batch: 3600/7933 - Learning rate: 0.000125 - Loss: 0.6726904
Epoch: 10/15 - Batch: 3700/7933 - Learning rate: 0.000125 - Loss: 0.6663493
Epoch: 10/15 - Batch: 3800/7933 - Learning rate: 0.000125 - Loss: 0.6057897
Epoch: 10/15 - Batch: 3900/7933 - Learning rate: 0.000125 - Loss: 0.7010695
Epoch: 10/15 - Batch: 4000/7933 - Learning rate: 0.000125 - Loss: 0.39501187 - Dev BLEU: 0.22464211597369615
Epoch: 10/15 - Batch: 4100/7933 - Learning rate: 0.000125 - Loss: 0.51560086
Epoch: 10/15 - Batch: 4200/7933 - Learning rate: 0.000125 - Loss: 0.5045373
Epoch: 10/15 - Batch: 4300/7933 - Learning rate: 0.000125 - Loss: 0.5883121
Epoch: 10/15 - Batch: 4400/7933 - Learning rate: 0.000125 - Loss: 0.5501043
Epoch: 10/15 - Batch: 4500/7933 - Learning rate: 0.000125 - Loss: 0.6193947
Epoch: 10/15 - Batch: 4600/7933 - Learning rate: 0.000125 - Loss: 0.88174206
Epoch: 10/15 - Batch: 4700/7933 - Learning rate: 0.000125 - Loss: 0.65305275
Epoch: 10/15 - Batch: 4800/7933 - Learning rate: 0.000125 - Loss: 0.6023163
Epoch: 10/15 - Batch: 4900/7933 - Learning rate: 0.000125 - Loss: 0.75672084
Epoch: 10/15 - Batch: 5000/7933 - Learning rate: 0.000125 - Loss: 0.80182564 - Dev BLEU: 0.24657919811410722
Epoch: 10/15 - Batch: 5100/7933 - Learning rate: 0.000125 - Loss: 0.8429038
Epoch: 10/15 - Batch: 5200/7933 - Learning rate: 0.000125 - Loss: 0.80985665
Epoch: 10/15 - Batch: 5300/7933 - Learning rate: 0.000125 - Loss: 0.7857806
Epoch: 10/15 - Batch: 5400/7933 - Learning rate: 0.000125 - Loss: 0.7424448
Epoch: 10/15 - Batch: 5500/7933 - Learning rate: 0.000125 - Loss: 0.7197754
Epoch: 10/15 - Batch: 5600/7933 - Learning rate: 0.000125 - Loss: 0.588131
Epoch: 10/15 - Batch: 5700/7933 - Learning rate: 0.000125 - Loss: 0.7418038
Epoch: 10/15 - Batch: 5800/7933 - Learning rate: 0.000125 - Loss: 0.6961506
Epoch: 10/15 - Batch: 5900/7933 - Learning rate: 0.000125 - Loss: 0.49540365
Epoch: 10/15 - Batch: 6000/7933 - Learning rate: 0.000125 - Loss: 0.781255 - Dev BLEU: 0.2485411224076803
Epoch: 10/15 - Batch: 6100/7933 - Learning rate: 0.000125 - Loss: 0.6993285
Epoch: 10/15 - Batch: 6200/7933 - Learning rate: 0.000125 - Loss: 0.6606162
Epoch: 10/15 - Batch: 6300/7933 - Learning rate: 0.000125 - Loss: 0.61250263
Epoch: 10/15 - Batch: 6400/7933 - Learning rate: 0.000125 - Loss: 0.6056616
Epoch: 10/15 - Batch: 6500/7933 - Learning rate: 0.000125 - Loss: 0.69871324
Epoch: 10/15 - Batch: 6600/7933 - Learning rate: 0.000125 - Loss: 0.68657565
Epoch: 10/15 - Batch: 6700/7933 - Learning rate: 0.000125 - Loss: 0.67846763
Epoch: 10/15 - Batch: 6800/7933 - Learning rate: 0.000125 - Loss: 0.6828079
Epoch: 10/15 - Batch: 6900/7933 - Learning rate: 0.000125 - Loss: 0.4588209
Epoch: 10/15 - Batch: 7000/7933 - Learning rate: 0.000125 - Loss: 0.9456159 - Dev BLEU: 0.25603823878951254
Epoch: 10/15 - Batch: 7100/7933 - Learning rate: 0.000125 - Loss: 0.7117695
Epoch: 10/15 - Batch: 7200/7933 - Learning rate: 0.000125 - Loss: 0.59076655
Epoch: 10/15 - Batch: 7300/7933 - Learning rate: 0.000125 - Loss: 0.7157202
Epoch: 10/15 - Batch: 7400/7933 - Learning rate: 0.000125 - Loss: 0.7564437
Epoch: 10/15 - Batch: 7500/7933 - Learning rate: 0.000125 - Loss: 0.57418114
Epoch: 10/15 - Batch: 7600/7933 - Learning rate: 0.000125 - Loss: 0.95516986
Epoch: 10/15 - Batch: 7700/7933 - Learning rate: 0.000125 - Loss: 1.1331844
Epoch: 10/15 - Batch: 7800/7933 - Learning rate: 0.000125 - Loss: 0.99350154
Epoch: 10/15 - Batch: 7900/7933 - Learning rate: 0.000125 - Loss: 0.73476744
Epoch: 10/15 - Batch: 7933/7933 - Learning rate: 0.000125 - Loss: 0.87464446 - Dev BLEU: 0.24361962582672583
Epoch: 11/15 - Batch: 100/7933 - Learning rate: 6.25e-05 - Loss: 0.7162068
Epoch: 11/15 - Batch: 200/7933 - Learning rate: 6.25e-05 - Loss: 0.5842063
Epoch: 11/15 - Batch: 300/7933 - Learning rate: 6.25e-05 - Loss: 0.47770447
Epoch: 11/15 - Batch: 400/7933 - Learning rate: 6.25e-05 - Loss: 0.743927
Epoch: 11/15 - Batch: 500/7933 - Learning rate: 6.25e-05 - Loss: 0.5027867
Epoch: 11/15 - Batch: 600/7933 - Learning rate: 6.25e-05 - Loss: 0.359963
Epoch: 11/15 - Batch: 700/7933 - Learning rate: 6.25e-05 - Loss: 0.54836696
Epoch: 11/15 - Batch: 800/7933 - Learning rate: 6.25e-05 - Loss: 0.5497974
Epoch: 11/15 - Batch: 900/7933 - Learning rate: 6.25e-05 - Loss: 0.35599825
Epoch: 11/15 - Batch: 1000/7933 - Learning rate: 6.25e-05 - Loss: 0.588663 - Dev BLEU: 0.2272798898053665
Epoch: 11/15 - Batch: 1100/7933 - Learning rate: 6.25e-05 - Loss: 0.55500203
Epoch: 11/15 - Batch: 1200/7933 - Learning rate: 6.25e-05 - Loss: 0.7167178
Epoch: 11/15 - Batch: 1300/7933 - Learning rate: 6.25e-05 - Loss: 0.6025668
Epoch: 11/15 - Batch: 1400/7933 - Learning rate: 6.25e-05 - Loss: 0.70001996
Epoch: 11/15 - Batch: 1500/7933 - Learning rate: 6.25e-05 - Loss: 0.49986246
Epoch: 11/15 - Batch: 1600/7933 - Learning rate: 6.25e-05 - Loss: 0.9127578
Epoch: 11/15 - Batch: 1700/7933 - Learning rate: 6.25e-05 - Loss: 0.6584964
Epoch: 11/15 - Batch: 1800/7933 - Learning rate: 6.25e-05 - Loss: 0.3571943
Epoch: 11/15 - Batch: 1900/7933 - Learning rate: 6.25e-05 - Loss: 0.5717438
Epoch: 11/15 - Batch: 2000/7933 - Learning rate: 6.25e-05 - Loss: 0.56799084 - Dev BLEU: 0.22522056256773196
Epoch: 11/15 - Batch: 2100/7933 - Learning rate: 6.25e-05 - Loss: 0.45883593
Epoch: 11/15 - Batch: 2200/7933 - Learning rate: 6.25e-05 - Loss: 0.47120413
Epoch: 11/15 - Batch: 2300/7933 - Learning rate: 6.25e-05 - Loss: 0.5935378
Epoch: 11/15 - Batch: 2400/7933 - Learning rate: 6.25e-05 - Loss: 0.4832407
Epoch: 11/15 - Batch: 2500/7933 - Learning rate: 6.25e-05 - Loss: 0.4929854
Epoch: 11/15 - Batch: 2600/7933 - Learning rate: 6.25e-05 - Loss: 0.3873968
Epoch: 11/15 - Batch: 2700/7933 - Learning rate: 6.25e-05 - Loss: 0.23814233
Epoch: 11/15 - Batch: 2800/7933 - Learning rate: 6.25e-05 - Loss: 0.62955827
Epoch: 11/15 - Batch: 2900/7933 - Learning rate: 6.25e-05 - Loss: 0.74608916
Epoch: 11/15 - Batch: 3000/7933 - Learning rate: 6.25e-05 - Loss: 0.6388233 - Dev BLEU: 0.22329735286628305
Epoch: 11/15 - Batch: 3100/7933 - Learning rate: 6.25e-05 - Loss: 0.67099625
Epoch: 11/15 - Batch: 3200/7933 - Learning rate: 6.25e-05 - Loss: 0.64573824
Epoch: 11/15 - Batch: 3300/7933 - Learning rate: 6.25e-05 - Loss: 0.54908985
Epoch: 11/15 - Batch: 3400/7933 - Learning rate: 6.25e-05 - Loss: 0.52771115
Epoch: 11/15 - Batch: 3500/7933 - Learning rate: 6.25e-05 - Loss: 0.66604483
Epoch: 11/15 - Batch: 3600/7933 - Learning rate: 6.25e-05 - Loss: 0.66204125
Epoch: 11/15 - Batch: 3700/7933 - Learning rate: 6.25e-05 - Loss: 0.6620994
Epoch: 11/15 - Batch: 3800/7933 - Learning rate: 6.25e-05 - Loss: 0.6152264
Epoch: 11/15 - Batch: 3900/7933 - Learning rate: 6.25e-05 - Loss: 0.69160306
Epoch: 11/15 - Batch: 4000/7933 - Learning rate: 6.25e-05 - Loss: 0.40098977 - Dev BLEU: 0.22740789932010447
Epoch: 11/15 - Batch: 4100/7933 - Learning rate: 6.25e-05 - Loss: 0.5211141
Epoch: 11/15 - Batch: 4200/7933 - Learning rate: 6.25e-05 - Loss: 0.4945338
Epoch: 11/15 - Batch: 4300/7933 - Learning rate: 6.25e-05 - Loss: 0.5845834
Epoch: 11/15 - Batch: 4400/7933 - Learning rate: 6.25e-05 - Loss: 0.5412445
Epoch: 11/15 - Batch: 4500/7933 - Learning rate: 6.25e-05 - Loss: 0.6133584
Epoch: 11/15 - Batch: 4600/7933 - Learning rate: 6.25e-05 - Loss: 0.8556963
Epoch: 11/15 - Batch: 4700/7933 - Learning rate: 6.25e-05 - Loss: 0.62183106
Epoch: 11/15 - Batch: 4800/7933 - Learning rate: 6.25e-05 - Loss: 0.5823712
Epoch: 11/15 - Batch: 4900/7933 - Learning rate: 6.25e-05 - Loss: 0.7282563
Epoch: 11/15 - Batch: 5000/7933 - Learning rate: 6.25e-05 - Loss: 0.7856637 - Dev BLEU: 0.2501794059410268
Epoch: 11/15 - Batch: 5100/7933 - Learning rate: 6.25e-05 - Loss: 0.8237372
Epoch: 11/15 - Batch: 5200/7933 - Learning rate: 6.25e-05 - Loss: 0.79362386
Epoch: 11/15 - Batch: 5300/7933 - Learning rate: 6.25e-05 - Loss: 0.7906038
Epoch: 11/15 - Batch: 5400/7933 - Learning rate: 6.25e-05 - Loss: 0.71757
Epoch: 11/15 - Batch: 5500/7933 - Learning rate: 6.25e-05 - Loss: 0.71141976
Epoch: 11/15 - Batch: 5600/7933 - Learning rate: 6.25e-05 - Loss: 0.5817182
Epoch: 11/15 - Batch: 5700/7933 - Learning rate: 6.25e-05 - Loss: 0.73345315
Epoch: 11/15 - Batch: 5800/7933 - Learning rate: 6.25e-05 - Loss: 0.6770953
Epoch: 11/15 - Batch: 5900/7933 - Learning rate: 6.25e-05 - Loss: 0.4856887
Epoch: 11/15 - Batch: 6000/7933 - Learning rate: 6.25e-05 - Loss: 0.7695557 - Dev BLEU: 0.250871983120165
Epoch: 11/15 - Batch: 6100/7933 - Learning rate: 6.25e-05 - Loss: 0.689933
Epoch: 11/15 - Batch: 6200/7933 - Learning rate: 6.25e-05 - Loss: 0.6576603
Epoch: 11/15 - Batch: 6300/7933 - Learning rate: 6.25e-05 - Loss: 0.6049027
Epoch: 11/15 - Batch: 6400/7933 - Learning rate: 6.25e-05 - Loss: 0.6043163
Epoch: 11/15 - Batch: 6500/7933 - Learning rate: 6.25e-05 - Loss: 0.70219135
Epoch: 11/15 - Batch: 6600/7933 - Learning rate: 6.25e-05 - Loss: 0.68034256
Epoch: 11/15 - Batch: 6700/7933 - Learning rate: 6.25e-05 - Loss: 0.6747195
Epoch: 11/15 - Batch: 6800/7933 - Learning rate: 6.25e-05 - Loss: 0.67212063
Epoch: 11/15 - Batch: 6900/7933 - Learning rate: 6.25e-05 - Loss: 0.46253136
Epoch: 11/15 - Batch: 7000/7933 - Learning rate: 6.25e-05 - Loss: 0.9385387 - Dev BLEU: 0.25751838915018066
Epoch: 11/15 - Batch: 7100/7933 - Learning rate: 6.25e-05 - Loss: 0.7076961
Epoch: 11/15 - Batch: 7200/7933 - Learning rate: 6.25e-05 - Loss: 0.58568776
Epoch: 11/15 - Batch: 7300/7933 - Learning rate: 6.25e-05 - Loss: 0.7151657
Epoch: 11/15 - Batch: 7400/7933 - Learning rate: 6.25e-05 - Loss: 0.7539738
Epoch: 11/15 - Batch: 7500/7933 - Learning rate: 6.25e-05 - Loss: 0.57540834
Epoch: 11/15 - Batch: 7600/7933 - Learning rate: 6.25e-05 - Loss: 0.9461811
Epoch: 11/15 - Batch: 7700/7933 - Learning rate: 6.25e-05 - Loss: 1.1157298
Epoch: 11/15 - Batch: 7800/7933 - Learning rate: 6.25e-05 - Loss: 0.9698714
Epoch: 11/15 - Batch: 7900/7933 - Learning rate: 6.25e-05 - Loss: 0.73088664
Epoch: 11/15 - Batch: 7933/7933 - Learning rate: 6.25e-05 - Loss: 0.8905626 - Dev BLEU: 0.2477197897961007
Epoch: 12/15 - Batch: 100/7933 - Learning rate: 3.125e-05 - Loss: 0.71770597
Epoch: 12/15 - Batch: 200/7933 - Learning rate: 3.125e-05 - Loss: 0.582282
Epoch: 12/15 - Batch: 300/7933 - Learning rate: 3.125e-05 - Loss: 0.4821958
Epoch: 12/15 - Batch: 400/7933 - Learning rate: 3.125e-05 - Loss: 0.74480176
Epoch: 12/15 - Batch: 500/7933 - Learning rate: 3.125e-05 - Loss: 0.49512
Epoch: 12/15 - Batch: 600/7933 - Learning rate: 3.125e-05 - Loss: 0.35639668
Epoch: 12/15 - Batch: 700/7933 - Learning rate: 3.125e-05 - Loss: 0.53263813
Epoch: 12/15 - Batch: 800/7933 - Learning rate: 3.125e-05 - Loss: 0.53827065
Epoch: 12/15 - Batch: 900/7933 - Learning rate: 3.125e-05 - Loss: 0.35501772
Epoch: 12/15 - Batch: 1000/7933 - Learning rate: 3.125e-05 - Loss: 0.59163594 - Dev BLEU: 0.23207144861037077
Epoch: 12/15 - Batch: 1100/7933 - Learning rate: 3.125e-05 - Loss: 0.5570512
Epoch: 12/15 - Batch: 1200/7933 - Learning rate: 3.125e-05 - Loss: 0.706988
Epoch: 12/15 - Batch: 1300/7933 - Learning rate: 3.125e-05 - Loss: 0.6054477
Epoch: 12/15 - Batch: 1400/7933 - Learning rate: 3.125e-05 - Loss: 0.69429654
Epoch: 12/15 - Batch: 1500/7933 - Learning rate: 3.125e-05 - Loss: 0.507075
Epoch: 12/15 - Batch: 1600/7933 - Learning rate: 3.125e-05 - Loss: 0.89881945
Epoch: 12/15 - Batch: 1700/7933 - Learning rate: 3.125e-05 - Loss: 0.6602551
Epoch: 12/15 - Batch: 1800/7933 - Learning rate: 3.125e-05 - Loss: 0.3516049
Epoch: 12/15 - Batch: 1900/7933 - Learning rate: 3.125e-05 - Loss: 0.57204187
Epoch: 12/15 - Batch: 2000/7933 - Learning rate: 3.125e-05 - Loss: 0.5689419 - Dev BLEU: 0.22945530346016624
Epoch: 12/15 - Batch: 2100/7933 - Learning rate: 3.125e-05 - Loss: 0.4447394
Epoch: 12/15 - Batch: 2200/7933 - Learning rate: 3.125e-05 - Loss: 0.47644112
Epoch: 12/15 - Batch: 2300/7933 - Learning rate: 3.125e-05 - Loss: 0.5973827
Epoch: 12/15 - Batch: 2400/7933 - Learning rate: 3.125e-05 - Loss: 0.48909697
Epoch: 12/15 - Batch: 2500/7933 - Learning rate: 3.125e-05 - Loss: 0.47024044
Epoch: 12/15 - Batch: 2600/7933 - Learning rate: 3.125e-05 - Loss: 0.3892089
Epoch: 12/15 - Batch: 2700/7933 - Learning rate: 3.125e-05 - Loss: 0.24022658
Epoch: 12/15 - Batch: 2800/7933 - Learning rate: 3.125e-05 - Loss: 0.61807317
Epoch: 12/15 - Batch: 2900/7933 - Learning rate: 3.125e-05 - Loss: 0.7282156
Epoch: 12/15 - Batch: 3000/7933 - Learning rate: 3.125e-05 - Loss: 0.6440051 - Dev BLEU: 0.22896786827157947
Epoch: 12/15 - Batch: 3100/7933 - Learning rate: 3.125e-05 - Loss: 0.6753253
Epoch: 12/15 - Batch: 3200/7933 - Learning rate: 3.125e-05 - Loss: 0.63993615
Epoch: 12/15 - Batch: 3300/7933 - Learning rate: 3.125e-05 - Loss: 0.5553103
Epoch: 12/15 - Batch: 3400/7933 - Learning rate: 3.125e-05 - Loss: 0.521495
Epoch: 12/15 - Batch: 3500/7933 - Learning rate: 3.125e-05 - Loss: 0.66360223
Epoch: 12/15 - Batch: 3600/7933 - Learning rate: 3.125e-05 - Loss: 0.6640326
Epoch: 12/15 - Batch: 3700/7933 - Learning rate: 3.125e-05 - Loss: 0.64331716
Epoch: 12/15 - Batch: 3800/7933 - Learning rate: 3.125e-05 - Loss: 0.59647447
Epoch: 12/15 - Batch: 3900/7933 - Learning rate: 3.125e-05 - Loss: 0.68812275
Epoch: 12/15 - Batch: 4000/7933 - Learning rate: 3.125e-05 - Loss: 0.39511198 - Dev BLEU: 0.23063399092426926
Epoch: 12/15 - Batch: 4100/7933 - Learning rate: 3.125e-05 - Loss: 0.5069813
Epoch: 12/15 - Batch: 4200/7933 - Learning rate: 3.125e-05 - Loss: 0.49002784
Epoch: 12/15 - Batch: 4300/7933 - Learning rate: 3.125e-05 - Loss: 0.58040744
Epoch: 12/15 - Batch: 4400/7933 - Learning rate: 3.125e-05 - Loss: 0.5360008
Epoch: 12/15 - Batch: 4500/7933 - Learning rate: 3.125e-05 - Loss: 0.61063904
Epoch: 12/15 - Batch: 4600/7933 - Learning rate: 3.125e-05 - Loss: 0.85267246
Epoch: 12/15 - Batch: 4700/7933 - Learning rate: 3.125e-05 - Loss: 0.6329543
Epoch: 12/15 - Batch: 4800/7933 - Learning rate: 3.125e-05 - Loss: 0.5895958
Epoch: 12/15 - Batch: 4900/7933 - Learning rate: 3.125e-05 - Loss: 0.73547995
Epoch: 12/15 - Batch: 5000/7933 - Learning rate: 3.125e-05 - Loss: 0.7892362 - Dev BLEU: 0.24905850150158323
Epoch: 12/15 - Batch: 5100/7933 - Learning rate: 3.125e-05 - Loss: 0.8160801
Epoch: 12/15 - Batch: 5200/7933 - Learning rate: 3.125e-05 - Loss: 0.78409755
Epoch: 12/15 - Batch: 5300/7933 - Learning rate: 3.125e-05 - Loss: 0.79013616
Epoch: 12/15 - Batch: 5400/7933 - Learning rate: 3.125e-05 - Loss: 0.71946925
Epoch: 12/15 - Batch: 5500/7933 - Learning rate: 3.125e-05 - Loss: 0.7190757
Epoch: 12/15 - Batch: 5600/7933 - Learning rate: 3.125e-05 - Loss: 0.5725064
Epoch: 12/15 - Batch: 5700/7933 - Learning rate: 3.125e-05 - Loss: 0.72103703
Epoch: 12/15 - Batch: 5800/7933 - Learning rate: 3.125e-05 - Loss: 0.68885833
Epoch: 12/15 - Batch: 5900/7933 - Learning rate: 3.125e-05 - Loss: 0.4788538
Epoch: 12/15 - Batch: 6000/7933 - Learning rate: 3.125e-05 - Loss: 0.75317705 - Dev BLEU: 0.2497029051033908
Epoch: 12/15 - Batch: 6100/7933 - Learning rate: 3.125e-05 - Loss: 0.68656635
Epoch: 12/15 - Batch: 6200/7933 - Learning rate: 3.125e-05 - Loss: 0.65448225
Epoch: 12/15 - Batch: 6300/7933 - Learning rate: 3.125e-05 - Loss: 0.6017699
Epoch: 12/15 - Batch: 6400/7933 - Learning rate: 3.125e-05 - Loss: 0.5902782
Epoch: 12/15 - Batch: 6500/7933 - Learning rate: 3.125e-05 - Loss: 0.6845521
Epoch: 12/15 - Batch: 6600/7933 - Learning rate: 3.125e-05 - Loss: 0.67944694
Epoch: 12/15 - Batch: 6700/7933 - Learning rate: 3.125e-05 - Loss: 0.6768863
Epoch: 12/15 - Batch: 6800/7933 - Learning rate: 3.125e-05 - Loss: 0.68022037
Epoch: 12/15 - Batch: 6900/7933 - Learning rate: 3.125e-05 - Loss: 0.4628743
Epoch: 12/15 - Batch: 7000/7933 - Learning rate: 3.125e-05 - Loss: 0.946629 - Dev BLEU: 0.25653718507037054
Epoch: 12/15 - Batch: 7100/7933 - Learning rate: 3.125e-05 - Loss: 0.71453565
Epoch: 12/15 - Batch: 7200/7933 - Learning rate: 3.125e-05 - Loss: 0.5826065
Epoch: 12/15 - Batch: 7300/7933 - Learning rate: 3.125e-05 - Loss: 0.7134645
Epoch: 12/15 - Batch: 7400/7933 - Learning rate: 3.125e-05 - Loss: 0.7562517
Epoch: 12/15 - Batch: 7500/7933 - Learning rate: 3.125e-05 - Loss: 0.572505
Epoch: 12/15 - Batch: 7600/7933 - Learning rate: 3.125e-05 - Loss: 0.94646704
Epoch: 12/15 - Batch: 7700/7933 - Learning rate: 3.125e-05 - Loss: 1.1222858
Epoch: 12/15 - Batch: 7800/7933 - Learning rate: 3.125e-05 - Loss: 0.96421605
Epoch: 12/15 - Batch: 7900/7933 - Learning rate: 3.125e-05 - Loss: 0.7312947
Epoch: 12/15 - Batch: 7933/7933 - Learning rate: 3.125e-05 - Loss: 0.886762 - Dev BLEU: 0.2517987589379296
Epoch: 13/15 - Batch: 100/7933 - Learning rate: 1.5625e-05 - Loss: 0.7263811
Epoch: 13/15 - Batch: 200/7933 - Learning rate: 1.5625e-05 - Loss: 0.5691275
Epoch: 13/15 - Batch: 300/7933 - Learning rate: 1.5625e-05 - Loss: 0.48126516
Epoch: 13/15 - Batch: 400/7933 - Learning rate: 1.5625e-05 - Loss: 0.72771263
Epoch: 13/15 - Batch: 500/7933 - Learning rate: 1.5625e-05 - Loss: 0.51412076
Epoch: 13/15 - Batch: 600/7933 - Learning rate: 1.5625e-05 - Loss: 0.35590973
Epoch: 13/15 - Batch: 700/7933 - Learning rate: 1.5625e-05 - Loss: 0.53280306
Epoch: 13/15 - Batch: 800/7933 - Learning rate: 1.5625e-05 - Loss: 0.53948593
Epoch: 13/15 - Batch: 900/7933 - Learning rate: 1.5625e-05 - Loss: 0.35409597
Epoch: 13/15 - Batch: 1000/7933 - Learning rate: 1.5625e-05 - Loss: 0.58604056 - Dev BLEU: 0.23694898573795103
Epoch: 13/15 - Batch: 1100/7933 - Learning rate: 1.5625e-05 - Loss: 0.5465918
Epoch: 13/15 - Batch: 1200/7933 - Learning rate: 1.5625e-05 - Loss: 0.7022631
Epoch: 13/15 - Batch: 1300/7933 - Learning rate: 1.5625e-05 - Loss: 0.5870666
Epoch: 13/15 - Batch: 1400/7933 - Learning rate: 1.5625e-05 - Loss: 0.6949825
Epoch: 13/15 - Batch: 1500/7933 - Learning rate: 1.5625e-05 - Loss: 0.5077021
Epoch: 13/15 - Batch: 1600/7933 - Learning rate: 1.5625e-05 - Loss: 0.89473724
Epoch: 13/15 - Batch: 1700/7933 - Learning rate: 1.5625e-05 - Loss: 0.6673601
Epoch: 13/15 - Batch: 1800/7933 - Learning rate: 1.5625e-05 - Loss: 0.35311058
Epoch: 13/15 - Batch: 1900/7933 - Learning rate: 1.5625e-05 - Loss: 0.5685079
Epoch: 13/15 - Batch: 2000/7933 - Learning rate: 1.5625e-05 - Loss: 0.5690526 - Dev BLEU: 0.23522755157067685
Epoch: 13/15 - Batch: 2100/7933 - Learning rate: 1.5625e-05 - Loss: 0.4517375
Epoch: 13/15 - Batch: 2200/7933 - Learning rate: 1.5625e-05 - Loss: 0.47550085
Epoch: 13/15 - Batch: 2300/7933 - Learning rate: 1.5625e-05 - Loss: 0.60013545
Epoch: 13/15 - Batch: 2400/7933 - Learning rate: 1.5625e-05 - Loss: 0.4919583
Epoch: 13/15 - Batch: 2500/7933 - Learning rate: 1.5625e-05 - Loss: 0.48908925
Epoch: 13/15 - Batch: 2600/7933 - Learning rate: 1.5625e-05 - Loss: 0.3949039
Epoch: 13/15 - Batch: 2700/7933 - Learning rate: 1.5625e-05 - Loss: 0.24671263
Epoch: 13/15 - Batch: 2800/7933 - Learning rate: 1.5625e-05 - Loss: 0.626496
Epoch: 13/15 - Batch: 2900/7933 - Learning rate: 1.5625e-05 - Loss: 0.7297108
Epoch: 13/15 - Batch: 3000/7933 - Learning rate: 1.5625e-05 - Loss: 0.64148974 - Dev BLEU: 0.2323629017158195
Epoch: 13/15 - Batch: 3100/7933 - Learning rate: 1.5625e-05 - Loss: 0.6681147
Epoch: 13/15 - Batch: 3200/7933 - Learning rate: 1.5625e-05 - Loss: 0.6390661
Epoch: 13/15 - Batch: 3300/7933 - Learning rate: 1.5625e-05 - Loss: 0.5383165
Epoch: 13/15 - Batch: 3400/7933 - Learning rate: 1.5625e-05 - Loss: 0.52457756
Epoch: 13/15 - Batch: 3500/7933 - Learning rate: 1.5625e-05 - Loss: 0.6516071
Epoch: 13/15 - Batch: 3600/7933 - Learning rate: 1.5625e-05 - Loss: 0.6662698
Epoch: 13/15 - Batch: 3700/7933 - Learning rate: 1.5625e-05 - Loss: 0.6605704
Epoch: 13/15 - Batch: 3800/7933 - Learning rate: 1.5625e-05 - Loss: 0.6162845
Epoch: 13/15 - Batch: 3900/7933 - Learning rate: 1.5625e-05 - Loss: 0.69172895
Epoch: 13/15 - Batch: 4000/7933 - Learning rate: 1.5625e-05 - Loss: 0.3944089 - Dev BLEU: 0.23305417138749274
Epoch: 13/15 - Batch: 4100/7933 - Learning rate: 1.5625e-05 - Loss: 0.5143666
Epoch: 13/15 - Batch: 4200/7933 - Learning rate: 1.5625e-05 - Loss: 0.48610577
Epoch: 13/15 - Batch: 4300/7933 - Learning rate: 1.5625e-05 - Loss: 0.58194435
Epoch: 13/15 - Batch: 4400/7933 - Learning rate: 1.5625e-05 - Loss: 0.527071
Epoch: 13/15 - Batch: 4500/7933 - Learning rate: 1.5625e-05 - Loss: 0.6203749
Epoch: 13/15 - Batch: 4600/7933 - Learning rate: 1.5625e-05 - Loss: 0.8552094
Epoch: 13/15 - Batch: 4700/7933 - Learning rate: 1.5625e-05 - Loss: 0.6229076
Epoch: 13/15 - Batch: 4800/7933 - Learning rate: 1.5625e-05 - Loss: 0.58103853
Epoch: 13/15 - Batch: 4900/7933 - Learning rate: 1.5625e-05 - Loss: 0.7605908
Epoch: 13/15 - Batch: 5000/7933 - Learning rate: 1.5625e-05 - Loss: 0.768961 - Dev BLEU: 0.24930710028561806
Epoch: 13/15 - Batch: 5100/7933 - Learning rate: 1.5625e-05 - Loss: 0.8106523
Epoch: 13/15 - Batch: 5200/7933 - Learning rate: 1.5625e-05 - Loss: 0.7960343
Epoch: 13/15 - Batch: 5300/7933 - Learning rate: 1.5625e-05 - Loss: 0.75807434
Epoch: 13/15 - Batch: 5400/7933 - Learning rate: 1.5625e-05 - Loss: 0.7222837
Epoch: 13/15 - Batch: 5500/7933 - Learning rate: 1.5625e-05 - Loss: 0.70975995
Epoch: 13/15 - Batch: 5600/7933 - Learning rate: 1.5625e-05 - Loss: 0.5856396
Epoch: 13/15 - Batch: 5700/7933 - Learning rate: 1.5625e-05 - Loss: 0.7217301
Epoch: 13/15 - Batch: 5800/7933 - Learning rate: 1.5625e-05 - Loss: 0.67784834
Epoch: 13/15 - Batch: 5900/7933 - Learning rate: 1.5625e-05 - Loss: 0.48770317
Epoch: 13/15 - Batch: 6000/7933 - Learning rate: 1.5625e-05 - Loss: 0.75871956 - Dev BLEU: 0.25200898318939036
Epoch: 13/15 - Batch: 6100/7933 - Learning rate: 1.5625e-05 - Loss: 0.67921364
Epoch: 13/15 - Batch: 6200/7933 - Learning rate: 1.5625e-05 - Loss: 0.64408135
Epoch: 13/15 - Batch: 6300/7933 - Learning rate: 1.5625e-05 - Loss: 0.6134141
Epoch: 13/15 - Batch: 6400/7933 - Learning rate: 1.5625e-05 - Loss: 0.58504814
Epoch: 13/15 - Batch: 6500/7933 - Learning rate: 1.5625e-05 - Loss: 0.68332666
Epoch: 13/15 - Batch: 6600/7933 - Learning rate: 1.5625e-05 - Loss: 0.68641925
Epoch: 13/15 - Batch: 6700/7933 - Learning rate: 1.5625e-05 - Loss: 0.6811547
Epoch: 13/15 - Batch: 6800/7933 - Learning rate: 1.5625e-05 - Loss: 0.67496747
Epoch: 13/15 - Batch: 6900/7933 - Learning rate: 1.5625e-05 - Loss: 0.46055555
Epoch: 13/15 - Batch: 7000/7933 - Learning rate: 1.5625e-05 - Loss: 0.95971245 - Dev BLEU: 0.256468142556726
Epoch: 13/15 - Batch: 7100/7933 - Learning rate: 1.5625e-05 - Loss: 0.7102427
Epoch: 13/15 - Batch: 7200/7933 - Learning rate: 1.5625e-05 - Loss: 0.5837311
Epoch: 13/15 - Batch: 7300/7933 - Learning rate: 1.5625e-05 - Loss: 0.7171981
Epoch: 13/15 - Batch: 7400/7933 - Learning rate: 1.5625e-05 - Loss: 0.756758
Epoch: 13/15 - Batch: 7500/7933 - Learning rate: 1.5625e-05 - Loss: 0.57057005
Epoch: 13/15 - Batch: 7600/7933 - Learning rate: 1.5625e-05 - Loss: 0.93173444
Epoch: 13/15 - Batch: 7700/7933 - Learning rate: 1.5625e-05 - Loss: 1.1193118
Epoch: 13/15 - Batch: 7800/7933 - Learning rate: 1.5625e-05 - Loss: 0.9538265
Epoch: 13/15 - Batch: 7900/7933 - Learning rate: 1.5625e-05 - Loss: 0.725499
Epoch: 13/15 - Batch: 7933/7933 - Learning rate: 1.5625e-05 - Loss: 0.90047956 - Dev BLEU: 0.2527031479684595
Epoch: 14/15 - Batch: 100/7933 - Learning rate: 7.8125e-06 - Loss: 0.7220021
Epoch: 14/15 - Batch: 200/7933 - Learning rate: 7.8125e-06 - Loss: 0.5912252
Epoch: 14/15 - Batch: 300/7933 - Learning rate: 7.8125e-06 - Loss: 0.475092
Epoch: 14/15 - Batch: 400/7933 - Learning rate: 7.8125e-06 - Loss: 0.73709476
Epoch: 14/15 - Batch: 500/7933 - Learning rate: 7.8125e-06 - Loss: 0.5019081
Epoch: 14/15 - Batch: 600/7933 - Learning rate: 7.8125e-06 - Loss: 0.35943878
Epoch: 14/15 - Batch: 700/7933 - Learning rate: 7.8125e-06 - Loss: 0.53251
Epoch: 14/15 - Batch: 800/7933 - Learning rate: 7.8125e-06 - Loss: 0.5384372
Epoch: 14/15 - Batch: 900/7933 - Learning rate: 7.8125e-06 - Loss: 0.3527018
Epoch: 14/15 - Batch: 1000/7933 - Learning rate: 7.8125e-06 - Loss: 0.5875926 - Dev BLEU: 0.2421246912159434
Epoch: 14/15 - Batch: 1100/7933 - Learning rate: 7.8125e-06 - Loss: 0.5446002
Epoch: 14/15 - Batch: 1200/7933 - Learning rate: 7.8125e-06 - Loss: 0.69829005
Epoch: 14/15 - Batch: 1300/7933 - Learning rate: 7.8125e-06 - Loss: 0.5890927
Epoch: 14/15 - Batch: 1400/7933 - Learning rate: 7.8125e-06 - Loss: 0.6911313
Epoch: 14/15 - Batch: 1500/7933 - Learning rate: 7.8125e-06 - Loss: 0.49831986
Epoch: 14/15 - Batch: 1600/7933 - Learning rate: 7.8125e-06 - Loss: 0.9120765
Epoch: 14/15 - Batch: 1700/7933 - Learning rate: 7.8125e-06 - Loss: 0.6585469
Epoch: 14/15 - Batch: 1800/7933 - Learning rate: 7.8125e-06 - Loss: 0.3559568
Epoch: 14/15 - Batch: 1900/7933 - Learning rate: 7.8125e-06 - Loss: 0.5673377
Epoch: 14/15 - Batch: 2000/7933 - Learning rate: 7.8125e-06 - Loss: 0.5765159 - Dev BLEU: 0.23908101713310673
Epoch: 14/15 - Batch: 2100/7933 - Learning rate: 7.8125e-06 - Loss: 0.4472485
Epoch: 14/15 - Batch: 2200/7933 - Learning rate: 7.8125e-06 - Loss: 0.47506067
Epoch: 14/15 - Batch: 2300/7933 - Learning rate: 7.8125e-06 - Loss: 0.6059206
Epoch: 14/15 - Batch: 2400/7933 - Learning rate: 7.8125e-06 - Loss: 0.49274287
Epoch: 14/15 - Batch: 2500/7933 - Learning rate: 7.8125e-06 - Loss: 0.48088083
Epoch: 14/15 - Batch: 2600/7933 - Learning rate: 7.8125e-06 - Loss: 0.40292725
Epoch: 14/15 - Batch: 2700/7933 - Learning rate: 7.8125e-06 - Loss: 0.24834426
Epoch: 14/15 - Batch: 2800/7933 - Learning rate: 7.8125e-06 - Loss: 0.6286322
Epoch: 14/15 - Batch: 2900/7933 - Learning rate: 7.8125e-06 - Loss: 0.7294342
Epoch: 14/15 - Batch: 3000/7933 - Learning rate: 7.8125e-06 - Loss: 0.6372941 - Dev BLEU: 0.23649755640099127
Epoch: 14/15 - Batch: 3100/7933 - Learning rate: 7.8125e-06 - Loss: 0.66614825
Epoch: 14/15 - Batch: 3200/7933 - Learning rate: 7.8125e-06 - Loss: 0.63902396
Epoch: 14/15 - Batch: 3300/7933 - Learning rate: 7.8125e-06 - Loss: 0.5446718
Epoch: 14/15 - Batch: 3400/7933 - Learning rate: 7.8125e-06 - Loss: 0.5317974
Epoch: 14/15 - Batch: 3500/7933 - Learning rate: 7.8125e-06 - Loss: 0.6585757
Epoch: 14/15 - Batch: 3600/7933 - Learning rate: 7.8125e-06 - Loss: 0.6781412
Epoch: 14/15 - Batch: 3700/7933 - Learning rate: 7.8125e-06 - Loss: 0.63443094
Epoch: 14/15 - Batch: 3800/7933 - Learning rate: 7.8125e-06 - Loss: 0.61130536
Epoch: 14/15 - Batch: 3900/7933 - Learning rate: 7.8125e-06 - Loss: 0.68121386
Epoch: 14/15 - Batch: 4000/7933 - Learning rate: 7.8125e-06 - Loss: 0.3945682 - Dev BLEU: 0.2366074836836556
Epoch: 14/15 - Batch: 4100/7933 - Learning rate: 7.8125e-06 - Loss: 0.5176367
Epoch: 14/15 - Batch: 4200/7933 - Learning rate: 7.8125e-06 - Loss: 0.4894018
Epoch: 14/15 - Batch: 4300/7933 - Learning rate: 7.8125e-06 - Loss: 0.5703971
Epoch: 14/15 - Batch: 4400/7933 - Learning rate: 7.8125e-06 - Loss: 0.54156476
Epoch: 14/15 - Batch: 4500/7933 - Learning rate: 7.8125e-06 - Loss: 0.6127296
Epoch: 14/15 - Batch: 4600/7933 - Learning rate: 7.8125e-06 - Loss: 0.82897764
Epoch: 14/15 - Batch: 4700/7933 - Learning rate: 7.8125e-06 - Loss: 0.6086114
Epoch: 14/15 - Batch: 4800/7933 - Learning rate: 7.8125e-06 - Loss: 0.5802176
Epoch: 14/15 - Batch: 4900/7933 - Learning rate: 7.8125e-06 - Loss: 0.73287714
Epoch: 14/15 - Batch: 5000/7933 - Learning rate: 7.8125e-06 - Loss: 0.77321315 - Dev BLEU: 0.24637335857694373
Epoch: 14/15 - Batch: 5100/7933 - Learning rate: 7.8125e-06 - Loss: 0.81382567
Epoch: 14/15 - Batch: 5200/7933 - Learning rate: 7.8125e-06 - Loss: 0.7887554
Epoch: 14/15 - Batch: 5300/7933 - Learning rate: 7.8125e-06 - Loss: 0.77316976
Epoch: 14/15 - Batch: 5400/7933 - Learning rate: 7.8125e-06 - Loss: 0.72807544
Epoch: 14/15 - Batch: 5500/7933 - Learning rate: 7.8125e-06 - Loss: 0.71276844
Epoch: 14/15 - Batch: 5600/7933 - Learning rate: 7.8125e-06 - Loss: 0.587146
Epoch: 14/15 - Batch: 5700/7933 - Learning rate: 7.8125e-06 - Loss: 0.712304
Epoch: 14/15 - Batch: 5800/7933 - Learning rate: 7.8125e-06 - Loss: 0.6791378
Epoch: 14/15 - Batch: 5900/7933 - Learning rate: 7.8125e-06 - Loss: 0.48870558
Epoch: 14/15 - Batch: 6000/7933 - Learning rate: 7.8125e-06 - Loss: 0.76109684 - Dev BLEU: 0.2501863976615195
Epoch: 14/15 - Batch: 6100/7933 - Learning rate: 7.8125e-06 - Loss: 0.67195493
Epoch: 14/15 - Batch: 6200/7933 - Learning rate: 7.8125e-06 - Loss: 0.64167523
Epoch: 14/15 - Batch: 6300/7933 - Learning rate: 7.8125e-06 - Loss: 0.61157817
Epoch: 14/15 - Batch: 6400/7933 - Learning rate: 7.8125e-06 - Loss: 0.5935395
Epoch: 14/15 - Batch: 6500/7933 - Learning rate: 7.8125e-06 - Loss: 0.6902225
Epoch: 14/15 - Batch: 6600/7933 - Learning rate: 7.8125e-06 - Loss: 0.6948974
Epoch: 14/15 - Batch: 6700/7933 - Learning rate: 7.8125e-06 - Loss: 0.6757725
Epoch: 14/15 - Batch: 6800/7933 - Learning rate: 7.8125e-06 - Loss: 0.6771586
Epoch: 14/15 - Batch: 6900/7933 - Learning rate: 7.8125e-06 - Loss: 0.46071616
Epoch: 14/15 - Batch: 7000/7933 - Learning rate: 7.8125e-06 - Loss: 0.9558365 - Dev BLEU: 0.2543375300270069
Epoch: 14/15 - Batch: 7100/7933 - Learning rate: 7.8125e-06 - Loss: 0.7202548
Epoch: 14/15 - Batch: 7200/7933 - Learning rate: 7.8125e-06 - Loss: 0.58375084
Epoch: 14/15 - Batch: 7300/7933 - Learning rate: 7.8125e-06 - Loss: 0.7138623
Epoch: 14/15 - Batch: 7400/7933 - Learning rate: 7.8125e-06 - Loss: 0.7579041
Epoch: 14/15 - Batch: 7500/7933 - Learning rate: 7.8125e-06 - Loss: 0.57276416
Epoch: 14/15 - Batch: 7600/7933 - Learning rate: 7.8125e-06 - Loss: 0.9378478
Epoch: 14/15 - Batch: 7700/7933 - Learning rate: 7.8125e-06 - Loss: 1.1238623
Epoch: 14/15 - Batch: 7800/7933 - Learning rate: 7.8125e-06 - Loss: 0.9782941
Epoch: 14/15 - Batch: 7900/7933 - Learning rate: 7.8125e-06 - Loss: 0.7200238
Epoch: 14/15 - Batch: 7933/7933 - Learning rate: 7.8125e-06 - Loss: 0.9037655 - Dev BLEU: 0.2523891057041988
Epoch: 15/15 - Batch: 100/7933 - Learning rate: 3.90625e-06 - Loss: 0.7254889
Epoch: 15/15 - Batch: 200/7933 - Learning rate: 3.90625e-06 - Loss: 0.5845894
Epoch: 15/15 - Batch: 300/7933 - Learning rate: 3.90625e-06 - Loss: 0.48438784
Epoch: 15/15 - Batch: 400/7933 - Learning rate: 3.90625e-06 - Loss: 0.75823337
Epoch: 15/15 - Batch: 500/7933 - Learning rate: 3.90625e-06 - Loss: 0.50513
Epoch: 15/15 - Batch: 600/7933 - Learning rate: 3.90625e-06 - Loss: 0.35209945
Epoch: 15/15 - Batch: 700/7933 - Learning rate: 3.90625e-06 - Loss: 0.53518426
Epoch: 15/15 - Batch: 800/7933 - Learning rate: 3.90625e-06 - Loss: 0.5394721
Epoch: 15/15 - Batch: 900/7933 - Learning rate: 3.90625e-06 - Loss: 0.3509612
Epoch: 15/15 - Batch: 1000/7933 - Learning rate: 3.90625e-06 - Loss: 0.590406 - Dev BLEU: 0.24404759824171252
Epoch: 15/15 - Batch: 1100/7933 - Learning rate: 3.90625e-06 - Loss: 0.55178714
Epoch: 15/15 - Batch: 1200/7933 - Learning rate: 3.90625e-06 - Loss: 0.7019607
Epoch: 15/15 - Batch: 1300/7933 - Learning rate: 3.90625e-06 - Loss: 0.5833305
Epoch: 15/15 - Batch: 1400/7933 - Learning rate: 3.90625e-06 - Loss: 0.7044001
Epoch: 15/15 - Batch: 1500/7933 - Learning rate: 3.90625e-06 - Loss: 0.50784963
Epoch: 15/15 - Batch: 1600/7933 - Learning rate: 3.90625e-06 - Loss: 0.9038732
Epoch: 15/15 - Batch: 1700/7933 - Learning rate: 3.90625e-06 - Loss: 0.6551941
Epoch: 15/15 - Batch: 1800/7933 - Learning rate: 3.90625e-06 - Loss: 0.35079643
Epoch: 15/15 - Batch: 1900/7933 - Learning rate: 3.90625e-06 - Loss: 0.56216824
Epoch: 15/15 - Batch: 2000/7933 - Learning rate: 3.90625e-06 - Loss: 0.58240587 - Dev BLEU: 0.2425280952338709
Epoch: 15/15 - Batch: 2100/7933 - Learning rate: 3.90625e-06 - Loss: 0.44384837
Epoch: 15/15 - Batch: 2200/7933 - Learning rate: 3.90625e-06 - Loss: 0.4797987
Epoch: 15/15 - Batch: 2300/7933 - Learning rate: 3.90625e-06 - Loss: 0.6082259
Epoch: 15/15 - Batch: 2400/7933 - Learning rate: 3.90625e-06 - Loss: 0.5006784
Epoch: 15/15 - Batch: 2500/7933 - Learning rate: 3.90625e-06 - Loss: 0.49225992
Epoch: 15/15 - Batch: 2600/7933 - Learning rate: 3.90625e-06 - Loss: 0.39894262
Epoch: 15/15 - Batch: 2700/7933 - Learning rate: 3.90625e-06 - Loss: 0.25061965
Epoch: 15/15 - Batch: 2800/7933 - Learning rate: 3.90625e-06 - Loss: 0.6317629
Epoch: 15/15 - Batch: 2900/7933 - Learning rate: 3.90625e-06 - Loss: 0.73409134
Epoch: 15/15 - Batch: 3000/7933 - Learning rate: 3.90625e-06 - Loss: 0.6266253 - Dev BLEU: 0.2414621704480026
Epoch: 15/15 - Batch: 3100/7933 - Learning rate: 3.90625e-06 - Loss: 0.6594997
Epoch: 15/15 - Batch: 3200/7933 - Learning rate: 3.90625e-06 - Loss: 0.6481011
Epoch: 15/15 - Batch: 3300/7933 - Learning rate: 3.90625e-06 - Loss: 0.53943735
Epoch: 15/15 - Batch: 3400/7933 - Learning rate: 3.90625e-06 - Loss: 0.53013116
Epoch: 15/15 - Batch: 3500/7933 - Learning rate: 3.90625e-06 - Loss: 0.6591112
Epoch: 15/15 - Batch: 3600/7933 - Learning rate: 3.90625e-06 - Loss: 0.66601163
Epoch: 15/15 - Batch: 3700/7933 - Learning rate: 3.90625e-06 - Loss: 0.6421865
Epoch: 15/15 - Batch: 3800/7933 - Learning rate: 3.90625e-06 - Loss: 0.6084731
Epoch: 15/15 - Batch: 3900/7933 - Learning rate: 3.90625e-06 - Loss: 0.6823172
Epoch: 15/15 - Batch: 4000/7933 - Learning rate: 3.90625e-06 - Loss: 0.3973772 - Dev BLEU: 0.24036989078703971
Epoch: 15/15 - Batch: 4100/7933 - Learning rate: 3.90625e-06 - Loss: 0.52317727
Epoch: 15/15 - Batch: 4200/7933 - Learning rate: 3.90625e-06 - Loss: 0.4832219
Epoch: 15/15 - Batch: 4300/7933 - Learning rate: 3.90625e-06 - Loss: 0.57023764
Epoch: 15/15 - Batch: 4400/7933 - Learning rate: 3.90625e-06 - Loss: 0.5556621
Epoch: 15/15 - Batch: 4500/7933 - Learning rate: 3.90625e-06 - Loss: 0.6006394
Epoch: 15/15 - Batch: 4600/7933 - Learning rate: 3.90625e-06 - Loss: 0.8401198
Epoch: 15/15 - Batch: 4700/7933 - Learning rate: 3.90625e-06 - Loss: 0.6170227
Epoch: 15/15 - Batch: 4800/7933 - Learning rate: 3.90625e-06 - Loss: 0.5639835
Epoch: 15/15 - Batch: 4900/7933 - Learning rate: 3.90625e-06 - Loss: 0.7472699
Epoch: 15/15 - Batch: 5000/7933 - Learning rate: 3.90625e-06 - Loss: 0.79056376 - Dev BLEU: 0.24438246719882792
Epoch: 15/15 - Batch: 5100/7933 - Learning rate: 3.90625e-06 - Loss: 0.80362236
Epoch: 15/15 - Batch: 5200/7933 - Learning rate: 3.90625e-06 - Loss: 0.806354
Epoch: 15/15 - Batch: 5300/7933 - Learning rate: 3.90625e-06 - Loss: 0.75536233
Epoch: 15/15 - Batch: 5400/7933 - Learning rate: 3.90625e-06 - Loss: 0.7203796
Epoch: 15/15 - Batch: 5500/7933 - Learning rate: 3.90625e-06 - Loss: 0.71344346
Epoch: 15/15 - Batch: 5600/7933 - Learning rate: 3.90625e-06 - Loss: 0.59056306
Epoch: 15/15 - Batch: 5700/7933 - Learning rate: 3.90625e-06 - Loss: 0.7132698
Epoch: 15/15 - Batch: 5800/7933 - Learning rate: 3.90625e-06 - Loss: 0.67992806
Epoch: 15/15 - Batch: 5900/7933 - Learning rate: 3.90625e-06 - Loss: 0.47618428
Epoch: 15/15 - Batch: 6000/7933 - Learning rate: 3.90625e-06 - Loss: 0.7461709 - Dev BLEU: 0.24895098714052644
Epoch: 15/15 - Batch: 6100/7933 - Learning rate: 3.90625e-06 - Loss: 0.66515136
Epoch: 15/15 - Batch: 6200/7933 - Learning rate: 3.90625e-06 - Loss: 0.6634684
Epoch: 15/15 - Batch: 6300/7933 - Learning rate: 3.90625e-06 - Loss: 0.60809773
Epoch: 15/15 - Batch: 6400/7933 - Learning rate: 3.90625e-06 - Loss: 0.5832001
Epoch: 15/15 - Batch: 6500/7933 - Learning rate: 3.90625e-06 - Loss: 0.6815954
Epoch: 15/15 - Batch: 6600/7933 - Learning rate: 3.90625e-06 - Loss: 0.68862134
Epoch: 15/15 - Batch: 6700/7933 - Learning rate: 3.90625e-06 - Loss: 0.6774134
Epoch: 15/15 - Batch: 6800/7933 - Learning rate: 3.90625e-06 - Loss: 0.684442
Epoch: 15/15 - Batch: 6900/7933 - Learning rate: 3.90625e-06 - Loss: 0.46207038
Epoch: 15/15 - Batch: 7000/7933 - Learning rate: 3.90625e-06 - Loss: 0.97595954 - Dev BLEU: 0.2525957386604483
Epoch: 15/15 - Batch: 7100/7933 - Learning rate: 3.90625e-06 - Loss: 0.71105564
Epoch: 15/15 - Batch: 7200/7933 - Learning rate: 3.90625e-06 - Loss: 0.5882776
Epoch: 15/15 - Batch: 7300/7933 - Learning rate: 3.90625e-06 - Loss: 0.7153838
Epoch: 15/15 - Batch: 7400/7933 - Learning rate: 3.90625e-06 - Loss: 0.7490587
Epoch: 15/15 - Batch: 7500/7933 - Learning rate: 3.90625e-06 - Loss: 0.56845653
Epoch: 15/15 - Batch: 7600/7933 - Learning rate: 3.90625e-06 - Loss: 0.9477345
Epoch: 15/15 - Batch: 7700/7933 - Learning rate: 3.90625e-06 - Loss: 1.1188748
Epoch: 15/15 - Batch: 7800/7933 - Learning rate: 3.90625e-06 - Loss: 0.979885
Epoch: 15/15 - Batch: 7900/7933 - Learning rate: 3.90625e-06 - Loss: 0.73963094
Epoch: 15/15 - Batch: 7933/7933 - Learning rate: 3.90625e-06 - Loss: 0.8912249 - Dev BLEU: 0.2514283700844427 - Test BLEU: 0.28547281549079917
